%!PS-Adobe-3.0 EPSF-3.0
%%Creator: MATLAB, The MathWorks, Inc. Version 8.1.0.604 (R2013a). Operating System: Microsoft Windows 7.
%%Title: C:\USER\SKOLE\TMA4220\tma4220-element-methods-project\report\images\poisson2d-mixed-20000-errorplot.eps
%%CreationDate: 11/19/2013  18:14:09
%%DocumentNeededFonts: Helvetica
%%DocumentProcessColors: Cyan Magenta Yellow Black
%%LanguageLevel: 2
%%Pages: 1
%%BoundingBox:    87   262   507   578
%%EndComments

%%BeginProlog
% MathWorks dictionary
/MathWorks 160 dict begin
% definition operators
/bdef {bind def} bind def
/ldef {load def} bind def
/xdef {exch def} bdef
/xstore {exch store} bdef
% operator abbreviations
/c  /clip ldef
/cc /concat ldef
/cp /closepath ldef
/gr /grestore ldef
/gs /gsave ldef
/mt /moveto ldef
/np /newpath ldef
/cm /currentmatrix ldef
/sm /setmatrix ldef
/rm /rmoveto ldef
/rl /rlineto ldef
/s {show newpath} bdef
/sc {setcmykcolor} bdef
/sr /setrgbcolor ldef
/sg /setgray ldef
/w /setlinewidth ldef
/j /setlinejoin ldef
/cap /setlinecap ldef
/rc {rectclip} bdef
/rf {rectfill} bdef
% page state control
/pgsv () def
/bpage {/pgsv save def} bdef
/epage {pgsv restore} bdef
/bplot /gsave ldef
/eplot {stroke grestore} bdef
% orientation switch
/portraitMode 0 def /landscapeMode 1 def /rotateMode 2 def
% coordinate system mappings
/dpi2point 0 def
% font control
/FontSize 0 def
/FMS {/FontSize xstore findfont [FontSize 0 0 FontSize neg 0 0]
  makefont setfont} bdef
/ISOLatin1Encoding where {pop /WindowsLatin1Encoding 256 array bdef
ISOLatin1Encoding WindowsLatin1Encoding copy pop
/.notdef/.notdef/quotesinglbase/florin/quotedblbase/ellipsis/dagger
/daggerdbl/circumflex/perthousand/Scaron/guilsinglleft/OE/.notdef/.notdef
/.notdef/.notdef/quoteleft/quoteright/quotedblleft/quotedblright/bullet
/endash/emdash/tilde/trademark/scaron/guilsinglright/oe/.notdef/.notdef
/Ydieresis WindowsLatin1Encoding 128 32 getinterval astore pop}
{/WindowsLatin1Encoding StandardEncoding bdef} ifelse
/reencode {exch dup where {pop load} {pop StandardEncoding} ifelse
  exch dup 3 1 roll findfont dup length dict begin
  { 1 index /FID ne {def}{pop pop} ifelse } forall
  /Encoding exch def currentdict end definefont pop} bdef
/isroman {findfont /CharStrings get /Agrave known} bdef
/FMSR {3 1 roll 1 index dup isroman {reencode} {pop pop} ifelse
  exch FMS} bdef
/csm {1 dpi2point div -1 dpi2point div scale neg translate
 dup landscapeMode eq {pop -90 rotate}
  {rotateMode eq {90 rotate} if} ifelse} bdef
% line types: solid, dotted, dashed, dotdash
/SO { [] 0 setdash } bdef
/DO { [.5 dpi2point mul 4 dpi2point mul] 0 setdash } bdef
/DA { [6 dpi2point mul] 0 setdash } bdef
/DD { [.5 dpi2point mul 4 dpi2point mul 6 dpi2point mul 4
  dpi2point mul] 0 setdash } bdef
% macros for lines and objects
/L {lineto stroke} bdef
/MP {3 1 roll moveto 1 sub {rlineto} repeat} bdef
/AP {{rlineto} repeat} bdef
/PDlw -1 def
/W {/PDlw currentlinewidth def setlinewidth} def
/PP {closepath eofill} bdef
/DP {closepath stroke} bdef
/MR {4 -2 roll moveto dup  0 exch rlineto exch 0 rlineto
  neg 0 exch rlineto closepath} bdef
/FR {MR stroke} bdef
/PR {MR fill} bdef
/L1i {{currentfile picstr readhexstring pop} image} bdef
/tMatrix matrix def
/MakeOval {newpath tMatrix currentmatrix pop translate scale
0 0 1 0 360 arc tMatrix setmatrix} bdef
/FO {MakeOval stroke} bdef
/PO {MakeOval fill} bdef
/PD {currentlinewidth 2 div 0 360 arc fill
   PDlw -1 eq not {PDlw w /PDlw -1 def} if} def
/FA {newpath tMatrix currentmatrix pop translate scale
  0 0 1 5 -2 roll arc tMatrix setmatrix stroke} bdef
/PA {newpath tMatrix currentmatrix pop	translate 0 0 moveto scale
  0 0 1 5 -2 roll arc closepath tMatrix setmatrix fill} bdef
/FAn {newpath tMatrix currentmatrix pop translate scale
  0 0 1 5 -2 roll arcn tMatrix setmatrix stroke} bdef
/PAn {newpath tMatrix currentmatrix pop translate 0 0 moveto scale
  0 0 1 5 -2 roll arcn closepath tMatrix setmatrix fill} bdef
/vradius 0 def /hradius 0 def /lry 0 def
/lrx 0 def /uly 0 def /ulx 0 def /rad 0 def
/MRR {/vradius xdef /hradius xdef /lry xdef /lrx xdef /uly xdef
  /ulx xdef newpath tMatrix currentmatrix pop ulx hradius add uly
  vradius add translate hradius vradius scale 0 0 1 180 270 arc 
  tMatrix setmatrix lrx hradius sub uly vradius add translate
  hradius vradius scale 0 0 1 270 360 arc tMatrix setmatrix
  lrx hradius sub lry vradius sub translate hradius vradius scale
  0 0 1 0 90 arc tMatrix setmatrix ulx hradius add lry vradius sub
  translate hradius vradius scale 0 0 1 90 180 arc tMatrix setmatrix
  closepath} bdef
/FRR {MRR stroke } bdef
/PRR {MRR fill } bdef
/MlrRR {/lry xdef /lrx xdef /uly xdef /ulx xdef /rad lry uly sub 2 div def
  newpath tMatrix currentmatrix pop ulx rad add uly rad add translate
  rad rad scale 0 0 1 90 270 arc tMatrix setmatrix lrx rad sub lry rad
  sub translate rad rad scale 0 0 1 270 90 arc tMatrix setmatrix
  closepath} bdef
/FlrRR {MlrRR stroke } bdef
/PlrRR {MlrRR fill } bdef
/MtbRR {/lry xdef /lrx xdef /uly xdef /ulx xdef /rad lrx ulx sub 2 div def
  newpath tMatrix currentmatrix pop ulx rad add uly rad add translate
  rad rad scale 0 0 1 180 360 arc tMatrix setmatrix lrx rad sub lry rad
  sub translate rad rad scale 0 0 1 0 180 arc tMatrix setmatrix
  closepath} bdef
/FtbRR {MtbRR stroke } bdef
/PtbRR {MtbRR fill } bdef
/stri 6 array def /dtri 6 array def
/smat 6 array def /dmat 6 array def
/tmat1 6 array def /tmat2 6 array def /dif 3 array def
/asub {/ind2 exch def /ind1 exch def dup dup
  ind1 get exch ind2 get sub exch } bdef
/tri_to_matrix {
  2 0 asub 3 1 asub 4 0 asub 5 1 asub
  dup 0 get exch 1 get 7 -1 roll astore } bdef
/compute_transform {
  dmat dtri tri_to_matrix tmat1 invertmatrix 
  smat stri tri_to_matrix tmat2 concatmatrix } bdef
/ds {stri astore pop} bdef
/dt {dtri astore pop} bdef
/db {2 copy /cols xdef /rows xdef mul dup 3 mul string
  currentfile 
  3 index 0 eq {/ASCIIHexDecode filter}
  {/ASCII85Decode filter 3 index 2 eq {/RunLengthDecode filter} if }
  ifelse exch readstring pop
  dup 0 3 index getinterval /rbmap xdef
  dup 2 index dup getinterval /gbmap xdef
  1 index dup 2 mul exch getinterval /bbmap xdef pop pop}bdef
/it {gs np dtri aload pop moveto lineto lineto cp c
  cols rows 8 compute_transform 
  rbmap gbmap bbmap true 3 colorimage gr}bdef
/il {newpath moveto lineto stroke}bdef
currentdict end def
%%EndProlog

%%BeginSetup
MathWorks begin

0 cap

end
%%EndSetup

%%Page: 1 1
%%BeginPageSetup
%%PageBoundingBox:    87   262   507   578
MathWorks begin
bpage
%%EndPageSetup

%%BeginObject: obj1
bplot

/dpi2point 12 def
portraitMode 1044 6936 csm

    0     0  5045  3782 rc
85 dict begin %Colortable dictionary
/c0 { 0.000000 0.000000 0.000000 sr} bdef
/c1 { 1.000000 1.000000 1.000000 sr} bdef
/c2 { 0.900000 0.000000 0.000000 sr} bdef
/c3 { 0.000000 0.820000 0.000000 sr} bdef
/c4 { 0.000000 0.000000 0.800000 sr} bdef
/c5 { 0.910000 0.820000 0.320000 sr} bdef
/c6 { 1.000000 0.260000 0.820000 sr} bdef
/c7 { 0.000000 0.820000 0.820000 sr} bdef
c0
1 j
1 sg
   0    0 5046 3783 rf
6 w
0 3082 3910 0 0 -3082 656 3366 4 MP
PP
-3910 0 0 3082 3910 0 0 -3082 656 3366 5 MP stroke
4 w
DO
SO
6 w
0 sg
 656  284 mt 4566  284 L
 656 3366 mt 4566 3366 L
4566 3366 mt 4566  284 L
 656 3366 mt  656  284 L
 656 3366 mt 4566 3366 L
 656 3366 mt  656  284 L
 656 3366 mt  656 3326 L
 656  284 mt  656  323 L
%%IncludeResource: font Helvetica
/Helvetica /WindowsLatin1Encoding 120 FMSR

 623 3511 mt 
(0) s
1633 3366 mt 1633 3326 L
1633  284 mt 1633  323 L
1550 3511 mt 
(0.5) s
2611 3366 mt 2611 3326 L
2611  284 mt 2611  323 L
2578 3511 mt 
(1) s
3588 3366 mt 3588 3326 L
3588  284 mt 3588  323 L
3505 3511 mt 
(1.5) s
4566 3366 mt 4566 3326 L
4566  284 mt 4566  323 L
4533 3511 mt 
(2) s
4296 3713 mt 
(x 10) s
%%IncludeResource: font Helvetica
/Helvetica /WindowsLatin1Encoding 80 FMSR

4522 3639 mt 
(4) s
 656 3366 mt  695 3366 L
4566 3366 mt 4526 3366 L
%%IncludeResource: font Helvetica
/Helvetica /WindowsLatin1Encoding 120 FMSR

 251 3410 mt 
(-0.045) s
 656 3057 mt  695 3057 L
4566 3057 mt 4526 3057 L
 318 3101 mt 
(-0.04) s
 656 2749 mt  695 2749 L
4566 2749 mt 4526 2749 L
 251 2793 mt 
(-0.035) s
 656 2441 mt  695 2441 L
4566 2441 mt 4526 2441 L
 318 2485 mt 
(-0.03) s
 656 2133 mt  695 2133 L
4566 2133 mt 4526 2133 L
 251 2177 mt 
(-0.025) s
 656 1825 mt  695 1825 L
4566 1825 mt 4526 1825 L
 318 1869 mt 
(-0.02) s
 656 1516 mt  695 1516 L
4566 1516 mt 4526 1516 L
 251 1560 mt 
(-0.015) s
 656 1208 mt  695 1208 L
4566 1208 mt 4526 1208 L
 318 1252 mt 
(-0.01) s
 656  900 mt  695  900 L
4566  900 mt 4526  900 L
 251  944 mt 
(-0.005) s
 656  592 mt  695  592 L
4566  592 mt 4526  592 L
 555  636 mt 
(0) s
 656  284 mt  695  284 L
4566  284 mt 4526  284 L
 321  328 mt 
(0.005) s
 656  284 mt 4566  284 L
 656 3366 mt 4566 3366 L
4566 3366 mt 4566  284 L
 656 3366 mt  656  284 L
gs 656 284 3911 3083 rc
/c8 { 0.000000 0.000000 1.000000 sr} bdef
c8
1 0 1 0 1 0 1 0 1 0 1 0 1 0 1 0 
1 0 1 0 1 0 1 0 1 0 1 0 1 0 1 0 
1 0 1 0 1 0 1 0 1 0 1 0 1 0 1 0 
1 0 1 0 1 0 1 0 1 0 1 0 1 0 1 0 
1 0 1 0 1 0 1 0 1 0 1 0 1 0 1 0 
1 0 1 0 1 0 1 0 1 0 1 0 1 0 1 0 
1 0 1 0 1 0 1 0 1 0 1 0 1 0 1 0 
1 0 1 0 1 0 1 0 1 0 1 0 1 0 1 0 
1 0 1 0 1 0 0 -2752 0 1466 1 228 0 350 1 61 
0 104 1 -2 0 68 1 29 0 -11 0 45 1 -13 0 32 
0 -13 1 9 0 26 0 -5 1 25 0 13 0 -28 0 12 
1 0 0 34 0 -10 1 24 0 -16 0 38 1 -13 0 34 
0 -8 1 13 0 28 0 -21 1 16 0 -45 1 2 0 19 
0 -23 0 18 1 -22 0 19 0 -24 0 5 1 0 0 20 
0 -25 0 5 1 21 0 -23 0 28 1 -18 0 22 0 -21 
1 7 0 35 1 -14 0 22 0 -27 1 -9 0 21 0 -24 
0 18 1 -22 0 19 0 -24 0 4 1 0 0 18 0 -25 
0 4 1 20 0 1 0 -21 1 -5 0 25 0 -24 1 5 
0 21 1 -20 0 22 0 -26 0 7 1 0 0 20 0 -25 
0 5 1 22 0 2 0 -21 0 1 1 -4 0 26 0 -16 
1 23 0 5 0 -23 0 4 1 -2 0 31 0 -12 1 23 
0 -16 0 38 1 -14 0 36 0 -23 1 -6 0 12 0 -38 
1 17 0 -32 1 -6 0 23 0 -20 1 20 0 -24 0 30 
1 -15 0 23 0 -31 1 14 0 -32 0 20 1 -21 0 16 
0 -28 1 3 0 19 0 -21 0 19 1 -22 0 18 0 -24 
0 3 1 -5 0 24 0 -20 1 19 0 -27 0 25 1 -20 
0 19 0 -27 1 4 0 20 0 -25 0 25 1 -20 0 18 
0 -26 1 4 0 21 0 -1 1 -21 0 20 0 -25 0 5 
1 0 0 19 0 -25 0 4 1 20 0 -24 0 26 1 -18 
0 20 0 -23 1 6 0 29 1 -17 0 33 0 -34 0 20 
1 7 0 31 1 -27 0 7 0 -20 1 0 0 19 0 -55 
1 12 0 -49 1 -11 0 13 0 -35 1 -1 0 16 0 -30 
0 13 1 -26 0 3 0 -26 1 -7 0 12 0 -46 1 11 
0 -68 1 -19 0 -105 1 -13 0 -273 1 -145 0 -1705 0 2372 
1 192 0 143 1 20 0 18 1 -8 0 16 1 -9 0 13 
1 -10 0 12 1 -9 0 10 0 -10 0 8 1 -7 0 25 
0 -21 1 12 0 17 0 -18 0 11 1 -16 0 3 0 -9 
0 8 1 -10 0 -1 4423 608 300 MP stroke
0 11 1 -11 0 12 1 -10 0 10 0 -11 0 8 1 -8 
0 11 0 -3 1 -7 0 10 0 -2 1 -8 0 11 0 0 
1 -11 0 0 0 11 1 -11 0 0 0 11 1 -10 0 10 
0 -11 0 8 1 -8 0 10 0 -10 0 7 1 -7 0 11 
0 -1 1 -4 0 28 0 -32 0 9 1 -1 0 -10 0 10 
1 0 0 -10 0 12 1 2 0 13 0 -20 0 14 1 -14 
0 7 0 -13 0 7 1 -8 0 11 0 -11 0 8 1 -8 
0 11 1 0 0 -11 0 11 1 0 0 -11 0 11 1 0 
0 -11 0 11 1 0 0 -11 1 8 0 3 0 -11 1 8 
0 -8 0 11 1 0 0 -11 0 34 1 -18 0 -16 0 10 
1 0 0 -11 0 11 1 0 0 -12 1 8 0 3 0 -11 
1 8 0 4 0 -11 0 2 1 9 0 18 0 -23 0 11 
1 3 0 -21 0 10 1 -1 0 -11 0 10 1 0 0 -12 
1 7 0 2 0 -12 1 7 0 1 0 -13 1 6 0 -17 
1 4 0 -62 1 -28 0 -1080 1 162 0 372 1 50 0 120 
1 21 0 43 1 15 0 26 1 13 0 19 1 12 0 20 
1 13 0 28 1 18 0 33 0 -7 1 -15 0 -15 1 -9 
0 3 0 -7 0 4 1 -6 0 7 0 -6 1 8 0 4 
0 -7 0 4 1 9 0 11 1 14 0 21 0 -33 1 -10 
0 3 0 -7 0 4 1 -7 0 4 0 -6 0 6 1 -6 
0 -1 0 7 1 -6 0 7 0 -1 1 -5 0 8 0 -5 
1 7 0 1 0 -6 0 2 1 7 0 -4 0 10 1 -4 
0 17 1 -2 0 30 1 3 0 29 0 -7 1 -17 0 -22 
0 1 1 -9 0 3 0 -9 0 4 1 -5 0 20 1 20 
0 -45 1 -9 0 3 0 -8 0 2 1 -8 0 4 0 -6 
0 3 1 -6 0 5 0 -8 0 5 1 -6 0 5 0 -7 
0 5 1 -6 0 5 0 -7 0 5 1 0 0 -8 0 6 
1 0 0 -8 0 6 1 -1 0 -7 0 6 1 0 0 -6 
0 7 1 -4 0 14 1 -2 0 29 1 4 0 26 0 -22 
1 -7 0 0 0 -23 1 -15 0 -40 1 -8 0 -36 1 -2 
0 -38 1 -4 0 -60 1 -21 0 -88 1 -36 0 -284 1 -147 
0 -175 0 835 1 129 0 170 1 16 0 28 1 4 0 11 
1 1 0 6 0 -1 1 1 0 5 0 -1 1 2 0 -1 
0 5 1 -2 0 -18 0 28 1 6 0 46 0 -48 1 -5 
0 -7 1 0 0 2 0 -3 0 2 1 -1 0 3 0 -1 
1 2 0 -3 0 1 1 2 0 -2 0 1 1 2 0 -2 
0 1 1 2 0 0 0 -2 1 -1 0 3 0 -2 1 -1 
0 3 0 0 1 0 4319 600 300 MP stroke
0 -3 0 1 1 1 0 -2 0 2 1 1 0 -19 1 16 
0 2 0 -3 1 1 0 1 0 -2 0 0 1 2 0 25 
1 34 0 -52 1 -4 0 -3 0 1 1 -1 0 -2 0 3 
1 -1 0 2 0 -2 1 -1 0 2 0 -1 1 -1 0 3 
0 -2 1 -1 0 3 0 -1 1 1 0 -3 0 1 1 1 
0 -2 0 3 1 -2 0 2 0 -3 0 1 1 -4 0 -14 
0 18 1 -1 0 1 0 -3 0 1 1 -1 0 2 0 0 
1 -1 0 -2 0 2 1 -1 0 -2 0 4 1 1 0 25 
1 31 0 -59 1 -2 0 -4 1 0 0 1 0 -1 1 -3 
0 -3 0 1 1 -4 0 -5 1 -5 0 -14 1 -9 0 -63 
1 -37 0 -583 1 -135 0 192 1 44 0 117 1 20 0 68 
1 9 0 34 1 6 0 26 1 6 0 25 1 7 0 32 
1 11 0 70 0 -30 1 -13 0 -23 1 -4 0 -5 1 -1 
0 -1 0 3 1 2 0 5 1 4 0 13 1 2 0 -17 
0 14 1 -4 0 -4 1 -3 0 -1 0 1 1 -1 0 1 
1 -1 0 2 2 2 0 5 1 2 0 5 1 2 0 12 
1 5 0 26 1 11 0 49 0 -51 1 -9 0 -22 1 -2 
0 -5 1 2 0 2 0 -16 1 14 0 -11 1 -5 0 -10 
1 -1 0 -1 1 -3 0 -3 1 -1 0 -2 1 -1 0 -3 
1 -1 0 -1 1 -1 0 -1 1 -1 0 0 0 -1 0 0 
1 1 0 4 1 2 0 11 1 5 0 39 1 34 0 -69 
1 -8 0 -32 1 -9 0 -33 1 -7 0 -31 1 -7 0 -37 
1 -10 0 -57 1 -18 0 -153 1 -51 0 -169 0 67 1 339 
0 311 1 30 0 62 1 8 0 20 1 2 0 9 1 2 
0 5 1 1 0 3 1 2 0 10 0 -2 1 0 0 24 
0 -8 1 -7 0 -11 1 -1 0 -1 1 1 0 2 1 1 
1 0 -1 0 2 2 1 1 1 0 0 -1 0 1 1 -1 
1 1 1 -1 1 1 0 7 1 -5 0 -4 1 -1 0 1 
1 1 0 11 1 7 0 10 0 -18 1 -3 0 -7 2 0 
1 0 -1 0 2 0 0 1 0 -1 1 1 1 0 1 -1 
1 0 0 1 0 -1 1 1 0 8 0 -10 1 0 0 -2 
2 -2 1 0 0 4 1 2 0 20 1 -10 0 -18 1 -1 
0 -4 1 -1 0 -5 1 -1 0 -7 1 -2 0 -13 1 -5 
0 -33 1 -14 0 -131 1 -71 0 -410 1 -3 0 124 1 27 
0 80 1 15 0 46 1 9 0 38 1 7 0 24 1 6 
0 26 1 7 0 35 1 12 0 13 0 -14 1 -6 0 -13 
1 -1 0 -1 1 -1 0 4 1 1 0 8 1 3 0 17 
0 -3 1 -3 0 -9 4182 861 300 MP stroke
1 -1 0 -3 2 0 0 1 2 2 0 2 1 1 0 4 
1 2 0 10 1 3 0 18 1 6 0 33 1 -11 0 -27 
1 -4 0 -9 1 0 0 2 1 2 0 5 0 -14 1 -3 
0 -11 1 -1 0 -6 1 -1 0 -4 1 -1 0 -2 1 -1 
0 -2 1 -1 0 -2 1 -1 0 -1 1 -1 1 -1 -1 0 
2 2 0 6 1 3 0 20 1 7 0 18 0 -27 1 -7 
0 -29 1 -10 0 -32 1 -8 0 -29 1 -8 0 -34 1 -10 
0 -50 1 -16 0 -89 1 -30 0 -118 1 28 0 371 1 63 
0 153 1 14 0 32 1 5 0 14 1 3 0 7 1 1 
0 5 1 1 0 47 1 -31 0 -4 0 5 1 -21 0 24 
0 -7 1 -2 0 -2 1 1 0 2 2 2 0 1 2 2 
1 0 1 0 1 0 1 -1 1 0 0 43 1 -34 0 -10 
1 -1 0 1 1 1 0 9 1 0 0 7 0 -29 0 24 
1 -4 0 -6 1 -1 1 0 1 1 1 0 1 1 1 -1 
1 -1 1 0 0 2 1 7 0 33 0 -43 1 -1 0 -1 
1 -1 0 -2 2 0 0 6 1 5 0 8 0 -39 0 23 
1 1 0 -10 1 -1 0 -4 1 -1 0 -5 1 -2 0 -9 
1 -3 0 -19 1 -6 0 -64 1 -25 0 -199 1 -77 0 -191 
1 12 0 84 1 19 0 59 1 12 0 38 1 8 0 27 
1 6 0 24 1 6 0 25 1 7 0 25 0 -20 1 40 
0 -17 1 -3 1 -6 -1 0 2 2 0 5 1 1 0 10 
1 4 0 43 0 -41 1 -3 0 -5 2 -2 1 1 1 1 
0 2 1 1 0 3 1 1 0 6 1 1 0 11 1 4 
0 22 1 7 0 3 0 -29 0 21 1 -5 0 -17 1 -2 
0 -2 1 1 0 41 0 -34 1 -10 0 -12 1 -2 0 -6 
1 -1 0 -3 1 -1 0 -3 1 -1 0 -2 1 -1 0 -2 
1 -1 0 -2 1 -1 0 -1 2 0 0 4 1 2 0 14 
1 5 0 7 0 -24 0 21 1 -2 0 -11 0 26 1 -39 
0 -40 1 -8 0 -35 1 -7 0 -32 1 -9 0 -45 1 -14 
0 -71 1 -22 0 -69 1 16 0 314 1 48 0 118 1 16 
0 41 1 6 0 18 1 3 0 10 1 2 0 5 1 2 
0 -38 0 34 1 10 0 67 1 -40 0 -22 1 -1 1 1 
0 2 1 1 0 2 1 1 0 1 2 2 1 0 1 1 
1 -1 1 -1 1 0 0 -42 0 33 1 7 0 1 0 -1 
1 -1 0 2 1 1 0 67 1 -40 0 -25 1 -1 0 -1 
1 -1 1 1 1 1 1 1 1 0 1 -1 1 -1 1 -1 
0 -42 0 33 1 7 0 1 0 -1 1 -1 0 -2 2 -2 
0 -1 0 1 1 1 4020 614 300 MP stroke
0 25 1 42 0 -71 1 -2 0 -7 1 -1 0 -6 1 -2 
0 -9 1 -3 0 -19 1 -7 0 -41 1 -16 0 -117 1 -49 
0 -235 1 -21 0 -9 0 26 1 15 0 58 1 13 0 49 
1 8 0 28 1 6 0 23 1 5 0 24 1 6 0 28 
1 14 0 54 0 -61 1 -4 0 -6 1 -1 1 1 0 6 
1 2 0 7 1 0 0 -38 0 41 1 1 0 -3 1 -1 
1 -1 1 1 0 1 2 2 0 3 1 1 0 7 1 1 
0 11 1 3 0 23 1 15 0 41 0 -64 1 -4 0 -11 
1 -1 0 -1 1 -1 0 -44 0 32 1 5 0 -6 1 -2 
0 -5 1 -1 0 -4 1 -1 0 -3 1 -1 0 -1 1 -1 
0 -2 1 -1 0 -2 1 -1 0 -1 1 -1 1 1 0 4 
1 1 0 20 1 14 0 40 0 -66 1 -8 0 -52 0 27 
1 -6 0 -27 1 -7 0 -27 1 -7 0 -33 1 -9 0 -46 
1 -14 0 -63 1 -14 0 -14 0 39 1 47 0 239 1 33 
0 83 1 13 0 34 1 6 0 16 1 2 0 9 1 2 
0 6 1 1 0 -6 0 11 1 3 0 23 0 -10 1 -5 
0 -6 1 1 0 3 1 1 0 2 1 1 0 3 2 2 
1 1 1 1 1 -1 1 0 -1 0 2 -2 0 -3 1 -6 
0 8 1 -1 1 -1 0 5 1 3 0 18 0 -15 1 -3 
0 -5 1 -1 0 1 2 2 1 1 1 0 1 -1 1 -1 
1 -1 0 -3 1 -5 0 6 1 -1 0 -2 1 -1 0 -2 
1 -1 0 -2 1 1 0 6 1 6 0 10 0 -24 1 -2 
0 -7 1 -2 0 -5 1 -2 0 -9 1 -3 0 -17 1 -6 
0 -35 1 -13 0 -117 1 -38 0 -186 1 -26 0 -26 0 6 
1 9 0 46 1 11 0 38 1 8 0 28 1 6 0 23 
1 5 0 22 1 5 0 23 1 7 0 24 0 -17 1 -2 
1 -4 -1 0 2 2 0 5 1 1 0 7 1 2 0 -4 
0 5 1 2 0 -1 1 -1 1 -1 1 1 1 1 0 2 
1 1 0 3 1 1 0 4 1 2 0 9 1 2 0 17 
1 7 0 10 0 -22 1 -3 0 -8 1 -1 1 -1 0 -12 
0 5 1 -1 0 -6 1 -2 0 -4 1 -1 0 -3 1 -1 
0 -2 1 -1 0 -2 1 -1 0 -2 1 -1 0 -2 2 -2 
1 1 0 4 1 2 0 15 1 9 0 -32 1 -8 0 -19 
1 -6 0 -26 1 -6 0 -27 1 -7 0 -33 1 -9 0 -56 
1 -12 0 -30 1 8 0 174 1 38 0 118 1 20 0 54 
1 8 0 25 1 4 0 13 1 2 0 7 1 2 0 19 
1 -7 0 -9 1 6 0 5 1 1 0 3 1 1 0 4 
1 1 0 3 1 1 3865 612 300 MP stroke
0 2 2 2 1 1 1 0 0 -1 2 -2 1 2 0 10 
0 -12 1 -2 0 -1 1 -1 1 1 0 -7 0 7 1 3 
0 -1 1 -1 0 2 2 2 1 1 1 0 1 -1 0 -1 
2 -2 0 3 1 5 0 3 0 -13 1 -1 0 -3 1 -1 
0 -2 1 -1 0 -2 1 -1 0 -2 1 -3 0 2 0 -8 
0 7 1 -2 0 -6 1 -1 0 -6 1 -2 0 -11 1 -3 
0 -27 1 -8 0 -47 1 -17 0 -103 1 -35 0 -130 1 -28 
0 -26 0 4 1 6 0 36 1 9 0 33 1 7 0 25 
1 6 0 21 1 5 0 25 1 4 0 14 1 -5 0 12 
1 1 1 1 0 3 1 1 0 4 1 2 0 8 1 4 
0 8 0 -10 1 -1 0 -1 2 0 0 1 2 2 0 2 
1 1 0 3 1 1 0 5 1 1 0 9 1 2 0 4 
0 -8 1 4 0 2 0 -3 1 -2 0 -1 1 -1 0 11 
1 -7 0 -13 1 -1 0 -5 1 -1 0 -3 1 -1 0 -2 
1 -1 0 -2 1 -1 0 -2 1 -1 0 -2 1 -1 0 -2 
1 -1 1 -1 1 1 0 2 1 1 0 -9 0 5 1 -2 
0 0 0 -11 1 -10 0 -25 1 -6 0 -24 1 -6 0 -36 
1 -8 0 -36 1 -10 0 -29 1 0 0 70 1 40 0 123 
1 26 0 77 1 13 0 37 1 6 0 18 1 4 0 11 
1 2 0 18 1 40 0 -52 1 -9 0 -38 0 54 1 2 
0 6 1 1 0 5 1 1 0 4 1 1 0 2 1 1 
0 2 1 1 1 1 1 0 0 -1 2 -2 1 -1 0 50 
0 -39 1 -10 0 -5 1 -1 1 -1 0 -53 1 46 0 10 
1 1 0 1 1 1 0 2 1 1 1 1 1 0 1 0 
0 -2 2 -2 0 -1 0 2 1 9 0 40 0 -54 1 -1 
0 -2 1 -1 0 -3 1 -1 0 -3 1 -1 0 -9 1 -11 
0 14 0 -56 0 55 1 -1 0 -5 1 -2 0 -6 1 -2 
0 -17 1 -4 0 -26 1 -9 0 -51 1 -18 0 -101 1 -30 
0 -99 1 -26 0 -19 0 2 1 5 0 28 1 8 0 28 
1 6 0 23 1 5 0 24 1 5 0 17 1 4 0 6 
0 -52 1 43 0 20 1 1 0 2 1 1 0 4 1 1 
0 5 1 1 0 18 1 40 0 -51 1 0 1 0 1 1 
0 2 2 2 0 2 1 1 0 3 1 1 0 5 1 1 
0 6 1 -1 0 -52 0 51 1 1 0 -2 1 -1 0 1 
1 2 0 46 0 -51 1 -4 0 -4 1 -1 0 -3 1 -1 
0 -2 1 -1 0 -2 1 -1 0 -2 1 -1 0 -3 1 -1 
0 -2 1 -1 0 -2 2 -2 1 -1 0 -54 1 38 0 16 
1 33 0 -70 1 -5 3706 915 300 MP stroke
0 -21 1 -5 0 -30 1 -7 0 -30 1 -8 0 -26 1 -3 
0 31 1 22 0 139 1 24 0 77 1 14 0 39 1 7 
0 20 1 4 0 12 1 1 0 3 0 -6 1 -36 0 48 
1 6 0 37 0 -39 0 1 1 3 0 7 1 2 0 6 
1 2 0 4 1 1 0 3 1 1 0 2 2 2 1 0 
-1 0 2 -2 0 -1 1 -1 0 -2 1 -1 0 -47 0 43 
1 1 1 -1 0 -3 1 -1 0 45 0 -35 1 -6 0 -1 
0 4 1 1 0 2 1 1 0 2 1 1 1 1 1 0 
1 -1 0 -2 1 -1 0 -2 1 -1 0 -49 0 39 1 7 
0 -1 1 -1 0 -3 1 -1 0 -4 1 -1 0 -6 1 -2 
0 -5 0 47 1 -37 0 -12 1 -1 0 -5 1 -2 0 -9 
1 -4 0 -24 1 -7 0 -39 1 -14 0 -74 1 -24 0 -113 
1 -62 0 20 0 -23 1 -2 0 13 1 6 0 25 1 6 
0 23 1 5 0 19 1 4 0 19 1 4 0 21 1 38 
0 -46 0 6 1 2 0 6 1 1 0 4 1 1 0 5 
1 1 0 4 1 -7 0 -38 0 48 2 2 0 2 2 2 
1 1 0 2 1 1 0 2 1 1 0 3 1 1 0 3 
1 1 0 43 0 -46 1 1 0 1 1 -1 1 -1 0 -49 
0 43 1 1 0 -1 1 -1 0 -3 1 -1 0 -2 1 -1 
0 -1 1 -1 0 -2 1 -1 0 -3 1 -1 0 -3 1 -1 
0 -2 1 -1 0 -2 1 -1 0 -4 1 -2 0 39 0 -37 
1 -6 0 -59 1 32 0 4 0 -9 1 -5 0 -18 1 -6 
0 -22 1 -6 0 -32 1 -6 0 -10 1 4 0 58 1 29 
0 90 1 21 0 67 1 12 0 37 1 7 0 19 1 3 
0 9 1 2 0 3 0 -2 1 1 0 5 0 -1 1 -5 
0 15 1 3 0 10 1 2 0 7 1 1 0 5 1 1 
0 3 1 1 0 1 1 1 1 1 1 -1 0 -1 1 -1 
0 -2 1 -1 0 -1 1 -6 1 1 -1 -3 0 3 2 -2 
0 -5 1 -2 0 -4 0 9 1 2 0 6 1 1 0 4 
1 1 0 1 1 1 1 0 1 0 -1 0 2 -2 0 -3 
1 -1 0 -5 1 -2 0 -3 0 5 1 -1 0 -2 1 -1 
0 -4 1 -1 0 -7 1 -2 0 -10 1 -3 0 -3 0 4 
1 1 0 -4 1 -1 0 -8 1 -3 0 -15 1 -6 0 -29 
1 -9 0 -70 1 -19 0 -91 1 -24 0 -65 1 -8 0 -6 
0 3 1 4 0 19 1 6 0 21 1 5 0 17 1 4 
0 15 1 3 0 10 1 2 0 -2 0 11 1 3 0 9 
1 1 0 5 1 2 0 4 1 1 0 3 1 1 0 -4 
0 5 1 2 0 3 3560 854 300 MP stroke
2 2 0 2 1 1 0 1 1 1 1 1 0 2 1 1 
1 1 0 1 0 -1 1 -1 0 -5 0 4 1 2 0 2 
1 1 1 -1 0 2 0 -12 0 4 1 1 1 -1 0 -1 
1 -1 0 -2 1 -1 0 -1 1 -1 0 -2 1 -1 0 -3 
1 -1 0 -2 1 -1 0 -3 1 -1 0 -5 1 -2 0 -9 
1 -3 0 -8 0 7 1 -1 0 -20 1 1 0 -11 1 -4 
0 -17 1 -5 0 -20 1 -6 0 -20 1 -4 0 -4 0 11 
1 9 0 93 1 20 0 75 1 16 0 48 1 9 0 26 
1 5 0 13 1 2 0 4 1 1 0 38 0 -35 1 1 
0 -55 0 41 1 14 0 22 1 2 0 9 1 2 0 6 
1 1 0 4 1 1 0 3 2 2 1 0 1 -1 0 -3 
1 -1 0 -4 1 4 0 31 0 -40 2 -2 0 -4 1 -1 
0 -57 0 53 1 5 0 9 1 1 0 5 1 1 0 3 
2 2 0 -1 2 -2 0 -3 1 -1 0 -6 1 -1 0 38 
0 -39 1 -1 1 -1 0 -4 1 -1 0 -7 1 -2 0 -14 
1 -9 0 -46 0 53 1 0 0 -2 1 -1 0 -9 1 -3 
0 -17 1 -5 0 -31 1 -10 0 -54 1 -17 0 -80 1 -20 
0 1 0 -65 1 -10 0 -10 0 2 1 3 0 17 1 4 
0 19 1 4 0 15 1 4 0 12 1 2 0 4 1 -5 
0 -43 0 60 1 4 0 10 1 2 0 5 1 2 0 4 
1 1 0 8 1 33 0 -37 0 2 1 1 0 4 1 1 
0 1 1 1 0 2 2 2 1 1 1 2 -1 0 2 -2 
0 -14 1 -41 0 56 1 1 1 1 0 -1 0 6 1 31 
0 -41 0 1 1 1 0 -1 2 -2 0 -2 1 -1 0 -1 
1 -1 0 -3 1 -1 0 -2 1 -1 0 -4 1 -1 0 -4 
1 -1 0 -8 1 -2 0 -29 1 -41 0 61 1 28 0 -51 
1 -3 0 -13 1 -4 0 -17 1 -4 0 -17 1 -4 0 -6 
0 1 1 3 0 37 1 16 0 74 1 18 0 62 1 12 
0 46 1 7 0 19 1 3 0 6 1 1 0 -45 1 35 
0 51 1 -34 0 -2 0 14 1 4 0 14 1 2 0 9 
1 1 0 6 1 1 0 4 1 1 0 1 1 1 1 1 
1 -1 0 -3 1 -1 0 -5 1 -2 0 -49 0 33 1 8 
0 4 1 -1 0 -4 1 -2 0 31 0 -36 1 2 0 11 
1 2 0 6 1 2 0 3 2 2 1 0 -1 0 2 -2 
0 -3 1 -1 0 -8 1 -4 0 -45 0 43 1 2 0 1 
1 -1 0 -4 1 -2 0 -8 1 -2 0 -13 1 1 0 26 
0 -32 2 -2 0 -8 1 -3 0 -22 1 -7 0 -33 1 -11 
0 -57 1 -17 0 -77 3407 899 300 MP stroke
1 -26 0 -51 0 13 1 -4 0 -5 0 1 1 2 0 13 
1 4 0 15 1 4 0 14 1 2 0 11 1 1 0 33 
1 -19 0 -3 0 8 1 3 0 9 1 2 0 6 1 1 
0 2 1 1 0 -45 1 35 0 18 1 1 0 4 1 1 
0 1 1 1 0 2 2 2 1 1 1 -1 0 -5 1 -2 
0 25 0 -27 0 10 1 -4 0 -1 0 2 1 1 0 1 
0 -3 1 -3 0 -44 0 43 1 3 0 2 1 1 1 -1 
0 -1 1 -1 0 -1 1 -1 0 -2 1 -1 0 -3 1 -1 
0 -3 1 -1 0 -6 1 -2 0 -7 1 -3 0 -17 1 -6 
0 44 0 -44 1 -12 0 -36 0 38 1 1 0 -8 1 -3 
0 -13 1 -4 0 -15 1 -3 0 -7 1 1 0 33 1 13 
0 81 1 16 0 54 1 12 0 35 1 7 0 19 1 4 
0 6 1 1 0 -15 1 9 0 6 0 -24 1 51 0 -18 
0 16 1 4 0 13 1 3 0 8 1 2 0 6 1 1 
0 3 1 1 0 1 1 1 1 1 -1 0 2 -2 0 -3 
1 -1 0 -10 1 -5 1 3 -1 -12 0 12 2 -3 0 -9 
1 -6 0 28 0 -50 0 30 1 3 0 11 1 2 0 6 
1 1 0 3 1 1 1 1 1 -1 0 -2 1 -1 0 -5 
1 -1 0 -12 1 -8 1 11 -1 0 2 -2 0 -6 1 -2 
0 -12 1 -4 0 -45 0 61 1 -23 0 -5 0 1 1 -1 
0 -4 1 -2 0 -14 1 -5 0 -25 1 -9 0 -42 1 -13 
0 -63 1 -18 0 -72 1 -5 0 -17 1 -1 0 7 1 3 
0 13 1 4 0 12 1 3 0 8 1 1 0 1 0 -3 
1 -6 0 43 0 -65 0 44 1 2 0 13 1 3 0 7 
1 2 0 3 1 1 0 -9 1 -2 0 18 1 2 0 4 
1 1 0 3 1 1 0 1 1 1 1 1 1 1 -1 0 
2 -2 0 -7 1 -4 0 -37 0 66 1 -21 0 -4 0 3 
1 1 0 1 0 -1 1 -2 0 -13 0 9 1 4 0 4 
1 1 1 0 -1 0 2 -2 0 -1 1 -1 0 -2 1 -1 
0 -3 1 -1 0 -4 1 -1 0 -6 1 -1 0 -10 1 -3 
0 -17 1 -3 0 -10 1 -5 0 -7 0 10 1 1 0 -5 
1 -3 0 -14 1 -3 0 -11 1 -1 0 -2 0 3 1 4 
0 33 1 13 0 59 1 14 0 52 1 11 0 35 1 7 
0 20 1 4 0 6 1 1 0 -2 0 6 1 -3 0 8 
0 -43 1 29 0 31 1 5 0 15 1 3 0 9 1 1 
0 6 1 1 0 4 1 1 0 1 1 1 1 0 -1 0 
2 -2 0 -4 1 -2 0 -8 1 0 0 2 0 -3 1 -1 
0 -4 1 -2 0 -11 3265 648 300 MP stroke
1 8 0 -44 0 43 1 5 0 11 1 2 0 7 1 1 
0 2 1 1 1 0 -1 0 2 -2 0 -3 1 -1 0 -6 
1 -2 0 -4 0 1 1 -4 0 1 1 -1 0 -3 1 -1 
0 -12 1 -3 0 -20 1 -9 0 -10 0 13 1 2 0 3 
1 -1 0 -9 1 -3 0 -19 1 -6 0 -32 1 -10 0 -50 
1 -15 0 -73 1 -14 0 -34 1 -3 0 -4 0 1 1 1 
0 9 1 3 0 12 1 2 0 9 1 1 0 2 1 -2 
0 -15 0 6 1 11 0 22 1 3 0 13 1 1 0 4 
1 1 0 1 0 -1 1 1 0 4 1 2 0 6 1 1 
0 3 1 1 0 2 1 1 1 1 1 1 0 -2 1 -1 
0 -6 1 -3 0 -25 1 5 0 20 1 2 0 2 1 1 
0 -2 0 1 1 3 0 -1 0 2 1 1 1 1 0 -1 
2 -2 0 -2 1 -1 0 -3 1 -1 0 -4 1 -1 0 -6 
1 -2 0 -11 1 -3 0 -19 1 -3 0 9 0 -58 0 36 
1 3 0 4 0 -1 1 -1 0 -5 1 -2 0 -10 1 -2 
0 -7 1 -1 0 6 1 5 0 34 1 28 0 50 1 13 
0 44 1 9 0 29 1 6 0 17 1 2 0 1 1 -1 
0 23 0 -27 1 -7 0 -25 0 44 1 8 0 22 1 4 
0 13 1 2 0 8 1 2 0 5 1 1 0 3 1 1 
1 1 1 -1 0 -3 1 -1 0 -7 1 -2 0 21 0 -22 
0 1 1 -4 0 -3 1 -1 0 -10 1 -5 0 -37 0 30 
1 8 0 21 1 2 0 8 1 1 0 3 1 1 1 1 
1 -1 0 -3 1 -1 0 -6 1 -1 0 -5 0 2 1 19 
0 -25 1 -1 0 -4 1 -1 0 -9 1 -3 0 -18 1 -6 
0 -50 0 29 1 10 0 9 1 -1 0 -6 1 -3 0 -17 
1 -6 0 -30 1 -9 0 -59 1 -14 0 -51 1 8 0 -58 
1 -4 0 -5 1 -1 0 7 1 2 0 9 1 2 0 7 
1 2 0 1 0 -2 1 -1 0 -41 1 32 0 35 1 4 
0 10 1 1 0 5 2 5 0 21 0 -21 0 1 1 2 
0 6 1 1 0 3 1 1 0 2 1 1 1 1 1 -1 
0 -3 1 -1 0 -9 1 -4 0 -48 1 31 0 22 1 2 
0 1 1 1 0 25 0 -19 1 -3 0 2 1 1 0 2 
1 -1 1 -1 0 -1 1 -1 0 -3 1 -1 0 -3 1 -1 
0 -5 1 -2 0 -8 1 -2 0 -14 1 -6 0 -57 1 17 
0 43 0 -19 1 -3 0 1 1 -1 0 -6 1 -2 0 -6 
1 -2 0 -1 0 1 1 2 0 19 1 8 0 45 1 12 
0 46 1 11 0 37 1 8 0 27 1 4 0 7 1 1 
0 -8 1 -21 0 36 3120 689 300 MP stroke
1 -11 0 28 1 6 0 18 1 3 0 11 1 2 0 7 
1 2 0 4 1 1 0 2 2 0 0 -2 1 -1 0 -5 
1 -2 0 -14 1 -20 0 23 1 1 0 -7 1 -3 0 -12 
0 13 1 -13 0 22 1 3 0 10 1 1 0 5 1 1 
0 1 1 1 1 -1 0 -3 1 -1 0 -5 1 -1 0 -10 
1 -6 0 -22 0 24 1 1 0 1 0 -3 1 -1 0 -9 
1 -3 0 -17 1 -6 0 1 0 -21 1 3 0 9 1 1 
0 -5 1 -3 0 -17 1 -5 0 -29 1 -9 0 -43 1 -13 
0 -71 1 -31 0 10 0 -14 1 -4 0 -6 1 -1 0 5 
1 2 0 7 1 2 0 5 1 1 0 -3 1 -2 0 11 
0 -15 1 6 0 27 1 3 0 10 1 1 0 3 1 1 
0 -6 1 -19 0 33 1 2 0 5 1 2 0 3 1 1 
0 1 1 1 1 1 0 -2 1 -1 0 -5 1 -2 0 -14 
1 -4 0 9 0 -13 0 4 1 4 0 11 1 1 0 -1 
1 -5 0 -20 0 29 1 2 0 3 1 1 1 1 -1 0 
2 -2 0 -2 1 -1 0 -3 1 -1 0 -4 1 -2 0 -6 
1 -2 0 -12 1 -4 0 -23 1 -9 0 11 0 -18 0 1 
1 -3 0 -18 0 31 1 1 0 -2 1 -1 0 -4 1 -1 
0 -2 1 1 0 13 1 6 0 47 1 10 0 43 1 10 
0 36 1 7 0 24 1 4 0 11 1 1 0 -5 1 -5 
0 1 0 -5 1 9 0 30 1 6 0 19 1 4 0 11 
1 2 0 7 1 2 0 4 1 1 0 2 1 1 1 -1 
0 -2 1 -1 0 -6 1 -2 0 -14 1 3 0 2 0 -1 
1 -1 0 -9 1 -4 0 -16 0 6 1 6 0 19 1 3 
0 12 1 1 0 4 1 1 1 1 -1 0 2 -2 0 -3 
1 -1 0 -7 1 -2 0 -13 1 -1 0 4 1 1 0 -4 
1 -2 0 -14 1 -4 0 -22 1 -8 0 -9 0 10 1 3 
0 2 1 -1 0 -11 1 -4 0 -21 1 -7 0 -34 1 -11 
0 -46 1 -13 0 -49 1 -6 0 -20 1 -2 0 -2 0 1 
1 1 0 5 1 1 0 5 1 1 0 1 0 -1 1 -1 
0 -11 1 -5 0 27 1 5 0 15 1 3 0 7 1 1 
0 1 0 -1 1 -2 0 -3 0 10 1 2 0 7 1 2 
0 4 1 1 0 2 1 1 1 0 1 -1 0 -4 1 -1 
0 -14 1 -5 0 -17 0 6 1 6 0 14 1 2 0 2 
0 -1 1 -1 0 -5 0 8 1 3 0 5 1 1 1 1 
0 -1 2 -2 0 -4 1 -1 0 -5 1 -1 0 -7 1 -2 
0 -12 1 -5 0 -23 1 -8 0 -14 0 6 1 0 0 11 
1 2 0 2 1 -1 2976 902 300 MP stroke
0 -2 1 -1 0 -1 0 2 1 2 0 15 1 6 0 36 
1 9 0 39 1 10 0 34 1 7 0 24 1 4 0 11 
1 1 0 1 1 -3 0 5 0 -29 1 19 0 34 1 6 
0 19 1 4 0 12 1 2 0 7 1 2 0 4 1 1 
0 2 1 1 1 0 0 -3 1 -1 0 -8 1 -2 0 -7 
0 8 1 -8 0 -2 1 -2 0 -12 1 -5 0 -24 0 25 
1 6 0 17 1 3 0 9 1 1 0 4 1 1 1 1 
0 -2 1 -1 0 -4 1 -2 0 -8 1 -2 0 4 1 -11 
-1 0 2 0 0 -7 1 -2 0 -14 1 -5 0 -29 1 -19 
0 27 1 1 0 -4 1 -2 0 -15 1 -5 0 -27 1 -8 
0 -39 1 -11 0 -47 1 -10 0 -30 1 -5 0 -10 1 -1 
1 1 0 5 1 1 0 2 1 -1 0 -7 1 -3 0 -23 
0 28 1 7 0 20 1 3 0 10 1 1 0 2 1 1 
0 -2 0 2 1 9 0 -5 0 5 1 2 0 5 1 3 
0 3 1 1 1 1 1 -1 0 -3 1 -1 0 -9 1 -4 
0 -21 1 -17 0 33 1 3 0 5 1 1 0 8 0 -7 
1 2 0 7 1 1 0 1 1 1 1 -1 0 -1 1 -1 
0 -3 1 -1 0 -4 1 -1 0 -7 1 -2 0 -15 1 -4 
0 -23 1 -8 0 -28 0 19 1 3 0 10 0 0 1 2 
0 2 1 1 1 0 0 2 1 2 0 13 1 6 0 40 
1 9 0 45 1 8 0 30 1 6 0 19 1 3 0 5 
1 1 0 -17 1 7 0 8 1 8 0 28 1 6 0 17 
1 4 0 12 1 2 0 6 1 2 0 3 1 1 1 1 
-1 0 2 -2 0 -4 1 -2 0 -9 1 -3 0 -13 0 10 
1 0 0 -4 1 -3 0 -16 0 2 1 1 0 19 1 4 
0 11 1 2 0 5 1 1 0 1 1 1 1 -1 0 -4 
1 -1 0 -7 1 -2 0 -21 1 7 0 2 1 1 0 -6 
1 -2 0 -13 1 -5 0 -24 1 -7 0 0 0 4 1 2 
0 1 0 -1 1 -2 0 -12 1 -4 0 -24 1 -7 0 -35 
1 -10 0 -55 1 -12 0 -25 1 -4 0 -10 1 -1 0 -1 
1 1 0 2 1 1 0 1 1 -1 0 -6 1 -3 0 -5 
0 6 1 6 0 24 1 3 0 9 1 1 0 1 1 1 
0 -11 1 10 0 12 1 2 0 5 1 1 0 3 1 1 
1 1 1 -1 0 -6 1 -2 0 -12 1 -4 0 -13 1 5 
0 14 1 2 0 1 1 -3 0 -8 0 15 1 2 0 6 
1 1 0 1 1 1 1 -1 0 -2 1 -1 0 -4 1 -1 
0 -5 1 -2 0 -9 1 -3 0 -16 1 -5 0 -27 1 -3 
0 -7 1 11 0 13 2829 897 300 MP stroke
1 1 0 2 1 1 0 3 1 1 0 10 1 4 0 24 
1 8 0 34 1 8 0 33 1 7 0 25 1 5 0 14 
1 2 0 2 0 -1 1 -2 0 -7 0 1 1 -2 0 34 
1 7 0 21 1 4 0 13 1 3 0 8 1 1 0 5 
1 1 0 2 1 1 1 0 0 -3 1 -1 0 -8 1 -3 
0 -10 0 1 1 1 0 1 0 -2 1 -2 0 -13 1 -5 
0 -5 0 18 1 4 0 14 1 3 0 7 1 1 0 3 
1 1 1 -1 0 -3 1 -2 0 -6 1 -2 0 -14 1 -1 
0 2 1 1 0 -5 1 -2 0 -11 1 -4 0 -22 1 -6 
0 -14 0 8 1 2 0 2 0 -1 1 -2 0 -13 1 -4 
0 -24 1 -7 0 -34 1 -9 0 -42 1 -11 0 -27 1 -3 
0 -12 1 -1 0 -2 1 -1 1 2 -1 0 2 -2 0 -9 
1 -4 0 -6 0 18 1 5 0 17 1 3 0 9 1 1 
0 2 1 -1 0 -3 0 1 1 4 0 10 1 2 0 6 
1 1 0 3 2 0 0 -2 1 -1 0 -6 1 -2 0 -14 
1 -5 0 -12 0 10 1 4 0 11 1 1 0 -3 1 -1 
0 13 1 2 0 3 1 1 1 0 1 -1 0 -3 1 -1 
0 -4 1 -1 0 -7 1 -2 0 -11 1 -4 0 -19 1 -7 
0 -23 0 5 1 1 0 13 1 3 0 6 1 1 0 2 
1 1 0 6 1 3 0 17 1 5 0 37 1 8 0 31 
1 7 0 32 1 5 0 14 1 2 0 2 1 -2 0 -5 
0 1 1 -1 0 -2 0 26 1 8 0 23 1 4 0 15 
1 2 0 10 1 1 0 6 1 1 0 3 1 1 1 -1 
0 -3 1 -1 0 -7 1 -2 0 -10 0 1 1 1 0 -2 
1 -2 0 -12 1 -4 0 -6 0 17 1 5 0 13 1 3 
0 8 1 1 0 1 1 1 1 -1 0 -3 1 -2 0 -7 
1 -2 0 -13 1 1 0 1 1 -1 0 -5 1 -3 0 -13 
1 -4 0 -31 1 -6 0 10 1 1 0 -4 1 -3 0 -15 
1 -5 0 -25 1 -8 0 -34 1 -10 0 -41 1 -8 0 -17 
1 -3 0 -9 1 -1 1 -1 1 -1 0 -4 1 -2 0 -15 
1 5 0 22 1 4 0 13 1 2 0 5 1 1 0 1 
0 -1 1 -1 0 -2 0 12 1 2 0 6 1 2 0 3 
1 1 1 1 -1 0 2 -2 0 -4 1 -2 0 -10 1 -4 
0 -20 1 5 0 15 1 2 0 3 0 -1 1 -1 0 -1 
0 9 1 2 0 5 1 1 0 1 1 1 1 -1 0 -2 
1 -1 0 -4 1 -1 0 -6 1 -2 0 -13 1 -3 0 -19 
1 -6 0 -23 0 3 1 2 0 11 1 3 0 9 1 1 
0 4 1 1 0 7 2683 874 300 MP stroke
1 2 0 15 1 6 0 26 1 7 0 36 1 7 0 26 
1 5 0 16 1 3 0 4 1 1 0 -10 0 5 1 1 
0 15 1 7 0 25 1 5 0 16 1 3 0 10 1 2 
0 7 1 1 0 3 1 1 1 0 0 -3 1 -1 0 -6 
1 -2 0 -14 0 4 1 1 0 -2 1 -1 0 -12 1 -3 
0 -1 0 15 1 4 0 12 1 2 0 6 1 1 1 2 
-1 0 2 -2 0 -4 1 -1 0 -8 1 -2 0 -15 0 5 
1 1 0 -1 1 -1 0 -10 1 -3 0 -17 1 -5 0 -20 
1 0 0 4 1 -1 0 -7 1 -3 0 -17 1 -6 0 -27 
1 -8 0 -34 1 -9 0 -34 1 -5 0 -16 1 -3 0 -5 
1 -1 1 -1 0 -2 1 -1 0 -7 1 -3 0 -5 0 5 
1 6 0 18 1 3 0 9 1 2 0 1 1 1 0 -7 
0 8 1 3 0 9 1 2 0 4 1 1 0 2 1 1 
1 0 0 -3 1 -1 0 -7 1 -3 0 -16 1 -5 0 11 
1 2 0 5 1 1 0 -7 0 7 1 4 0 7 1 1 
0 2 1 1 1 0 0 -2 1 -1 0 -3 1 -1 0 -5 
1 -2 0 -11 1 -3 0 -17 1 -5 0 -22 1 -1 0 -1 
0 8 1 5 0 10 1 2 0 5 1 1 0 7 1 2 
0 15 1 4 0 38 1 6 0 28 1 6 0 23 1 5 
0 15 1 2 0 4 1 -1 0 6 0 -8 1 -3 0 -8 
0 34 1 7 0 21 1 5 0 14 1 3 0 10 1 2 
0 5 1 1 0 1 1 1 1 -1 0 -4 1 -1 0 -7 
1 -1 0 4 0 -9 1 -1 0 -5 1 -3 0 -23 1 13 
0 23 1 3 0 8 1 2 0 3 2 0 0 -2 1 -1 
0 -6 1 -2 0 -8 1 4 0 -10 1 -1 0 -5 1 -2 
0 -15 1 -5 0 -26 1 -16 0 16 1 1 0 -5 1 -2 
0 -15 1 -5 0 -24 1 -7 0 -31 1 -9 0 -25 1 -13 
0 -21 1 -2 0 -7 1 -1 0 -2 1 -1 0 -2 1 -1 
0 -6 1 -3 0 -20 0 14 1 8 0 17 1 4 0 9 
1 1 0 2 1 1 0 8 0 -4 1 1 0 7 1 2 
0 5 1 1 0 1 1 1 1 -1 0 -3 1 -1 0 -7 
1 -3 0 -19 1 -14 0 24 1 3 0 4 1 1 0 8 
0 -3 1 1 0 6 1 1 0 1 1 1 1 0 0 -2 
1 -1 0 -4 1 -1 0 -6 1 -2 0 -14 1 -3 0 -20 
1 -6 0 -23 0 15 1 3 0 10 1 2 0 8 1 2 
0 6 1 2 0 10 1 3 0 19 1 6 0 24 1 7 
0 31 1 6 0 20 1 4 0 11 1 1 1 1 0 -4 
1 10 0 28 1 6 2535 685 300 MP stroke
0 17 1 4 0 11 1 3 0 7 1 2 0 4 1 1 
1 1 0 -2 1 -1 0 -5 1 -2 0 -7 1 -1 0 -2 
1 -1 0 -10 1 -3 0 -6 0 17 1 4 0 13 1 1 
0 5 1 1 1 1 0 -2 1 -1 0 -4 1 -2 0 -9 
1 -2 0 -4 1 -1 0 -4 1 -2 0 -10 1 -4 0 -24 
1 -7 0 -9 0 6 1 1 0 -4 1 -2 0 -13 1 -5 
0 -22 1 -6 0 -29 1 -8 0 -31 1 -7 0 -18 1 -3 
0 -9 1 -1 0 -5 1 -1 0 -3 1 -1 0 -6 1 -2 
0 -12 0 8 1 6 0 15 1 3 0 9 1 1 0 2 
1 1 0 2 1 1 0 10 1 1 0 4 1 1 0 1 
1 1 1 -1 0 -4 1 -1 0 -8 1 -3 0 -20 1 5 
0 12 1 2 0 1 1 1 0 7 1 2 0 4 1 1 
1 1 1 -1 0 -2 1 -1 0 -5 1 -1 0 -7 1 -3 
0 -12 1 -3 0 -20 1 -6 0 -9 0 12 1 2 0 10 
1 3 0 7 1 1 0 8 1 3 0 14 1 4 0 28 
1 6 0 24 1 6 0 22 1 4 0 15 1 3 0 5 
0 -1 1 -1 0 -3 0 9 1 2 0 23 1 6 0 18 
1 4 0 12 1 3 0 8 1 1 0 5 1 1 1 2 
-1 0 2 -2 0 -5 1 -2 0 -12 1 3 0 1 0 -1 
1 -1 0 -8 1 -1 0 8 1 3 0 10 1 2 0 5 
2 2 0 -2 1 -1 0 -5 1 -2 0 -10 1 -5 0 -2 
0 1 1 1 0 -6 1 -2 0 -11 1 -4 0 -17 1 -5 
0 -7 1 0 0 -5 1 -3 0 -18 1 -4 0 -24 1 -6 
0 -29 1 -8 0 -32 1 -2 0 -11 1 -3 0 -8 1 -1 
0 -4 1 -1 0 -3 1 -1 0 -9 1 -1 0 9 1 3 
0 12 1 2 0 5 1 1 0 1 0 -1 1 -1 0 -2 
0 9 1 3 0 6 1 1 0 3 1 1 1 1 0 -2 
1 -1 0 -6 1 -2 0 -10 1 -3 0 -3 0 4 1 2 
0 5 1 1 0 -4 0 3 1 4 0 7 1 1 0 2 
1 1 1 0 0 -2 1 -1 0 -4 1 -1 0 -6 1 -2 
0 -10 1 -4 0 -15 1 -5 0 -7 1 -1 0 -2 0 13 
1 3 0 8 1 2 0 10 1 3 0 13 1 4 0 20 
1 5 0 23 1 6 0 22 1 5 0 16 1 3 0 9 
1 0 0 -17 0 16 1 5 0 20 0 -5 1 5 0 25 
1 4 0 13 1 2 0 9 1 2 0 5 1 1 0 2 
1 1 1 -1 0 -3 1 -2 0 -11 1 -16 0 18 1 -1 
0 -8 1 2 0 14 0 -9 1 2 0 9 1 1 0 5 
1 1 1 1 0 -2 2388 641 300 MP stroke
1 -1 0 -4 1 -2 0 -9 1 -6 0 -17 0 16 1 -1 
0 -6 1 -3 0 -12 1 -4 0 -13 1 9 0 -21 1 -1 
0 -8 1 -3 0 -15 1 -5 0 -23 1 -6 0 -28 1 -7 
0 -39 0 9 1 -3 0 -11 1 -2 0 -7 1 -1 0 -4 
1 -1 0 -4 1 -2 0 -5 1 16 0 -11 0 5 1 3 
0 9 1 2 0 4 1 1 0 -18 1 16 0 12 1 1 
0 4 1 1 0 2 1 1 1 -1 0 -3 1 -1 0 -7 
1 -2 0 -4 0 12 1 -18 0 8 1 1 0 1 0 -4 
1 -14 0 25 1 1 0 3 1 1 1 1 1 -1 0 -3 
1 -1 0 -5 1 -2 0 -7 1 -3 0 -16 1 -4 0 5 
0 -12 1 -3 0 -17 0 23 1 4 0 9 1 2 0 7 
1 3 0 11 1 4 0 17 1 5 0 26 1 6 0 21 
1 5 0 20 1 2 0 8 1 2 0 18 0 -14 1 -2 
0 -14 0 35 1 5 0 18 1 4 0 12 1 3 0 8 
1 2 0 5 1 1 0 1 1 1 1 -1 0 -5 1 -1 
0 13 0 -15 0 1 1 -3 0 -4 1 -1 0 -12 1 -9 
0 26 1 2 0 7 1 1 0 2 1 1 0 1 0 -1 
1 -1 0 -3 1 -1 0 -6 1 -2 0 11 0 -16 1 -4 
0 -4 1 -2 0 -9 1 -2 0 -15 1 -4 0 -34 0 16 
1 3 0 -4 1 -3 0 -16 1 -4 0 -21 1 -6 0 -25 
1 -7 0 -16 0 8 1 -19 0 -17 1 -3 0 -8 1 -2 
0 -5 1 -1 0 -4 1 -1 0 -7 1 -5 0 -18 0 31 
1 3 0 8 1 2 0 3 1 1 0 4 1 16 0 -14 
0 3 1 1 0 5 1 1 0 1 1 1 1 0 0 -4 
1 -1 0 -6 1 -2 0 -27 1 17 0 9 1 1 0 5 
1 14 0 -14 0 2 1 1 0 3 1 1 1 1 -1 0 
2 -2 0 -4 1 -1 0 -5 1 -2 0 -8 1 -3 0 -13 
1 -4 0 -25 0 21 1 4 0 15 0 -11 1 2 0 8 
1 2 0 9 1 3 0 12 1 4 0 23 1 5 0 21 
1 5 0 19 1 5 0 14 1 3 0 7 1 1 0 7 
1 2 0 19 1 5 0 16 1 3 0 13 1 3 0 6 
1 1 0 4 1 1 1 1 -1 0 2 -2 0 -6 1 -2 
0 2 0 -2 1 -1 0 -4 1 -3 0 17 0 -35 0 25 
1 0 0 7 1 1 0 3 1 1 1 1 -1 0 2 -2 
0 -5 1 -1 0 -7 1 -2 0 -6 1 -1 0 -7 1 -2 
0 -12 1 -4 0 -19 1 -1 0 -6 1 -2 0 -11 1 -4 
0 -18 1 -5 0 -23 1 -6 0 -25 1 -6 0 -16 1 -4 
0 -10 1 -2 0 -7 2246 860 300 MP stroke
1 -1 0 -5 1 -1 0 -4 1 -1 0 -2 0 5 1 3 
0 8 1 2 0 4 1 1 1 1 0 7 1 1 0 4 
1 1 0 2 1 1 1 -1 0 -2 1 -1 0 -6 1 -2 
0 -22 0 31 1 -11 0 -1 0 3 1 1 0 3 1 -2 
0 5 1 1 0 3 2 0 0 -1 1 -1 0 -3 1 -1 
0 -6 1 -2 0 -8 1 -2 0 -12 1 -3 0 -3 0 2 
1 1 0 9 1 2 0 9 1 3 0 10 1 3 0 15 
1 5 0 23 1 5 0 20 1 4 0 17 1 4 0 11 
1 2 0 -15 0 19 1 5 0 24 0 -11 1 4 0 20 
1 4 0 11 1 2 0 8 1 2 0 4 1 1 0 2 
1 1 1 -1 0 -3 1 -2 0 -22 0 20 1 0 0 -3 
1 -1 0 14 0 -16 0 4 1 1 0 5 1 1 0 3 
1 1 1 1 -1 0 2 -2 0 -4 1 -2 0 -6 1 -5 
0 -20 0 17 1 -1 0 -7 1 -2 0 -15 1 -4 0 -11 
0 20 1 -19 0 -13 1 -2 0 -12 1 -4 0 -18 1 -5 
0 -22 1 -6 0 -26 1 -23 0 13 0 -7 1 -3 0 -12 
1 -2 0 -6 1 -1 0 -4 1 -1 0 -2 0 3 1 17 
0 -23 0 6 1 2 0 7 1 1 0 3 1 1 0 1 
0 -20 1 19 0 8 1 1 0 4 1 1 1 1 -1 0 
2 -2 0 -3 1 -1 0 -5 1 2 0 14 0 -20 0 1 
1 1 0 4 1 1 0 -20 0 18 1 4 0 3 1 1 
1 2 -1 0 2 -2 0 -2 1 -1 0 -4 1 -1 0 -7 
1 -2 0 -9 1 -2 0 13 0 -15 1 -3 0 -19 0 23 
1 3 0 8 1 2 0 9 1 3 0 14 1 4 0 16 
1 5 0 19 1 5 0 18 1 4 0 14 1 3 0 16 
1 19 0 -39 1 22 0 26 1 3 0 13 1 2 0 9 
1 2 0 5 1 1 0 3 1 1 1 0 -1 0 2 -2 
0 21 0 -18 1 -5 0 -3 1 -1 0 -28 0 22 1 5 
0 6 1 1 0 3 1 1 1 1 0 -2 1 -1 0 -4 
1 -1 0 -4 1 2 0 16 0 -27 1 -2 0 -10 1 -2 
0 -12 1 -4 0 -36 0 22 1 1 0 -10 1 -2 0 -14 
1 -4 0 -18 1 -5 0 -22 1 -5 0 -10 0 13 1 -23 
0 -20 1 -3 0 -11 1 -1 0 -5 1 -1 0 -4 1 -1 
0 -29 1 20 0 14 1 1 0 5 1 1 0 3 1 2 
0 23 0 -20 1 0 0 3 1 1 0 2 1 1 1 0 
-1 0 2 -2 0 -4 1 -1 0 -32 1 21 0 10 1 1 
0 7 1 18 0 -21 0 1 2 2 1 -1 0 -1 1 -1 
0 -3 1 -1 0 -5 2103 847 300 MP stroke
1 -2 0 -7 1 -2 0 -31 1 19 0 31 0 -16 1 -3 
0 4 1 2 0 11 1 2 0 13 1 3 0 21 1 4 
0 19 1 4 0 17 1 4 0 14 1 3 0 17 1 -2 
0 6 1 5 0 15 1 4 0 14 1 2 0 8 1 1 
0 5 1 1 0 2 1 1 1 0 -1 0 2 0 0 3 
0 -7 2 -2 0 -6 0 6 1 2 0 4 1 1 0 1 
1 1 1 -1 0 -3 1 -1 0 -5 1 -1 0 0 0 -3 
1 -4 0 -8 1 -1 0 -9 1 -3 0 -18 1 -6 0 2 
0 -6 1 -3 0 -12 1 -4 0 -16 1 -5 0 -20 1 -5 
0 -18 1 -2 0 -21 1 -3 0 -11 1 -2 0 -7 1 -1 
0 -4 1 -1 0 -4 1 -4 0 10 1 1 0 4 1 1 
0 2 1 1 0 7 0 -2 1 -1 0 3 1 1 0 1 
1 1 1 1 -1 0 2 -2 0 -2 1 -1 0 -9 1 3 
0 4 1 1 0 4 1 4 0 -4 1 1 1 1 1 -1 
0 -1 1 -1 0 -4 1 -1 0 -4 1 -2 0 -6 1 -1 
0 -9 0 3 1 2 0 9 0 -2 1 -1 0 6 1 2 
0 8 1 3 0 13 1 3 0 20 1 4 0 18 1 5 
0 16 1 4 0 14 1 3 0 7 0 -2 1 7 0 14 
1 3 0 12 1 3 0 10 1 2 0 8 1 1 0 6 
1 1 0 1 1 1 1 0 0 -4 1 -3 0 4 1 1 
0 3 1 3 0 -6 1 1 0 2 1 1 0 1 0 -1 
2 -2 0 -4 1 -1 0 -6 1 -4 0 -3 1 -2 0 -7 
1 -3 0 -9 1 -3 0 -9 1 -5 0 -12 1 -4 0 -18 
1 -4 0 -18 1 -5 0 -20 1 -5 0 -19 1 -2 0 -11 
1 -3 0 -8 1 -1 0 -5 1 -1 0 -2 1 1 0 6 
0 -3 1 -1 0 3 1 1 0 2 1 1 0 -3 0 2 
1 3 0 4 1 1 0 1 1 1 1 1 0 -1 2 -2 
0 -1 0 6 1 -4 0 -1 1 -1 0 -4 1 3 0 3 
1 1 1 1 1 -1 0 -1 1 -1 0 -3 1 -1 0 -4 
1 -1 0 -4 1 -1 0 4 0 -8 1 -3 0 9 1 1 
0 6 1 2 0 10 1 2 0 14 1 4 0 20 1 4 
0 17 1 4 0 16 1 4 0 15 1 -1 0 -14 0 56 
1 -16 0 -2 0 7 1 3 0 10 1 2 0 9 1 1 
0 6 1 1 0 3 1 1 1 1 0 1 0 -2 1 -4 
0 -18 0 22 1 1 0 3 1 5 0 19 0 -27 1 1 
0 1 2 0 1 -1 0 -3 1 -1 0 -5 1 -2 0 -26 
0 19 1 -2 0 -7 1 -2 0 -9 1 -2 0 18 0 -26 
1 -7 0 -13 1 -4 1954 735 300 MP stroke
0 -14 1 -4 0 -18 1 -4 0 -19 1 -5 0 -36 0 15 
1 0 0 -14 1 -2 0 -8 1 -1 0 -4 1 -1 0 -1 
1 4 0 24 0 -25 1 -1 0 1 1 1 0 2 1 1 
0 -21 0 19 1 5 0 3 1 1 0 1 1 1 1 0 
1 -1 1 -1 0 26 0 -19 1 -4 0 -2 1 -1 0 -23 
0 18 1 5 0 1 1 1 1 0 -1 0 2 -2 0 -1 
1 -1 0 -3 1 -1 0 -3 1 -1 0 -1 0 5 1 19 
0 -47 0 18 1 4 0 5 1 2 0 7 1 2 0 14 
1 4 0 14 1 4 0 17 1 4 0 16 1 4 0 15 
1 4 0 34 1 -13 0 -17 0 23 1 3 0 10 1 2 
0 9 1 2 0 8 1 2 0 4 1 1 0 1 1 1 
1 1 0 21 0 -17 1 -3 1 1 0 1 0 -20 0 15 
1 3 1 0 -1 0 2 0 1 -1 0 -3 1 -1 0 -4 
1 -1 0 17 0 -24 1 -2 0 -7 1 -2 0 -8 1 -2 
0 -31 1 12 0 -9 1 -4 0 -18 1 -5 0 -17 1 -5 
0 -18 1 -4 0 14 0 -27 1 -5 0 -12 1 -2 0 -7 
1 -2 0 -3 1 -1 0 -4 1 -16 0 23 0 -1 1 -1 
0 1 1 1 0 2 1 4 0 18 0 -19 1 0 0 2 
2 2 1 0 1 -1 1 -3 0 6 0 -21 0 20 1 -1 
0 4 1 16 0 -21 1 1 1 0 0 -1 2 -2 0 -1 
1 -1 0 -3 1 -1 1 -1 0 -18 0 40 1 -17 0 -3 
0 1 1 1 0 7 1 2 0 10 1 3 0 14 1 7 
0 16 1 4 0 16 1 4 0 16 1 4 0 16 1 4 
0 11 1 2 0 9 1 2 0 8 1 2 0 6 1 1 
0 4 1 1 0 2 2 2 0 3 1 -1 0 2 1 1 
0 -2 1 -1 1 -1 0 -1 2 -2 0 -3 1 -1 0 -3 
1 -1 0 -9 1 -2 0 -8 1 -2 0 -8 1 -2 0 -17 
1 -3 0 -15 1 -3 0 -17 1 -4 0 -17 1 -5 0 -14 
1 -1 0 -17 1 -3 0 -10 1 -2 0 -5 1 -1 0 -2 
1 1 0 4 0 -2 1 -1 0 -1 0 1 2 2 0 4 
1 -1 0 1 2 2 1 0 1 0 0 2 1 1 0 2 
0 -2 1 -1 0 -1 0 1 1 1 0 -3 1 1 1 -1 
1 -1 0 -1 2 -2 0 -2 1 -1 0 1 1 1 0 2 
1 -2 0 2 1 1 0 6 1 2 0 10 1 3 0 14 
1 3 0 16 1 4 0 16 1 4 0 20 1 4 0 -6 
0 20 1 9 0 19 0 -15 1 2 0 8 1 2 0 7 
1 2 0 6 1 1 0 4 1 1 0 2 1 1 0 2 
1 -2 0 -14 0 18 1802 668 300 MP stroke
1 1 0 7 1 17 0 -25 2 -2 1 -1 0 -2 1 -1 
0 -3 1 -1 0 -23 1 13 0 1 0 -8 1 -2 0 -7 
1 -2 0 -2 0 15 1 -24 0 -17 1 -4 0 -15 1 -4 
0 -17 1 -4 0 -16 1 -7 0 -18 0 8 1 -4 0 -12 
1 -2 0 -9 1 -1 0 -1 1 -1 0 24 0 -16 1 -4 
0 -3 1 -1 1 1 0 1 0 -16 1 15 0 3 1 1 
1 1 1 0 0 1 2 2 0 24 0 -21 1 -1 0 -1 
1 -1 0 -18 0 17 1 0 1 -1 0 -1 2 -2 0 -1 
1 -1 1 0 0 2 1 5 0 17 0 -37 1 13 0 4 
1 1 0 6 1 2 0 10 1 3 0 17 1 3 0 16 
1 4 0 20 1 4 0 18 1 8 0 20 0 -28 1 15 
0 11 1 1 0 8 1 2 0 6 1 2 0 5 1 1 
0 3 1 1 0 3 1 1 0 22 0 -18 1 -1 0 1 
1 1 0 -17 0 15 1 0 0 -2 1 -1 0 -1 1 -1 
0 -2 1 -1 0 -3 1 -1 0 -1 0 3 1 14 0 -30 
1 -2 0 -8 1 -1 0 -10 1 -21 0 11 0 -7 1 -4 
0 -16 1 -4 0 -16 1 -4 0 -14 1 0 0 12 0 -31 
1 -3 0 -12 1 -2 0 -8 1 -1 0 -2 1 -1 0 -16 
0 19 1 -1 0 -2 1 -1 0 1 1 1 0 22 0 -15 
1 -4 1 -1 1 1 0 1 2 2 0 1 0 -2 1 -13 
0 18 0 -1 1 -1 0 -1 0 5 1 15 0 -22 2 -2 
1 -1 1 -1 1 -1 0 2 1 1 0 -13 0 15 1 6 
0 16 0 -20 1 -1 0 3 1 2 0 9 1 2 0 13 
1 3 0 14 1 4 0 15 1 4 0 21 1 5 0 19 
1 2 0 6 1 2 0 6 1 2 0 7 1 1 0 6 
1 1 0 4 1 1 0 3 1 1 0 9 1 -2 0 -2 
0 1 1 1 0 1 1 -1 0 -3 1 -1 0 -2 1 -1 
0 -2 1 -1 0 -3 1 -1 0 -2 1 2 0 -12 1 -2 
0 -8 1 -1 0 -10 1 -4 0 -14 1 -4 0 -16 1 -4 
0 -16 1 -4 0 -13 1 0 0 -19 1 -3 0 -11 1 -2 
0 -6 1 -1 1 -1 0 1 0 -2 0 1 1 -1 0 -2 
1 -1 0 2 1 2 0 4 0 -4 1 -1 1 0 1 1 
1 1 0 2 1 1 1 3 -1 0 2 -2 0 4 0 -3 
1 -2 0 -3 2 -2 1 -1 1 0 1 1 0 4 1 1 
0 8 0 -4 1 -2 0 -1 0 1 1 1 0 7 1 2 
0 11 1 3 0 17 1 4 0 15 1 4 0 17 1 4 
0 16 1 6 0 13 0 -2 1 1 0 6 1 1 0 7 
1 1 0 5 1 2 1651 687 300 MP stroke
0 4 1 1 0 3 1 1 0 2 0 -1 1 2 0 4 
1 1 0 9 0 -5 1 -3 0 -6 1 -1 0 -2 1 -1 
0 -3 1 -1 0 -3 1 -1 0 -6 1 -1 0 -7 1 -2 
0 -6 1 -2 0 -3 0 2 1 -7 0 -21 1 -4 0 -20 
1 -4 0 -14 1 -4 0 -16 1 -2 0 -12 1 -3 0 -8 
1 -1 0 -2 1 -1 0 9 1 -5 0 -7 1 -1 0 -1 
1 1 0 -1 0 1 1 1 1 0 1 0 1 1 0 2 
1 1 0 7 1 6 0 -7 1 -3 0 -5 1 2 0 -2 
2 -2 1 -1 1 0 -1 0 2 2 0 6 1 4 0 5 
0 -9 1 1 1 1 0 6 1 2 0 13 1 3 0 13 
1 4 0 15 1 4 0 16 1 5 0 10 0 -5 1 16 
0 26 0 -14 1 0 0 5 1 1 0 6 1 1 0 7 
1 1 0 5 1 1 0 4 1 1 0 -11 0 11 1 3 
0 4 1 2 0 20 0 -20 1 -3 0 -5 1 -1 0 -2 
1 -1 0 -3 1 -1 0 -4 1 -1 0 -16 0 10 1 -2 
0 -7 1 -2 0 -6 1 -1 0 15 0 -26 1 -5 0 -18 
1 -4 0 -16 1 -4 0 -13 1 -4 0 -20 0 6 1 -3 
0 -13 1 -2 0 -5 1 -1 0 3 1 5 0 14 0 -23 
1 -2 0 -2 1 -1 1 -2 1 3 -1 -14 0 14 2 0 
1 1 0 2 1 1 0 5 1 5 0 16 0 -21 1 -1 
0 -6 1 -11 0 12 1 -1 0 -1 1 -1 1 -1 1 0 
0 2 1 1 0 8 1 5 0 15 0 -32 1 10 0 2 
1 1 0 6 1 2 0 10 1 3 0 16 1 3 0 15 
1 4 0 18 1 4 0 27 0 -5 1 -6 0 13 1 1 
0 6 1 1 0 6 1 1 0 5 1 1 0 5 1 1 
0 5 1 3 0 12 0 -12 1 1 0 3 1 -6 0 7 
0 -6 1 -2 0 -3 1 -1 0 -3 1 -1 0 -3 1 -1 
0 -1 0 11 1 -13 0 -10 1 -2 0 -6 1 -2 0 -15 
0 9 1 -4 0 -23 1 -5 0 -15 1 -4 0 -13 1 -3 
0 6 0 -19 1 -4 0 -11 1 -2 0 -6 1 -1 0 1 
1 2 0 -13 0 8 1 -1 0 -3 1 -1 0 3 1 11 
0 -14 1 -1 1 0 -1 0 2 2 0 2 1 1 0 5 
1 -8 0 10 0 -3 1 -1 0 11 1 -11 0 -5 1 -1 
0 -1 1 -1 1 0 1 1 0 4 1 2 0 5 0 -6 
1 9 0 12 0 -14 1 0 0 2 1 1 0 7 1 3 
0 14 1 3 0 15 1 3 0 17 1 4 0 19 1 6 
0 12 1 0 0 3 1 1 0 6 1 1 0 5 1 2 
0 4 1 2 0 6 1507 684 300 MP stroke
1 1 0 4 1 1 0 2 1 -5 0 18 0 -14 1 -2 
0 -5 1 -1 0 -3 1 -1 0 -3 1 -1 0 -1 1 -1 
0 -9 1 -2 0 -9 1 -1 0 -6 1 -5 0 -18 1 -5 
0 -15 1 -4 0 -14 1 -3 0 -12 1 -4 0 -11 1 -2 
0 -6 1 -1 0 2 1 1 0 -7 1 -1 1 -3 -1 0 
2 2 0 -3 1 -1 1 0 -1 0 2 2 0 3 1 2 
0 8 1 -2 0 -4 1 -1 0 -3 1 -1 0 -2 1 -1 
1 -1 1 1 0 2 1 1 0 6 1 2 0 7 1 -1 
0 -4 1 1 0 6 1 2 0 10 1 3 0 16 1 4 
0 15 1 4 0 19 1 3 0 -1 0 30 1 -8 0 -1 
0 2 1 1 0 5 1 1 0 7 1 1 0 5 1 1 
0 5 1 1 0 -5 0 10 1 1 0 5 1 9 0 -14 
1 -1 0 -5 1 -1 0 -4 1 -1 0 -3 1 -1 0 -12 
1 5 0 -6 1 -2 0 -6 1 -1 0 8 0 -19 1 -5 
0 -17 1 -4 0 -15 1 -3 0 -13 1 -4 0 -11 1 -4 
0 -9 1 -2 0 -3 1 -1 0 14 1 -11 0 -9 1 -1 
0 -1 1 -1 1 0 -1 -7 0 7 2 -2 1 1 0 2 
1 1 0 11 1 10 0 -15 1 -1 0 -10 1 5 0 1 
0 -2 1 -1 0 -1 1 -1 1 1 0 1 1 1 0 6 
1 2 0 18 0 -8 1 -3 0 -8 0 6 1 0 0 5 
1 2 0 9 1 3 0 12 1 3 0 15 1 4 0 18 
1 5 0 18 0 -1 1 -3 0 9 1 1 0 4 1 2 
0 6 1 2 0 5 1 1 0 6 1 2 0 11 0 -7 
1 1 0 3 1 -5 0 5 0 -4 1 -1 0 -5 1 -2 
0 -3 1 -1 0 -3 1 -1 0 6 0 -9 1 -3 0 -9 
1 -1 0 -5 1 -2 0 -15 1 -5 0 -16 1 -4 0 -14 
1 -3 0 -6 0 4 1 -10 0 -15 1 -2 0 -6 1 -3 
1 -1 0 1 0 -6 0 2 1 -2 0 -3 1 -1 0 10 
1 -7 0 -4 1 -1 1 -1 0 2 1 1 0 5 1 2 
0 3 0 -8 0 5 1 -1 0 -1 0 2 1 6 0 -13 
1 -1 0 -1 2 0 0 2 1 1 0 5 1 3 0 7 
1 3 0 6 0 -10 1 0 0 4 1 2 0 10 1 2 
0 16 1 4 0 15 1 4 0 20 1 6 0 9 1 1 
0 3 1 1 0 5 1 2 0 6 1 2 0 5 1 1 
0 9 1 0 0 2 1 1 0 2 0 -2 1 -2 0 -6 
1 -1 0 -4 1 -1 0 -3 1 -1 0 -1 1 -1 0 -11 
1 -2 0 -6 1 -1 0 -12 1 -5 0 -16 1 -4 0 -14 
1 -3 0 -9 1 -3 1362 788 300 MP stroke
0 -15 1 -2 0 -8 1 -1 1 -1 0 1 0 -5 1 -2 
0 -3 1 -1 0 2 1 -2 0 -3 2 0 0 2 1 1 
0 5 1 2 0 2 0 -3 1 -1 0 -1 0 1 1 -2 
0 -4 1 -1 1 -1 1 1 0 3 1 2 0 8 1 2 
0 6 1 -2 0 -2 1 1 0 6 1 2 0 13 1 3 
0 13 1 4 0 17 1 4 0 19 1 4 0 5 0 -1 
1 1 0 4 1 1 0 5 1 2 0 5 1 1 0 6 
1 2 0 6 1 1 0 7 1 -3 0 -7 1 -2 0 -5 
1 -1 0 -3 1 -1 0 -3 1 -1 0 -6 1 -2 0 -7 
1 -1 0 -9 1 -5 0 -17 1 -4 0 -15 1 -3 0 -11 
1 -3 0 -12 1 -3 0 -7 1 -1 0 -2 1 1 0 3 
0 -6 1 -2 0 -5 1 -1 0 -1 1 -1 0 -1 1 -1 
1 0 0 3 1 1 0 6 1 2 0 3 0 -6 1 -1 
0 -2 1 -1 0 -3 1 -1 1 -1 0 2 1 1 0 5 
1 2 0 13 1 -2 0 -1 1 -1 0 2 1 2 0 8 
1 2 0 15 1 3 0 15 1 4 0 17 1 3 0 19 
0 -3 1 0 0 3 1 2 0 5 1 1 0 5 1 2 
0 5 1 2 0 5 1 1 0 7 1 4 0 -11 1 -2 
0 -6 1 -1 0 -4 1 -1 0 -3 1 -2 0 -5 1 -2 
0 -6 1 -2 0 2 0 -8 1 -6 0 -17 1 -4 0 -14 
1 -3 0 -15 1 0 0 -13 1 -2 0 -5 1 -1 0 -1 
0 3 1 4 0 -13 1 -1 0 -3 1 -1 0 -3 0 2 
1 -1 1 -2 -1 0 2 2 0 3 1 2 0 11 0 -5 
1 -3 0 -4 1 -3 0 2 0 -2 1 -1 1 -1 1 1 
0 4 1 1 0 9 1 4 0 6 0 -8 1 2 0 2 
1 1 0 7 1 2 0 11 1 3 0 14 1 4 0 17 
1 5 0 14 1 2 0 3 1 1 0 4 1 2 0 5 
1 2 0 7 1 1 0 8 1 -1 0 5 1 -1 0 -5 
1 -2 0 -5 1 -1 0 -4 1 -1 0 -2 1 -1 0 1 
0 -8 1 -2 0 -7 1 -1 0 -14 1 -4 0 -16 1 -4 
0 -12 1 -3 0 -11 1 -3 0 -10 1 -2 0 -3 1 -1 
0 1 0 -2 1 -1 0 -6 1 -1 0 -2 0 2 1 -3 
0 -2 1 -1 1 0 0 3 1 1 0 5 1 1 0 -2 
1 -1 0 1 0 -4 1 -1 0 -2 1 -1 1 1 0 4 
1 1 0 9 1 3 0 5 1 -2 0 -1 0 1 1 1 
0 6 1 2 0 14 1 3 0 14 1 4 0 18 1 4 
0 11 1 1 0 4 1 2 0 5 1 1 0 6 1 1 
0 6 1 2 0 4 1216 694 300 MP stroke
1 1 0 4 0 -2 1 -2 0 -6 1 -1 0 -5 1 -1 
0 -4 1 -1 0 -5 1 -2 0 -7 1 -1 0 -7 1 -4 
0 -17 1 -3 0 -14 1 -3 0 -10 1 -3 0 -11 1 -2 
0 -5 1 -1 0 -1 0 1 1 -3 0 -7 1 -1 1 -1 
0 -3 1 -1 1 -1 0 3 1 1 0 6 1 2 0 -4 
1 -1 0 -3 1 -1 0 -1 1 -1 1 1 0 5 1 2 
0 9 1 3 0 1 1 -1 0 2 1 1 0 8 1 2 
0 12 1 3 0 18 1 4 0 18 1 3 0 5 1 1 
0 4 1 1 0 6 1 1 0 6 1 1 0 7 1 2 
0 3 1 1 0 1 0 -5 1 -1 0 -7 1 -1 0 -4 
1 -1 0 -3 1 -1 0 -8 1 -1 0 -6 1 -1 0 -16 
1 -4 0 -14 1 -3 0 -12 1 -2 0 -11 1 -3 0 -7 
1 -1 0 -1 0 1 1 -1 0 -8 1 -1 0 -3 1 1 
0 -4 1 -1 1 0 0 2 1 1 0 6 1 1 0 -3 
1 -1 0 -4 1 -1 1 -1 0 2 1 1 0 5 1 2 
0 10 1 1 0 1 1 -1 0 4 1 1 0 9 1 5 
0 16 1 4 0 16 1 5 0 12 0 -1 1 1 0 3 
1 1 0 6 1 1 0 6 1 1 0 7 1 1 0 4 
1 1 0 4 0 -6 1 -1 0 -7 1 -1 0 -4 1 -1 
0 -4 1 -2 0 -6 1 -2 0 -4 1 -1 0 -18 1 -4 
0 -13 1 -3 0 -11 1 -3 0 -10 1 -2 0 -6 1 -1 
0 2 0 -4 1 -2 0 -6 1 -1 0 -2 1 -1 0 -2 
1 -1 1 1 0 4 1 1 0 5 0 -3 1 -1 0 -3 
1 -1 0 -1 1 -1 1 1 0 4 1 2 0 10 1 4 
0 -2 1 1 0 3 1 2 0 8 1 2 0 12 1 3 
0 19 1 4 0 15 1 0 0 4 1 1 0 5 1 1 
0 6 1 2 0 6 1 2 0 3 1 1 0 3 0 -5 
1 -1 0 -5 1 -1 0 -5 1 -1 0 -4 1 -2 0 -7 
1 -2 0 -5 1 -5 0 -15 1 -3 0 -13 1 -3 0 -10 
1 -3 0 -9 1 -2 0 -3 1 -1 0 1 0 -7 1 -1 
0 -3 1 -1 0 -3 1 -1 1 -1 0 2 1 1 0 6 
1 -2 0 -1 1 -1 0 -3 1 -1 1 0 0 4 1 1 
0 8 1 2 0 4 1 1 0 2 1 1 0 8 1 2 
0 15 1 3 0 15 1 4 0 13 1 0 0 6 1 2 
0 5 1 2 0 5 1 2 0 7 1 0 0 2 1 1 
0 -5 1 -1 0 -5 1 -1 0 -4 1 -1 0 -7 1 -2 
0 -6 1 -2 0 -13 1 -4 0 -13 1 -3 0 -9 1 -3 
0 -11 1 -2 0 -5 1067 799 300 MP stroke
1 -1 0 -3 1 -2 0 -5 1 -1 0 -3 1 -1 0 -1 
1 -1 0 2 1 1 0 3 1 1 0 -2 1 1 0 -4 
2 0 0 3 1 1 0 7 1 3 0 6 0 -1 1 1 
0 3 1 2 0 9 1 2 0 12 1 3 0 16 1 4 
0 8 0 0 1 2 0 5 1 1 0 6 1 1 0 7 
1 2 0 8 0 -3 1 1 0 2 0 -5 0 2 1 -1 
0 -4 1 -1 0 -4 1 -1 0 -4 1 3 0 -12 1 -1 
0 -12 1 0 0 -13 1 -3 0 -15 1 -1 0 1 0 -12 
1 -3 0 -6 1 -1 0 -7 1 2 0 -6 1 -1 0 3 
0 -5 1 -1 0 -2 1 -1 1 1 0 3 1 -2 0 3 
1 3 0 -6 1 -1 1 1 0 4 1 1 0 7 1 -1 
0 12 0 -3 1 -1 0 5 1 1 0 12 1 2 0 13 
1 4 0 23 1 -4 0 5 1 1 0 6 1 1 0 6 
1 2 0 3 0 -2 1 5 0 9 1 -6 0 -5 1 -1 
0 -4 1 -1 0 -6 1 -5 0 2 0 -5 1 -2 0 1 
0 -9 1 -3 0 -14 1 -3 0 -11 1 -3 0 -9 1 -2 
0 -7 1 -1 0 2 0 -4 1 -3 0 -6 1 -1 0 -5 
0 2 1 -1 1 -1 -1 0 2 2 0 7 0 -4 1 -1 
0 -5 0 2 1 1 1 -1 0 2 1 1 0 5 1 2 
0 12 0 -6 1 2 0 5 1 1 0 9 1 2 0 12 
1 3 0 15 1 3 0 7 1 1 0 6 1 1 0 6 
1 1 0 6 1 1 0 5 1 -1 0 -4 1 -1 0 -5 
1 -1 0 -3 1 -2 0 -8 1 -1 0 -8 1 -3 0 -13 
1 -3 0 -11 1 -2 0 -10 1 -3 0 -7 1 -1 0 4 
0 -8 1 -2 0 -5 1 1 0 -3 1 -1 1 0 -1 0 
2 -1 0 10 0 -5 1 -1 0 -2 1 -1 0 1 1 1 
0 5 1 2 0 9 1 1 0 2 1 1 0 7 1 3 
0 13 1 3 0 14 1 8 0 -7 0 9 1 2 0 6 
1 1 0 7 1 1 0 12 1 -5 0 -4 0 5 1 -1 
0 -4 1 -1 0 -4 1 -1 0 2 0 -7 1 -3 0 -7 
1 -2 0 -9 1 -4 0 -12 1 -3 0 -12 1 -3 0 -7 
1 -1 0 -8 1 2 0 -5 1 -1 0 5 0 -8 1 -1 
1 -1 -1 0 2 2 0 -3 0 4 1 1 0 4 1 -7 
-1 0 2 2 0 5 1 1 0 5 0 -1 1 10 0 -3 
0 2 1 1 0 8 1 2 0 10 1 3 0 12 1 -1 
0 14 0 -1 1 1 0 8 1 2 0 5 1 2 0 -4 
0 6 1 2 0 9 0 -9 1 -1 0 -4 1 -1 0 -4 
1 -3 0 -7 0 2 928 736 300 MP stroke
1 -2 0 -5 0 6 1 -9 0 -15 1 -2 0 -20 1 3 
0 -8 1 -1 0 -4 0 1 1 5 0 -14 1 -1 0 -9 
0 4 1 1 0 -1 1 -1 1 1 0 10 0 -9 1 -2 
0 -5 0 6 2 2 0 5 1 2 0 12 0 -10 1 5 
0 6 1 1 0 11 1 3 0 11 1 3 0 12 1 1 
0 6 1 2 0 6 1 1 0 5 0 -1 1 2 0 4 
0 -1 1 -1 0 -4 1 -1 0 -5 1 -1 0 -7 1 -2 
0 -5 1 -4 0 -13 1 -2 0 -12 1 -2 0 -10 1 -1 
0 -3 1 -3 0 -6 1 -1 0 -3 0 1 1 -1 1 -1 
0 2 1 2 0 -5 1 1 1 1 0 3 1 1 0 8 
1 3 0 -1 0 4 1 2 0 7 1 3 0 9 1 3 
0 13 1 1 0 8 1 1 0 7 1 1 0 6 1 2 
0 1 1 -1 0 1 0 -3 1 -1 0 -4 1 -1 0 -7 
1 -2 0 -9 1 -1 0 -11 1 -3 0 -9 1 -2 0 -10 
1 -1 0 -8 1 -1 0 -3 1 -1 0 -4 2 0 0 -1 
1 1 0 2 0 -2 2 2 0 5 1 1 0 8 1 1 
0 5 1 2 0 13 1 3 0 18 1 -10 0 13 1 2 
0 6 1 2 0 6 1 8 0 -15 1 7 0 1 0 -2 
1 -1 0 -4 1 -1 0 6 0 -14 1 -2 0 -15 0 4 
1 -2 0 -12 1 -2 0 4 0 -13 1 -2 0 -7 1 -2 
0 -9 0 4 1 -1 0 5 0 -7 1 -2 0 -1 1 -1 
1 -8 0 17 0 -7 1 -1 0 1 1 1 0 4 1 1 
0 -1 0 14 1 -4 0 5 1 2 0 9 1 3 0 10 
1 -3 0 15 0 -1 1 2 0 7 1 1 0 4 0 -6 
1 7 0 11 0 -7 1 -2 0 -3 1 -1 0 -13 1 5 
0 -7 1 -2 0 6 0 -16 1 -3 0 -11 1 -8 0 4 
0 -6 1 -2 0 4 0 -9 1 -2 0 -13 1 6 1 -1 
0 -1 0 2 1 7 0 -16 1 7 0 2 1 1 0 4 
1 1 0 12 0 -11 1 6 0 8 1 2 0 14 1 3 
0 9 1 2 0 8 1 1 0 5 1 1 0 3 0 -1 
1 1 0 -2 1 -1 0 -5 1 -1 0 -7 1 -2 0 -10 
1 -2 0 -12 1 -3 0 -8 1 -2 0 -6 1 -1 0 -4 
1 -1 0 -1 1 -1 1 0 0 1 0 -2 0 1 1 1 
0 2 1 1 0 5 1 2 0 8 1 1 0 9 1 2 
0 11 1 8 0 -11 0 13 1 2 0 6 1 1 0 12 
1 -7 0 -8 0 8 1 -1 0 -4 1 -1 0 5 0 -13 
1 -1 0 -15 0 4 1 -2 0 -9 1 5 0 -17 1 -2 
0 -11 0 7 1 -2 790 791 300 MP stroke
0 4 0 -8 1 -2 1 -1 0 -9 0 7 1 2 0 8 
0 -8 1 1 0 5 1 1 0 -3 0 15 1 -4 0 7 
1 2 0 11 1 1 0 14 0 -17 0 14 1 2 0 7 
1 1 0 2 0 -8 1 8 0 12 0 -10 1 -1 0 -4 
1 -3 0 -9 0 4 1 6 0 -21 1 -2 0 -16 0 5 
1 -1 0 -7 1 9 0 -17 1 -8 0 7 0 -1 1 -1 
0 9 1 -8 0 -10 0 10 1 1 0 3 1 1 0 12 
0 -12 1 7 0 10 1 2 0 8 1 2 0 10 1 2 
0 7 1 1 0 0 0 1 1 2 0 1 0 -2 1 -1 
0 -7 1 -1 0 -9 1 -3 0 -9 1 -4 0 -8 1 -1 
0 -6 1 -1 0 -4 2 0 0 -3 0 2 1 1 0 3 
1 1 0 6 1 -1 0 12 1 3 0 10 1 0 0 10 
1 2 0 6 1 1 0 -4 0 1 1 1 0 -2 1 -1 
0 -10 1 -4 0 -6 1 -2 0 -10 1 -2 0 -8 1 -1 
0 1 0 -4 1 -1 0 -4 1 2 0 4 0 -1 1 1 
0 3 1 1 0 7 1 2 0 7 1 2 0 14 0 -12 
1 8 0 11 1 1 0 11 0 -9 1 -11 0 10 0 -1 
1 -1 0 7 0 -14 1 -4 0 -10 0 4 1 -2 0 4 
0 -13 1 -2 0 -16 0 6 1 1 0 7 0 -11 1 0 
0 -13 1 11 0 11 0 -8 1 1 0 3 1 -5 0 17 
0 -1 1 2 0 6 0 -3 1 17 0 -4 0 5 1 2 
0 -6 0 9 1 8 0 -10 1 -1 0 -11 0 4 1 -1 
0 6 0 -15 1 -3 0 -10 0 1 1 6 0 -23 1 7 
0 -2 1 1 0 7 0 -15 0 7 1 2 0 5 1 2 
0 7 0 -13 0 11 1 3 0 6 1 2 0 11 1 2 
0 3 0 -7 1 14 0 -10 1 -1 0 -8 1 -3 0 -8 
1 -2 0 -8 1 -1 0 -4 1 -1 0 7 0 -14 0 7 
1 -1 0 6 1 1 0 4 1 3 0 13 1 3 0 6 
1 1 0 9 0 -17 0 6 1 1 0 6 0 -9 1 -3 
0 -13 0 4 1 5 0 -26 1 9 0 6 0 -12 1 0 
0 -9 0 18 1 -8 0 4 1 1 0 9 1 1 0 9 
1 2 0 4 0 -6 1 15 0 -12 1 -8 0 14 0 -16 
1 -3 0 -9 0 2 1 9 0 -21 0 6 1 -1 0 8 
0 -14 0 6 1 2 0 6 1 3 0 9 1 2 0 5 
0 -1 1 3 0 -5 1 -1 0 -9 1 -2 0 -7 1 -2 
0 -2 0 1 1 -1 0 5 1 1 0 8 1 1 0 10 
0 -1 1 -2 0 2 0 -2 1 -5 0 -4 1 -4 0 -6 
1 -2 0 -1 0 5 669 780 300 MP stroke
1 1 0 7 1 2 0 12 0 -14 1 8 0 5 0 -17 
0 8 1 -1 0 6 0 -23 0 13 1 -7 0 6 0 -16 
0 11 1 1 0 7 1 1 0 10 0 -15 1 13 0 -24 
1 7 0 6 0 -14 0 9 1 4 0 4 1 -1 0 -7 
1 -1 0 5 0 -1 1 1 0 -4 0 2 656 776 39 MP stroke
gr

c8
0 sg
 639 3409 mt 
( ) s
4550  326 mt 
( ) s
1 sg
0 188 773 0 0 -188 3734 532 4 MP
PP
-773 0 0 188 773 0 0 -188 3734 532 5 MP stroke
4 w
DO
SO
6 w
0 sg
3734  344 mt 4507  344 L
3734  532 mt 4507  532 L
4507  532 mt 4507  344 L
3734  532 mt 3734  344 L
3734  532 mt 4507  532 L
3734  532 mt 3734  344 L
3734  344 mt 4507  344 L
3734  532 mt 4507  532 L
4507  532 mt 4507  344 L
3734  532 mt 3734  344 L
4202  481 mt 
(Error) s
gs 3734 344 774 189 rc
c8
360 0 3805 438 2 MP stroke
gr

c8

end %%Color Dict

eplot
%%EndObject

epage
end

showpage

%%Trailer
%%EOF
