%!PS-Adobe-3.0 EPSF-3.0
%%Creator: MATLAB, The MathWorks, Inc. Version 7.14.0.739 (R2012a). Operating System: Linux 3.2.0-56-generic #86-Ubuntu SMP Wed Oct 23 09:20:45 UTC 2013 x86_64.
%%Title: /home/birkeland/andreros/Dropbox/tma4220-element-methods-project/report/images/poisson2d-mixed-all-err.eps
%%CreationDate: 11/20/2013  19:47:54
%%DocumentNeededFonts: Helvetica
%%DocumentProcessColors: Cyan Magenta Yellow Black
%%LanguageLevel: 2
%%Pages: 1
%%BoundingBox:    52   213   558   578
%%EndComments

%%BeginProlog
% MathWorks dictionary
/MathWorks 160 dict begin
% definition operators
/bdef {bind def} bind def
/ldef {load def} bind def
/xdef {exch def} bdef
/xstore {exch store} bdef
% operator abbreviations
/c  /clip ldef
/cc /concat ldef
/cp /closepath ldef
/gr /grestore ldef
/gs /gsave ldef
/mt /moveto ldef
/np /newpath ldef
/cm /currentmatrix ldef
/sm /setmatrix ldef
/rm /rmoveto ldef
/rl /rlineto ldef
/s {show newpath} bdef
/sc {setcmykcolor} bdef
/sr /setrgbcolor ldef
/sg /setgray ldef
/w /setlinewidth ldef
/j /setlinejoin ldef
/cap /setlinecap ldef
/rc {rectclip} bdef
/rf {rectfill} bdef
% page state control
/pgsv () def
/bpage {/pgsv save def} bdef
/epage {pgsv restore} bdef
/bplot /gsave ldef
/eplot {stroke grestore} bdef
% orientation switch
/portraitMode 0 def /landscapeMode 1 def /rotateMode 2 def
% coordinate system mappings
/dpi2point 0 def
% font control
/FontSize 0 def
/FMS {/FontSize xstore findfont [FontSize 0 0 FontSize neg 0 0]
  makefont setfont} bdef
/reencode {exch dup where {pop load} {pop StandardEncoding} ifelse
  exch dup 3 1 roll findfont dup length dict begin
  { 1 index /FID ne {def}{pop pop} ifelse } forall
  /Encoding exch def currentdict end definefont pop} bdef
/isroman {findfont /CharStrings get /Agrave known} bdef
/FMSR {3 1 roll 1 index dup isroman {reencode} {pop pop} ifelse
  exch FMS} bdef
/csm {1 dpi2point div -1 dpi2point div scale neg translate
 dup landscapeMode eq {pop -90 rotate}
  {rotateMode eq {90 rotate} if} ifelse} bdef
% line types: solid, dotted, dashed, dotdash
/SO { [] 0 setdash } bdef
/DO { [.5 dpi2point mul 4 dpi2point mul] 0 setdash } bdef
/DA { [6 dpi2point mul] 0 setdash } bdef
/DD { [.5 dpi2point mul 4 dpi2point mul 6 dpi2point mul 4
  dpi2point mul] 0 setdash } bdef
% macros for lines and objects
/L {lineto stroke} bdef
/MP {3 1 roll moveto 1 sub {rlineto} repeat} bdef
/AP {{rlineto} repeat} bdef
/PDlw -1 def
/W {/PDlw currentlinewidth def setlinewidth} def
/PP {closepath eofill} bdef
/DP {closepath stroke} bdef
/MR {4 -2 roll moveto dup  0 exch rlineto exch 0 rlineto
  neg 0 exch rlineto closepath} bdef
/FR {MR stroke} bdef
/PR {MR fill} bdef
/L1i {{currentfile picstr readhexstring pop} image} bdef
/tMatrix matrix def
/MakeOval {newpath tMatrix currentmatrix pop translate scale
0 0 1 0 360 arc tMatrix setmatrix} bdef
/FO {MakeOval stroke} bdef
/PO {MakeOval fill} bdef
/PD {currentlinewidth 2 div 0 360 arc fill
   PDlw -1 eq not {PDlw w /PDlw -1 def} if} def
/FA {newpath tMatrix currentmatrix pop translate scale
  0 0 1 5 -2 roll arc tMatrix setmatrix stroke} bdef
/PA {newpath tMatrix currentmatrix pop	translate 0 0 moveto scale
  0 0 1 5 -2 roll arc closepath tMatrix setmatrix fill} bdef
/FAn {newpath tMatrix currentmatrix pop translate scale
  0 0 1 5 -2 roll arcn tMatrix setmatrix stroke} bdef
/PAn {newpath tMatrix currentmatrix pop translate 0 0 moveto scale
  0 0 1 5 -2 roll arcn closepath tMatrix setmatrix fill} bdef
/vradius 0 def /hradius 0 def /lry 0 def
/lrx 0 def /uly 0 def /ulx 0 def /rad 0 def
/MRR {/vradius xdef /hradius xdef /lry xdef /lrx xdef /uly xdef
  /ulx xdef newpath tMatrix currentmatrix pop ulx hradius add uly
  vradius add translate hradius vradius scale 0 0 1 180 270 arc 
  tMatrix setmatrix lrx hradius sub uly vradius add translate
  hradius vradius scale 0 0 1 270 360 arc tMatrix setmatrix
  lrx hradius sub lry vradius sub translate hradius vradius scale
  0 0 1 0 90 arc tMatrix setmatrix ulx hradius add lry vradius sub
  translate hradius vradius scale 0 0 1 90 180 arc tMatrix setmatrix
  closepath} bdef
/FRR {MRR stroke } bdef
/PRR {MRR fill } bdef
/MlrRR {/lry xdef /lrx xdef /uly xdef /ulx xdef /rad lry uly sub 2 div def
  newpath tMatrix currentmatrix pop ulx rad add uly rad add translate
  rad rad scale 0 0 1 90 270 arc tMatrix setmatrix lrx rad sub lry rad
  sub translate rad rad scale 0 0 1 270 90 arc tMatrix setmatrix
  closepath} bdef
/FlrRR {MlrRR stroke } bdef
/PlrRR {MlrRR fill } bdef
/MtbRR {/lry xdef /lrx xdef /uly xdef /ulx xdef /rad lrx ulx sub 2 div def
  newpath tMatrix currentmatrix pop ulx rad add uly rad add translate
  rad rad scale 0 0 1 180 360 arc tMatrix setmatrix lrx rad sub lry rad
  sub translate rad rad scale 0 0 1 0 180 arc tMatrix setmatrix
  closepath} bdef
/FtbRR {MtbRR stroke } bdef
/PtbRR {MtbRR fill } bdef
/stri 6 array def /dtri 6 array def
/smat 6 array def /dmat 6 array def
/tmat1 6 array def /tmat2 6 array def /dif 3 array def
/asub {/ind2 exch def /ind1 exch def dup dup
  ind1 get exch ind2 get sub exch } bdef
/tri_to_matrix {
  2 0 asub 3 1 asub 4 0 asub 5 1 asub
  dup 0 get exch 1 get 7 -1 roll astore } bdef
/compute_transform {
  dmat dtri tri_to_matrix tmat1 invertmatrix 
  smat stri tri_to_matrix tmat2 concatmatrix } bdef
/ds {stri astore pop} bdef
/dt {dtri astore pop} bdef
/db {2 copy /cols xdef /rows xdef mul dup 3 mul string
  currentfile 
  3 index 0 eq {/ASCIIHexDecode filter}
  {/ASCII85Decode filter 3 index 2 eq {/RunLengthDecode filter} if }
  ifelse exch readstring pop
  dup 0 3 index getinterval /rbmap xdef
  dup 2 index dup getinterval /gbmap xdef
  1 index dup 2 mul exch getinterval /bbmap xdef pop pop}bdef
/it {gs np dtri aload pop moveto lineto lineto cp c
  cols rows 8 compute_transform 
  rbmap gbmap bbmap true 3 colorimage gr}bdef
/il {newpath moveto lineto stroke}bdef
currentdict end def
%%EndProlog

%%BeginSetup
MathWorks begin

0 cap

end
%%EndSetup

%%Page: 1 1
%%BeginPageSetup
%%PageBoundingBox:    52   213   558   578
MathWorks begin
bpage
%%EndPageSetup

%%BeginObject: obj1
bplot

/dpi2point 12 def
portraitMode 0624 6936 csm

    0     0  6077  4377 rc
85 dict begin %Colortable dictionary
/c0 { 0.000000 0.000000 0.000000 sr} bdef
/c1 { 1.000000 1.000000 1.000000 sr} bdef
/c2 { 0.900000 0.000000 0.000000 sr} bdef
/c3 { 0.000000 0.820000 0.000000 sr} bdef
/c4 { 0.000000 0.000000 0.800000 sr} bdef
/c5 { 0.910000 0.820000 0.320000 sr} bdef
/c6 { 1.000000 0.260000 0.820000 sr} bdef
/c7 { 0.000000 0.820000 0.820000 sr} bdef
c0
1 j
1 sg
   0    0 6078 4378 rf
6 w
0 3568 4710 0 0 -3568 790 3896 4 MP
PP
-4710 0 0 3568 4710 0 0 -3568 790 3896 5 MP stroke
4 w
DO
SO
6 w
0 sg
 790 3896 mt 5500 3896 L
 790  328 mt 5500  328 L
 790 3896 mt  790  328 L
5500 3896 mt 5500  328 L
 790 3896 mt 5500 3896 L
 790 3896 mt  790  328 L
 790 3896 mt  790 3848 L
 790  328 mt  790  375 L
%%IncludeResource: font Helvetica
/Helvetica /ISOLatin1Encoding 120 FMSR

 757 4041 mt 
(0) s
1261 3896 mt 1261 3848 L
1261  328 mt 1261  375 L
1178 4041 mt 
(0.2) s
1732 3896 mt 1732 3848 L
1732  328 mt 1732  375 L
1649 4041 mt 
(0.4) s
2203 3896 mt 2203 3848 L
2203  328 mt 2203  375 L
2120 4041 mt 
(0.6) s
2674 3896 mt 2674 3848 L
2674  328 mt 2674  375 L
2591 4041 mt 
(0.8) s
3145 3896 mt 3145 3848 L
3145  328 mt 3145  375 L
3112 4041 mt 
(1) s
3616 3896 mt 3616 3848 L
3616  328 mt 3616  375 L
3533 4041 mt 
(1.2) s
4087 3896 mt 4087 3848 L
4087  328 mt 4087  375 L
4004 4041 mt 
(1.4) s
4558 3896 mt 4558 3848 L
4558  328 mt 4558  375 L
4475 4041 mt 
(1.6) s
5029 3896 mt 5029 3848 L
5029  328 mt 5029  375 L
4946 4041 mt 
(1.8) s
5500 3896 mt 5500 3848 L
5500  328 mt 5500  375 L
5467 4041 mt 
(2) s
5230 4243 mt 
(x 10) s
%%IncludeResource: font Helvetica
/Helvetica /ISOLatin1Encoding 80 FMSR

5456 4169 mt 
(4) s
 790 3896 mt  837 3896 L
5500 3896 mt 5452 3896 L
%%IncludeResource: font Helvetica
/Helvetica /ISOLatin1Encoding 120 FMSR

 385 3940 mt 
(-0.045) s
 790 3539 mt  837 3539 L
5500 3539 mt 5452 3539 L
 452 3583 mt 
(-0.04) s
 790 3182 mt  837 3182 L
5500 3182 mt 5452 3182 L
 385 3226 mt 
(-0.035) s
 790 2825 mt  837 2825 L
5500 2825 mt 5452 2825 L
 452 2869 mt 
(-0.03) s
 790 2468 mt  837 2468 L
5500 2468 mt 5452 2468 L
 385 2512 mt 
(-0.025) s
 790 2112 mt  837 2112 L
5500 2112 mt 5452 2112 L
 452 2156 mt 
(-0.02) s
 790 1755 mt  837 1755 L
5500 1755 mt 5452 1755 L
 385 1799 mt 
(-0.015) s
 790 1398 mt  837 1398 L
5500 1398 mt 5452 1398 L
 452 1442 mt 
(-0.01) s
 790 1041 mt  837 1041 L
5500 1041 mt 5452 1041 L
 385 1085 mt 
(-0.005) s
 790  684 mt  837  684 L
5500  684 mt 5452  684 L
 689  728 mt 
(0) s
 790  328 mt  837  328 L
5500  328 mt 5452  328 L
 455  372 mt 
(0.005) s
 790 3896 mt 5500 3896 L
 790  328 mt 5500  328 L
 790 3896 mt  790  328 L
5500 3896 mt 5500  328 L
gs 790 328 4711 3569 rc
/c8 { 0.000000 0.000000 1.000000 sr} bdef
c8
1 0 1 0 1 0 1 0 1 0 1 0 1 0 1 0 
1 0 1 0 1 0 1 0 1 0 1 0 1 0 1 0 
1 0 1 0 1 0 1 0 1 0 1 0 1 0 1 0 
1 0 1 0 1 0 1 0 1 0 1 0 1 0 1 0 
1 0 1 0 1 0 1 0 1 0 1 0 1 0 1 0 
1 0 1 0 1 0 1 0 1 0 1 0 1 0 1 0 
1 0 1 0 1 0 1 0 1 0 1 0 1 0 1 0 
1 0 1 0 1 0 1 0 1 0 1 0 1 0 1 0 
1 0 1 0 1 0 1 0 1 0 1 0 1 0 1 0 
1 0 1 0 1 0 1 0 1 0 1 0 1 0 1 0 
1 -3187 0 1962 1 164 0 311 1 14 0 107 1 -3 0 76 
1 -9 0 46 0 -13 1 4 0 48 0 -7 1 30 0 -18 
0 13 1 29 0 -17 0 11 1 30 0 -17 0 32 1 -19 
0 40 0 -17 1 5 0 28 0 -17 1 11 0 31 0 -6 
1 31 0 -15 0 20 1 33 0 -25 0 19 1 -28 0 12 
0 -27 1 -9 0 24 0 -25 1 -1 0 21 0 -32 1 5 
0 24 1 -24 0 -5 0 30 1 -23 0 -4 0 33 1 -21 
0 26 0 -22 1 -3 0 35 0 -13 1 27 0 -17 0 11 
1 15 0 -41 0 2 1 21 0 -27 0 21 1 -25 0 21 
0 -28 0 5 1 0 0 21 0 -29 1 5 0 23 0 -22 
1 23 0 -30 0 5 1 24 0 -28 0 30 1 -22 0 22 
0 -23 1 -5 0 30 0 -22 1 1 0 22 0 -28 1 6 
0 27 1 -23 0 -5 0 31 1 -22 0 -4 0 33 1 -20 
0 26 0 -21 1 -3 0 36 0 -14 1 27 0 -18 0 12 
1 31 0 -16 0 15 1 27 0 -34 0 14 1 -31 0 7 
0 -27 1 -3 0 19 0 -33 1 3 0 23 0 -22 1 22 
0 -27 0 8 1 27 0 -18 0 27 1 -30 0 10 0 -28 
1 -9 0 24 0 -25 1 -2 0 20 0 -33 1 4 0 23 
0 -25 0 22 1 -25 0 -7 0 27 1 -24 0 -6 0 29 
1 -23 0 21 0 -25 1 -6 0 28 0 -23 1 22 0 -30 
0 4 1 23 0 -29 0 5 1 24 0 -24 0 22 1 -25 
0 -5 0 28 1 -22 0 21 0 -30 1 5 0 24 0 -23 
1 22 0 -29 0 5 1 23 0 -28 0 6 1 25 0 2 
0 -24 0 1 1 -4 0 33 0 -20 1 3 0 25 0 -22 
1 10 0 30 0 -9 1 30 0 -16 0 23 1 -31 0 -12 
0 20 1 -24 0 22 0 -38 1 -19 0 7 0 -31 1 -8 
0 14 0 -45 1 17 0 -42 1 18 0 -35 0 16 1 -31 
0 -13 0 16 1 -30 5345 1160 300 MP stroke
0 6 0 -48 1 -5 0 13 0 -47 1 8 0 -77 1 2 
0 -109 1 -15 0 -315 1 -168 0 -1974 1 2746 0 345 1 35 
0 39 1 -6 0 21 1 -7 0 15 0 -12 1 10 0 -8 
0 14 1 -12 0 14 1 0 0 1 0 -11 1 9 0 -8 
0 19 1 9 0 -23 0 13 1 4 0 16 0 -20 0 12 
1 -19 0 4 0 -11 0 10 1 -13 0 0 0 12 1 0 
0 -12 0 0 1 13 0 -11 0 12 1 0 0 -13 0 13 
1 0 0 -12 0 0 1 12 0 -12 0 9 1 -9 0 13 
0 -11 1 11 0 -13 1 13 0 -13 0 9 1 -9 0 13 
0 -11 1 11 0 -13 0 9 1 -9 0 12 0 -12 0 9 
1 -9 0 13 0 -12 1 10 0 29 0 -33 0 11 1 -15 
0 10 0 -13 1 8 0 4 0 -12 0 0 1 9 0 -8 
0 15 1 -8 0 24 1 -8 0 -16 0 7 1 -14 0 -1 
0 12 1 -12 0 0 0 13 1 0 0 -12 0 12 1 -13 
0 12 1 1 0 -13 0 13 1 0 0 -13 1 13 0 -11 
0 11 1 0 0 -13 1 12 0 -12 1 12 0 -10 0 11 
1 0 0 -12 0 5 1 33 0 -37 0 7 1 -9 0 12 
0 -13 1 9 0 3 0 -12 0 1 1 11 0 -13 0 9 
1 -9 0 12 0 -12 1 9 0 -8 0 13 1 -11 0 32 
1 -14 0 3 0 -22 1 8 0 -11 0 12 1 -13 0 -1 
0 13 1 -1 0 -14 1 9 0 2 0 -12 0 11 1 -13 
0 -2 0 11 1 -1 0 -18 1 10 0 -22 1 -23 0 -74 
1 -91 0 -1158 1 186 0 373 1 59 0 159 1 24 0 48 
1 21 0 35 1 4 0 27 1 15 0 22 1 14 0 21 
1 1 0 27 1 16 0 42 1 10 0 13 0 -28 1 -12 
0 1 0 -15 1 4 0 -8 0 4 1 -7 0 8 1 0 
0 4 0 -10 0 5 1 8 0 -3 0 13 1 -2 0 28 
1 24 0 -38 1 -11 0 3 0 -8 0 4 1 -8 0 6 
0 -7 0 6 1 0 0 -7 1 7 0 -7 0 7 1 1 
0 -7 0 8 1 1 0 0 0 -7 0 2 1 8 0 -6 
0 7 1 -5 0 10 0 -6 1 9 0 7 0 -9 0 5 
1 11 0 13 1 0 0 27 1 19 0 14 0 -8 1 -20 
0 -25 0 1 1 -11 0 4 0 -11 1 6 0 -6 0 10 
1 -3 0 39 0 -31 1 -5 0 -27 1 3 0 -9 0 3 
1 -9 0 5 0 -8 0 6 1 -2 0 -8 0 6 1 -8 
0 5 0 -7 0 6 1 -8 0 5 0 -7 0 7 1 -1 
0 -8 0 7 1 -9 0 6 0 -7 0 7 1 -1 0 -9 
0 7 1 0 0 -8 5239 1022 300 MP stroke
1 7 0 -8 0 8 1 1 0 0 0 -7 0 2 1 9 
0 7 0 -10 0 7 1 12 0 22 1 5 0 30 0 -19 
1 -6 0 -23 0 5 1 9 0 -70 1 -17 0 -28 1 -2 
0 -26 1 -15 0 -29 1 -5 0 -36 1 -23 0 -74 1 -36 
0 -127 1 -59 0 -382 1 -202 0 967 1 150 0 196 1 19 
0 29 1 3 0 13 1 4 0 3 1 4 0 2 1 4 
0 2 1 1 0 -2 0 2 1 4 0 -23 0 21 1 5 
0 67 1 -38 0 -28 1 0 0 -1 0 1 1 -4 0 2 
0 -2 1 1 0 3 0 -1 1 2 0 -3 1 1 0 2 
0 -1 1 -1 0 3 0 -2 1 0 0 3 1 -1 0 1 
0 -2 1 -1 0 3 0 -3 1 1 0 -1 0 3 1 -2 
0 2 0 -3 1 -1 0 3 0 -3 1 1 0 -1 0 4 
1 -2 0 2 0 -22 1 19 0 2 0 -4 1 1 0 -1 
0 3 1 -2 0 7 1 3 0 60 1 -35 0 -29 1 -4 
0 -1 0 2 1 -2 0 -1 0 1 1 2 0 -1 0 2 
1 -2 0 -1 0 2 1 -1 0 -1 0 1 1 2 0 -3 
1 2 0 1 0 -1 1 1 0 -3 0 1 1 1 0 -3 
1 3 0 1 0 -2 0 2 1 0 0 -6 1 -17 0 21 
0 -2 1 2 0 -4 0 1 1 -1 0 3 0 -2 1 2 
0 -4 1 0 0 2 0 -3 0 1 1 1 0 5 1 4 
0 59 1 -40 0 -28 1 -2 0 -4 1 -1 0 2 0 -1 
1 -1 0 -5 1 -1 0 1 0 -5 1 -1 0 -10 1 -3 
0 -14 1 -11 0 -45 1 -28 0 -215 1 -192 0 -466 0 89 
1 70 0 159 1 35 0 78 1 18 0 49 1 12 0 31 
1 11 0 31 1 7 0 22 1 7 0 22 1 9 0 28 
1 12 0 82 0 -35 1 -15 0 -22 1 -4 0 -10 1 0 
0 -3 0 1 1 -1 0 5 1 2 0 5 1 4 0 11 
1 4 0 2 0 -19 0 17 1 2 0 -12 1 0 0 -3 
1 -1 0 1 1 -2 -1 0 2 0 0 2 0 -1 1 1 
0 2 0 -1 1 1 0 1 0 -1 1 3 0 5 1 1 
0 8 1 2 0 12 1 5 0 22 1 9 0 69 1 -40 
0 -45 1 -5 0 -9 1 -3 0 -1 0 3 1 1 0 -18 
1 17 0 -14 1 -5 0 -6 1 -2 0 -3 1 -3 0 -4 
0 1 1 -2 0 -3 1 -1 0 -3 1 1 0 -3 0 1 
1 -2 0 -2 1 1 0 -2 1 -1 0 -2 1 0 0 1 
0 -1 1 1 0 -1 0 2 1 2 0 10 1 6 0 21 
1 11 0 58 0 -41 1 -17 0 -31 1 -27 0 11 0 -32 
1 -11 0 -27 1 -7 5116 1089 300 MP stroke
0 -27 1 -10 0 -29 1 -10 0 -54 1 -16 0 -65 1 -29 
0 -123 1 -59 0 -196 1 78 0 703 1 49 0 81 1 14 
0 28 1 6 0 13 1 3 0 9 1 1 0 5 1 1 
0 3 1 1 0 10 1 4 0 -3 0 10 1 7 0 11 
0 -17 1 -6 0 -7 1 -2 0 1 2 2 1 1 1 1 
1 1 0 1 2 0 0 1 1 -1 1 1 1 -1 0 -1 
0 1 1 -1 0 1 1 1 0 7 1 1 0 -9 1 -1 
0 -2 1 1 0 3 1 3 0 16 1 12 0 -20 1 -5 
0 -6 1 -1 0 -2 1 1 1 1 -1 0 2 0 1 0 
1 0 1 1 1 -1 1 -1 0 1 2 4 0 5 0 -9 
1 -1 0 -2 1 -1 1 0 0 -2 2 0 0 7 1 5 
0 18 1 -12 0 -18 1 -3 0 -4 1 -1 0 -3 1 -1 
0 -5 1 -1 0 -6 1 -3 0 -10 1 -5 0 -31 1 -13 
0 -69 1 -41 0 -256 1 -148 0 -214 1 29 0 146 1 27 
0 65 1 17 0 42 1 12 0 30 1 9 0 30 1 7 
0 21 1 7 0 23 1 8 0 29 1 12 0 29 0 -9 
1 -8 0 -15 1 -4 0 -5 1 -1 1 1 0 5 1 1 
0 8 1 3 0 14 1 7 0 -11 1 -2 0 -7 1 -1 
0 -1 1 -1 1 0 0 1 2 2 0 2 1 1 0 2 
1 1 0 5 1 2 0 9 1 4 0 14 1 7 0 26 
1 10 0 9 0 -22 1 -8 0 -18 1 -4 0 -6 1 -1 
0 3 1 2 0 5 0 -10 1 -5 0 -12 1 -2 0 -8 
1 -2 0 -3 1 -1 0 -3 1 -1 0 -2 1 -1 0 -2 
1 -1 0 -2 1 -1 0 -2 2 -2 1 -1 -1 0 2 2 
0 5 1 3 0 13 1 5 0 37 1 -12 0 -27 1 -5 
0 -28 1 -12 0 -29 1 -9 0 -34 1 -9 0 -27 1 -10 
0 -35 1 -14 0 -50 1 -21 0 -117 1 -39 0 -97 1 32 
0 338 1 91 0 173 1 33 0 73 1 10 0 21 1 5 
0 11 1 3 0 6 1 2 0 6 1 1 0 8 1 9 
0 39 0 -41 1 3 0 4 0 -26 1 29 0 -10 1 -2 
0 -1 1 1 0 1 1 1 0 2 2 2 1 1 1 1 
1 1 1 0 1 0 1 -1 1 -1 1 1 0 11 1 38 
0 -50 1 -1 1 -1 0 3 1 3 0 6 1 -25 0 34 
0 -6 1 -5 0 -7 1 0 1 -1 1 1 1 0 1 1 
1 0 1 0 1 -1 1 -1 1 0 0 10 1 39 0 -50 
1 -1 0 -1 1 -1 0 -1 2 -2 1 0 0 7 1 5 
0 10 0 -45 1 27 0 1 0 -9 1 -2 0 -5 1 -1 
0 -3 1 -1 0 -6 4948 730 300 MP stroke
1 -2 0 -12 1 -4 0 -17 1 -8 0 -34 1 -18 0 -88 
1 -49 0 -292 1 -112 0 -50 0 14 1 22 0 75 1 21 
0 54 1 15 0 48 1 9 0 27 1 7 0 22 1 7 
0 20 1 7 0 30 1 9 0 20 1 -23 0 47 0 -9 
1 -6 0 -11 1 -2 0 -2 1 -1 0 2 1 1 0 5 
1 2 0 8 1 3 0 54 0 -39 1 -8 0 -6 1 -2 
0 -2 1 -1 1 -1 0 1 2 2 0 1 1 1 0 2 
1 1 0 4 1 2 0 5 1 3 0 10 1 4 0 18 
1 7 0 12 0 -33 0 25 1 -1 0 -16 1 -4 0 -7 
1 -2 0 -1 0 1 1 1 0 47 0 -40 1 -11 0 -11 
1 -3 0 -6 1 -2 0 -4 1 -1 0 -4 1 -1 0 -2 
1 -1 0 -1 1 -1 0 -2 1 -1 0 -2 1 -1 0 -1 
1 -1 1 -1 1 1 0 4 1 3 0 10 1 5 0 15 
1 -28 0 24 0 -9 1 -6 0 30 0 -62 1 -11 0 -27 
1 -8 0 -25 1 -8 0 -26 1 -9 0 -32 1 -13 0 -61 
1 -20 0 -70 1 -27 0 -54 1 19 0 297 1 66 0 169 
1 23 0 47 1 10 0 23 1 5 0 13 1 3 0 9 
1 2 0 5 1 1 0 1 0 -6 1 -37 0 57 1 8 
0 63 0 -60 1 -7 1 -6 -1 0 2 2 0 2 1 1 
0 2 1 1 0 1 2 2 1 1 1 1 1 0 1 0 
1 -1 1 -1 1 -2 0 -47 0 39 1 8 0 1 0 -1 
1 -1 1 1 0 7 1 6 0 67 0 -47 1 -15 0 -14 
1 -1 0 -1 1 -1 1 1 1 1 1 0 1 1 1 0 
1 -1 1 -1 1 0 0 -3 1 -8 0 -39 0 46 1 1 
0 -1 1 -1 0 -2 2 -2 1 -1 0 4 1 4 0 72 
0 -60 1 -13 0 -12 1 -2 0 -5 1 -2 0 -4 1 -1 
0 -9 1 -3 0 -11 1 -5 0 -20 1 -9 0 -39 1 -19 
0 -135 1 -56 0 -257 1 -16 0 -35 0 3 1 12 0 51 
1 18 0 59 1 12 0 32 1 9 0 25 1 7 0 21 
1 6 0 20 1 6 0 29 1 8 0 33 1 63 0 -71 
1 -4 0 -7 1 -1 0 -1 1 1 0 3 1 1 0 5 
1 2 0 7 1 0 0 -44 0 47 1 1 0 -2 1 -1 
0 -1 1 -1 1 0 0 1 2 2 0 1 1 1 0 2 
1 1 0 5 1 2 0 6 1 3 0 11 1 5 0 22 
1 17 0 47 0 -74 1 -5 0 -10 1 -2 0 -3 1 -1 
0 -2 1 -9 0 -40 0 43 1 -2 0 -7 1 -2 0 -4 
1 -1 0 -4 1 -1 0 -3 1 -1 0 -1 1 -1 0 -2 
1 -1 0 -2 1 -1 4793 1007 300 MP stroke
0 -2 1 -1 0 -1 1 -1 1 0 -1 0 2 2 0 8 
1 3 0 17 1 16 0 46 0 -66 1 -10 0 -70 1 31 
0 1 0 -23 1 -7 0 -24 1 -8 0 -24 1 -9 0 -29 
1 -11 0 -53 1 -16 0 -54 1 -18 0 -33 1 12 0 158 
1 55 0 189 1 31 0 65 1 15 0 32 1 8 0 17 
1 4 0 12 1 3 0 5 1 2 0 5 1 -1 0 -5 
0 12 1 4 0 26 0 -11 1 -7 1 -6 -1 0 2 2 
0 3 1 1 0 3 1 1 0 1 1 1 0 2 2 2 
1 1 1 0 1 -1 1 -1 1 -1 1 -1 0 -9 0 6 
1 3 0 -2 2 0 0 5 1 3 0 22 0 -11 1 -7 
0 -8 1 -1 1 -1 -1 0 2 2 1 1 1 0 1 1 
1 0 0 -1 2 -2 1 0 0 -3 1 -7 0 6 1 1 
0 -2 1 -1 0 -1 1 -1 0 -2 1 -1 0 -2 1 1 
0 3 1 4 0 18 0 -15 1 -8 0 -12 1 -1 0 -5 
1 -1 0 -6 1 -2 0 -8 1 -4 0 -20 1 -6 0 -28 
1 -13 0 -55 1 -26 0 -114 1 -52 0 -193 1 -21 0 -9 
0 7 1 10 0 40 1 13 0 36 1 11 0 36 1 8 
0 22 1 7 0 18 1 7 0 18 1 7 0 26 1 8 
0 28 0 -10 1 -6 0 -8 1 -1 1 -1 0 2 1 1 
0 4 1 2 0 6 1 2 0 2 0 -3 1 -2 0 8 
1 -1 0 -1 1 -1 1 0 1 1 0 1 2 2 0 2 
1 1 0 3 1 1 0 6 1 2 0 8 1 4 0 13 
1 6 0 20 0 -14 1 -8 0 -13 1 -2 0 -3 1 -1 
1 -1 0 -13 0 5 1 1 0 -5 1 -2 0 -6 1 -1 
0 -3 1 -1 0 -2 1 -1 0 -2 1 -1 0 -2 1 -1 
0 -2 1 -1 0 -2 1 -1 0 -1 1 -1 1 -1 1 1 
0 3 1 1 0 9 1 4 0 18 0 -22 1 -8 0 -28 
1 1 0 -19 1 -7 0 -22 1 -7 0 -31 1 -9 0 -27 
1 -11 0 -35 1 -13 0 -42 1 -13 0 -21 0 9 1 22 
0 180 1 44 0 109 1 28 0 59 1 14 0 38 1 7 
0 15 1 3 0 9 1 3 0 6 1 2 0 21 1 -7 
0 -4 1 -2 0 -5 0 11 1 1 0 2 1 1 0 4 
1 1 0 4 1 1 0 2 1 1 0 2 1 1 0 1 
1 1 1 1 1 1 1 0 0 -1 2 -2 1 -1 0 2 
1 6 0 7 0 -17 1 -1 0 -1 1 -1 1 1 0 1 
0 -3 1 -5 0 11 1 -1 1 0 -1 0 2 2 0 1 
2 2 1 0 1 0 0 -1 2 -2 1 -1 0 -1 0 1 
1 3 0 9 0 -9 4632 703 300 MP stroke
1 -4 0 -5 1 -1 0 -1 1 -1 0 -2 1 -1 0 -2 
1 -1 0 -2 1 -1 0 -10 0 7 1 2 0 -5 1 -2 
0 -5 1 -1 0 -6 1 -2 0 -13 1 -4 0 -16 1 -7 
0 -28 1 -12 0 -51 1 -23 0 -137 1 -43 0 -107 1 -33 
0 -29 1 4 0 27 1 11 0 41 1 9 0 25 1 8 
0 20 1 7 0 18 1 5 0 23 1 6 0 17 1 4 
0 -5 0 8 1 4 0 2 2 2 0 3 1 1 0 4 
1 1 0 6 1 2 0 17 0 -2 1 -6 0 -5 1 -1 
1 0 1 0 -1 0 2 2 0 1 2 2 0 2 1 1 
0 4 1 1 0 5 1 1 0 7 1 3 0 8 1 -2 
0 -8 0 7 1 -1 0 -4 1 -1 0 -1 1 -1 0 6 
1 7 0 -22 1 -2 0 -4 1 -1 0 -3 1 -1 0 -3 
1 -1 0 -2 1 -1 0 -2 1 -1 0 -2 1 -1 0 -2 
1 -1 0 -2 1 -1 0 -1 1 -1 1 -1 1 1 0 3 
1 1 0 -10 1 4 0 1 0 -4 1 -1 0 3 0 -24 
1 -9 0 -27 1 -7 0 -21 1 -7 0 -24 1 -8 0 -29 
1 -10 0 -44 1 -10 0 -13 1 7 0 75 1 46 0 108 
1 33 0 102 1 18 0 40 1 9 0 23 1 5 0 13 
1 3 0 10 1 2 0 9 1 12 0 46 0 -54 1 -2 
0 -58 1 48 0 17 1 2 0 6 1 1 0 5 1 1 
0 4 1 1 0 2 1 1 0 3 2 2 1 1 1 0 
0 -1 2 -2 0 -1 1 -1 0 1 1 2 0 56 0 -58 
1 -3 0 -2 1 -1 1 -1 0 -5 1 -11 0 -46 0 64 
1 1 1 1 0 2 1 1 0 1 1 1 0 1 1 1 
1 0 1 0 0 -1 2 -2 0 -2 2 2 0 56 0 -46 
1 -12 0 -6 1 -1 0 -2 1 -1 0 -2 1 -1 0 -4 
1 -1 0 -6 1 -5 0 -61 0 57 1 7 0 -3 1 -2 
0 -4 1 -2 0 -8 1 -3 0 -12 1 -4 0 -19 1 -8 
0 -31 1 -13 0 -79 1 -27 0 -100 1 -34 0 -81 1 -30 
0 -23 1 3 0 30 1 9 0 25 1 8 0 22 1 7 
0 19 1 6 0 21 1 6 0 15 1 5 0 12 1 -5 
0 -56 0 64 1 5 0 6 1 1 0 2 1 1 0 3 
1 2 0 4 1 1 0 10 1 12 0 47 0 -56 1 -3 
1 -1 1 1 0 1 2 2 0 1 1 1 0 1 1 1 
0 2 1 1 0 3 1 2 0 4 1 1 0 6 1 1 
0 -61 1 46 0 14 1 -1 0 -1 1 -1 0 -1 0 2 
1 2 0 54 0 -48 1 -12 0 -8 1 -1 0 -3 1 -1 
0 -2 1 -1 0 -2 4477 989 300 MP stroke
1 -1 0 -2 1 -1 0 -2 1 -1 0 -2 1 -1 0 -2 
1 -1 0 -2 1 -1 0 -2 2 -2 1 0 0 -16 1 -48 
0 56 1 0 0 45 0 -50 1 -16 0 -20 1 -6 0 -25 
1 -6 0 -21 1 -8 0 -25 1 -8 0 -27 1 -8 0 -17 
1 6 0 55 1 69 0 92 1 28 0 71 1 18 0 53 
1 9 0 21 1 5 0 13 1 3 0 7 1 2 0 3 
0 -7 1 -42 0 54 1 2 0 49 0 -39 1 -5 0 6 
1 2 0 9 1 2 0 4 1 2 0 4 1 1 0 2 
1 1 0 3 2 2 1 0 1 0 0 -1 2 -2 0 -2 
1 -1 0 -11 1 -45 1 51 -1 0 2 -2 0 -2 1 -1 
0 -1 0 52 1 -40 0 -8 0 2 1 1 0 3 1 1 
0 2 1 1 0 2 2 2 1 0 0 -1 2 -2 0 -2 
1 -1 0 -2 1 -1 0 -55 1 44 0 8 1 -1 0 -2 
1 -1 0 -3 1 -1 0 -4 1 -2 0 -5 1 -3 0 -6 
0 3 1 52 0 -56 1 -1 0 -3 1 -2 0 -6 1 -3 
0 -10 1 -4 0 -24 1 -8 0 -32 1 -14 0 -53 1 -22 
0 -83 1 -32 0 -141 0 22 1 -9 0 -19 1 1 0 14 
1 7 0 22 1 7 0 27 1 6 0 17 1 6 0 14 
1 5 0 13 1 4 0 24 1 44 0 -53 0 4 1 4 
0 6 1 1 0 4 1 1 0 5 1 1 0 4 1 2 
0 3 1 -7 0 -45 0 53 1 2 0 2 1 1 1 1 
0 1 2 2 0 2 2 2 0 2 1 1 0 2 1 1 
0 4 1 1 0 3 1 8 0 41 0 -53 1 1 0 2 
1 -1 1 -1 0 -10 1 -47 0 51 1 -1 0 -1 1 -1 
0 -3 1 -1 0 -2 1 -1 0 -1 1 -1 0 -2 1 -1 
0 -3 1 -1 0 -1 1 -1 0 -3 1 -1 0 -2 1 -1 
0 -2 1 -1 0 -3 1 -1 0 -4 1 -1 0 45 0 -42 
1 -7 0 -69 1 38 0 4 0 -6 1 -5 0 -15 1 -6 
0 -18 1 -6 0 -28 1 -7 0 -22 1 -7 0 -12 1 0 
0 28 1 20 0 82 1 27 0 99 1 21 0 49 1 12 
0 30 1 8 0 18 1 4 0 12 1 2 0 4 1 1 
0 1 0 -2 0 1 1 3 0 2 0 -1 1 -6 0 18 
1 4 0 9 1 2 0 7 1 1 0 5 1 2 0 4 
1 1 0 3 2 2 0 1 2 0 1 -1 0 -1 1 -1 
0 -2 1 -1 0 -2 1 -6 0 -3 0 3 1 1 0 -1 
1 -1 0 -2 1 -1 0 -10 1 4 0 8 1 2 0 5 
1 1 0 3 1 1 0 3 1 1 1 1 1 0 1 -1 
0 -1 1 -1 0 -2 4321 709 300 MP stroke
1 -1 0 -3 1 -2 0 -8 1 6 0 -1 1 -1 0 -2 
1 -1 0 -3 1 -2 0 -4 1 -2 0 -10 1 -3 0 -10 
1 3 0 2 1 -1 0 -3 1 -1 0 -10 1 -3 0 -13 
1 -5 0 -21 1 -9 0 -33 1 -15 0 -76 1 -24 0 -81 
1 -27 0 -64 1 -12 0 -16 1 1 0 17 1 6 0 19 
1 6 0 18 1 5 0 15 1 5 0 17 1 3 0 10 
1 2 0 3 0 -3 1 3 0 13 1 3 0 9 1 1 
0 5 1 1 0 4 1 1 0 3 1 1 0 3 0 -6 
1 4 0 5 1 1 0 2 1 1 0 1 1 1 0 1 
1 1 0 1 1 1 1 1 0 2 2 2 0 2 2 0 
0 -7 1 2 0 7 1 0 1 1 -1 0 2 0 0 1 
0 -14 0 4 1 2 1 1 0 -2 1 -1 0 -1 1 -1 
0 -2 1 -1 0 -1 1 -1 0 -3 1 -1 0 -2 1 -1 
0 -2 1 -1 0 -2 1 -1 0 -4 1 -1 0 -4 1 -2 
0 -7 1 -3 0 -13 1 6 0 2 0 -3 1 -21 0 1 
0 -2 1 -3 0 -12 1 -5 0 -15 1 -6 0 -24 1 -6 
0 -18 1 -5 0 -9 1 1 0 22 1 15 0 116 1 23 
0 63 1 18 0 44 1 12 0 27 1 8 0 20 1 4 
0 7 1 1 0 3 1 7 0 37 0 -41 1 1 0 1 
0 -64 0 47 1 16 0 18 1 4 0 9 1 3 0 7 
1 2 0 6 1 2 0 3 1 1 0 2 1 1 0 1 
1 1 1 1 0 -1 2 -2 0 -2 1 -1 0 -4 1 -1 
0 41 0 -40 1 -7 0 1 1 -1 0 -2 1 -1 0 -5 
1 -8 0 -57 0 61 1 5 0 9 1 2 0 5 1 1 
0 4 1 1 0 1 1 1 1 0 1 0 -1 0 2 -2 
0 -2 1 -1 0 -4 1 -1 0 -5 1 5 0 38 0 -44 
1 -1 0 -1 1 -1 0 -3 1 -1 0 -5 1 -2 0 -8 
1 -3 0 -20 1 -55 0 62 1 1 0 -2 1 -1 0 -6 
1 -2 0 -15 1 -6 0 -20 1 -8 0 -31 1 -14 0 -49 
1 -19 0 -93 1 -23 0 1 0 -56 1 -20 0 -21 1 -1 
0 6 1 4 0 20 1 6 0 15 1 5 0 14 1 4 
0 12 1 3 0 10 1 1 0 -56 1 49 0 25 1 3 
0 8 1 2 0 7 1 1 0 4 1 1 0 2 1 1 
0 46 1 -38 0 -5 0 4 1 1 0 3 1 1 0 2 
2 2 0 2 2 2 0 1 2 2 1 -1 0 -4 1 -4 
0 -57 0 47 1 12 0 7 2 0 0 6 1 37 0 -48 
1 1 1 1 -1 0 2 -2 0 -1 1 -1 0 -1 1 -1 
0 -1 1 -1 0 -3 4168 988 300 MP stroke
1 -1 0 -2 1 -1 0 -3 1 -1 0 -3 1 -1 0 -6 
1 -2 0 -6 1 -3 0 -17 1 -16 0 -48 0 67 1 -1 
0 37 0 -53 1 -2 0 -7 1 -3 0 -12 1 -5 0 -14 
1 -5 0 -21 1 -5 0 -10 1 0 0 10 1 9 0 46 
1 26 0 60 1 20 0 72 1 15 0 35 1 10 0 22 
1 6 0 13 1 3 0 6 1 -1 0 -52 1 41 0 25 
1 33 0 -41 0 5 1 6 0 19 1 3 0 9 1 3 
0 6 1 2 0 5 1 1 0 4 1 1 0 2 1 1 
1 1 1 0 -1 0 2 -2 0 -2 1 -1 0 -4 1 -2 
0 -18 1 -42 0 52 1 1 0 -2 1 -1 0 -2 1 -3 
0 35 0 -37 1 -4 0 13 1 3 0 6 1 2 0 3 
1 1 0 3 2 2 1 -1 1 -1 0 -2 1 -1 0 -5 
1 -2 0 -10 1 -11 0 -41 0 50 1 3 0 1 1 -1 
0 -4 1 -1 0 -6 1 -2 0 -10 1 -4 0 -7 0 1 
1 30 0 -36 2 -3 0 -6 1 -3 0 -12 1 -5 0 -28 
1 -9 0 -35 1 -14 0 -51 1 -20 0 -65 1 -25 0 -88 
0 22 1 -7 0 -11 1 0 0 6 1 4 0 13 1 5 
0 18 1 4 0 11 1 4 0 8 1 2 0 3 1 1 
0 37 0 -25 1 2 0 10 1 4 0 7 1 2 0 6 
1 1 0 4 1 1 0 -3 1 -10 0 -40 0 52 1 5 
0 6 1 2 0 3 1 1 0 1 1 1 0 2 2 2 
1 1 1 1 1 -1 0 -4 1 -2 0 -5 0 2 1 30 
0 -26 0 1 1 1 0 1 1 1 0 -2 1 -4 0 -51 
0 40 1 10 0 6 1 1 1 0 -1 0 2 -2 0 -1 
1 -1 0 -2 1 -1 0 -2 1 -1 0 -2 1 -1 0 -3 
1 -1 0 -5 1 -1 0 -5 1 -1 0 -8 1 -3 0 -13 
1 -6 0 43 0 -51 0 14 1 -13 0 -56 0 36 1 8 
0 2 0 -2 1 -2 0 -9 1 -4 0 -16 1 -4 0 -13 
1 -4 0 -7 1 -1 0 9 1 7 0 78 1 18 0 54 
1 18 0 46 1 13 0 32 1 9 0 26 1 4 0 9 
1 2 0 2 0 -1 1 -3 0 -13 0 10 1 5 0 -26 
0 59 1 -21 0 12 1 6 0 14 1 3 0 9 1 3 
0 8 1 2 0 4 1 1 0 3 1 1 0 1 1 1 
1 1 0 -1 2 -2 0 -3 1 -2 0 -10 1 -6 0 -10 
0 11 1 2 0 1 1 -1 0 -5 1 -2 0 -39 1 58 
0 -23 0 3 1 4 0 9 1 3 0 5 1 2 0 4 
1 1 1 1 1 1 -1 0 2 -2 0 -2 1 -1 0 -4 
1 -2 0 -6 1 -4 4019 727 300 MP stroke
0 -15 0 3 1 6 0 4 1 1 0 -3 1 -2 0 -5 
1 -3 0 -9 1 -4 0 -17 1 -11 0 42 0 -71 0 39 
1 -1 0 1 1 -1 0 -5 1 -2 0 -11 1 -5 0 -26 
1 -9 0 -32 1 -13 0 -46 1 -17 0 -59 1 -21 0 -68 
1 -7 0 -13 1 -1 0 -1 0 3 1 3 0 10 1 4 
0 15 1 4 0 10 1 3 0 6 1 2 0 1 0 -1 
1 -3 0 44 0 -76 0 53 1 -2 0 11 1 3 0 9 
1 2 0 6 1 1 0 3 1 1 0 -4 1 -6 0 -2 
0 14 1 4 0 6 1 1 0 4 1 1 0 2 1 1 
0 1 1 1 1 1 1 1 1 -1 0 -2 1 -1 0 -7 
1 -4 0 -42 0 76 1 -25 0 -4 0 2 1 1 0 1 
1 1 0 -6 1 -6 0 -5 0 16 1 2 0 1 1 1 
1 0 1 -1 0 -2 1 -1 0 -1 1 -1 0 -3 1 -1 
0 -2 1 -1 0 -5 1 -1 0 -5 1 -1 0 -7 1 -3 
0 -10 1 -5 0 -16 1 -10 0 1 0 -7 1 -8 0 12 
1 1 0 -4 1 -3 0 -12 1 -3 0 -11 1 -3 0 -8 
1 -1 0 3 1 5 0 38 1 15 0 51 1 17 0 48 
1 14 0 39 1 10 0 34 1 6 0 14 1 3 0 5 
1 1 0 -2 1 -1 0 7 0 -6 1 0 0 12 0 -50 
0 47 1 9 0 20 1 5 0 12 1 3 0 8 1 2 
0 8 1 1 0 4 1 1 0 2 1 1 1 1 1 0 
-1 0 2 -2 0 -3 1 -1 0 -5 1 -3 0 -5 0 3 
1 -3 0 -1 1 -1 0 -4 1 -2 0 -11 1 -3 0 10 
0 -51 0 43 1 7 0 13 1 3 0 7 1 2 0 4 
1 1 0 2 1 1 1 0 1 -1 0 -2 1 -1 0 -4 
1 -2 0 -6 1 -2 0 -2 1 -4 1 1 0 -3 1 -2 
0 -6 1 -2 0 -10 1 -5 0 -18 1 -10 0 -13 0 16 
1 3 0 1 1 1 0 -5 1 -2 0 -12 1 -5 0 -27 
1 -9 0 -33 1 -12 0 -45 1 -17 0 -54 1 -16 0 -57 
1 -8 0 -12 1 -1 0 2 1 2 0 9 1 3 0 13 
1 3 0 8 1 2 0 3 1 1 0 -5 1 -6 0 -9 
0 28 1 7 0 14 1 4 0 8 1 2 0 5 1 2 
0 1 1 1 0 -1 1 4 0 4 1 2 0 5 1 1 
0 4 1 1 0 2 1 1 1 1 1 1 1 0 0 -2 
1 -1 0 -5 1 -2 0 -14 1 -9 0 -10 0 17 1 6 
0 11 1 1 0 1 0 -1 1 -1 0 -1 0 1 1 4 
0 -1 0 1 1 1 0 1 1 1 1 0 1 -1 0 -2 
1 -1 0 -2 1 -1 3874 980 300 MP stroke
0 -3 1 -1 0 -3 1 -1 0 -4 1 -2 0 -8 1 -3 
0 -11 1 -4 0 -17 1 -4 0 11 0 -68 0 32 1 9 
0 9 0 -2 2 -3 0 -6 1 -2 0 -9 1 -2 0 -9 
1 -1 0 4 1 4 0 21 1 11 0 59 1 14 0 58 
1 14 0 34 1 10 0 24 1 6 0 14 1 4 0 5 
1 1 0 -1 0 4 1 23 0 -40 1 -29 0 50 1 10 
0 26 1 4 0 12 1 3 0 8 1 2 0 6 1 1 
0 5 1 1 0 2 1 1 1 1 1 -1 0 -2 1 -1 
0 -4 1 -2 0 -6 1 -2 0 25 0 -23 1 -5 0 -3 
1 -2 0 -7 1 -5 0 -48 1 20 0 31 1 6 0 14 
1 3 0 6 1 1 0 3 1 1 0 1 1 1 1 -1 
0 -1 1 -1 0 -3 1 -1 0 -5 1 -2 0 -6 0 3 
1 21 0 -30 1 1 0 -1 1 -1 0 -4 1 -2 0 -12 
1 -5 0 -16 1 -7 0 -58 1 34 0 20 1 1 0 -2 
1 -3 0 -10 1 -4 0 -18 1 -8 0 -27 1 -11 0 -38 
1 -15 0 -64 1 -15 0 -38 1 -16 0 -20 1 -3 0 -4 
1 1 0 7 1 3 0 8 1 2 0 8 1 2 0 3 
1 1 0 -7 1 -4 0 -40 0 38 1 15 0 20 1 5 
0 11 1 2 0 8 1 1 1 1 0 6 1 24 0 -24 
0 1 1 2 0 7 1 1 0 3 1 1 0 3 2 2 
1 1 1 -1 0 -2 1 -2 0 -5 1 -3 0 -22 1 -11 
0 -30 0 47 1 7 0 9 1 1 1 1 0 29 0 -22 
1 -4 0 3 1 1 0 1 1 1 1 0 0 -2 2 -2 
0 -2 1 -1 0 -3 1 -1 0 -5 1 -2 0 -5 1 -2 
0 -8 1 -4 0 -13 1 -6 0 -66 1 20 0 24 1 25 
0 -25 2 -2 0 -7 1 -2 0 -6 1 -1 0 -2 1 1 
0 11 1 6 0 40 1 17 0 39 1 14 0 39 1 12 
0 31 1 9 0 27 1 5 0 10 1 2 0 1 1 -1 
0 -32 1 21 0 20 0 -12 1 6 0 25 1 7 0 17 
1 4 0 11 1 3 0 10 1 2 0 4 1 2 0 3 
1 1 0 1 1 1 1 0 -1 0 2 -2 0 -3 1 -1 
0 -6 1 -2 0 -14 1 -24 0 29 1 -1 0 -5 1 -3 
0 -13 1 -4 0 15 0 -15 0 3 1 6 0 20 1 3 
0 8 1 2 0 4 1 1 0 2 1 1 0 1 0 -1 
2 -2 0 -2 1 -2 0 -4 1 -2 0 -11 1 -7 0 -25 
0 27 1 1 0 1 1 -1 0 -4 1 -2 0 -12 1 -4 
0 -15 1 -7 0 -10 0 11 1 -24 0 11 1 3 0 1 
0 -2 1 -2 0 -9 3724 803 300 MP stroke
1 -5 0 -17 1 -7 0 -26 1 -11 0 -50 1 -14 0 -47 
1 -16 0 -56 0 12 1 -4 0 -17 1 -3 0 -5 1 1 
0 5 1 2 0 6 1 2 0 6 1 1 0 2 1 -1 
0 -7 1 0 0 15 0 -17 0 7 1 8 0 19 1 4 
0 13 1 2 0 5 2 0 0 -28 1 25 0 15 1 2 
0 5 1 1 0 3 1 1 0 2 1 1 1 1 1 0 
-1 0 2 -2 0 -4 1 -2 0 -14 1 -5 0 -7 0 13 
1 -15 0 14 1 4 0 5 1 1 0 -8 1 -23 0 34 
1 2 0 3 1 1 1 1 1 0 -1 0 2 -2 0 -2 
1 -1 0 -3 1 -1 0 -4 1 -2 0 -5 1 -2 0 -7 
1 -4 0 -12 1 -5 0 -22 1 -10 0 13 0 -21 0 1 
1 -3 0 -21 0 32 1 3 0 1 1 1 0 -3 1 -1 
0 -6 1 -1 1 1 0 10 1 5 0 24 1 11 0 63 
1 12 0 35 1 11 0 28 1 8 0 20 1 4 0 13 
1 1 0 1 0 -2 1 -2 0 -8 1 1 0 -6 0 10 
1 10 0 32 1 7 0 15 1 4 0 11 1 2 0 8 
1 1 0 7 1 1 0 3 2 2 1 0 0 -2 1 -1 
0 -4 1 -2 0 -8 1 -3 0 -10 0 4 1 1 0 1 
0 -2 1 -2 0 -9 1 -4 0 -19 1 7 0 19 1 5 
0 15 1 3 0 6 1 1 0 3 1 1 0 1 1 1 
0 -1 1 -1 0 -2 1 -1 0 -4 1 -2 0 -7 1 -2 
0 -14 1 3 0 3 1 -1 0 -2 1 -2 0 -7 1 -3 
0 -18 1 -7 0 -22 1 -11 0 11 1 3 0 4 1 -1 
0 -9 1 -4 0 -16 1 -6 0 -25 1 -9 0 -33 1 -13 
0 -56 1 -15 0 -42 1 -7 0 -16 1 -4 0 -7 1 0 
0 3 1 1 0 5 1 2 0 4 1 1 0 1 1 -1 
0 -10 1 -4 0 -6 0 16 1 8 0 19 1 4 0 10 
1 3 0 7 2 0 0 -5 0 1 1 6 0 9 1 2 
0 5 1 2 0 4 1 1 0 1 1 1 1 1 1 0 
0 -3 1 -1 0 -5 1 -3 0 -12 1 -5 0 -19 1 7 
0 20 1 3 0 3 1 1 0 -4 1 -4 0 12 1 2 
0 5 1 1 1 1 0 -1 2 -2 0 -3 1 -1 0 -3 
1 -1 0 -4 1 -1 0 -6 1 -3 0 -12 1 -4 0 -17 
1 -7 0 -26 1 -8 0 7 1 0 0 15 1 1 1 1 
0 -2 1 -1 0 -1 1 -1 0 7 1 4 0 18 1 8 
0 33 1 11 0 34 1 11 0 42 1 9 0 24 1 6 
0 15 1 4 0 5 1 1 0 -3 1 6 0 -19 1 -15 
0 45 1 9 0 21 3572 772 300 MP stroke
1 6 0 18 1 4 0 8 1 3 0 6 1 2 0 4 
1 1 0 2 1 1 1 1 1 -1 0 -3 1 -2 0 -7 
1 -3 0 -8 1 9 0 -10 1 -1 0 -5 1 -3 0 -23 
1 -19 0 36 1 6 0 13 1 4 0 8 1 2 0 5 
1 1 0 1 1 1 1 0 0 -2 1 -1 0 -5 1 -2 
0 -6 1 -3 0 -4 0 6 1 -12 0 0 2 -2 0 -10 
1 -3 0 -13 1 -5 0 -22 1 -12 0 -22 0 23 1 4 
0 4 1 1 0 -7 1 -3 0 -14 1 -6 0 -22 1 -9 
0 -42 1 -12 0 -40 1 -14 0 -27 1 -18 0 -20 1 -4 
0 -9 1 -1 0 1 1 1 0 4 1 1 0 3 1 1 
0 -2 1 -1 0 -10 1 -7 0 -19 0 32 1 8 0 18 
1 5 0 13 1 2 0 4 1 1 0 1 0 -1 1 -1 
0 -1 0 13 1 -6 0 8 1 2 0 5 1 2 0 2 
1 1 0 2 1 1 1 0 1 -1 0 -4 1 -1 0 -7 
1 -3 0 -20 1 -9 0 -20 0 28 1 6 0 11 1 2 
0 1 1 1 0 9 0 -8 1 2 0 7 1 1 0 2 
1 1 1 1 -1 0 2 -2 0 -1 1 -1 0 -3 1 -1 
0 -3 1 -2 0 -7 1 -2 0 -8 1 -3 0 -13 1 -6 
0 -21 1 -9 0 -33 0 22 1 4 0 11 0 -3 1 3 
0 5 1 1 0 1 1 -1 1 0 0 4 1 3 0 13 
1 7 0 24 1 22 0 42 1 10 0 30 1 8 0 23 
1 7 0 15 1 4 0 7 1 -1 0 -8 1 -11 0 9 
1 4 0 23 1 9 0 27 1 5 0 13 1 4 0 8 
1 3 0 6 1 2 0 4 1 1 0 2 1 1 1 1 
-1 0 2 -2 0 -4 1 -1 0 -9 1 -4 0 -19 1 10 
0 3 0 -1 1 -1 0 -7 1 -3 0 -16 0 2 1 2 
0 17 1 5 0 12 1 3 0 7 1 1 0 4 1 1 
1 1 1 -1 0 -3 1 -1 0 -7 1 -3 0 -9 1 -5 
0 -13 0 11 1 1 1 -1 0 -6 1 -3 0 -10 1 -5 
0 -18 1 -7 0 -16 0 1 1 -1 0 7 1 1 0 -3 
1 -3 0 -11 1 -6 0 -19 1 -8 0 -37 1 -11 0 -36 
1 -13 0 -41 1 -20 0 1 0 -9 1 -5 0 -11 1 -2 
1 -1 0 2 1 1 0 2 1 1 0 -2 1 -2 0 -8 
1 -4 0 -2 0 7 1 8 0 18 1 5 0 13 1 3 
0 4 1 1 1 -1 0 -12 1 12 0 14 1 2 0 5 
1 2 0 3 1 1 0 1 1 1 1 0 -1 0 2 -2 
0 -4 1 -2 0 -8 1 -4 0 -20 1 -2 0 -2 0 11 
1 5 0 8 1 1 3422 984 300 MP stroke
0 1 0 -1 1 -3 0 -9 0 17 1 3 0 6 1 1 
0 1 1 1 1 1 -1 0 2 -2 0 -2 1 -1 0 -3 
1 -1 0 -4 1 -2 0 -6 1 -2 0 -13 1 -4 0 -17 
1 -6 0 -24 1 -4 0 -3 0 1 1 -6 0 25 1 2 
0 4 2 2 0 2 1 1 0 12 1 5 0 20 1 8 
0 29 1 9 0 29 1 10 0 35 1 7 0 19 1 5 
0 12 1 2 0 2 1 -1 0 -10 0 1 1 1 0 -3 
0 11 1 10 0 25 1 8 0 17 1 5 0 15 1 3 
0 7 1 2 0 6 1 1 0 3 1 1 0 1 1 1 
1 -1 0 -3 1 -1 0 -5 1 -2 0 -14 1 -4 0 3 
1 1 0 -5 1 -3 0 -12 1 -6 0 -6 0 21 1 5 
0 13 1 4 0 7 1 2 0 4 1 1 0 1 1 1 
1 -1 0 -2 1 -1 0 -5 1 -2 0 -12 1 -4 0 -6 
0 2 1 1 1 -1 0 -4 1 -2 0 -14 1 -4 0 -18 
1 -7 0 -24 1 6 0 8 1 1 0 -4 1 -3 0 -12 
1 -5 0 -19 1 -8 0 -27 1 -10 0 -45 1 -12 0 -38 
1 -9 0 -14 1 -4 0 -9 1 -2 1 -3 -1 0 2 2 
0 1 1 -1 0 -2 1 -2 0 -13 1 -7 0 20 1 7 
0 15 1 4 0 10 1 2 1 5 -1 0 2 -2 0 -2 
0 5 1 4 0 9 1 2 0 5 1 1 0 4 2 2 
1 -1 0 -2 1 -1 0 -7 1 -3 0 -11 1 -5 0 -20 
1 6 0 15 1 3 0 6 1 1 0 -5 1 4 0 9 
1 2 0 5 2 2 1 0 -1 0 2 -2 0 -2 1 -1 
0 -5 1 -2 0 -5 1 -2 0 -9 1 -3 0 -13 1 -5 
0 -28 1 -9 0 -10 0 6 1 1 0 11 1 4 0 8 
1 1 0 4 1 1 0 3 1 1 0 8 1 3 0 16 
1 6 0 43 1 9 0 27 1 9 0 24 1 8 0 18 
1 6 0 13 1 2 0 1 0 -1 1 -1 0 -7 0 1 
1 1 0 -4 0 12 1 10 0 32 1 6 0 16 1 4 
0 11 1 3 0 8 1 2 0 6 1 1 0 3 1 1 
1 1 1 -1 0 -4 1 -2 0 -7 1 -2 0 -11 1 0 
0 2 1 -1 0 -10 1 -4 0 -16 1 8 0 18 1 4 
0 11 1 3 0 8 1 2 0 2 1 1 0 1 1 -1 
0 -1 1 -1 0 -4 1 -2 0 -7 1 -3 0 -11 1 -3 
0 3 1 -1 0 -3 1 -2 0 -8 1 -4 0 -14 1 -5 
0 -22 1 -7 0 -8 0 9 1 2 0 2 0 -1 1 -2 
0 -8 1 -4 0 -16 1 -7 0 -23 1 -8 0 -40 1 -11 
0 -35 1 -12 0 -21 3272 1001 300 MP stroke
1 -4 0 -11 1 -3 0 -6 1 -1 1 0 1 0 0 -2 
1 -2 0 -10 1 -5 0 -7 0 13 1 7 0 17 1 4 
0 10 1 3 0 6 1 1 1 -1 0 -2 0 2 1 4 
0 9 1 2 0 7 1 1 0 3 1 1 1 1 1 0 
0 -4 1 -1 0 -6 1 -2 0 -12 1 -4 0 -20 1 7 
0 17 1 2 0 3 1 1 0 -3 1 3 0 9 1 2 
0 5 1 1 1 1 1 -1 0 -1 1 -1 0 -3 1 -1 
0 -5 1 -1 0 -6 1 -3 0 -9 1 -3 0 -20 1 -6 
0 -24 1 -10 0 8 1 1 0 14 1 3 0 8 1 1 
0 4 1 1 0 5 1 2 0 11 1 5 0 25 1 8 
0 25 1 8 0 26 1 8 0 22 1 7 0 21 1 4 
0 8 1 1 0 1 0 -2 1 -3 0 -8 0 6 1 1 
0 27 1 8 0 20 1 6 0 14 1 4 0 10 1 3 
0 9 1 1 0 4 1 1 0 2 1 1 1 1 0 -3 
1 -1 0 -4 1 -2 0 -8 1 -4 0 -9 0 6 1 1 
0 -3 1 -2 0 -13 1 -4 0 -1 0 7 1 6 0 14 
1 3 0 8 1 2 0 6 1 1 1 1 1 -1 0 -2 
1 -1 0 -7 1 -3 0 -9 1 -4 0 -9 0 6 1 1 
0 -2 1 -1 0 -8 1 -3 0 -12 1 -6 0 -19 1 -8 
0 -8 1 2 0 3 0 -1 1 -1 0 -7 1 -3 0 -14 
1 -6 0 -21 1 -8 0 -37 1 -10 0 -32 1 -12 0 -22 
1 -5 0 -12 1 -2 0 -8 1 -1 0 -1 1 -1 1 -1 
0 -3 1 -1 0 -11 1 -3 0 -3 0 7 1 6 0 17 
1 4 0 10 1 2 0 6 1 1 1 0 0 -8 0 9 
1 4 0 8 1 2 0 6 1 1 0 2 1 1 1 1 
1 -1 0 -4 1 -1 0 -7 1 -3 0 -13 1 -5 0 -7 
0 1 1 5 0 13 1 1 0 2 1 0 0 -7 0 8 
1 4 0 7 1 1 0 4 1 1 1 0 1 -1 0 -2 
1 -1 0 -4 1 -1 0 -5 1 -2 0 -7 1 -3 0 -11 
1 -4 0 -24 1 -7 0 -13 1 2 0 -3 0 10 1 5 
0 10 1 2 0 7 1 1 0 5 1 2 0 9 1 3 
0 15 1 6 0 37 1 8 0 24 1 8 0 22 1 6 
0 17 1 4 0 10 1 2 0 2 1 1 0 6 0 -10 
1 -3 0 -10 0 30 1 10 0 21 1 6 0 20 1 4 
0 9 1 3 0 7 1 2 0 4 1 1 0 3 1 1 
1 0 0 -2 1 -1 0 -4 1 -2 0 -7 1 4 0 -10 
1 -1 0 -4 1 -2 0 -10 1 -7 0 -14 0 30 1 5 
0 11 1 3 0 7 3122 735 300 MP stroke
1 1 0 3 1 1 1 1 -1 0 2 -2 0 -4 1 -2 
0 -6 1 -2 0 -7 0 5 1 -8 0 -3 1 -1 0 -4 
1 -2 0 -9 1 -3 0 -20 1 -6 0 -36 1 12 0 6 
1 1 0 -3 1 -2 0 -15 1 -5 0 -19 1 -7 0 -24 
1 -9 0 -29 1 -10 0 -34 1 -8 0 -13 1 -3 0 -8 
1 -2 0 -3 1 -1 0 -2 1 -1 0 -2 1 -2 0 -6 
1 -3 0 -23 1 16 0 26 1 4 0 9 1 3 0 5 
1 1 1 1 0 9 0 -5 1 1 0 7 1 2 0 5 
1 1 0 3 1 1 1 1 1 -1 0 -3 1 -1 0 -6 
1 -3 0 -17 1 -8 0 -16 0 20 1 5 0 8 1 2 
0 1 1 1 0 10 0 -5 1 2 0 5 1 2 0 2 
1 1 1 0 1 -1 0 -2 1 -1 0 -4 1 -1 0 -5 
1 -2 0 -8 1 -3 0 -16 1 -5 0 -20 1 -10 0 -17 
0 17 1 4 0 10 0 -2 1 3 0 10 1 2 0 6 
1 1 0 7 1 3 0 10 1 5 0 23 1 7 0 22 
1 7 0 23 1 7 0 20 1 6 0 19 1 4 0 6 
1 1 0 1 0 -1 1 1 0 -2 1 -3 0 37 1 7 
0 17 1 5 0 13 1 3 0 9 1 2 0 8 1 2 
0 3 1 1 0 1 1 1 1 -1 0 -4 1 -1 0 -6 
1 -2 0 -6 1 -1 0 -1 1 -2 0 -9 1 -3 0 -11 
0 9 1 6 0 13 1 3 0 8 1 2 0 6 2 2 
1 -1 0 -3 1 -2 0 -7 1 -2 0 -9 1 -1 0 -4 
1 -1 0 -3 1 -1 0 -11 1 -3 0 -13 1 -6 0 -21 
1 -11 0 7 1 1 0 -4 1 -2 0 -11 1 -5 0 -17 
1 -6 0 -23 1 -8 0 -36 1 -9 0 -26 1 -7 0 -13 
1 -4 0 -8 1 -2 0 -6 1 -1 0 -2 1 -1 0 -2 
1 -2 0 -6 1 -2 0 -14 0 9 1 7 0 14 1 4 
0 9 1 2 0 5 1 1 1 1 0 3 1 3 0 7 
1 2 0 4 1 1 0 2 1 1 1 1 -1 0 2 -2 
0 -3 1 -2 0 -6 1 -3 0 -18 1 -9 0 14 1 4 
0 6 1 1 1 1 0 7 1 2 0 4 1 1 0 2 
2 0 0 -1 1 -1 0 -3 1 -1 0 -4 1 -2 0 -5 
1 -3 0 -12 1 -4 0 -15 1 -6 0 -23 1 5 0 8 
1 2 0 12 1 3 0 6 1 2 0 6 1 3 0 9 
1 4 0 19 1 6 0 27 1 7 0 21 1 7 0 19 
1 6 0 19 1 4 0 7 1 2 0 -3 1 -2 0 10 
1 2 0 27 1 6 0 17 1 5 0 12 1 3 0 9 
1 2 0 8 1 1 2969 744 300 MP stroke
0 3 1 1 0 1 1 1 1 -1 0 -4 1 -1 0 -6 
1 -4 0 -8 0 3 1 1 0 1 0 -2 1 -1 0 -9 
1 -1 0 -1 0 6 1 4 0 10 1 2 0 7 1 1 
0 4 1 1 1 0 -1 0 2 -2 0 -4 1 -1 0 -9 
1 -3 0 -12 1 2 0 1 0 -1 1 -1 0 -5 1 -3 
0 -13 1 -4 0 -15 1 -5 0 -13 1 -1 0 -1 1 -1 
0 -10 1 -3 0 -14 1 -6 0 -19 1 -8 0 -24 1 -8 
0 -27 1 -10 0 -23 1 -4 0 -10 1 -2 0 -6 1 -2 
0 -4 1 -1 0 -3 1 -2 0 -4 1 -3 0 -6 1 1 
0 11 1 3 0 13 1 3 0 5 1 1 0 1 1 1 
0 -5 1 3 0 13 1 2 0 5 1 1 0 2 1 1 
1 1 -1 0 2 -2 0 -3 1 -1 0 -6 1 -3 0 -9 
1 -3 0 -3 0 4 1 2 0 6 1 1 0 -2 1 -3 
0 11 1 2 0 6 1 1 1 1 0 1 0 -1 2 -2 
0 -3 1 -1 0 -5 1 -1 0 -7 1 -2 0 -9 1 -4 
0 -18 1 -5 0 -9 1 0 0 -3 0 6 1 5 0 10 
1 3 0 8 1 2 0 8 1 3 0 10 1 5 0 15 
1 6 0 26 1 6 0 20 1 7 0 18 1 5 0 14 
1 4 0 9 1 1 0 -20 1 19 0 28 1 -9 0 16 
1 6 0 21 1 4 0 11 1 3 0 8 1 2 0 5 
1 2 0 3 1 1 1 1 1 -1 0 -3 1 -2 0 -13 
1 -19 0 21 1 0 0 -4 1 -2 0 -4 0 2 1 16 
0 -14 0 7 1 2 0 7 1 2 0 2 1 3 0 2 
1 1 0 -1 1 -1 0 -2 1 -1 0 -5 1 -2 0 -9 
1 -7 0 -19 0 19 1 0 0 -5 1 -2 0 -8 1 -3 
0 -13 1 -4 0 -11 1 10 0 -24 1 -1 0 -6 1 -3 
0 -12 1 -4 0 -17 1 -6 0 -29 1 -8 0 -25 1 -9 
0 -37 0 12 1 -1 0 -10 1 -3 0 -10 1 -2 0 -4 
1 -1 0 -3 1 -1 0 -5 1 -1 0 -7 0 1 1 18 
0 -12 0 3 1 3 0 9 1 2 0 6 1 1 0 2 
1 1 0 -21 1 20 0 11 1 2 0 4 1 2 0 2 
1 1 1 1 -1 0 2 -2 0 -2 1 -2 0 -8 1 -2 
0 -5 0 1 1 14 0 -21 0 3 1 2 0 5 1 1 
0 -21 1 18 0 11 1 2 0 3 1 1 1 1 1 0 
0 -2 1 -1 0 -3 1 -1 0 -4 1 -2 0 -9 1 -3 
0 -10 1 -4 0 -13 1 -2 0 12 0 -18 1 -4 0 -15 
0 30 1 3 0 8 1 2 0 6 1 3 0 8 1 4 
0 17 1 5 0 23 2823 935 300 MP stroke
1 6 0 19 1 7 0 18 1 5 0 20 1 3 0 9 
1 2 0 7 1 18 0 -19 1 -16 0 47 1 5 0 15 
1 5 0 11 1 3 0 8 1 3 0 7 1 1 0 3 
1 1 1 1 1 -1 0 -3 1 -1 0 -5 0 1 1 16 
0 -21 1 -1 0 -4 1 -2 0 -12 1 -10 0 31 1 2 
0 6 1 1 0 4 1 1 1 1 -1 0 2 -2 0 -3 
1 -2 0 -5 1 -2 0 -4 0 1 1 14 0 -25 1 -2 
0 -5 1 -2 0 -9 1 -4 0 -13 1 -5 0 -39 0 18 
1 4 0 -3 1 -2 0 -9 1 -4 0 -14 1 -5 0 -25 
1 -7 0 -23 1 -7 0 -20 1 10 0 -34 1 -4 0 -12 
1 -3 0 -5 1 -2 0 -4 1 -1 0 -3 1 -2 0 -7 
1 -6 0 -21 0 30 1 3 0 9 1 2 0 6 1 2 
0 3 1 1 0 4 1 18 0 -16 0 2 1 2 0 4 
1 1 0 3 1 1 1 1 1 -1 0 -2 1 -1 0 -7 
1 -2 0 -9 1 -6 0 -18 0 24 1 3 0 4 1 1 
0 22 1 -16 0 -2 0 3 1 2 0 3 1 1 1 1 
0 -1 2 -2 0 -3 1 -2 0 -4 1 -2 0 -9 1 -3 
0 -10 1 -4 0 -16 1 -21 0 28 1 17 0 -14 0 5 
1 2 0 7 1 2 0 8 1 2 0 10 1 4 0 19 
1 5 0 17 1 6 0 18 1 6 0 17 1 6 0 18 
1 3 0 9 1 2 0 3 1 3 0 6 1 5 0 18 
1 5 0 18 1 4 0 10 1 3 0 7 1 2 0 5 
1 1 0 4 1 1 0 1 1 -1 1 -1 0 -4 1 -1 
0 -5 0 2 1 -1 0 -3 1 -1 0 -6 1 -5 0 25 
0 -41 0 29 1 -1 0 7 1 2 0 4 1 1 0 1 
1 1 1 0 0 -3 1 -1 0 -4 1 -2 0 -6 1 -2 
0 -7 1 -1 0 -6 1 -2 0 -8 1 -3 0 -11 1 -5 
0 -14 1 -4 0 -5 1 -3 0 -8 1 -4 0 -12 1 -5 
0 -17 1 -7 0 -27 1 -7 0 -22 1 -7 0 -15 1 -4 
0 -10 1 -3 0 -9 1 -1 0 -5 1 -1 0 -3 1 -2 
0 -4 1 -1 0 -3 0 3 1 3 0 8 1 3 0 5 
1 2 0 2 1 1 0 1 0 -1 1 4 0 5 1 1 
0 4 1 1 0 2 1 1 1 1 1 -1 0 -3 1 -1 
0 -4 1 -2 0 -28 1 36 0 -15 0 1 1 2 0 3 
1 1 0 1 1 -1 0 7 1 1 0 1 1 1 1 1 
1 -1 0 -3 1 -1 0 -3 1 -2 0 -5 1 -2 0 -7 
1 -2 0 -13 1 -4 0 -6 0 1 1 1 0 3 1 3 
0 7 1 2 0 9 2674 988 300 MP stroke
1 3 0 9 1 3 0 12 1 4 0 16 1 10 0 17 
1 6 0 22 1 6 0 14 1 4 0 10 1 3 0 4 
0 -1 1 -18 0 56 1 -15 0 12 1 5 0 13 1 4 
0 10 1 3 0 10 1 2 0 5 1 1 0 2 1 1 
1 2 -1 0 2 -2 0 -3 1 -1 0 -26 0 20 1 3 
0 -2 1 -1 0 -4 0 1 1 17 0 -13 1 1 0 5 
1 1 0 4 1 1 1 1 1 -1 0 -2 1 -1 0 -4 
1 -2 0 -12 1 -23 0 21 0 -1 1 -1 0 -6 1 -3 
0 -8 1 -3 0 -18 1 -5 0 21 0 -23 0 1 1 -6 
0 -9 1 -3 0 -10 1 -4 0 -19 1 -6 0 -18 1 -7 
0 -19 1 -7 0 -43 1 15 0 -13 1 -3 0 -9 1 -2 
0 -5 1 -2 0 -4 1 -1 0 -5 1 -1 0 23 1 -26 
0 6 1 3 0 6 1 2 0 4 1 1 0 2 1 -4 
0 -19 0 27 1 2 0 4 1 1 0 3 1 1 1 1 
1 -1 0 -1 1 -1 0 -5 1 -1 0 -3 0 2 1 16 
0 -23 0 1 1 2 0 3 1 1 0 1 0 -23 1 20 
0 8 1 1 0 1 1 1 1 1 -1 0 2 -2 0 -2 
1 -1 0 -3 1 -1 0 -4 1 -2 0 -6 1 -3 0 -11 
1 -2 0 18 0 -18 1 -4 0 -21 0 21 1 6 0 6 
1 2 0 9 1 3 0 9 1 3 0 12 1 5 0 15 
1 4 0 22 1 5 0 16 1 6 0 14 1 4 0 11 
1 4 0 37 1 -19 0 -26 1 25 0 21 1 5 0 12 
1 4 0 12 1 3 0 6 1 2 0 5 1 1 0 3 
1 1 1 1 -1 0 2 -2 0 -1 0 1 1 4 0 20 
0 -27 1 -2 0 -3 1 -1 0 -31 1 25 0 11 1 1 
0 3 1 1 0 2 1 1 0 1 0 -1 2 -2 0 -3 
1 -2 0 -3 1 -3 0 21 0 -22 1 -7 0 -7 1 -2 
0 -7 1 -3 0 -13 1 -5 0 -42 1 26 0 1 0 -5 
1 -3 0 -10 1 -4 0 -18 1 -5 0 -17 1 -6 0 -19 
1 -6 0 -12 1 16 0 -46 1 -4 0 -9 1 -2 0 -7 
1 -1 0 -5 1 -1 0 -4 1 -1 0 -5 1 -29 0 35 
1 2 0 6 1 1 0 4 1 1 0 4 1 5 0 22 
0 -23 1 0 0 3 1 1 0 2 1 1 1 1 1 0 
-1 0 2 -2 0 -4 1 -2 0 -7 1 -30 0 33 1 2 
0 2 1 1 0 28 0 -20 1 -4 0 1 2 2 1 0 
1 -1 0 -3 1 -1 0 -3 1 -2 0 -4 1 -2 0 -6 
1 -2 0 -16 1 -23 0 36 1 22 0 -22 0 1 1 1 
0 5 1 2 0 11 2527 973 300 MP stroke
1 3 0 10 1 4 0 14 1 5 0 19 1 6 0 21 
1 5 0 14 1 4 0 12 1 4 0 13 1 6 0 -3 
0 1 1 7 0 15 1 4 0 12 1 3 0 9 1 3 
0 9 1 2 0 4 1 1 0 3 1 1 1 1 1 -1 
-1 0 2 4 0 -7 1 -1 0 -1 1 -1 0 -7 0 5 
1 3 0 3 1 1 0 3 2 2 1 -1 0 -2 1 -1 
0 -4 1 -1 0 -2 1 -3 0 2 0 -11 1 -2 0 -6 
1 -3 0 -8 1 -3 0 -10 1 -4 0 -14 0 2 1 -3 
0 -10 1 -3 0 -12 1 -4 0 -15 1 -5 0 -23 1 -6 
0 -17 1 -4 0 -17 1 -6 0 -11 1 -3 0 -10 1 -2 
0 -5 1 -2 0 -3 1 -1 0 -2 1 -1 0 -7 0 8 
1 2 0 4 1 1 0 3 1 1 0 3 1 1 0 8 
0 -3 1 -1 0 3 1 1 0 2 2 2 1 0 -1 0 
2 -2 0 -2 1 -1 0 -3 1 -2 0 -6 0 6 1 2 
0 1 1 1 0 8 1 -3 0 -1 1 1 1 1 1 0 
-1 0 2 -2 0 -2 1 -1 0 -3 1 -1 0 -5 1 -2 
0 -5 1 -2 0 -7 1 -5 0 10 1 6 0 -3 0 2 
1 1 0 6 1 2 0 8 1 3 0 11 1 4 0 18 
1 4 0 15 1 5 0 16 1 5 0 14 1 4 0 16 
1 4 0 8 1 -2 0 23 1 0 0 8 1 3 0 14 
1 3 0 8 1 2 0 7 1 1 0 5 1 1 0 3 
1 1 1 1 1 -1 0 -4 1 -4 0 6 2 3 0 4 
1 -6 -1 0 2 2 0 1 1 1 1 0 -1 0 2 -2 
0 -2 1 -1 0 -6 1 -2 0 -10 1 1 0 -3 1 -2 
0 -7 1 -3 0 -11 1 -3 0 -3 0 1 1 -9 0 -13 
1 -3 0 -11 1 -4 0 -19 1 -5 0 -16 1 -5 0 -17 
1 -6 0 -20 1 -6 0 -11 1 -3 0 -9 1 -2 0 -6 
1 -2 0 -3 1 -1 0 -3 1 1 0 7 0 -3 1 -2 
0 1 1 1 0 2 1 1 0 2 1 1 0 -3 0 2 
1 4 0 4 1 1 0 2 2 2 1 0 1 -1 0 -2 
2 1 0 4 0 -6 1 -1 0 1 1 -1 0 -5 0 4 
1 3 0 1 1 1 1 1 1 0 -1 0 2 -2 0 -2 
1 -1 0 -4 1 -1 0 -4 1 -1 0 -4 1 -1 0 5 
1 -5 0 -8 0 9 1 1 0 4 1 1 0 6 1 3 
0 8 1 4 0 15 1 5 0 18 1 4 0 15 1 5 
0 15 1 4 0 18 1 4 0 10 1 -2 0 -16 0 39 
1 26 0 -21 0 2 1 3 0 13 1 2 0 9 1 2 
0 6 1 2 0 5 2374 775 300 MP stroke
1 1 0 4 1 1 0 1 2 0 0 -6 1 -21 0 26 
1 1 0 3 1 6 0 22 0 -30 1 0 1 1 1 1 
1 -1 0 -1 1 -1 0 -2 1 -1 0 -6 1 -3 0 -29 
0 19 1 3 0 -5 1 -2 0 -7 1 -2 0 -10 1 -1 
0 22 0 -31 1 -8 0 -11 1 -4 0 -12 1 -4 0 -19 
1 -5 0 -16 1 -6 0 -16 1 -7 0 -34 0 16 1 1 
0 -14 1 -3 0 -7 1 -2 0 -5 1 -2 0 -2 1 -1 
0 -1 0 5 1 28 0 -29 1 -1 0 1 1 1 0 2 
1 1 0 1 0 -5 1 -20 0 29 1 1 0 2 1 1 
1 1 1 1 1 -1 1 -1 1 1 0 29 0 -22 1 -5 
0 -3 1 -1 0 -26 1 21 0 7 1 1 1 0 1 0 
-1 0 2 -2 0 -1 1 -1 0 -2 1 -1 0 -4 1 -1 
0 -2 1 -1 0 27 1 -22 0 -32 0 21 1 5 0 6 
1 1 0 6 1 3 0 8 1 4 0 11 1 4 0 17 
1 5 0 14 1 5 0 14 1 5 0 13 1 5 0 17 
1 8 0 23 0 -18 1 -17 0 30 1 3 0 9 1 3 
0 10 1 2 0 6 1 2 0 4 1 2 0 2 1 1 
0 2 1 1 1 0 0 25 1 -19 0 -5 1 1 0 2 
0 -2 1 -21 0 20 1 1 1 0 -1 0 2 0 1 -1 
0 -2 1 -1 0 -3 1 -2 0 -3 1 2 0 18 0 -30 
1 -2 0 -6 1 -3 0 -7 1 -2 0 -6 1 -5 0 -27 
0 11 1 -4 0 -12 1 -4 0 -14 1 -4 0 -15 1 -5 
0 -22 1 -5 0 -5 0 17 1 -24 0 -17 1 -4 0 -9 
1 -2 0 -8 1 -1 0 -3 1 -1 0 -2 1 -3 0 -18 
0 27 1 -1 0 -2 0 1 2 2 0 2 1 5 0 21 
1 -22 -1 0 2 2 1 1 1 1 1 0 1 -1 1 -3 
0 -18 0 24 1 -1 1 -1 0 24 1 -20 0 -5 1 1 
1 0 1 -1 1 -1 0 -2 1 -1 0 -2 1 -1 0 -2 
2 -2 0 -20 0 26 1 19 0 -22 1 0 0 4 1 2 
0 6 1 3 0 13 1 3 0 13 1 8 0 14 1 4 
0 15 1 4 0 19 1 4 0 13 1 5 0 14 1 4 
0 7 1 2 0 10 1 2 0 8 1 2 0 6 1 2 
0 5 1 1 0 4 1 1 0 2 1 1 1 1 0 2 
1 2 0 -2 1 1 0 1 1 3 0 -4 1 -1 1 0 
0 -1 2 -2 0 -2 1 -1 0 -3 1 -1 0 -4 1 -4 
0 -6 1 -2 0 -7 1 -2 0 -7 1 -2 0 -9 1 -7 
0 -13 1 -4 0 -12 1 -5 0 -14 1 -4 0 -20 1 -5 
0 -16 1 -6 0 -7 2217 937 300 MP stroke
1 -6 0 -12 1 -3 0 -10 1 -2 0 -4 1 -1 0 -1 
1 -1 0 4 1 1 0 -3 1 -1 0 1 2 2 0 5 
1 -1 1 1 1 1 1 1 1 0 1 1 1 1 0 4 
0 -1 1 -1 0 -1 1 -1 0 2 1 -2 0 -2 1 1 
1 -1 1 0 -1 0 2 -2 0 -1 1 -1 0 -2 2 -2 
1 1 0 4 0 -1 2 0 0 3 1 2 0 6 1 3 
0 12 1 4 0 12 1 4 0 13 1 5 0 14 1 4 
0 19 1 4 0 14 1 4 0 -10 0 23 1 10 0 23 
0 -19 1 1 0 9 1 2 0 7 1 2 0 6 1 2 
0 5 1 1 0 4 1 1 0 2 1 1 0 1 1 1 
0 -19 0 18 1 3 0 2 1 1 0 26 1 -23 0 -5 
1 -1 0 -1 2 -2 0 -1 1 -1 0 -3 1 -1 0 -3 
1 -1 0 -25 0 15 1 1 0 -6 1 -2 0 -7 1 -2 
0 -6 1 -1 0 18 0 -36 1 -4 0 -13 1 -4 0 -13 
1 -5 0 -14 1 -5 0 -19 1 -5 0 -29 0 15 1 -1 
0 -13 1 -3 0 -9 1 -3 0 -7 1 -1 0 -2 1 -1 
0 4 1 24 0 -26 1 -1 1 -1 -1 0 2 2 0 -19 
1 19 0 3 1 0 1 1 1 1 1 1 1 0 0 2 
1 1 0 27 0 -19 1 -5 0 -2 1 -1 0 -4 1 -17 
0 19 1 0 1 -1 1 -1 1 -1 0 -2 2 -2 1 0 
0 3 1 5 0 21 0 -26 1 -18 0 19 1 1 0 4 
1 2 0 7 1 3 0 10 1 4 0 19 1 4 0 14 
1 5 0 14 1 4 0 14 1 5 0 43 1 -13 0 -18 
0 17 1 5 0 7 1 2 0 7 1 2 0 8 1 1 
0 5 1 2 0 3 1 1 0 3 1 1 0 3 1 2 
0 24 0 -17 1 -4 0 -1 1 1 0 2 0 -2 1 -19 
0 18 1 -1 0 -2 2 -2 0 -2 1 -1 0 -3 1 -1 
0 -2 1 -1 0 20 0 -21 1 -6 0 -8 1 -3 0 -8 
1 -2 0 -6 1 -5 0 -24 0 11 1 -3 0 -13 1 -5 
0 -18 1 -5 0 -14 1 -4 0 -12 1 0 0 14 0 -30 
1 -5 0 -16 1 -3 0 -7 1 -1 0 -4 1 -1 0 -1 
1 -1 0 -19 0 22 1 -1 0 -2 1 -1 1 0 0 4 
1 4 0 19 0 -23 1 0 1 0 1 1 1 1 0 1 
2 2 0 -17 1 19 0 2 0 -1 1 -1 0 -1 0 6 
1 17 0 -25 1 -1 1 -1 1 -1 1 -1 1 -1 1 -1 
1 1 0 2 1 -2 0 -14 0 44 1 -19 0 -6 1 1 
0 4 1 1 0 7 1 3 0 14 1 4 0 11 1 4 
0 14 1 4 0 14 2057 882 300 MP stroke
1 5 0 19 1 5 0 22 1 1 0 5 1 2 0 6 
1 2 0 7 1 2 0 6 1 2 0 4 1 2 0 3 
1 1 0 4 1 1 0 4 1 3 0 4 0 -4 2 3 
0 1 0 -1 1 -1 0 -3 1 -1 0 -2 1 -1 0 -1 
1 -1 0 -3 1 -1 0 -3 1 -1 0 -1 1 2 0 -11 
1 -3 0 -9 1 -2 0 -6 1 -2 0 -10 1 -3 0 -13 
1 -5 0 -19 1 -4 0 -14 1 -5 0 -12 1 -4 0 -8 
1 -7 0 -17 1 -4 0 -8 1 -2 0 -5 1 -1 1 -1 
1 1 0 -3 1 -1 1 -1 0 2 1 2 0 5 0 -5 
1 -1 1 0 1 0 0 1 2 2 0 2 1 1 0 2 
1 2 0 -2 1 -1 0 2 1 3 0 -8 1 -1 0 -1 
2 -2 1 -1 1 0 1 0 0 2 1 1 0 5 1 2 
0 6 0 -5 1 -2 0 -1 1 1 0 5 1 2 0 8 
1 3 0 14 1 7 0 13 1 4 0 14 1 4 0 15 
1 4 0 20 1 4 0 23 1 -3 0 -1 0 2 1 1 
0 5 1 2 0 8 1 1 0 5 1 1 0 4 1 2 
0 3 1 1 0 4 1 1 0 -1 0 3 1 1 0 3 
1 1 0 10 1 -6 0 -8 1 -1 0 -3 1 -1 0 -2 
1 -1 0 -2 1 -1 0 -3 1 -1 0 -6 1 -2 0 -4 
1 -2 0 -7 1 -2 0 -7 1 -1 0 2 0 -9 1 -7 
0 -16 1 -5 0 -14 1 -5 0 -18 1 -4 0 -12 1 -4 
0 -13 1 -3 0 -11 1 -3 0 -9 1 -2 0 -2 1 -1 
0 2 1 3 0 5 0 -9 1 -2 0 -4 1 -1 1 1 
0 -1 1 1 1 1 1 0 1 1 1 1 0 2 1 1 
0 8 1 7 0 -10 1 -1 0 -3 1 -1 0 -2 0 2 
1 -1 0 -2 2 -2 1 0 1 -1 1 1 0 3 1 1 
0 9 1 6 1 -10 -1 0 2 2 0 4 1 2 0 8 
1 3 0 10 1 4 0 16 1 4 0 13 1 5 0 14 
1 5 0 15 1 2 0 -6 0 49 1 -14 0 -2 0 1 
1 1 0 5 1 1 0 5 1 2 0 5 1 1 0 6 
1 1 0 4 1 1 0 3 1 1 0 -14 0 14 1 3 
0 5 1 2 0 23 0 -18 1 -5 0 -7 1 -1 0 -3 
1 -1 0 -3 1 -1 0 -2 1 -1 0 -3 1 -1 0 -20 
1 11 0 1 0 -6 1 -2 0 -6 1 -2 0 -5 1 1 
0 17 0 -30 1 -7 0 -21 1 -4 0 -14 1 -4 0 -13 
1 -4 0 -15 1 -17 0 9 0 -8 1 -3 0 -9 1 -2 
0 -5 1 -1 0 -1 0 1 1 1 0 24 0 -21 1 -4 
0 -5 1 -1 0 -1 1904 964 300 MP stroke
1 -1 0 1 0 -1 1 -2 0 -12 0 15 1 0 1 0 
1 0 -1 0 2 2 0 2 1 2 0 5 1 5 0 19 
0 -22 1 -2 0 -4 1 -1 0 -16 0 14 1 0 0 -2 
2 -2 1 0 -1 0 2 0 1 1 0 3 1 2 0 12 
1 17 0 -37 0 11 1 2 0 1 1 1 0 5 1 2 
0 7 1 3 0 17 1 4 0 13 1 4 0 14 1 5 
0 15 1 5 0 32 0 -7 1 1 0 -7 0 13 1 1 
0 3 1 2 0 5 1 1 0 7 1 1 0 5 1 1 
0 4 1 1 0 4 1 1 0 19 0 -11 1 -2 0 2 
1 1 0 1 0 -6 1 7 0 -5 1 -2 0 -3 1 -1 
0 -4 1 -1 0 -2 1 -1 0 -3 1 -1 0 12 1 -15 
0 -11 1 -2 0 -6 1 -2 0 -7 1 -13 0 11 0 -10 
1 -6 0 -20 1 -5 0 -14 1 -4 0 -12 1 -3 0 -5 
0 9 1 -17 0 -17 1 -3 0 -8 1 -2 1 -3 -1 0 
2 3 0 -15 0 9 1 -1 0 -3 1 -1 1 -1 0 17 
1 -13 0 -4 2 0 1 1 0 1 1 1 0 5 1 2 
0 -8 0 11 1 0 0 -4 1 -1 0 14 1 -13 0 -6 
1 -1 0 -1 1 -1 1 -1 1 1 0 1 1 1 0 3 
1 2 0 6 1 -7 0 25 1 -13 0 -4 1 1 0 5 
1 2 0 7 1 3 0 11 1 3 0 16 1 4 0 14 
1 4 0 15 1 6 0 18 1 5 0 9 1 0 0 4 
1 1 0 5 1 1 0 5 1 2 0 5 1 2 0 4 
1 1 0 4 1 2 0 4 1 1 0 2 1 1 0 16 
0 -21 0 11 1 -5 0 -6 1 -2 0 -3 1 -1 0 -4 
1 -1 0 -2 1 -1 0 -2 1 -1 0 -6 1 -2 0 -9 
1 -2 0 -5 1 -1 0 -6 1 -6 0 -16 1 -5 0 -19 
1 -4 0 -13 1 -4 0 -10 1 -3 0 -12 1 -4 0 -9 
1 -3 0 -7 1 -1 1 1 0 3 1 -4 0 -6 1 -1 
0 -2 1 -1 0 2 1 1 0 -3 1 -1 1 0 1 1 
0 1 1 1 0 4 1 2 0 8 1 -3 0 -4 1 -1 
1 -3 0 -2 1 -1 0 -2 1 -1 1 0 1 0 0 2 
1 1 0 4 1 2 0 12 1 0 0 -3 1 -1 0 -1 
1 1 0 5 1 2 0 11 1 3 0 14 1 4 0 12 
1 5 0 14 1 5 0 20 1 -2 0 35 1 -9 0 -1 
0 1 1 1 0 4 1 1 0 6 1 2 0 4 1 2 
0 4 1 1 0 5 1 1 0 -4 0 9 1 2 0 3 
1 1 0 14 0 -6 1 -4 0 -8 1 -2 0 -5 1 -1 
0 -3 1 -1 0 -3 1754 803 300 MP stroke
1 -1 0 -2 1 -1 0 -12 0 5 1 -2 0 -7 1 -2 
0 -4 1 -1 0 9 0 -15 1 -7 0 -21 1 -5 0 -13 
1 -5 0 -12 1 -3 0 -12 1 -11 0 4 0 -10 1 -3 
0 -8 1 -2 0 -3 1 -1 0 -1 0 1 1 1 0 14 
0 -17 1 -2 0 -5 1 -1 1 0 0 -9 0 8 2 -2 
1 0 -1 0 2 2 0 3 1 1 0 11 1 12 0 -18 
1 -1 0 -1 1 -2 0 -9 0 7 1 -1 0 -2 1 -1 
1 -1 1 0 0 2 1 1 0 3 1 2 0 13 1 12 
0 -21 1 6 0 1 0 -1 1 1 0 3 1 2 0 10 
1 3 0 9 1 4 0 12 1 4 0 14 1 5 0 21 
1 8 0 14 0 -2 1 -4 0 10 1 1 0 3 1 2 
0 6 1 1 0 5 1 1 0 5 1 1 0 5 1 2 
0 16 0 -7 1 -1 0 2 1 1 0 -6 0 7 1 -1 
0 -6 1 -1 0 -6 1 -1 0 -3 1 -1 0 -2 1 -1 
0 -2 1 1 0 7 0 -18 1 -2 0 -6 1 -2 0 -4 
1 -2 0 -13 1 -5 0 -19 1 -5 0 -13 1 -4 0 -10 
1 -3 0 4 0 -12 1 -6 0 -14 1 -3 0 -5 1 -2 
1 -1 0 -6 1 6 0 -7 1 -1 0 -1 1 -1 0 11 
1 -9 0 -4 1 -1 1 -1 -1 0 2 2 0 2 1 1 
0 6 1 3 0 1 0 -10 0 6 1 -1 0 -1 0 1 
1 1 0 8 0 -13 1 -1 0 -3 1 -1 1 -1 1 1 
0 2 1 1 0 5 1 2 0 7 0 -3 1 7 0 11 
0 -9 1 -3 0 -1 1 1 0 5 1 2 0 11 1 3 
0 14 1 4 0 13 1 4 0 15 1 6 0 19 1 4 
0 7 1 1 0 3 1 2 0 4 1 1 0 5 1 1 
0 6 1 2 0 5 1 2 0 8 2 2 0 4 0 -1 
1 -2 0 -5 1 -2 0 -4 1 -2 0 -3 1 -1 0 -4 
1 -1 1 -1 0 -8 1 -3 0 -6 1 -2 0 -6 1 -2 
0 -15 1 -5 0 -15 1 -4 0 -13 1 -3 0 -13 1 -2 
0 -13 1 -3 0 -9 1 -3 0 -5 2 0 0 1 0 -4 
1 -2 0 -5 1 -1 1 -1 0 2 0 -4 1 -1 1 -1 
0 -1 0 1 2 2 0 6 1 2 0 4 1 -2 1 -3 
-1 0 2 -2 0 -5 1 -1 1 -1 1 0 0 2 1 1 
0 6 1 2 0 8 1 3 0 3 1 -2 0 -1 1 -1 
0 6 1 2 0 8 1 3 0 10 1 3 0 12 1 5 
0 19 1 5 0 16 1 6 0 11 0 -1 1 -1 0 2 
1 2 0 5 1 1 0 5 1 1 0 5 1 2 0 5 
1 1 0 7 1 1 1605 796 300 MP stroke
0 4 1 1 0 6 0 -4 1 -2 0 -6 1 -2 0 -6 
1 -1 0 -3 1 -1 0 -3 1 -1 0 -3 1 -1 0 -9 
1 -2 0 -5 1 -1 0 -2 1 -7 0 -17 1 -5 0 -13 
1 -4 0 -16 1 -3 0 -10 1 -3 0 -10 1 -3 0 -8 
1 -1 0 -2 1 -1 0 5 1 -5 0 -7 1 -2 0 -3 
2 -2 0 -1 1 -1 1 -1 -1 0 2 2 0 4 1 2 
0 6 1 3 0 -6 1 -1 0 -2 1 -1 0 -4 1 -1 
0 -1 1 -1 1 1 0 2 1 1 0 6 1 2 0 10 
1 5 0 -4 2 0 0 6 1 2 0 8 1 3 0 14 
1 4 0 12 1 5 0 20 1 4 0 17 1 9 0 -4 
1 1 0 3 1 1 0 6 1 2 0 4 1 2 0 5 
1 1 0 6 1 1 0 -1 0 6 1 2 0 10 1 -6 
0 -7 1 -2 0 -5 1 -1 0 -5 1 -1 0 -3 1 -1 
0 -4 1 -4 0 1 0 -3 1 -2 0 -7 1 -2 0 -1 
0 2 1 -9 0 -17 1 -5 0 -13 1 -4 0 -15 1 -4 
0 -10 1 -3 0 -9 1 -3 0 -6 1 -2 0 -2 1 1 
0 7 0 -7 1 -3 0 -7 1 -1 0 -2 1 -1 0 -4 
0 2 2 -2 1 0 0 2 1 1 0 6 1 2 0 9 
0 -6 1 -2 0 -4 1 -1 0 -4 0 2 1 -1 0 -2 
1 -1 1 -1 -1 0 2 2 0 4 1 2 0 7 1 3 
0 12 0 -6 1 -4 0 2 1 1 0 3 1 2 0 6 
1 3 0 12 1 4 0 12 1 4 0 14 1 5 0 19 
1 3 0 8 1 1 0 3 1 1 0 4 1 2 0 5 
1 1 0 7 1 1 0 6 1 2 0 5 0 -1 1 1 
0 4 1 -1 0 -6 1 -2 0 -4 1 -2 0 -3 1 -1 
0 -3 1 -1 0 -3 0 2 1 -5 0 -7 1 -2 0 -5 
1 -2 0 -6 1 -5 0 -20 1 -4 0 -12 1 -4 0 -10 
1 -2 0 -11 1 -3 0 -12 1 -2 0 -3 1 -1 0 -1 
0 1 1 1 0 -6 1 -2 0 -5 1 -1 0 2 1 -3 
0 -3 1 -1 1 -1 0 2 1 1 0 3 1 2 0 4 
1 1 0 -3 1 -1 0 2 0 -6 1 -1 0 -2 1 -1 
1 0 -1 0 2 2 0 5 1 2 0 8 1 3 0 4 
1 3 0 -3 1 -1 0 5 1 2 0 8 1 3 0 13 
1 4 0 13 1 4 0 20 1 6 0 13 1 0 0 2 
1 1 0 4 1 1 0 6 1 2 0 5 1 1 0 6 
1 2 0 5 1 1 0 5 1 1 0 -6 1 -2 0 -5 
1 -1 0 -4 1 -1 0 -3 1 -1 0 -4 1 -1 0 -7 
1 -2 0 -6 1 -1 1456 841 300 MP stroke
0 -7 1 -5 0 -19 1 -4 0 -12 1 -4 0 -9 1 -3 
0 -10 1 -4 0 -10 1 -2 0 -2 1 -1 1 1 0 -8 
1 -2 0 -3 1 -1 0 -2 1 -1 0 -2 1 -1 1 0 
0 3 1 1 0 5 1 2 0 2 0 -3 1 -1 0 -1 
1 -1 0 -4 1 -1 1 -1 1 1 0 3 1 1 0 9 
1 3 0 7 1 0 0 1 0 -1 1 -1 0 3 1 1 
0 9 1 3 0 9 1 4 0 11 1 5 0 13 1 5 
0 19 1 4 0 2 1 1 0 4 1 1 0 5 1 1 
0 7 1 1 0 5 1 2 0 6 1 1 0 3 1 2 
0 1 0 -6 1 -2 0 -5 1 -1 0 -4 1 -1 0 -3 
1 -1 0 -4 1 -3 0 -6 1 -2 0 -5 1 -1 0 -10 
1 -5 0 -18 1 -4 0 -11 1 -4 0 -9 1 -2 0 -11 
1 -2 0 -8 1 -2 1 -1 0 1 0 -4 1 -2 0 -6 
1 -1 0 -2 1 -1 0 -2 1 -1 1 -1 -1 0 2 2 
0 5 1 1 0 4 0 -1 1 -2 0 -1 1 -1 0 -4 
1 -1 1 -1 1 1 0 3 1 1 0 6 1 2 0 10 
2 0 0 3 1 2 0 6 1 3 0 12 1 4 0 16 
1 4 0 15 1 4 0 15 1 -1 0 2 1 1 0 6 
1 2 0 4 1 2 0 5 1 2 0 6 1 1 0 5 
1 1 0 4 0 -4 1 -2 0 -5 1 -2 0 -4 1 -1 
0 -4 1 -1 0 -4 1 -2 0 -5 1 -2 0 -6 1 -2 
0 -13 1 -4 0 -13 1 -4 0 -11 1 -3 0 -9 1 -4 
0 -12 1 -2 0 -6 1 -1 1 -1 0 2 0 -7 1 -2 
0 -5 1 -1 0 -2 1 -1 0 -2 1 -1 1 0 0 2 
1 1 0 6 1 3 0 -4 1 -1 0 -2 1 -1 0 -3 
2 0 0 2 1 1 0 5 1 2 0 14 1 -1 0 -1 
1 1 0 2 1 2 0 5 1 3 0 12 1 3 0 12 
1 4 0 13 1 5 0 13 1 5 0 2 1 2 0 4 
1 1 0 5 1 2 0 5 1 2 0 7 1 1 0 4 
1 1 0 2 0 -2 1 -3 0 -4 1 -2 0 -5 1 -1 
0 -3 1 -1 0 -4 1 -2 0 -6 1 -2 0 -7 1 -1 
0 -15 1 -4 0 -12 1 -4 0 -10 1 -3 0 -9 1 -3 
0 -11 1 -2 0 -3 1 -1 0 -1 0 1 1 -3 0 -6 
1 -2 0 -3 1 -1 0 -2 1 -1 0 -1 1 -1 0 1 
1 1 0 5 1 1 0 3 0 -3 1 -1 0 -1 1 -1 
0 -2 1 -1 0 -1 1 1 0 2 1 1 0 4 1 2 
0 9 1 4 0 1 0 -1 1 1 0 2 1 2 0 6 
1 3 0 12 1 3 1305 894 300 MP stroke
0 16 1 4 0 15 1 5 0 5 1 2 0 4 1 1 
0 7 1 1 0 5 1 2 0 5 1 2 0 5 1 1 
0 2 1 -2 0 -4 1 -1 0 -4 1 -1 0 -4 1 -1 
0 -4 1 -1 0 -8 1 -2 0 -5 1 -2 0 -11 1 -4 
0 -16 1 -4 0 -9 1 -3 0 -9 1 -3 0 -8 1 -2 
0 -5 1 -1 0 -3 1 -2 0 -5 1 -1 0 -1 1 -1 
0 -5 2 0 0 1 1 1 0 4 1 1 0 -1 1 -1 
0 1 0 -3 1 -1 1 -2 -1 0 2 2 0 4 1 2 
0 6 1 3 0 6 1 1 1 1 0 7 1 3 0 8 
1 3 0 11 1 4 0 12 1 5 0 15 0 -6 1 5 
0 6 1 1 0 5 1 2 0 4 1 2 0 7 1 2 
0 8 0 -3 1 1 0 2 1 -5 0 2 0 -2 1 -1 
0 -4 1 -1 0 -5 1 -1 0 -3 1 3 0 -11 1 -2 
0 -5 1 -3 0 -15 1 -4 0 -11 1 -4 0 -9 1 -2 
0 2 0 -12 1 -3 0 -9 1 -1 0 -3 1 -1 0 -5 
0 1 1 -2 0 -2 1 -3 0 3 0 -7 1 -1 0 -1 
1 -1 1 1 0 3 1 1 0 -2 0 3 1 0 0 4 
1 -5 0 -3 1 -1 1 1 0 4 1 1 0 5 1 2 
0 10 1 5 0 -5 1 1 0 7 1 2 0 11 1 3 
0 11 1 4 0 13 1 4 0 13 0 -3 1 2 0 5 
1 1 0 5 1 2 0 5 1 2 0 5 1 -2 0 9 
1 2 0 5 0 -9 1 -1 0 -4 1 -1 0 -5 1 -1 
0 -3 1 -2 0 -7 0 1 1 -2 0 -5 1 -1 0 3 
0 -18 1 -4 0 -11 1 -4 0 -9 1 -3 0 -9 1 -2 
0 -9 1 -2 0 -2 1 4 0 -11 1 -2 0 -4 1 -1 
0 -5 0 3 1 -1 0 -1 1 -1 1 1 0 4 1 6 
0 -6 1 -1 0 -5 0 3 2 0 0 1 1 1 0 5 
1 2 0 8 1 9 0 -8 0 3 1 1 0 4 1 2 
0 10 1 3 0 9 1 4 0 12 1 4 0 12 1 1 
0 5 1 1 0 7 1 2 0 5 1 1 0 5 1 2 
0 4 1 1 0 2 0 -3 1 -1 0 -4 1 -1 0 -3 
1 -2 0 -3 1 -1 0 -9 1 -2 0 -5 1 -2 0 -11 
1 -4 0 -11 1 -3 0 -12 1 -3 0 -9 1 -2 0 -6 
1 -1 0 -8 1 9 0 -13 1 -1 0 -1 1 -1 0 -3 
1 -1 1 -1 -1 0 2 2 0 9 0 -11 0 6 1 -1 
0 -2 1 -1 1 -1 0 2 1 1 0 3 1 2 0 6 
1 3 0 5 1 0 0 5 1 2 0 8 1 5 0 10 
1 3 0 12 1 5 1159 866 300 MP stroke
0 10 1 1 0 6 1 1 0 5 1 2 0 5 1 1 
0 13 1 -5 0 -5 1 6 0 -3 1 -1 0 -4 1 -1 
0 -5 1 -1 0 5 0 -12 1 -2 0 -5 1 -3 0 -8 
0 1 1 -4 0 -15 1 -3 0 -8 1 3 0 -16 1 -2 
0 -6 1 -1 0 -10 1 3 0 -5 1 -2 0 -1 0 6 
1 -7 0 -3 2 0 0 2 1 -1 0 -3 0 5 1 0 
0 6 0 -8 1 -1 1 1 0 3 1 1 0 4 1 3 
0 3 0 -1 1 12 0 -4 0 2 1 2 0 6 1 2 
0 9 1 3 0 10 1 4 0 21 1 -3 0 4 1 1 
0 6 1 2 0 5 1 1 0 3 1 1 0 -5 0 12 
1 8 0 -12 1 -1 0 -3 1 -1 0 -4 1 -1 0 -11 
0 3 1 -2 0 -6 1 -1 0 6 0 -16 1 -4 0 -10 
1 -3 0 -20 1 4 0 -7 1 -2 0 -5 1 -1 0 7 
0 -10 1 -4 0 -6 1 -2 0 -7 0 6 2 -2 1 1 
0 11 0 -7 1 -2 0 -9 0 6 1 1 1 1 0 1 
1 1 0 6 1 2 0 13 1 -11 0 9 1 2 0 6 
1 2 0 14 1 4 0 10 1 3 0 10 1 1 0 6 
1 2 0 7 1 1 0 5 1 2 0 1 1 2 0 4 
0 -2 1 -1 0 -5 1 -1 0 -4 1 -1 0 -6 1 -1 
0 -7 1 -2 0 -10 1 -4 0 -10 1 -3 0 -10 1 -3 
0 -6 1 -3 0 -4 1 -3 0 -6 1 -2 0 -4 1 -2 
0 -1 1 -1 1 -1 -1 0 2 3 0 2 0 -3 1 -2 
0 1 2 2 0 3 1 1 0 6 1 3 0 4 1 1 
0 8 1 2 0 7 1 3 0 10 1 3 0 12 1 0 
0 10 1 1 0 6 1 2 0 4 1 2 0 6 1 -1 
0 -1 1 1 0 -3 1 -1 0 -3 1 -2 0 -2 1 -4 
0 -7 1 -3 0 -10 1 -3 0 -10 1 -3 0 -7 1 -2 
0 -10 1 -2 0 -7 1 -3 0 -4 1 -1 0 -1 1 -1 
0 -4 1 -1 1 0 -1 0 2 0 0 3 1 -1 1 -1 
0 4 1 1 0 4 1 2 0 7 1 1 0 4 1 2 
0 12 1 3 0 10 1 3 0 14 0 -12 1 8 0 8 
1 2 0 7 1 2 0 4 1 3 0 9 0 -9 1 -1 
0 -7 0 8 1 1 0 -5 1 -1 0 -3 1 7 0 -16 
1 -3 0 -16 1 6 0 -12 1 -3 0 -7 1 5 0 -17 
1 -2 0 -5 1 -3 0 -11 0 5 1 -1 0 -1 0 7 
1 -9 0 -3 1 -1 1 0 0 1 0 -10 0 7 1 2 
0 10 0 -8 1 -1 1 1 0 3 1 2 0 5 1 -4 
0 17 0 -5 1 2 1015 907 300 MP stroke
0 6 1 3 0 8 1 2 0 12 1 -3 0 18 0 -3 
1 2 0 6 1 2 0 5 1 1 0 -6 0 9 1 1 
0 11 0 -8 1 -2 0 -3 1 -1 0 -4 1 -3 0 -9 
0 3 1 -3 0 -4 0 7 1 -11 0 -11 1 -3 0 -10 
1 -10 0 5 0 -7 1 -2 0 -1 0 6 1 -11 0 -5 
1 -1 0 -11 0 6 1 1 0 -1 1 -1 0 2 1 8 
0 -11 1 -8 0 9 1 1 0 4 1 1 0 5 1 3 
0 8 0 -13 0 8 1 3 0 6 1 2 0 10 1 3 
0 12 1 3 0 7 1 2 0 6 1 2 0 3 1 1 
1 4 -1 0 2 -2 0 -3 1 -2 0 -4 1 -2 0 -10 
1 -3 0 -9 1 -3 0 -8 1 -3 0 -8 1 -2 0 -7 
1 -2 0 -4 1 -1 0 -4 1 -1 1 -1 1 -1 0 2 
0 -1 1 -1 0 2 1 1 0 3 1 2 0 7 1 1 
0 6 1 2 0 8 1 2 0 8 1 3 0 13 0 -3 
1 3 0 7 1 2 0 4 1 1 0 13 1 -8 0 -10 
0 10 1 -1 0 -3 1 -2 0 -2 0 7 1 -10 0 -7 
1 -3 0 -13 0 1 1 -3 0 -7 1 5 0 -17 1 -2 
0 -15 1 9 0 -5 1 7 0 -12 1 -1 1 0 0 -10 
0 7 1 3 0 9 0 -9 1 1 0 3 1 1 0 4 
1 1 0 12 0 -17 0 13 1 0 0 10 1 4 0 8 
1 2 0 16 0 -20 0 16 1 0 0 7 1 2 0 5 
1 -1 0 -8 0 12 1 11 0 -13 1 0 0 -4 1 -4 
0 -10 0 6 1 -1 0 6 0 -18 1 -3 0 -8 1 -4 
0 -12 0 5 1 -2 0 -6 0 10 1 -10 0 -10 1 -9 
0 8 1 -1 0 -1 0 1 1 1 0 9 0 -21 1 9 
0 4 1 1 0 2 1 2 0 13 1 -15 0 15 1 3 
0 9 1 3 0 6 1 6 0 6 1 2 0 6 1 1 
0 0 0 2 1 2 0 2 0 -3 1 -1 0 -3 1 -2 
0 -6 1 -1 0 -11 1 -3 0 -8 1 -4 0 -7 1 -2 
0 -3 1 -3 0 -8 2 -2 0 2 1 -2 0 -2 0 2 
1 2 0 3 1 1 0 5 1 2 0 -1 0 6 1 2 
0 10 1 2 0 9 1 4 0 8 1 2 0 5 1 2 
0 1 0 -2 1 -3 0 2 0 -1 1 -1 0 -3 1 -3 
0 -11 1 0 0 -7 1 -2 0 -12 1 -2 0 -9 2 -2 
0 -4 1 -1 0 -4 0 3 1 1 0 3 0 -1 1 1 
0 2 1 2 0 2 1 5 0 8 1 3 0 6 1 4 
0 10 0 -14 0 10 1 4 0 6 1 2 0 14 0 -8 
1 -3 0 -12 0 11 882 863 300 MP stroke
1 0 0 -2 1 7 0 -20 1 -11 0 8 0 -6 1 -2 
0 7 0 -16 1 -3 0 -18 1 7 0 10 1 -10 0 -5 
1 -3 0 -10 0 16 1 9 0 -9 0 1 1 1 0 2 
1 1 0 13 0 -19 0 16 1 2 0 9 1 1 0 16 
0 -20 0 16 1 1 0 6 1 1 0 -8 0 20 1 -9 
0 -2 1 -1 0 -13 0 6 1 -1 0 5 0 -11 1 -4 
0 -17 0 5 1 -1 0 -3 0 6 1 -12 0 -13 1 7 
0 -1 1 -1 0 10 0 -18 1 8 0 5 1 1 0 13 
1 -16 0 16 1 3 0 5 1 2 0 13 1 1 0 2 
1 2 0 9 0 -17 0 9 1 -2 0 -1 1 -3 0 -12 
1 -2 0 -7 1 -3 0 -7 1 -1 0 -5 1 -1 0 -1 
0 7 1 -16 0 9 1 2 0 4 1 2 0 3 1 4 
0 10 1 4 0 8 1 1 0 13 1 -10 0 -10 0 9 
1 -1 0 7 0 -14 1 -14 0 6 0 -2 1 6 0 -19 
1 -11 0 17 1 -11 0 -13 1 10 0 11 0 -9 1 1 
0 4 1 2 0 6 1 3 0 9 1 2 0 6 1 1 
0 11 0 -18 0 7 1 0 0 -13 1 9 0 8 0 -22 
1 -10 0 6 0 -4 1 10 0 -24 0 7 1 0 0 -2 
0 11 1 -18 0 12 1 1 0 7 1 3 0 8 1 3 
0 5 1 -1 0 3 0 -3 1 -3 0 -5 1 -3 0 -7 
1 -2 0 -7 1 0 0 -2 1 2 0 3 1 2 0 8 
1 1 0 7 1 3 0 2 0 -3 0 2 1 0 0 -7 
1 -1 0 -4 1 -5 0 -5 1 -2 0 -3 0 6 1 0 
0 4 1 3 0 8 1 3 0 8 0 -18 0 10 1 1 
0 5 0 -19 0 7 1 7 0 -26 0 15 1 -8 0 -12 
0 18 1 -5 0 3 1 4 0 4 0 -6 1 17 0 -17 
0 14 1 -8 0 -19 1 8 0 7 0 -16 0 8 1 2 
0 10 1 0 0 -9 1 -1 0 -1 0 1 1 5 0 0 
0 -2 0 1 1 -3 0 -1 0 2 790 898 230 MP stroke
gr

c8
0 sg
 773 3939 mt 
( ) s
5484  370 mt 
( ) s
1 sg
0 188 772 0 0 -188 4669 576 4 MP
PP
-772 0 0 188 772 0 0 -188 4669 576 5 MP stroke
4 w
DO
SO
6 w
0 sg
4669  576 mt 5441  576 L
4669  388 mt 5441  388 L
4669  576 mt 4669  388 L
5441  576 mt 5441  388 L
4669  576 mt 5441  576 L
4669  576 mt 4669  388 L
4669  576 mt 5441  576 L
4669  388 mt 5441  388 L
4669  576 mt 4669  388 L
5441  576 mt 5441  388 L
5131  525 mt 
(Error) s
gs 4669 388 773 189 rc
c8
355 0 4740 482 2 MP stroke
gr

c8

end %%Color Dict

eplot
%%EndObject

epage
end

showpage

%%Trailer
%%EOF
