%!PS-Adobe-3.0 EPSF-3.0
%%Creator: MATLAB, The MathWorks, Inc. Version 8.1.0.604 (R2013a). Operating System: Microsoft Windows 7.
%%Title: C:\USER\SKOLE\TMA4220\tma4220-element-methods-project\report\images\poisson3d-fem-4000-errorplot.eps
%%CreationDate: 11/19/2013  18:19:00
%%DocumentNeededFonts: Helvetica
%%DocumentProcessColors: Cyan Magenta Yellow Black
%%LanguageLevel: 2
%%Pages: 1
%%BoundingBox:  -132    70   727   771
%%EndComments

%%BeginProlog
% MathWorks dictionary
/MathWorks 160 dict begin
% definition operators
/bdef {bind def} bind def
/ldef {load def} bind def
/xdef {exch def} bdef
/xstore {exch store} bdef
% operator abbreviations
/c  /clip ldef
/cc /concat ldef
/cp /closepath ldef
/gr /grestore ldef
/gs /gsave ldef
/mt /moveto ldef
/np /newpath ldef
/cm /currentmatrix ldef
/sm /setmatrix ldef
/rm /rmoveto ldef
/rl /rlineto ldef
/s {show newpath} bdef
/sc {setcmykcolor} bdef
/sr /setrgbcolor ldef
/sg /setgray ldef
/w /setlinewidth ldef
/j /setlinejoin ldef
/cap /setlinecap ldef
/rc {rectclip} bdef
/rf {rectfill} bdef
% page state control
/pgsv () def
/bpage {/pgsv save def} bdef
/epage {pgsv restore} bdef
/bplot /gsave ldef
/eplot {stroke grestore} bdef
% orientation switch
/portraitMode 0 def /landscapeMode 1 def /rotateMode 2 def
% coordinate system mappings
/dpi2point 0 def
% font control
/FontSize 0 def
/FMS {/FontSize xstore findfont [FontSize 0 0 FontSize neg 0 0]
  makefont setfont} bdef
/ISOLatin1Encoding where {pop /WindowsLatin1Encoding 256 array bdef
ISOLatin1Encoding WindowsLatin1Encoding copy pop
/.notdef/.notdef/quotesinglbase/florin/quotedblbase/ellipsis/dagger
/daggerdbl/circumflex/perthousand/Scaron/guilsinglleft/OE/.notdef/.notdef
/.notdef/.notdef/quoteleft/quoteright/quotedblleft/quotedblright/bullet
/endash/emdash/tilde/trademark/scaron/guilsinglright/oe/.notdef/.notdef
/Ydieresis WindowsLatin1Encoding 128 32 getinterval astore pop}
{/WindowsLatin1Encoding StandardEncoding bdef} ifelse
/reencode {exch dup where {pop load} {pop StandardEncoding} ifelse
  exch dup 3 1 roll findfont dup length dict begin
  { 1 index /FID ne {def}{pop pop} ifelse } forall
  /Encoding exch def currentdict end definefont pop} bdef
/isroman {findfont /CharStrings get /Agrave known} bdef
/FMSR {3 1 roll 1 index dup isroman {reencode} {pop pop} ifelse
  exch FMS} bdef
/csm {1 dpi2point div -1 dpi2point div scale neg translate
 dup landscapeMode eq {pop -90 rotate}
  {rotateMode eq {90 rotate} if} ifelse} bdef
% line types: solid, dotted, dashed, dotdash
/SO { [] 0 setdash } bdef
/DO { [.5 dpi2point mul 4 dpi2point mul] 0 setdash } bdef
/DA { [6 dpi2point mul] 0 setdash } bdef
/DD { [.5 dpi2point mul 4 dpi2point mul 6 dpi2point mul 4
  dpi2point mul] 0 setdash } bdef
% macros for lines and objects
/L {lineto stroke} bdef
/MP {3 1 roll moveto 1 sub {rlineto} repeat} bdef
/AP {{rlineto} repeat} bdef
/PDlw -1 def
/W {/PDlw currentlinewidth def setlinewidth} def
/PP {closepath eofill} bdef
/DP {closepath stroke} bdef
/MR {4 -2 roll moveto dup  0 exch rlineto exch 0 rlineto
  neg 0 exch rlineto closepath} bdef
/FR {MR stroke} bdef
/PR {MR fill} bdef
/L1i {{currentfile picstr readhexstring pop} image} bdef
/tMatrix matrix def
/MakeOval {newpath tMatrix currentmatrix pop translate scale
0 0 1 0 360 arc tMatrix setmatrix} bdef
/FO {MakeOval stroke} bdef
/PO {MakeOval fill} bdef
/PD {currentlinewidth 2 div 0 360 arc fill
   PDlw -1 eq not {PDlw w /PDlw -1 def} if} def
/FA {newpath tMatrix currentmatrix pop translate scale
  0 0 1 5 -2 roll arc tMatrix setmatrix stroke} bdef
/PA {newpath tMatrix currentmatrix pop	translate 0 0 moveto scale
  0 0 1 5 -2 roll arc closepath tMatrix setmatrix fill} bdef
/FAn {newpath tMatrix currentmatrix pop translate scale
  0 0 1 5 -2 roll arcn tMatrix setmatrix stroke} bdef
/PAn {newpath tMatrix currentmatrix pop translate 0 0 moveto scale
  0 0 1 5 -2 roll arcn closepath tMatrix setmatrix fill} bdef
/vradius 0 def /hradius 0 def /lry 0 def
/lrx 0 def /uly 0 def /ulx 0 def /rad 0 def
/MRR {/vradius xdef /hradius xdef /lry xdef /lrx xdef /uly xdef
  /ulx xdef newpath tMatrix currentmatrix pop ulx hradius add uly
  vradius add translate hradius vradius scale 0 0 1 180 270 arc 
  tMatrix setmatrix lrx hradius sub uly vradius add translate
  hradius vradius scale 0 0 1 270 360 arc tMatrix setmatrix
  lrx hradius sub lry vradius sub translate hradius vradius scale
  0 0 1 0 90 arc tMatrix setmatrix ulx hradius add lry vradius sub
  translate hradius vradius scale 0 0 1 90 180 arc tMatrix setmatrix
  closepath} bdef
/FRR {MRR stroke } bdef
/PRR {MRR fill } bdef
/MlrRR {/lry xdef /lrx xdef /uly xdef /ulx xdef /rad lry uly sub 2 div def
  newpath tMatrix currentmatrix pop ulx rad add uly rad add translate
  rad rad scale 0 0 1 90 270 arc tMatrix setmatrix lrx rad sub lry rad
  sub translate rad rad scale 0 0 1 270 90 arc tMatrix setmatrix
  closepath} bdef
/FlrRR {MlrRR stroke } bdef
/PlrRR {MlrRR fill } bdef
/MtbRR {/lry xdef /lrx xdef /uly xdef /ulx xdef /rad lrx ulx sub 2 div def
  newpath tMatrix currentmatrix pop ulx rad add uly rad add translate
  rad rad scale 0 0 1 180 360 arc tMatrix setmatrix lrx rad sub lry rad
  sub translate rad rad scale 0 0 1 0 180 arc tMatrix setmatrix
  closepath} bdef
/FtbRR {MtbRR stroke } bdef
/PtbRR {MtbRR fill } bdef
/stri 6 array def /dtri 6 array def
/smat 6 array def /dmat 6 array def
/tmat1 6 array def /tmat2 6 array def /dif 3 array def
/asub {/ind2 exch def /ind1 exch def dup dup
  ind1 get exch ind2 get sub exch } bdef
/tri_to_matrix {
  2 0 asub 3 1 asub 4 0 asub 5 1 asub
  dup 0 get exch 1 get 7 -1 roll astore } bdef
/compute_transform {
  dmat dtri tri_to_matrix tmat1 invertmatrix 
  smat stri tri_to_matrix tmat2 concatmatrix } bdef
/ds {stri astore pop} bdef
/dt {dtri astore pop} bdef
/db {2 copy /cols xdef /rows xdef mul dup 3 mul string
  currentfile 
  3 index 0 eq {/ASCIIHexDecode filter}
  {/ASCII85Decode filter 3 index 2 eq {/RunLengthDecode filter} if }
  ifelse exch readstring pop
  dup 0 3 index getinterval /rbmap xdef
  dup 2 index dup getinterval /gbmap xdef
  1 index dup 2 mul exch getinterval /bbmap xdef pop pop}bdef
/it {gs np dtri aload pop moveto lineto lineto cp c
  cols rows 8 compute_transform 
  rbmap gbmap bbmap true 3 colorimage gr}bdef
/il {newpath moveto lineto stroke}bdef
currentdict end def
%%EndProlog

%%BeginSetup
MathWorks begin

0 cap

end
%%EndSetup

%%Page: 1 1
%%BeginPageSetup
%%PageBoundingBox:  -132    70   727   771
MathWorks begin
bpage
%%EndPageSetup

%%BeginObject: obj1
bplot

/dpi2point 12 def
portraitMode -1584 9252 csm

    0     0 10313  8401 rc
85 dict begin %Colortable dictionary
/c0 { 0.000000 0.000000 0.000000 sr} bdef
/c1 { 1.000000 1.000000 1.000000 sr} bdef
/c2 { 0.900000 0.000000 0.000000 sr} bdef
/c3 { 0.000000 0.820000 0.000000 sr} bdef
/c4 { 0.000000 0.000000 0.800000 sr} bdef
/c5 { 0.910000 0.820000 0.320000 sr} bdef
/c6 { 1.000000 0.260000 0.820000 sr} bdef
/c7 { 0.000000 0.820000 0.820000 sr} bdef
c0
1 j
1 sg
   0    0 10314 8402 rf
6 w
0 6847 7992 0 0 -6847 1341 7477 4 MP
PP
-7992 0 0 6847 7992 0 0 -6847 1341 7477 5 MP stroke
4 w
DO
SO
6 w
0 sg
1341  630 mt 9333  630 L
1341 7477 mt 9333 7477 L
9333 7477 mt 9333  630 L
1341 7477 mt 1341  630 L
1341 7477 mt 9333 7477 L
1341 7477 mt 1341  630 L
1341 7477 mt 1341 7397 L
1341  630 mt 1341  709 L
%%IncludeResource: font Helvetica
/Helvetica /WindowsLatin1Encoding 120 FMSR

1308 7622 mt 
(0) s
2340 7477 mt 2340 7397 L
2340  630 mt 2340  709 L
2240 7622 mt 
(500) s
3339 7477 mt 3339 7397 L
3339  630 mt 3339  709 L
3206 7622 mt 
(1000) s
4338 7477 mt 4338 7397 L
4338  630 mt 4338  709 L
4205 7622 mt 
(1500) s
5337 7477 mt 5337 7397 L
5337  630 mt 5337  709 L
5204 7622 mt 
(2000) s
6336 7477 mt 6336 7397 L
6336  630 mt 6336  709 L
6203 7622 mt 
(2500) s
7335 7477 mt 7335 7397 L
7335  630 mt 7335  709 L
7202 7622 mt 
(3000) s
8334 7477 mt 8334 7397 L
8334  630 mt 8334  709 L
8201 7622 mt 
(3500) s
9333 7477 mt 9333 7397 L
9333  630 mt 9333  709 L
9200 7622 mt 
(4000) s
1341 7477 mt 1420 7477 L
9333 7477 mt 9253 7477 L
1170 7521 mt 
(-1) s
1341 6107 mt 1420 6107 L
9333 6107 mt 9253 6107 L
1070 6151 mt 
(-0.5) s
1341 4738 mt 1420 4738 L
9333 4738 mt 9253 4738 L
1240 4782 mt 
(0) s
1341 3368 mt 1420 3368 L
9333 3368 mt 9253 3368 L
1140 3412 mt 
(0.5) s
1341 1999 mt 1420 1999 L
9333 1999 mt 9253 1999 L
1240 2043 mt 
(1) s
1341  630 mt 1420  630 L
9333  630 mt 9253  630 L
1140  674 mt 
(1.5) s
1341  630 mt 9333  630 L
1341 7477 mt 9333 7477 L
9333 7477 mt 9333  630 L
1341 7477 mt 1341  630 L
gs 1341 630 7993 6848 rc
/c8 { 0.000000 0.000000 1.000000 sr} bdef
c8
2 0 2 0 2 0 2 0 2 0 2 0 2 0 2 0 
2 0 2 0 2 0 2 0 2 0 2 0 2 0 2 0 
2 0 2 0 2 0 2 0 2 0 2 0 2 0 2 0 
2 0 2 0 2 0 2 0 2 0 2 0 2 0 2 0 
2 0 2 0 2 0 2 0 2 0 2 0 2 0 2 0 
2 0 2 0 2 0 2 0 2 0 2 0 2 0 2 0 
2 0 2 0 2 0 2 0 2 0 2 0 2 0 2 0 
2 0 2 0 2 0 2 0 2 0 2 0 2 0 2 0 
2 0 2 0 2 0 2 0 2 0 2 0 2 0 2 0 
2 0 2 0 2 0 2 0 2 0 2 0 2 0 2 0 
2 0 2 0 2 0 2 0 2 0 2 0 2 0 2 0 
2 0 2 0 2 0 2 0 2 0 2 0 2 0 2 0 
2 0 2 0 2 0 2 0 2 0 2 0 2 0 2 0 
2 0 2 0 2 0 2 0 2 0 2 0 2 0 2 0 
2 0 2 0 2 0 2 0 2 0 2 0 2 0 2 0 
2 0 2 0 2 0 2 0 2 0 2 0 2 0 2 0 
2 0 2 0 2 0 2 0 2 0 2 0 2 0 2 0 
2 0 2 0 2 0 2 0 2 0 2 0 2 0 2 0 
2 0 2 0 2 0 2 0 2 0 2 0 2 0 2 0 
2 0 2 0 2 0 2 0 2 0 2 0 2 0 2 0 
2 0 2 0 2 0 2 0 2 0 2 0 2 0 2 0 
2 0 2 0 2 0 2 0 2 0 2 0 2 0 2 0 
2 0 2 0 2 0 2 0 2 0 2 0 2 0 2 0 
2 0 2 0 2 0 2 0 2 0 2 0 2 0 2 0 
2 0 2 0 2 0 2 0 2 0 2 0 2 0 2 0 
2 0 2 0 2 0 2 0 2 0 2 0 2 0 2 0 
2 0 2 0 2 0 2 0 2 0 2 0 2 0 2 0 
2 0 2 0 2 0 2 0 2 0 2 0 2 0 2 0 
2 0 2 0 2 0 2 0 2 0 2 0 2 0 2 0 
2 0 2 0 2 0 2 0 2 0 2 0 2 0 2 0 
2 0 2 0 2 0 2 0 2 0 2 0 2 0 2 0 
2 0 2 0 2 0 2 0 2 0 2 0 2 0 2 0 
2 0 2 0 2 0 2 0 2 0 2 0 2 0 2 0 
2 0 2 0 2 0 2 0 2 0 2 0 2 0 2 0 
2 0 2 0 2 0 2 0 2 0 2 0 2 0 2 0 
2 0 2 0 2 0 2 0 2 0 2 0 2 0 2 0 
2 0 2 0 2 0 2 0 2 0 2 0 2 0 2 0 
2 0 2 0 2 0 8735 4738 300 MP stroke
2 0 2 0 2 0 2 0 2 0 2 0 2 0 2 0 
2 0 2 0 2 0 2 0 2 0 2 0 2 0 2 0 
2 0 2 0 2 0 2 0 2 0 2 0 2 0 2 0 
2 0 2 0 2 0 2 0 2 0 2 0 2 0 2 0 
2 0 2 0 2 0 2 0 2 0 2 0 2 0 2 0 
2 0 2 0 2 0 2 0 2 0 2 0 2 0 2 0 
2 0 2 0 2 0 2 0 2 0 2 0 2 0 2 0 
2 0 2 0 2 0 2 0 2 0 2 0 2 0 2 0 
2 0 2 0 2 0 2 0 2 0 2 0 2 0 2 0 
2 0 2 0 2 0 2 0 2 0 2 0 2 0 2 0 
2 0 2 0 2 0 2 0 2 0 2 0 2 0 2 0 
2 0 2 0 2 0 2 0 2 0 2 0 2 0 2 -893 
2 -10 2 2 2 -59 2 79 2 -32 2 -81 2 90 2 -22 
2 10 2 -8 2 -3 2 6 2 -36 2 5 2 0 2 17 
2 12 2 24 2 -13 2 -5 2 -2 2 5 2 -5 2 -29 
2 11 2 2 2 -21 2 -5 2 18 2 -15 2 18 2 7 
2 14 2 0 2 12 2 31 2 20 2 -4 2 -7 2 -4 
2 9 2 4 2 -1 2 -6 2 0 2 12 2 -3 2 -2 
2 11 2 -10 2 0 2 4 2 8 2 -13 2 -2 2 20 
2 5 2 -22 2 -4 2 -17 2 22 2 9 2 9 2 19 
2 -23 2 -17 2 -92 2 -2 2 3 2 44 2 103 2 -8 
2 -2 2 3 2 2 2 -8 2 -22 2 104 2 -25 2 -4 
2 6 2 7 2 -9 2 -119 2 3 2 1 2 -7 2 7 
2 -41 2 5 2 86 2 -94 2 22 2 -3 2 7 2 -33 
2 -78 2 -16 2 12 2 66 2 23 2 -5 2 0 2 -2 
1 -16 2 -2 2 -4 2 -3 2 -12 2 -10 2 23 2 -35 
2 14 2 -3 2 28 2 11 2 -3 2 23 2 1 2 -3 
2 -13 2 16 2 -16 2 -15 2 5 2 1 2 1 2 16 
2 22 2 3 2 11 2 -4 2 -3 2 3 2 -33 2 -14 
2 20 2 -6 2 3 2 2 2 4 2 5 2 53 2 -14 
2 18 2 5 2 -4 2 18 2 -25 2 3 2 -37 2 0 
2 15 2 1 2 -11 2 -41 2 23 2 -26 2 -11 2 3 
2 -17 2 0 2 13 2 9 2 -6 2 -18 2 1 2 -12 
2 39 2 -19 2 18 2 7 2 2 2 -3 2 9 2 -5 
2 -5 2 1 2 5 2 19 2 -32 2 -31 2 27 2 -36 
2 24 2 3 2 7 2 -3 2 -4 2 -7 2 1 2 6 
2 9 2 -14 2 0 2 -51 2 -16 2 -5 2 4 2 64 
2 1 2 -22 2 20 8138 5693 300 MP stroke
2 -1 2 -5 2 -11 2 -17 2 -10 2 -4 2 -16 2 5 
2 -1 2 -2 2 -112 2 109 2 -7 2 5 2 10 2 -25 
2 -19 2 12 2 -2 2 6 2 4 2 -4 2 2 2 19 
2 -9 2 9 2 -9 2 -6 2 4 2 11 2 1 2 13 
2 114 2 -73 2 1 2 1 2 -20 2 14 2 -5 2 40 
2 14 2 -29 2 -6 2 -7 2 10 2 -20 2 0 2 4 
2 2 2 2 2 -1 2 -5 2 2 2 1 2 1 2 7 
2 -3 2 58 2 -4 2 -5 2 18 2 1 2 -3 2 6 
2 11 2 7 2 -11 2 -2 2 6 2 6 2 -1 2 1 
2 -26 2 4 2 1 2 0 2 16 2 -2 2 5 2 -115 
2 1 2 3 2 -1 2 -1 2 1 2 1 2 7 2 -10 
2 0 2 -37 2 56 2 -2 2 -10 2 -2 2 -1 2 -6 
2 -2 2 8 2 -1 2 -150 2 194 2 1 2 3 2 6 
2 0 2 -1 2 2 2 2 2 1 2 0 2 174 2 3 
2 6 2 -238 2 1 2 12 2 -3 2 -3 2 -1 2 -14 
2 7 2 -2 2 -1 2 25 2 19 2 -2 2 -17 2 2 
2 82 2 -7 2 73 2 -64 2 -13 2 -6 2 4 2 -2 
2 -49 2 -2 2 -56 2 2 2 -10 2 61 2 -18 2 -5 
2 -68 2 -2 2 34 2 73 2 42 2 -24 2 42 2 -970 
2 -95 2 170 2 -66 2 114 2 -44 2 75 2 -25 2 -19 
2 -39 2 29 2 32 2 2 2 17 2 -41 2 14 2 -3 
2 0 2 9 2 -13 2 -61 2 -10 2 -63 2 -7 2 123 
2 -6 2 28 2 21 2 9 2 -4 2 8 2 -2 2 -21 
2 -16 2 -14 2 12 2 -7 2 -26 2 -25 2 -7 2 20 
2 38 2 10 2 4 2 0 2 10 2 38 2 -15 2 -21 
2 31 2 -43 2 49 2 11 2 10 2 -60 2 -11 2 107 
2 -4 2 0 2 122 2 -130 2 -6 2 11 2 -14 2 -2 
2 -4 2 -88 2 54 2 85 2 -3 2 14 2 5 2 -17 
2 -43 2 9 2 10 2 -34 2 29 2 -21 2 4 2 -13 
2 -37 2 66 2 -5 2 4 2 43 2 -126 2 -18 2 23 
2 -37 2 55 2 -2 2 -4 2 -6 2 -40 2 14 2 -6 
2 -5 2 -17 2 3 2 47 2 -59 2 19 2 16 2 42 
2 12 2 -10 2 45 2 3 2 -4 2 -34 2 29 2 -28 
2 -24 2 11 2 4 2 1 2 30 2 -21 2 10 2 20 
2 -4 2 -9 2 8 2 -61 2 73 2 -30 2 -14 2 9 
2 21 2 7 2 7 2 88 2 -27 2 19 2 10 2 -9 
2 42 2 -51 2 12 2 -69 2 1 2 19 2 2 2 -22 
2 -85 2 44 2 -52 7540 6447 300 MP stroke
2 -22 2 3 2 -34 2 1 2 27 2 22 2 -12 2 98 
2 4 2 -18 2 -66 2 -41 2 49 2 9 2 3 2 -2 
2 16 2 -17 2 -2 2 -1 2 37 2 22 2 -79 2 -46 
2 42 2 -63 2 49 2 4 2 4 2 -7 2 -17 2 -8 
2 -1 2 12 2 31 2 -18 2 6 2 -118 2 184 2 5 
2 10 2 -59 2 21 2 -57 2 36 2 5 2 -16 2 -25 
2 -38 2 -23 2 6 2 -57 2 9 2 -3 2 -1 2 276 
2 -229 2 -20 2 0 2 16 2 -43 2 -41 2 28 2 -4 
2 2 2 3 2 1 2 1 2 27 2 -17 2 16 2 -28 
2 -19 2 1 2 101 2 -4 2 12 2 81 2 -16 2 6 
2 -1 2 99 2 -14 2 -2 2 -125 2 4 2 -20 2 -4 
2 -12 2 9 2 -40 2 -2 2 8 2 -10 2 1 2 4 
2 -9 2 0 2 1 2 -2 2 12 2 -12 1 42 2 -3 
2 -17 2 16 2 -2 2 -5 2 6 2 6 2 19 2 -26 
2 0 2 9 2 -1 2 -2 2 -1 2 -14 2 2 2 -2 
2 -2 2 48 2 -10 2 7 2 -95 2 1 2 4 2 -1 
2 -2 2 0 2 1 2 16 2 -27 2 -1 2 -153 2 226 
2 -2 2 -18 2 1 2 4 2 2 2 -3 2 -3 2 1 
2 217 2 -276 2 -2 2 44 2 -26 2 -4 2 -13 2 5 
2 5 2 -3 2 -8 2 46 2 2 2 -8 2 -38 2 -1 
2 170 2 -43 2 -9 2 -25 2 -24 2 2 2 8 2 -39 
2 -33 2 -22 2 -85 2 70 2 4 2 248 2 -106 2 -32 
2 -49 2 -11 2 252 2 -65 2 2 2 57 2 -9 2 -720 
2 -106 2 54 2 91 2 11 2 -142 2 233 2 -172 2 12 
2 -5 2 5 2 -37 2 205 2 15 2 48 2 -43 2 20 
2 21 2 -51 2 65 2 8 2 -1 2 -19 2 -19 2 -198 
2 83 2 -14 2 -128 2 -32 2 -1 2 -22 2 97 2 15 
2 20 2 -2 2 -10 2 -8 2 23 2 -59 2 1 2 -22 
2 12 2 13 2 10 2 31 2 2 2 60 2 -4 2 4 
2 86 2 -70 2 -4 2 -42 2 49 2 -14 2 0 2 102 
2 68 2 -141 2 2 2 26 2 2 2 -19 2 3 2 12 
2 20 2 14 2 43 2 -19 2 -3 2 70 2 -33 2 -38 
2 -18 2 -7 2 34 2 -81 2 -20 2 44 2 -10 2 55 
2 -5 2 6 2 -19 2 -76 2 16 2 -4 2 10 2 -24 
2 -14 2 67 2 -47 2 17 2 36 2 -8 2 35 2 -14 
2 68 2 -3 2 -12 2 -25 2 41 2 -125 2 7 2 19 
2 3 2 -4 2 -3 2 -55 2 25 2 33 2 -4 2 -16 
2 -11 2 -86 2 73 6943 6970 300 MP stroke
2 40 2 -10 2 12 2 26 2 11 2 -1 2 41 2 -53 
2 -2 2 11 2 29 2 56 2 -71 2 6 2 -98 2 3 
2 28 2 2 2 23 2 -148 2 76 2 82 2 -31 2 3 
2 -49 2 0 2 12 2 -64 2 -21 2 46 2 1 2 -30 
2 -32 2 -71 2 78 2 12 2 2 2 -1 2 14 2 32 
2 -4 2 -2 2 -2 2 37 2 -117 2 -77 2 73 2 120 
2 -127 2 5 2 6 2 -7 2 -31 2 -11 2 -7 2 20 
2 35 2 -18 2 5 2 -182 2 220 2 14 2 14 2 -53 
2 24 2 -68 2 22 2 7 2 -22 2 -27 2 -11 2 -42 
2 12 2 52 2 60 2 -101 2 -5 2 225 2 -175 2 4 
2 8 2 11 2 44 2 -21 2 64 2 -4 2 14 2 -5 
2 4 2 -7 2 156 2 16 2 -23 2 -50 2 -16 2 -6 
2 -79 2 -7 2 5 2 38 2 -11 2 8 2 -2 2 55 
2 -2 2 2 2 -64 2 0 2 -13 2 4 2 -9 2 10 
2 -78 2 -3 2 13 2 -9 2 -2 2 6 2 -8 2 3 
2 -5 2 -4 2 26 2 -25 2 19 2 -13 2 32 2 10 
2 -2 2 -5 2 7 2 1 2 60 2 -81 2 -1 2 11 
2 -1 2 -4 2 -3 2 -6 2 4 2 -3 2 -3 2 143 
2 -12 2 -7 2 -143 2 0 2 7 2 -1 2 -4 2 0 
2 2 2 -3 2 -22 2 -3 2 231 2 -241 2 -11 2 -15 
2 0 2 8 2 -2 2 -10 2 -6 2 3 2 37 2 -33 
2 -6 2 196 2 -26 2 19 2 -91 2 -10 2 14 2 4 
2 -56 2 50 2 -126 2 -47 2 108 2 -7 2 403 2 -66 
2 -134 2 -67 2 22 2 175 2 -95 2 75 2 28 2 -44 
2 -418 2 4 2 150 2 -143 2 105 2 -23 2 -7 2 -7 
2 -6 2 66 2 26 2 16 2 9 2 -1 2 -2 2 -73 
2 -41 2 -54 2 -14 2 11 2 -2 2 55 2 28 2 67 
2 3 2 -131 2 -10 2 136 2 76 2 -9 2 -30 2 4 
2 -10 2 -9 2 -67 2 29 2 9 2 -3 2 21 2 -136 
2 25 2 -8 2 -59 2 30 2 -36 2 5 2 69 2 -23 
2 -115 2 1 2 16 2 1 2 63 2 70 2 8 2 40 
2 2 2 17 2 -19 2 8 2 67 2 -55 2 -22 2 -20 
2 -12 2 31 2 -22 2 40 2 -35 2 -68 2 10 2 -5 
2 11 2 -14 2 -91 2 19 2 -8 2 25 2 13 2 -41 
2 36 2 -18 2 -30 2 38 2 9 2 45 2 -16 2 81 
2 -1 2 -4 2 -20 2 59 2 14 2 -68 2 31 2 2 
2 -69 2 -9 2 -84 2 6 2 27 2 3 2 -21 2 81 
2 41 2 58 2 -66 6345 7185 300 MP stroke
2 -18 2 20 2 23 2 21 1 -73 2 72 2 -69 2 55 
2 -16 2 26 2 88 2 -90 2 56 2 -154 2 2 2 -103 
2 -1 2 11 2 -61 2 124 2 25 2 -35 2 12 2 82 
2 32 2 -78 2 -59 2 -12 2 106 2 0 2 50 2 -80 
2 -93 2 -43 2 16 2 2 2 15 2 -1 2 18 2 -16 
2 -1 2 -13 2 235 2 -190 2 100 2 -57 2 58 2 -95 
2 32 2 13 2 -14 2 -28 2 -32 2 -7 2 0 2 38 
2 -14 2 11 2 248 2 -201 2 -61 2 30 2 -18 2 35 
2 -42 2 12 2 6 2 -47 2 7 2 66 2 -16 2 11 
2 97 2 -59 2 81 2 3 2 153 2 -115 2 9 2 17 
2 -4 2 28 2 -61 2 -96 2 -9 2 7 2 -6 2 7 
2 -8 2 -118 2 -8 2 -16 2 124 2 -12 2 -11 2 -42 
2 -7 2 2 2 10 2 -10 2 9 2 -6 2 28 2 -1 
2 -10 2 -33 2 -4 2 -13 2 12 2 -12 2 6 2 54 
2 -3 2 14 2 -8 2 -3 2 5 2 -5 2 8 2 -9 
2 -3 2 66 2 -65 2 6 2 -21 2 8 2 7 2 -3 
2 -5 2 11 2 -2 2 193 2 -249 2 -3 2 -7 2 34 
2 -11 2 -6 2 -1 2 2 2 -2 2 -6 2 -112 2 -14 
2 -9 2 130 2 -1 2 3 2 5 2 -7 2 -6 2 0 
2 -10 2 21 2 -11 2 108 2 86 2 -32 2 -75 2 -3 
2 -73 2 17 2 -16 2 28 2 -90 2 -1 2 80 2 -20 
2 337 2 -81 2 73 2 -85 2 43 2 3 2 -23 2 87 
2 3 2 -103 2 -28 2 -21 2 39 2 -50 2 67 2 66 
2 8 2 -152 2 10 2 161 2 0 2 7 2 0 2 27 
2 18 2 -10 2 -2 2 -22 2 -10 2 59 2 33 2 -14 
2 -2 2 -3 2 -11 2 -13 2 -27 2 87 2 -38 2 -5 
2 49 2 -62 2 17 2 6 2 -115 2 18 2 9 2 -6 
2 33 2 0 2 -7 2 18 2 -1 2 -12 2 16 2 -36 
2 6 2 -14 2 -22 2 -44 2 -19 2 7 2 36 2 22 
2 -8 2 -30 2 -20 2 47 2 25 2 31 2 -31 2 -68 
2 -60 2 -16 2 6 2 7 2 79 2 2 2 -8 2 -27 
2 -4 2 -39 2 74 2 -15 2 -69 2 11 2 -35 2 -2 
2 46 2 77 2 24 2 -11 2 -15 2 -64 2 2 2 36 
2 -45 2 3 2 -8 2 34 2 -42 2 4 2 31 2 9 
2 -28 2 -29 2 63 2 66 2 -59 2 -23 2 26 2 -16 
2 -2 2 -64 2 64 2 -88 2 -47 2 -14 2 26 2 111 
2 -61 2 -78 2 113 2 -3 2 -61 2 2 2 11 2 160 
2 -110 2 -43 2 -36 5748 7201 300 MP stroke
2 28 2 53 2 121 2 -143 2 -44 2 -23 2 64 2 -1 
2 46 2 -40 2 90 2 -176 2 87 2 0 2 17 2 6 
2 9 2 1 2 -8 2 -38 2 -205 2 204 2 59 2 -1 
2 13 2 -65 2 -69 2 19 2 -21 2 36 2 56 2 3 
2 50 2 -7 2 -4 2 13 2 156 2 -150 2 -43 2 53 
2 -54 2 61 2 -24 2 5 2 5 2 84 2 0 2 47 
2 -45 2 -4 2 -75 2 -37 2 41 2 -4 2 -26 2 -69 
2 -12 2 3 2 -4 2 12 2 125 2 -51 2 -5 2 4 
2 -6 2 10 2 -11 2 -52 2 -7 2 -5 2 62 2 -7 
2 -10 2 -14 2 -5 2 6 2 -8 2 -6 2 16 2 -12 
2 9 2 -1 2 -4 2 -8 2 -3 2 -8 2 24 2 -13 
2 13 2 -18 2 -3 2 12 2 -11 2 -7 2 2 2 -2 
2 13 2 -15 2 -4 2 213 2 -238 2 -6 2 -18 2 -3 
2 1 2 -2 2 -10 2 -1 2 1 2 -185 2 237 2 -3 
2 -14 2 11 2 -23 2 3 2 5 2 -7 2 5 2 -12 
2 -3 2 126 2 -35 2 -13 2 -1 2 -137 2 66 2 -19 
2 38 2 -35 2 -10 2 81 2 -32 2 263 2 -99 2 67 
2 82 2 2 2 -49 2 -44 2 33 2 80 2 -122 2 357 
2 -61 2 -132 2 121 2 -18 2 36 2 -15 2 15 2 14 
2 2 2 -11 2 14 2 7 2 -22 2 42 2 -9 2 -19 
2 -23 2 7 2 61 2 33 2 -10 2 106 2 -34 2 10 
2 -2 2 -11 2 15 2 8 2 -6 2 7 2 16 2 -39 
2 58 2 1 2 -5 2 -24 2 -22 2 5 2 32 2 -12 
2 -18 2 -1 2 9 2 20 2 -44 2 -1 2 -31 2 -41 
2 16 2 1 2 26 2 49 2 -53 2 -43 2 -26 2 -6 
2 -11 2 44 2 7 2 -18 2 -2 1 -27 2 -19 2 -63 
2 6 2 111 2 -16 2 -42 2 -40 2 6 2 40 2 33 
2 -29 2 -27 2 -76 2 17 2 -1 2 -33 2 6 2 9 
2 -25 2 -7 2 14 2 0 2 -10 2 70 2 -26 2 56 
2 88 2 -121 2 -29 2 34 2 -26 2 -4 2 -54 2 96 
2 -109 2 -26 2 -22 2 18 2 -116 2 125 2 -65 2 78 
2 -22 2 -22 2 4 2 20 2 138 2 -80 2 97 2 -47 
2 46 2 39 2 136 2 -152 2 -29 2 -31 2 52 2 -1 
2 -23 2 -38 2 88 2 -41 2 -83 2 1 2 16 2 -13 
2 16 2 -4 2 -5 2 74 2 -116 2 120 2 36 2 -56 
2 77 2 -40 2 -22 2 15 2 -31 2 22 2 46 2 8 
2 68 2 -9 2 -5 2 15 2 105 2 -146 2 -31 2 -70 
2 -39 2 -57 2 -1 5151 6770 300 MP stroke
2 3 2 7 2 47 2 -11 2 14 2 109 2 6 2 -38 
2 -21 2 23 2 -6 2 -23 2 -38 2 -5 2 15 2 -4 
2 3 2 58 2 -24 2 -4 2 0 2 -6 2 17 2 -16 
2 -20 2 -3 2 -2 2 31 2 -5 2 -8 2 0 2 -4 
2 15 2 -17 2 -5 2 23 2 -24 2 -3 2 -9 2 -3 
2 3 2 -2 2 -8 2 35 2 -18 2 19 2 -74 2 -7 
2 9 2 -25 2 -16 2 -1 2 -1 2 -5 2 3 2 -8 
2 -199 2 254 2 -13 2 8 2 9 2 -11 2 7 2 -19 
2 8 2 36 2 8 2 14 2 -4 2 -144 2 124 2 -115 
2 88 2 6 2 -7 2 66 2 -45 2 132 2 47 2 74 
2 94 2 -33 2 -117 2 -54 2 28 2 129 2 -182 2 462 
2 139 2 -77 2 15 2 87 2 13 2 -45 2 33 2 -4 
2 -8 2 6 2 2 2 22 2 90 2 -17 2 113 2 -30 
2 3 2 -10 2 5 2 17 2 30 2 -9 2 -18 2 19 
2 -122 2 -55 2 -10 2 29 2 -20 2 -5 2 -17 2 25 
2 -4 2 -14 2 -4 2 40 2 -14 2 -31 2 2 2 -40 
2 5 2 10 2 13 2 19 2 33 2 -42 2 -32 2 -24 
2 -7 2 -9 2 24 2 -18 2 3 2 14 2 -38 2 -12 
2 -38 2 8 2 39 2 0 2 7 2 -31 2 6 2 22 
2 -25 2 -16 2 -22 2 -31 2 24 2 50 2 -27 2 17 
2 -19 2 13 2 -18 2 17 2 2 2 -14 2 4 2 -11 
2 17 2 21 2 20 2 -29 2 27 2 -34 2 -11 2 -11 
2 -124 2 117 2 -20 2 -19 2 26 2 -78 2 91 2 -61 
2 62 2 9 2 4 2 -2 2 23 2 90 2 -58 2 31 
2 11 2 -7 2 31 2 -133 2 94 2 -3 2 8 2 47 
2 -5 2 -7 2 -23 2 58 2 -17 2 -75 2 6 2 16 
2 0 2 12 2 -12 2 -10 2 52 2 -66 2 67 2 22 
2 -30 2 56 2 -26 2 -2 2 1 2 -52 2 14 2 -10 
2 11 2 -78 2 -16 2 -11 2 -3 2 69 2 53 2 -24 
2 -24 2 -21 2 -30 2 -2 2 1 2 10 2 15 2 -10 
2 19 2 48 2 7 2 -15 2 -13 2 15 2 -5 2 -14 
2 -18 2 -2 2 17 2 -6 2 -2 2 25 2 -9 2 0 
2 -2 2 -6 2 27 2 -24 2 -7 2 -11 2 -12 2 15 
2 -1 2 -9 2 6 2 -5 2 24 2 -29 2 -5 2 28 
2 -56 2 -22 2 -25 2 -4 2 0 2 -3 2 -13 2 -23 
2 -5 2 -22 2 112 2 5 2 -16 2 24 2 -32 2 15 
2 10 2 13 2 2 2 -11 2 -27 2 -41 2 -3 2 49 
2 19 2 -24 2 84 4553 6021 300 MP stroke
2 -37 2 49 2 88 2 73 2 115 2 -68 2 -142 2 -55 
2 -3 2 187 2 -226 2 792 2 24 2 -53 2 47 2 8 
2 8 2 7 2 22 2 -21 2 21 2 -32 2 -2 2 13 
2 4 2 19 2 14 2 -9 2 20 2 31 2 -83 2 -27 
2 -2 2 18 2 -18 2 -7 2 -16 2 14 2 3 2 -1 
2 -6 2 55 2 -6 2 -33 2 -4 2 -42 2 4 2 8 
2 -28 2 23 2 23 2 -32 2 -16 2 -21 2 -8 2 7 
2 17 2 -19 2 -2 2 0 2 51 2 -2 2 -34 2 -20 
2 23 2 -1 2 -27 2 -23 2 0 2 13 2 -17 2 24 
2 -4 2 -24 2 20 2 46 2 -23 2 6 2 -32 2 -17 
2 -17 2 16 2 9 2 -45 2 8 2 10 2 20 2 -38 
2 20 2 -47 2 31 2 -34 2 -11 2 -3 2 -73 2 96 
2 9 2 -31 2 43 2 -57 2 66 2 -43 2 46 2 4 
2 28 2 -2 2 0 1 68 2 -39 2 68 2 0 2 -3 
2 28 2 -82 2 57 2 2 2 -3 2 32 2 -14 2 1 
2 -16 2 39 2 4 2 -48 2 -66 2 14 2 4 2 13 
2 -26 2 -5 2 45 2 -56 2 40 2 11 2 -27 2 21 
2 -18 2 -35 2 2 2 94 2 6 2 -7 2 13 2 -45 
2 -21 2 9 2 21 2 37 2 5 2 -25 2 1 2 -9 
2 -11 2 -7 2 -1 2 14 2 -2 2 -8 2 14 2 18 
2 7 2 -3 2 -10 2 15 2 -5 2 -6 2 -13 2 -9 
2 16 2 -10 2 -6 2 1 2 -4 2 10 2 -2 2 -7 
2 39 2 -38 2 -5 2 -28 2 -40 2 1 2 -7 2 -18 
2 -1 2 -7 2 -37 2 51 2 -4 2 -29 2 73 2 -8 
2 18 2 11 2 6 2 -12 2 -16 2 17 2 -92 2 7 
2 56 2 29 2 -39 2 104 2 -33 2 25 2 49 2 94 
2 88 2 -96 2 -127 2 -22 2 -30 2 202 2 -244 2 820 
2 -24 2 8 2 -74 2 120 2 9 2 18 2 6 2 18 
2 22 2 -2 2 -9 2 -12 2 36 2 -53 2 3 2 -4 
2 23 2 -18 2 -7 2 -30 2 14 2 -5 2 3 2 -12 
2 -2 2 -3 2 -29 2 -5 2 -28 2 5 2 20 2 -24 
2 13 2 17 2 -30 2 -11 2 -13 2 -3 2 5 2 29 
2 -26 2 1 2 -5 2 44 2 7 2 -41 2 -2 2 14 
2 2 2 -28 2 -17 2 -2 2 11 2 -3 2 24 2 -4 
2 -36 2 20 2 64 2 -20 2 -13 2 -10 2 -23 2 -51 
2 -15 2 64 2 -52 2 9 2 -1 2 17 2 -35 2 -90 
2 77 2 33 2 -34 2 -16 2 5 2 -40 2 66 2 3 
2 -12 2 42 2 -30 3956 4656 300 MP stroke
2 -13 2 -7 2 32 2 14 2 28 2 -5 2 4 2 35 
2 -33 2 49 2 -5 2 12 2 25 2 -50 2 36 2 9 
2 -19 2 22 2 -8 2 -7 2 -8 2 27 2 17 2 -36 
2 -71 2 -12 2 3 2 12 2 49 2 8 2 13 2 -41 
2 24 2 32 2 -6 2 15 2 -21 2 16 2 2 2 18 
2 4 2 -5 2 13 2 -16 2 -13 2 -6 2 26 2 24 
2 -9 2 -5 2 11 2 -1 2 0 2 -9 2 -3 2 17 
2 -12 2 -6 2 -10 2 5 2 16 2 -1 2 -10 2 15 
2 -14 2 -2 2 -8 2 -11 2 8 2 -51 2 -15 2 -8 
2 -3 2 -3 2 6 2 -15 2 -36 2 43 2 -14 2 49 
2 30 2 7 2 -27 2 -32 2 4 2 -19 2 -14 2 58 
2 9 2 -31 2 86 2 -7 2 -12 2 31 2 83 2 49 
2 -76 2 -100 2 -5 2 -42 2 190 2 -236 2 789 2 1 
2 25 2 22 2 16 2 17 2 26 2 10 2 -13 2 18 
2 -63 2 21 2 -2 2 11 2 -24 2 -15 2 -29 2 1 
2 -2 2 4 2 -14 2 8 2 0 2 -16 2 -5 2 -27 
2 -2 2 17 2 -11 2 13 2 17 2 -32 2 -14 2 -9 
2 -10 2 2 2 37 2 -9 2 8 2 -2 2 28 2 12 
2 -32 2 -6 2 10 2 -10 2 -11 2 -2 2 -12 2 -2 
2 10 2 -5 2 3 2 -38 2 10 2 67 2 -68 2 19 
2 -10 2 -40 2 -45 2 -6 2 57 2 -38 2 11 2 -6 
2 14 2 -43 2 -74 2 63 2 27 2 -1 2 -7 2 4 
2 11 2 39 2 14 2 -13 2 -10 2 -14 2 -6 2 -4 
2 13 2 18 2 9 2 -2 2 5 2 10 2 -11 2 31 
2 -5 2 2 2 25 2 -32 2 47 2 26 2 -58 2 13 
2 12 2 -1 2 -5 2 15 2 -75 2 -28 2 85 2 -16 
2 22 2 28 2 20 2 12 2 18 2 -21 2 -6 2 14 
2 5 2 8 2 -16 2 53 2 4 2 -32 2 -1 2 -6 
2 18 2 -14 2 -11 2 1 2 -43 2 19 2 55 2 -9 
2 11 2 -10 2 -4 2 4 2 -8 2 18 2 -24 2 -6 
2 -51 2 1 2 4 2 5 2 -17 2 -9 2 7 2 -23 
2 28 2 11 2 10 2 6 2 -51 2 11 2 4 2 10 
2 38 2 -5 2 -7 2 49 2 -16 2 -29 2 41 2 35 
2 22 2 -29 2 -65 2 -4 2 -43 2 157 2 -208 2 706 
2 -13 2 35 2 -23 2 36 2 49 2 -50 2 18 2 -12 
2 11 2 -34 2 -1 2 -14 2 -14 2 -8 2 19 2 -17 
2 35 2 -6 2 -17 2 -4 2 -3 2 -2 2 16 2 0 
2 7 2 2 2 -21 3358 3185 300 MP stroke
2 -9 2 -5 2 -13 2 3 2 28 2 -13 2 17 2 -4 
2 30 1 -12 2 -24 2 0 2 11 2 -15 2 4 2 -27 
2 -18 2 -2 2 15 2 3 2 1 2 -49 2 20 2 24 
2 -18 2 5 2 -14 2 -38 2 -31 2 -7 2 40 2 -34 
2 21 2 -28 2 27 2 -50 2 -45 2 51 2 33 2 23 
2 -19 2 8 2 -19 2 21 2 11 2 -6 2 4 2 -18 
2 11 2 1 2 13 2 14 2 11 2 1 2 4 2 46 
2 2 2 -4 2 1 2 -2 2 -11 2 -9 2 30 2 -96 
2 100 2 10 2 27 2 -1 2 -3 2 15 2 -39 2 -17 
2 55 2 -16 2 14 2 25 2 -11 2 14 2 47 2 -16 
2 -52 2 8 2 2 2 12 2 -10 2 -36 2 6 2 59 
2 -2 2 -9 2 25 2 -22 2 -11 2 -14 2 -47 2 18 
2 29 2 -20 2 -2 2 -4 2 -14 2 11 2 -10 2 -4 
2 -12 2 -32 2 40 2 -8 2 35 2 45 2 -17 2 -1 
2 -16 2 -16 2 15 2 45 2 -61 2 69 2 -30 2 -28 
2 -6 2 -37 2 111 2 -164 2 611 2 6 2 9 2 -74 
2 32 2 15 2 8 2 32 2 -65 2 22 2 -6 2 -10 
2 -23 2 29 2 -18 2 28 2 -5 2 -13 2 -1 2 -9 
2 -19 2 16 2 15 2 9 2 18 2 -13 2 -11 2 -11 
2 -38 2 -7 2 -13 2 -23 2 47 2 1 2 27 2 -7 
2 9 2 -10 2 14 2 -19 2 17 2 -23 2 -27 2 10 
2 -17 2 -2 2 33 2 -75 2 22 2 -49 2 -22 2 21 
2 -16 2 35 2 -23 2 -12 2 52 2 -20 2 11 2 -59 
2 48 2 -45 2 -19 2 20 2 58 2 -16 2 -15 2 12 
2 -16 2 77 2 10 2 -2 2 0 2 -15 2 14 2 -31 
2 1 2 17 2 2 2 17 2 5 2 11 2 8 2 20 
2 -4 2 8 2 7 2 2 2 19 2 -39 2 7 2 11 
2 46 2 -6 2 -2 2 23 2 -32 2 -8 2 20 2 47 
2 12 2 -41 2 -8 2 13 2 -59 2 -17 2 51 2 -11 
2 -20 2 29 2 -11 2 -5 2 -3 2 8 2 4 2 -32 
2 -9 2 38 2 -27 2 -18 2 7 2 56 2 34 2 -61 
2 1 2 19 2 1 2 -43 2 -2 2 29 2 13 2 -18 
2 10 2 -9 2 -29 2 58 2 -111 2 453 2 -74 2 -36 
2 8 2 19 2 37 2 -17 2 34 2 -2 2 10 2 -17 
2 18 2 9 2 18 2 -11 2 -40 2 23 2 -21 2 -7 
2 37 2 -15 2 2 2 -6 2 -14 2 0 2 -30 2 -9 
2 2 2 14 2 -47 2 46 2 4 2 -9 2 4 2 -10 
2 18 2 27 2 -27 2761 2333 300 MP stroke
2 20 2 4 2 -33 2 -4 2 -32 2 -26 2 -22 2 -58 
2 19 2 -33 2 62 2 13 2 -14 2 -21 2 5 2 5 
2 88 2 -15 2 34 2 -44 2 -6 2 -19 2 4 2 9 
2 78 2 -1 2 -17 2 13 2 -91 2 38 2 16 2 -3 
2 6 2 -7 2 9 2 37 2 1 2 0 2 -1 2 23 
2 3 2 -3 2 10 2 -42 2 -5 2 46 2 46 2 -25 
2 12 2 -14 2 66 2 9 2 -63 2 -4 2 -5 2 64 
2 -85 2 -5 2 13 2 12 2 -12 2 17 2 -4 2 -8 
2 -7 2 -29 2 12 2 2 2 5 2 84 2 -48 2 -3 
2 -4 2 25 2 -11 2 -44 2 14 2 27 2 -53 2 23 
2 10 2 -27 2 10 2 -61 2 109 2 77 2 86 2 -1 
2 -5 2 17 2 22 2 -16 2 -25 2 22 2 31 2 8 
2 4 2 -53 2 -6 2 18 2 -1 2 -2 2 -18 2 -82 
2 28 2 -8 2 -20 2 -13 2 -15 2 -37 2 21 2 -13 
2 -14 2 80 2 16 2 -10 2 2 2 -19 2 9 2 64 
2 -57 2 24 2 13 2 -62 2 -14 2 -50 2 37 2 -72 
2 -79 2 45 2 86 2 33 2 56 2 28 2 -7 2 7 
2 -62 2 24 2 -6 2 18 2 -12 2 -10 2 -8 2 105 
2 7 2 -87 2 -12 2 43 2 15 2 -28 2 9 2 5 
2 -5 2 9 2 2 2 5 2 17 2 -1 2 6 2 10 
2 26 2 -15 2 -6 2 8 2 32 2 -10 2 -59 2 -23 
2 70 2 -16 2 -14 2 6 2 -4 2 -13 2 2 2 -15 
2 14 2 49 2 46 2 -45 2 -36 2 71 2 -56 2 -39 
2 20 2 22 2 -35 2 35 2 -12 2 -9 2 -42 2 -2 
2 30 2 -17 2 79 2 30 2 -73 2 70 2 17 2 7 
2 25 2 16 2 3 2 6 2 14 2 -59 2 17 2 -28 
2 -12 2 9 1 16 2 -66 2 -22 2 19 2 -56 2 8 
2 -47 2 81 2 40 2 22 2 -38 2 -26 2 27 2 -18 
2 2 2 -39 2 -33 2 59 2 -134 2 118 2 -37 2 -61 
2 41 2 -26 2 42 2 65 2 -50 2 36 2 -38 2 10 
2 30 2 0 2 55 2 19 2 61 2 -117 2 0 2 11 
2 0 2 -10 2 -1 2 18 2 2 2 -3 2 -41 2 61 
2 1 2 -6 2 14 2 33 2 -59 2 6 2 -3 2 -26 
2 58 2 -5 2 -10 2 2 2 0 2 -11 2 -6 2 -59 
2 104 2 23 2 36 2 -29 2 -32 2 -9 2 -52 2 36 
2 4 2 -6 2 30 2 0 2 -9 2 -69 2 30 2 -17 
2 -63 2 25 2 48 2 -54 2 19 2 38 2 -37 2 12 
2 4 2 20 2 -9 2164 2024 300 MP stroke
2 33 2 -29 2 -2 2 -2 2 7 2 2 2 10 2 -37 
2 -19 2 8 2 38 2 43 2 -62 2 58 2 -125 2 21 
2 -20 2 23 2 -11 2 -49 2 34 2 -19 2 -10 2 106 
2 -131 2 78 2 10 2 -12 2 9 2 -13 2 33 2 14 
2 -24 2 32 2 -49 2 2 2 12 2 -8 2 45 2 -20 
2 12 2 -22 2 22 2 6 2 -27 2 -10 2 13 2 30 
2 3 2 -17 2 46 2 -50 2 -7 2 -4 2 3 2 26 
2 28 2 22 2 -18 2 -21 2 -14 2 -7 2 -1 2 -13 
2 3 2 40 2 -7 2 12 2 -76 2 44 2 -54 2 -47 
2 92 2 -12 2 -11 2 31 2 -44 2 -85 2 47 2 -44 
2 39 2 -4 2 -37 2 27 2 16 2 -8 2 -9 2 -9 
2 -33 2 -23 2 17 2 4 2 -12 2 34 2 49 2 24 
2 -10 2 -45 2 -55 2 -11 2 3 2 38 2 -21 2 -13 
2 0 2 -8 2 -6 2 30 2 -23 2 20 2 -7 2 4 
2 37 2 -44 2 11 2 6 2 -22 2 9 2 -32 2 26 
2 7 2 15 2 11 2 -9 2 -16 2 1 2 -21 2 37 
2 39 2 -13 2 31 2 -65 2 -16 2 27 2 -32 2 18 
2 46 2 -14 2 30 2 -89 2 60 2 -175 2 -14 2 87 
2 -88 2 44 2 7 2 -10 2 63 2 -32 2 -79 2 73 
2 -58 2 -40 2 -17 2 2 2 3 2 11 2 -10 2 23 
2 122 2 -69 2 4 2 52 2 -20 2 -22 2 -22 2 -28 
2 -19 2 -6 2 -3 2 -14 2 4 2 -5 2 -38 2 36 
2 -36 2 -5 2 -4 2 0 2 38 2 2 2 -12 2 18 
2 6 2 -38 2 11 2 -2 2 51 2 -17 2 17 2 -21 
2 -5 2 2 2 -13 2 8 2 12 2 -14 2 49 2 -69 
2 73 2 -245 2 32 2 -29 2 31 2 9 2 36 2 -20 
2 -65 2 -26 2 25 2 -24 2 -4 2 25 2 -43 2 38 
2 4 2 38 2 23 2 -11 2 -25 2 29 2 -44 2 20 
2 -18 2 -31 2 -21 2 22 2 -40 2 -7 2 -25 2 20 
2 -9 2 1 2 12 2 -11 2 -1 2 31 2 -14 2 10 
2 -4 2 21 2 29 2 -49 2 -8 2 8 2 6 2 4 
2 -3 2 46 2 -59 2 77 2 -278 2 19 2 1 2 63 
2 -68 2 -26 2 -21 2 19 2 -7 2 -4 2 -7 2 9 
2 23 2 7 2 61 2 -82 2 -13 2 -6 2 -22 2 34 
2 -15 2 -16 2 -4 2 -10 2 -12 2 -24 2 26 2 -2 
2 -4 2 -5 2 7 2 23 2 35 2 -16 2 -26 2 -25 
2 43 2 -12 2 -9 2 46 2 -55 2 85 2 -293 2 23 
2 -11 2 -39 2 -12 1566 3176 300 MP stroke
2 11 2 10 2 -1 2 18 2 -9 2 14 2 5 2 -29 
2 21 2 -33 2 -12 2 5 2 -27 2 14 2 0 2 -3 
2 -7 2 -31 2 -14 2 24 2 43 2 -19 2 -8 2 11 
2 -2 2 2 2 30 2 -54 2 93 2 -268 2 -32 2 12 
2 -12 2 1 2 0 2 -7 2 -25 2 -5 2 22 2 -8 
2 -7 2 5 2 1 2 -7 2 -21 2 -7 2 -13 2 22 
2 11 2 -16 2 3 2 7 2 8 2 7 2 -42 2 100 
2 -275 2 17 2 -21 2 -17 2 -17 2 11 2 1 2 0 
2 -20 2 2 2 -17 2 6 2 -1 2 -3 2 -7 2 14 
2 -1 2 -4 2 -33 2 107 2 -260 2 1 2 20 2 -21 
2 -31 2 20 2 -15 2 -5 2 4 2 -8 2 -5 2 -14 
2 -6 2 -14 2 100 2 -226 2 -19 2 39 2 -22 2 -26 
2 1 2 -22 2 -25 2 29 2 60 2 -172 2 -2 2 -24 
2 -10 2 -5 2 45 2 -120 2 -40 2 37 2 -94 2 -117 
1342 4600 113 MP stroke
2 0 2 0 2 0 2 0 2 0 2 0 2 0 2 0 
2 0 2 0 2 0 2 0 2 0 2 0 2 0 2 0 
2 0 2 0 2 0 2 0 2 0 2 0 2 0 2 0 
2 0 2 0 2 0 2 0 2 0 2 0 2 0 2 0 
2 0 2 0 2 0 2 0 2 0 2 0 2 0 2 0 
2 0 2 0 2 0 2 0 2 0 2 0 2 0 2 0 
2 0 2 0 2 0 2 0 2 0 2 0 2 0 2 0 
2 0 2 0 2 0 2 0 2 0 2 0 2 0 2 0 
2 0 2 0 2 0 2 0 2 0 2 0 2 0 2 0 
2 0 2 0 2 0 2 0 2 0 2 0 2 0 2 0 
2 0 2 0 2 0 2 0 2 0 2 0 2 0 2 0 
2 0 2 0 2 0 2 0 2 0 2 0 2 0 2 0 
2 0 2 0 2 0 2 0 2 0 2 0 2 0 2 0 
2 0 2 0 2 0 2 0 2 0 2 0 2 0 2 0 
2 0 2 0 2 0 2 0 2 0 2 0 2 0 2 0 
2 0 2 0 2 0 2 0 2 0 2 0 2 0 2 0 
2 0 2 0 2 0 2 0 2 0 2 0 2 0 2 0 
2 0 2 0 2 0 2 0 2 0 2 0 2 0 2 0 
2 0 2 0 2 0 2 0 2 0 2 0 2 0 2 0 
2 0 2 0 2 0 2 0 2 0 2 0 2 0 2 0 
2 0 2 0 2 0 2 0 2 0 2 0 2 0 2 0 
2 0 2 0 2 0 2 0 2 0 2 0 2 0 2 0 
2 0 2 0 2 0 2 0 2 0 2 0 2 0 2 0 
2 0 2 0 2 0 2 0 2 0 2 0 2 0 2 0 
2 0 2 0 2 0 2 0 2 0 2 0 2 0 2 0 
2 0 2 0 2 0 2 0 2 0 2 0 2 0 2 0 
2 0 2 0 2 0 2 0 2 0 2 0 2 0 2 0 
2 0 2 0 2 0 2 0 2 0 2 0 2 0 2 0 
2 0 2 0 2 0 2 0 2 0 2 0 2 0 2 0 
2 0 2 0 2 0 2 0 2 0 2 0 2 0 2 0 
2 0 2 0 2 0 2 0 2 0 2 0 2 0 2 0 
2 0 2 0 2 0 2 0 2 0 2 0 2 0 2 0 
2 0 2 0 2 0 2 0 2 0 2 0 2 0 2 0 
2 0 2 0 2 0 2 0 2 0 2 0 2 0 2 0 
2 0 2 0 2 0 2 0 2 0 2 0 2 0 2 0 
2 0 2 0 2 0 2 0 2 0 2 0 2 0 2 0 
2 0 2 0 2 0 2 0 2 0 2 0 2 0 2 0 
2 0 2 0 2 0 8735 4738 300 MP stroke
2 0 2 0 2 0 2 0 2 0 2 0 2 0 2 0 
2 0 2 0 2 0 2 0 2 0 2 0 2 0 2 0 
2 0 2 0 2 0 2 0 2 0 2 0 2 0 2 0 
2 0 2 0 2 0 2 0 2 0 2 0 2 0 2 0 
2 0 2 0 2 0 2 0 2 0 2 0 2 0 2 0 
2 0 2 0 2 0 2 0 2 0 2 0 2 0 2 0 
2 0 2 0 2 0 2 0 2 0 2 0 2 0 2 0 
2 0 2 0 2 0 2 0 2 0 2 0 2 0 2 0 
2 0 2 0 2 0 2 0 2 0 2 0 2 0 2 0 
2 0 2 0 2 0 2 0 2 0 2 0 2 0 2 0 
2 0 2 0 2 0 2 0 2 0 2 0 2 0 2 0 
2 0 2 0 2 0 2 0 2 0 2 0 2 0 2 -1096 
2 0 2 0 2 0 2 0 2 0 2 0 2 0 2 0 
2 0 2 0 2 0 2 0 2 0 2 0 2 0 2 0 
2 0 2 0 2 0 2 0 2 0 2 0 2 0 2 0 
2 0 2 0 2 0 2 0 2 0 2 0 2 0 2 0 
2 0 2 0 2 0 2 0 2 0 2 0 2 0 2 0 
2 0 2 0 2 0 2 0 2 0 2 0 2 0 2 0 
2 0 2 0 2 0 2 0 2 0 2 0 2 0 2 0 
2 0 2 0 2 0 2 0 2 0 2 0 2 0 2 0 
2 0 2 0 2 0 2 0 2 0 2 0 2 0 2 0 
2 0 2 0 2 0 2 0 2 0 2 0 2 0 2 0 
2 0 2 0 2 0 2 0 2 0 2 0 2 0 2 0 
2 0 2 0 2 0 2 0 2 0 2 0 2 0 2 0 
2 0 2 0 2 0 2 0 2 0 2 0 2 0 2 0 
1 0 2 0 2 0 2 0 2 0 2 0 2 0 2 0 
2 0 2 0 2 0 2 0 2 0 2 0 2 0 2 0 
2 0 2 0 2 0 2 0 2 0 2 0 2 0 2 0 
2 0 2 0 2 0 2 0 2 0 2 0 2 0 2 0 
2 0 2 0 2 0 2 0 2 0 2 0 2 0 2 0 
2 0 2 0 2 0 2 0 2 0 2 0 2 0 2 0 
2 0 2 0 2 0 2 0 2 0 2 0 2 0 2 0 
2 0 2 0 2 0 2 0 2 0 2 0 2 0 2 0 
2 0 2 0 2 0 2 0 2 0 2 0 2 0 2 0 
2 0 2 0 2 0 2 0 2 0 2 0 2 0 2 0 
2 0 2 0 2 0 2 0 2 0 2 0 2 0 2 0 
2 0 2 0 2 0 2 0 2 0 2 0 2 0 2 0 
2 0 2 0 2 0 8138 5834 300 MP stroke
2 0 2 0 2 0 2 0 2 0 2 0 2 0 2 0 
2 0 2 0 2 0 2 0 2 0 2 0 2 0 2 0 
2 0 2 0 2 0 2 0 2 0 2 0 2 0 2 0 
2 0 2 0 2 0 2 0 2 0 2 0 2 0 2 0 
2 0 2 0 2 0 2 0 2 0 2 0 2 0 2 0 
2 0 2 0 2 0 2 0 2 0 2 0 2 0 2 0 
2 0 2 0 2 0 2 0 2 0 2 0 2 0 2 0 
2 0 2 0 2 0 2 0 2 0 2 0 2 0 2 0 
2 0 2 0 2 0 2 0 2 0 2 0 2 0 2 0 
2 0 2 0 2 0 2 0 2 0 2 0 2 0 2 0 
2 0 2 0 2 0 2 0 2 0 2 0 2 0 2 0 
2 0 2 0 2 0 2 0 2 0 2 0 2 0 2 0 
2 0 2 0 2 0 2 0 2 0 2 0 2 0 2 0 
2 0 2 0 2 0 2 0 2 0 2 0 2 0 2 0 
2 0 2 0 2 0 2 0 2 0 2 0 2 0 2 0 
2 0 2 0 2 0 2 0 2 0 2 0 2 0 2 0 
2 0 2 0 2 0 2 0 2 0 2 0 2 0 2 0 
2 0 2 0 2 0 2 0 2 0 2 0 2 0 2 0 
2 0 2 0 2 0 2 0 2 0 2 0 2 0 2 -887 
2 0 2 0 2 0 2 0 2 0 2 0 2 0 2 0 
2 0 2 0 2 0 2 0 2 0 2 0 2 0 2 0 
2 0 2 0 2 0 2 0 2 0 2 0 2 0 2 0 
2 0 2 0 2 0 2 0 2 0 2 0 2 0 2 0 
2 0 2 0 2 0 2 0 2 0 2 0 2 0 2 0 
2 0 2 0 2 0 2 0 2 0 2 0 2 0 2 0 
2 0 2 0 2 0 2 0 2 0 2 0 2 0 2 0 
2 0 2 0 2 0 2 0 2 0 2 0 2 0 2 0 
2 0 2 0 2 0 2 0 2 0 2 0 2 0 2 0 
2 0 2 0 2 0 2 0 2 0 2 0 2 0 2 0 
2 0 2 0 2 0 2 0 2 0 2 0 2 0 2 0 
2 0 2 0 2 0 2 0 2 0 2 0 2 0 2 0 
2 0 2 0 2 0 2 0 2 0 2 0 2 0 2 0 
2 0 2 0 2 0 2 0 2 0 2 0 2 0 2 0 
2 0 2 0 2 0 2 0 2 0 2 0 2 0 2 0 
2 0 2 0 2 0 2 0 2 0 2 0 2 0 2 0 
2 0 2 0 2 0 2 0 2 0 2 0 2 0 2 0 
2 0 2 0 2 0 2 0 2 0 2 0 2 0 2 0 
2 0 2 0 2 0 7540 6721 300 MP stroke
2 0 2 0 2 0 2 0 2 0 2 0 2 0 2 0 
2 0 2 0 2 0 2 0 2 0 2 0 2 0 2 0 
2 0 2 0 2 0 2 0 2 0 2 0 2 0 2 0 
2 0 2 0 2 0 2 0 2 0 2 0 2 0 2 0 
2 0 2 0 2 0 2 0 2 0 2 0 2 0 2 0 
2 0 2 0 2 0 2 0 2 0 2 0 2 0 2 0 
2 0 2 0 2 0 2 0 2 0 2 0 2 0 2 0 
2 0 2 0 2 0 2 0 2 0 2 0 2 0 2 0 
2 0 2 0 2 0 2 0 2 0 2 0 2 0 2 0 
2 0 2 0 2 0 2 0 2 0 2 0 2 0 2 0 
2 0 2 0 2 0 2 0 2 0 2 0 2 0 2 0 
2 0 2 0 2 0 2 0 2 0 2 0 2 0 2 0 
2 0 2 0 2 0 2 0 2 0 2 0 1 0 2 0 
2 0 2 0 2 0 2 0 2 0 2 0 2 0 2 0 
2 0 2 0 2 0 2 0 2 0 2 0 2 0 2 0 
2 0 2 0 2 0 2 0 2 0 2 0 2 0 2 0 
2 0 2 0 2 0 2 0 2 0 2 0 2 0 2 0 
2 0 2 0 2 0 2 0 2 0 2 0 2 0 2 0 
2 0 2 0 2 0 2 0 2 0 2 0 2 0 2 0 
2 0 2 0 2 0 2 0 2 0 2 0 2 0 2 0 
2 0 2 0 2 0 2 0 2 0 2 0 2 0 2 0 
2 0 2 0 2 0 2 0 2 0 2 0 2 0 2 0 
2 0 2 0 2 0 2 0 2 0 2 0 2 0 2 -563 
2 0 2 0 2 0 2 0 2 0 2 0 2 0 2 0 
2 0 2 0 2 0 2 0 2 0 2 0 2 0 2 0 
2 0 2 0 2 0 2 0 2 0 2 0 2 0 2 0 
2 0 2 0 2 0 2 0 2 0 2 0 2 0 2 0 
2 0 2 0 2 0 2 0 2 0 2 0 2 0 2 0 
2 0 2 0 2 0 2 0 2 0 2 0 2 0 2 0 
2 0 2 0 2 0 2 0 2 0 2 0 2 0 2 0 
2 0 2 0 2 0 2 0 2 0 2 0 2 0 2 0 
2 0 2 0 2 0 2 0 2 0 2 0 2 0 2 0 
2 0 2 0 2 0 2 0 2 0 2 0 2 0 2 0 
2 0 2 0 2 0 2 0 2 0 2 0 2 0 2 0 
2 0 2 0 2 0 2 0 2 0 2 0 2 0 2 0 
2 0 2 0 2 0 2 0 2 0 2 0 2 0 2 0 
2 0 2 0 2 0 2 0 2 0 2 0 2 0 2 0 
2 0 2 0 2 0 6943 7284 300 MP stroke
2 0 2 0 2 0 2 0 2 0 2 0 2 0 2 0 
2 0 2 0 2 0 2 0 2 0 2 0 2 0 2 0 
2 0 2 0 2 0 2 0 2 0 2 0 2 0 2 0 
2 0 2 0 2 0 2 0 2 0 2 0 2 0 2 0 
2 0 2 0 2 0 2 0 2 0 2 0 2 0 2 0 
2 0 2 0 2 0 2 0 2 0 2 0 2 0 2 0 
2 0 2 0 2 0 2 0 2 0 2 0 2 0 2 0 
2 0 2 0 2 0 2 0 2 0 2 0 2 0 2 0 
2 0 2 0 2 0 2 0 2 0 2 0 2 0 2 0 
2 0 2 0 2 0 2 0 2 0 2 0 2 0 2 0 
2 0 2 0 2 0 2 0 2 0 2 0 2 0 2 0 
2 0 2 0 2 0 2 0 2 0 2 0 2 0 2 0 
2 0 2 0 2 0 2 0 2 0 2 0 2 0 2 0 
2 0 2 0 2 0 2 0 2 0 2 0 2 0 2 0 
2 0 2 0 2 0 2 0 2 0 2 0 2 0 2 0 
2 0 2 0 2 0 2 0 2 0 2 0 2 0 2 0 
2 0 2 0 2 0 2 0 2 0 2 0 2 0 2 0 
2 0 2 0 2 0 2 0 2 0 2 0 2 0 2 0 
2 0 2 0 2 0 2 0 2 0 2 0 2 0 2 0 
2 0 2 0 2 0 2 0 2 0 2 0 2 0 2 0 
2 0 2 0 2 0 2 0 2 0 2 0 2 0 2 0 
2 0 2 0 2 0 2 0 2 0 2 0 2 0 2 0 
2 0 2 0 2 0 2 0 2 0 2 0 2 0 2 0 
2 0 2 0 2 0 2 0 2 0 2 0 2 0 2 0 
2 -192 2 0 2 0 2 0 2 0 2 0 2 0 2 0 
2 0 2 0 2 0 2 0 2 0 2 0 2 0 2 0 
2 0 2 0 2 0 2 0 2 0 2 0 2 0 2 0 
2 0 2 0 2 0 2 0 2 0 2 0 2 0 2 0 
2 0 2 0 2 0 2 0 2 0 2 0 2 0 2 0 
2 0 2 0 2 0 2 0 2 0 2 0 2 0 2 0 
2 0 2 0 2 0 2 0 2 0 2 0 2 0 2 0 
2 0 2 0 2 0 2 0 2 0 2 0 2 0 2 0 
2 0 2 0 2 0 2 0 2 0 2 0 2 0 2 0 
2 0 2 0 2 0 2 0 2 0 2 0 2 0 2 0 
2 0 2 0 2 0 2 0 2 0 2 0 2 0 2 0 
2 0 2 0 2 0 2 0 2 0 2 0 2 0 2 0 
2 0 2 0 2 0 2 0 2 0 2 0 2 0 2 0 
2 0 2 0 2 0 6345 7476 300 MP stroke
2 0 2 0 2 0 2 0 1 0 2 0 2 0 2 0 
2 0 2 0 2 0 2 0 2 0 2 0 2 0 2 0 
2 0 2 0 2 0 2 0 2 0 2 0 2 0 2 0 
2 0 2 0 2 0 2 0 2 0 2 0 2 0 2 0 
2 0 2 0 2 0 2 0 2 0 2 0 2 0 2 0 
2 0 2 0 2 0 2 0 2 0 2 0 2 0 2 0 
2 0 2 0 2 0 2 0 2 0 2 0 2 0 2 0 
2 0 2 0 2 0 2 0 2 0 2 0 2 0 2 0 
2 0 2 0 2 0 2 0 2 0 2 0 2 0 2 0 
2 0 2 0 2 0 2 0 2 0 2 0 2 0 2 0 
2 0 2 0 2 0 2 0 2 0 2 0 2 0 2 0 
2 0 2 0 2 0 2 0 2 0 2 0 2 0 2 0 
2 0 2 0 2 0 2 0 2 0 2 0 2 0 2 0 
2 0 2 0 2 0 2 0 2 0 2 0 2 0 2 0 
2 0 2 0 2 0 2 0 2 0 2 0 2 0 2 0 
2 0 2 0 2 0 2 0 2 0 2 0 2 0 2 0 
2 0 2 0 2 0 2 0 2 0 2 0 2 0 2 0 
2 0 2 0 2 0 2 0 2 0 2 0 2 0 2 0 
2 0 2 0 2 0 2 0 2 0 2 0 2 0 2 0 
2 0 2 0 2 0 2 0 2 0 2 0 2 0 2 0 
2 0 2 0 2 0 2 0 2 0 2 0 2 0 2 0 
2 0 2 0 2 0 2 0 2 0 2 0 2 0 2 0 
2 0 2 0 2 165 2 0 2 0 2 0 2 0 2 0 
2 0 2 0 2 0 2 0 2 0 2 0 2 0 2 0 
2 0 2 0 2 0 2 0 2 0 2 0 2 0 2 0 
2 0 2 0 2 0 2 0 2 0 2 0 2 0 2 0 
2 0 2 0 2 0 2 0 2 0 2 0 2 0 2 0 
2 0 2 0 2 0 2 0 2 0 2 0 2 0 2 0 
2 0 2 0 2 0 2 0 2 0 2 0 2 0 2 0 
2 0 2 0 2 0 2 0 2 0 2 0 2 0 2 0 
2 0 2 0 2 0 2 0 2 0 2 0 2 0 2 0 
2 0 2 0 2 0 2 0 2 0 2 0 2 0 2 0 
2 0 2 0 2 0 2 0 2 0 2 0 2 0 2 0 
2 0 2 0 2 0 2 0 2 0 2 0 2 0 2 0 
2 0 2 0 2 0 2 0 2 0 2 0 2 0 2 0 
2 0 2 0 2 0 2 0 2 0 2 0 2 0 2 0 
2 0 2 0 2 0 2 0 2 0 2 0 2 0 2 0 
2 0 2 0 2 0 5748 7311 300 MP stroke
2 0 2 0 2 0 2 0 2 0 2 0 2 0 2 0 
2 0 2 0 2 0 2 0 2 0 2 0 2 0 2 0 
2 0 2 0 2 0 2 0 2 0 2 0 2 0 2 0 
2 0 2 0 2 0 2 0 2 0 2 0 2 0 2 0 
2 0 2 0 2 0 2 0 2 0 2 0 2 0 2 0 
2 0 2 0 2 0 2 0 2 0 2 0 2 0 2 0 
2 0 2 0 2 0 2 0 2 0 2 0 2 0 2 0 
2 0 2 0 2 0 2 0 2 0 2 0 2 0 2 0 
2 0 2 0 2 0 2 0 2 0 2 0 2 0 2 0 
2 0 2 0 2 0 2 0 2 0 2 0 2 0 2 0 
2 0 2 0 2 0 2 0 2 0 2 0 2 0 2 0 
2 0 2 0 2 0 2 0 2 0 2 0 2 0 2 0 
2 0 2 0 2 0 2 0 2 0 2 0 2 0 2 0 
2 0 2 0 2 0 2 0 2 0 2 0 2 0 2 0 
2 0 2 0 2 0 2 0 2 0 2 0 2 0 2 0 
2 0 2 0 2 0 2 0 2 0 2 0 2 0 2 0 
2 0 2 0 2 0 2 0 2 0 2 0 2 0 2 0 
2 0 2 0 2 0 2 0 2 0 2 0 2 0 2 463 
2 0 2 0 2 0 2 0 2 0 2 0 2 0 2 0 
2 0 2 0 2 0 2 0 2 0 2 0 2 0 2 0 
2 0 2 0 2 0 2 0 2 0 2 0 2 0 2 0 
2 0 2 0 2 0 2 0 2 0 2 0 2 0 2 0 
2 0 2 0 2 0 2 0 2 0 2 0 2 0 2 0 
2 0 2 0 2 0 2 0 2 0 2 0 2 0 2 0 
2 0 2 0 2 0 2 0 2 0 2 0 2 0 2 0 
2 0 2 0 2 0 2 0 2 0 1 0 2 0 2 0 
2 0 2 0 2 0 2 0 2 0 2 0 2 0 2 0 
2 0 2 0 2 0 2 0 2 0 2 0 2 0 2 0 
2 0 2 0 2 0 2 0 2 0 2 0 2 0 2 0 
2 0 2 0 2 0 2 0 2 0 2 0 2 0 2 0 
2 0 2 0 2 0 2 0 2 0 2 0 2 0 2 0 
2 0 2 0 2 0 2 0 2 0 2 0 2 0 2 0 
2 0 2 0 2 0 2 0 2 0 2 0 2 0 2 0 
2 0 2 0 2 0 2 0 2 0 2 0 2 0 2 0 
2 0 2 0 2 0 2 0 2 0 2 0 2 0 2 0 
2 0 2 0 2 0 2 0 2 0 2 0 2 0 2 0 
2 0 2 0 2 0 2 0 2 0 2 0 2 0 2 0 
2 0 2 0 2 0 5151 6848 300 MP stroke
2 0 2 0 2 0 2 0 2 0 2 0 2 0 2 0 
2 0 2 0 2 0 2 0 2 0 2 0 2 0 2 0 
2 0 2 0 2 0 2 0 2 0 2 0 2 0 2 0 
2 0 2 0 2 0 2 0 2 0 2 0 2 0 2 0 
2 0 2 0 2 0 2 0 2 0 2 0 2 0 2 0 
2 0 2 0 2 0 2 0 2 0 2 0 2 0 2 0 
2 0 2 0 2 0 2 0 2 0 2 0 2 0 2 0 
2 0 2 0 2 0 2 0 2 0 2 0 2 0 2 0 
2 0 2 0 2 0 2 0 2 0 2 0 2 0 2 0 
2 0 2 0 2 0 2 0 2 0 2 0 2 0 2 0 
2 0 2 0 2 0 2 0 2 0 2 0 2 0 2 675 
2 0 2 0 2 0 2 0 2 0 2 0 2 0 2 0 
2 0 2 0 2 0 2 0 2 0 2 0 2 0 2 0 
2 0 2 0 2 0 2 0 2 0 2 0 2 0 2 0 
2 0 2 0 2 0 2 0 2 0 2 0 2 0 2 0 
2 0 2 0 2 0 2 0 2 0 2 0 2 0 2 0 
2 0 2 0 2 0 2 0 2 0 2 0 2 0 2 0 
2 0 2 0 2 0 2 0 2 0 2 0 2 0 2 0 
2 0 2 0 2 0 2 0 2 0 2 0 2 0 2 0 
2 0 2 0 2 0 2 0 2 0 2 0 2 0 2 0 
2 0 2 0 2 0 2 0 2 0 2 0 2 0 2 0 
2 0 2 0 2 0 2 0 2 0 2 0 2 0 2 0 
2 0 2 0 2 0 2 0 2 0 2 0 2 0 2 0 
2 0 2 0 2 0 2 0 2 0 2 0 2 0 2 0 
2 0 2 0 2 0 2 0 2 0 2 0 2 0 2 0 
2 0 2 0 2 0 2 0 2 0 2 0 2 0 2 0 
2 0 2 0 2 0 2 0 2 0 2 0 2 0 2 0 
2 0 2 0 2 0 2 0 2 0 2 0 2 0 2 0 
2 0 2 0 2 0 2 0 2 0 2 0 2 0 2 0 
2 0 2 0 2 0 2 0 2 0 2 0 2 0 2 0 
2 0 2 0 2 0 2 0 2 0 2 0 2 0 2 0 
2 0 2 0 2 0 2 0 2 0 2 0 2 0 2 0 
2 0 2 0 2 0 2 0 2 0 2 0 2 0 2 0 
2 0 2 0 2 0 2 0 2 0 2 0 2 0 2 0 
2 0 2 0 2 0 2 0 2 0 2 0 2 0 2 0 
2 0 2 0 2 0 2 0 2 0 2 0 2 0 2 0 
2 0 2 0 2 0 2 0 2 0 2 0 2 0 2 0 
2 0 2 0 2 0 4553 6173 300 MP stroke
2 0 2 0 2 0 2 0 2 0 2 0 2 0 2 0 
2 0 2 0 2 0 2 791 2 0 2 0 2 0 2 0 
2 0 2 0 2 0 2 0 2 0 2 0 2 0 2 0 
2 0 2 0 2 0 2 0 2 0 2 0 2 0 2 0 
2 0 2 0 2 0 2 0 2 0 2 0 2 0 2 0 
2 0 2 0 2 0 2 0 2 0 2 0 2 0 2 0 
2 0 2 0 2 0 2 0 2 0 2 0 2 0 2 0 
2 0 2 0 2 0 2 0 2 0 2 0 2 0 2 0 
2 0 2 0 2 0 2 0 2 0 2 0 2 0 2 0 
2 0 2 0 2 0 2 0 2 0 2 0 2 0 2 0 
2 0 2 0 2 0 2 0 2 0 2 0 2 0 2 0 
2 0 2 0 2 0 2 0 2 0 2 0 2 0 2 0 
2 0 2 0 2 0 2 0 2 0 2 0 2 0 2 0 
2 0 2 0 2 0 1 0 2 0 2 0 2 0 2 0 
2 0 2 0 2 0 2 0 2 0 2 0 2 0 2 0 
2 0 2 0 2 0 2 0 2 0 2 0 2 0 2 0 
2 0 2 0 2 0 2 0 2 0 2 0 2 0 2 0 
2 0 2 0 2 0 2 0 2 0 2 0 2 0 2 0 
2 0 2 0 2 0 2 0 2 0 2 0 2 0 2 0 
2 0 2 0 2 0 2 0 2 0 2 0 2 0 2 0 
2 0 2 0 2 0 2 0 2 0 2 0 2 0 2 0 
2 0 2 0 2 0 2 0 2 0 2 0 2 0 2 0 
2 0 2 0 2 0 2 0 2 0 2 0 2 0 2 0 
2 0 2 0 2 0 2 0 2 0 2 0 2 0 2 0 
2 0 2 0 2 0 2 0 2 0 2 0 2 0 2 0 
2 0 2 0 2 0 2 0 2 0 2 0 2 0 2 0 
2 0 2 0 2 0 2 0 2 0 2 0 2 0 2 816 
2 0 2 0 2 0 2 0 2 0 2 0 2 0 2 0 
2 0 2 0 2 0 2 0 2 0 2 0 2 0 2 0 
2 0 2 0 2 0 2 0 2 0 2 0 2 0 2 0 
2 0 2 0 2 0 2 0 2 0 2 0 2 0 2 0 
2 0 2 0 2 0 2 0 2 0 2 0 2 0 2 0 
2 0 2 0 2 0 2 0 2 0 2 0 2 0 2 0 
2 0 2 0 2 0 2 0 2 0 2 0 2 0 2 0 
2 0 2 0 2 0 2 0 2 0 2 0 2 0 2 0 
2 0 2 0 2 0 2 0 2 0 2 0 2 0 2 0 
2 0 2 0 2 0 2 0 2 0 2 0 2 0 2 0 
2 0 2 0 2 0 3956 4566 300 MP stroke
2 0 2 0 2 0 2 0 2 0 2 0 2 0 2 0 
2 0 2 0 2 0 2 0 2 0 2 0 2 0 2 0 
2 0 2 0 2 0 2 0 2 0 2 0 2 0 2 0 
2 0 2 0 2 0 2 0 2 0 2 0 2 0 2 0 
2 0 2 0 2 0 2 0 2 0 2 0 2 0 2 0 
2 0 2 0 2 0 2 0 2 0 2 0 2 0 2 0 
2 0 2 0 2 0 2 0 2 0 2 0 2 0 2 0 
2 0 2 0 2 0 2 0 2 0 2 0 2 0 2 0 
2 0 2 0 2 0 2 0 2 0 2 0 2 0 2 0 
2 0 2 0 2 0 2 0 2 0 2 0 2 0 2 0 
2 0 2 0 2 0 2 0 2 0 2 0 2 0 2 0 
2 0 2 0 2 0 2 0 2 0 2 0 2 0 2 0 
2 0 2 0 2 0 2 0 2 0 2 0 2 765 2 0 
2 0 2 0 2 0 2 0 2 0 2 0 2 0 2 0 
2 0 2 0 2 0 2 0 2 0 2 0 2 0 2 0 
2 0 2 0 2 0 2 0 2 0 2 0 2 0 2 0 
2 0 2 0 2 0 2 0 2 0 2 0 2 0 2 0 
2 0 2 0 2 0 2 0 2 0 2 0 2 0 2 0 
2 0 2 0 2 0 2 0 2 0 2 0 2 0 2 0 
2 0 2 0 2 0 2 0 2 0 2 0 2 0 2 0 
2 0 2 0 2 0 2 0 2 0 2 0 2 0 2 0 
2 0 2 0 2 0 2 0 2 0 2 0 2 0 2 0 
2 0 2 0 2 0 2 0 2 0 2 0 2 0 2 0 
2 0 2 0 2 0 2 0 2 0 2 0 2 0 2 0 
2 0 2 0 2 0 2 0 2 0 2 0 2 0 2 0 
2 0 2 0 2 0 2 0 2 0 2 0 2 0 2 0 
2 0 2 0 2 0 2 0 2 0 2 0 2 0 2 0 
2 0 2 0 2 0 2 0 2 0 2 0 2 0 2 0 
2 0 2 0 2 0 2 0 2 0 2 0 2 0 2 0 
2 0 2 0 2 0 2 0 2 0 2 0 2 0 2 0 
2 0 2 0 2 0 2 0 2 0 2 0 2 0 2 0 
2 0 2 0 2 0 2 0 2 0 2 0 2 0 2 0 
2 0 2 0 2 0 2 0 2 0 2 0 2 0 2 0 
2 0 2 0 2 0 2 0 2 0 2 0 2 0 2 658 
2 0 2 0 2 0 2 0 2 0 2 0 2 0 2 0 
2 0 2 0 2 0 2 0 2 0 2 0 2 0 2 0 
2 0 2 0 2 0 2 0 2 0 2 0 2 0 2 0 
2 0 2 0 2 0 3358 3143 300 MP stroke
2 0 2 0 2 0 2 0 2 0 2 0 2 0 2 0 
2 0 1 0 2 0 2 0 2 0 2 0 2 0 2 0 
2 0 2 0 2 0 2 0 2 0 2 0 2 0 2 0 
2 0 2 0 2 0 2 0 2 0 2 0 2 0 2 0 
2 0 2 0 2 0 2 0 2 0 2 0 2 0 2 0 
2 0 2 0 2 0 2 0 2 0 2 0 2 0 2 0 
2 0 2 0 2 0 2 0 2 0 2 0 2 0 2 0 
2 0 2 0 2 0 2 0 2 0 2 0 2 0 2 0 
2 0 2 0 2 0 2 0 2 0 2 0 2 0 2 0 
2 0 2 0 2 0 2 0 2 0 2 0 2 0 2 0 
2 0 2 0 2 0 2 0 2 0 2 0 2 0 2 0 
2 0 2 0 2 0 2 0 2 0 2 0 2 0 2 0 
2 0 2 0 2 0 2 0 2 0 2 0 2 0 2 0 
2 0 2 0 2 0 2 0 2 0 2 0 2 0 2 0 
2 0 2 0 2 0 2 0 2 0 2 0 2 0 2 0 
2 0 2 0 2 0 2 0 2 516 2 0 2 0 2 0 
2 0 2 0 2 0 2 0 2 0 2 0 2 0 2 0 
2 0 2 0 2 0 2 0 2 0 2 0 2 0 2 0 
2 0 2 0 2 0 2 0 2 0 2 0 2 0 2 0 
2 0 2 0 2 0 2 0 2 0 2 0 2 0 2 0 
2 0 2 0 2 0 2 0 2 0 2 0 2 0 2 0 
2 0 2 0 2 0 2 0 2 0 2 0 2 0 2 0 
2 0 2 0 2 0 2 0 2 0 2 0 2 0 2 0 
2 0 2 0 2 0 2 0 2 0 2 0 2 0 2 0 
2 0 2 0 2 0 2 0 2 0 2 0 2 0 2 0 
2 0 2 0 2 0 2 0 2 0 2 0 2 0 2 0 
2 0 2 0 2 0 2 0 2 0 2 0 2 0 2 0 
2 0 2 0 2 0 2 0 2 0 2 0 2 0 2 0 
2 0 2 0 2 0 2 0 2 0 2 0 2 0 2 0 
2 0 2 0 2 0 2 0 2 0 2 0 2 0 2 0 
2 0 2 0 2 0 2 0 2 0 2 0 2 0 2 0 
2 0 2 0 2 0 2 0 2 0 2 0 2 0 2 0 
2 0 2 0 2 0 2 0 2 0 2 359 2 0 2 0 
2 0 2 0 2 0 2 0 2 0 2 0 2 0 2 0 
2 0 2 0 2 0 2 0 2 0 2 0 2 0 2 0 
2 0 2 0 2 0 2 0 2 0 2 0 2 0 2 0 
2 0 2 0 2 0 2 0 2 0 2 0 2 0 2 0 
2 0 2 0 2 0 2761 2268 300 MP stroke
2 0 2 0 2 0 2 0 2 0 2 0 2 0 2 0 
2 0 2 0 2 0 2 0 2 0 2 0 2 0 2 0 
2 0 2 0 2 0 2 0 2 0 2 0 2 0 2 0 
2 0 2 0 2 0 2 0 2 0 2 0 2 0 2 0 
2 0 2 0 2 0 2 0 2 0 2 0 2 0 2 0 
2 0 2 0 2 0 2 0 2 0 2 0 2 0 2 0 
2 0 2 0 2 0 2 0 2 0 2 0 2 0 2 0 
2 0 2 0 2 0 2 0 2 0 2 0 2 0 2 0 
2 0 2 0 2 0 2 0 2 0 2 0 2 0 2 0 
2 0 2 0 2 0 2 0 2 0 2 0 2 0 2 0 
2 0 2 0 2 0 2 0 2 205 2 0 2 0 2 0 
2 0 2 0 2 0 2 0 2 0 2 0 2 0 2 0 
2 0 2 0 2 0 2 0 2 0 2 0 2 0 2 0 
2 0 2 0 2 0 2 0 2 0 2 0 2 0 2 0 
2 0 2 0 2 0 2 0 2 0 2 0 2 0 2 0 
2 0 2 0 2 0 2 0 2 0 2 0 2 0 2 0 
2 0 2 0 2 0 2 0 2 0 2 0 2 0 2 0 
2 0 2 0 2 0 2 0 2 0 2 0 2 0 2 0 
2 0 2 0 2 0 2 0 2 0 2 0 2 0 2 0 
2 0 2 0 2 0 2 0 2 0 2 0 2 0 2 0 
2 0 2 0 2 0 2 0 2 0 2 0 2 0 2 0 
2 0 2 0 2 0 2 0 2 0 2 0 2 0 2 0 
2 0 2 0 2 0 2 0 2 0 2 0 2 0 2 0 
2 0 2 0 2 0 2 0 2 0 2 0 2 0 2 0 
2 64 2 0 2 0 2 0 2 0 2 0 2 0 2 0 
2 0 2 0 2 0 2 0 2 0 2 0 2 0 2 0 
2 0 2 0 1 0 2 0 2 0 2 0 2 0 2 0 
2 0 2 0 2 0 2 0 2 0 2 0 2 0 2 0 
2 0 2 0 2 0 2 0 2 0 2 0 2 0 2 0 
2 0 2 0 2 0 2 0 2 0 2 0 2 0 2 0 
2 0 2 0 2 0 2 0 2 0 2 0 2 0 2 0 
2 0 2 0 2 0 2 0 2 0 2 0 2 0 2 0 
2 0 2 0 2 0 2 0 2 0 2 0 2 0 2 0 
2 0 2 0 2 0 2 0 2 0 2 0 2 0 2 0 
2 0 2 0 2 0 2 0 2 0 2 0 2 0 2 0 
2 0 2 0 2 0 2 0 2 0 2 0 2 0 2 -56 
2 0 2 0 2 0 2 0 2 0 2 0 2 0 2 0 
2 0 2 0 2 0 2164 2055 300 MP stroke
2 0 2 0 2 0 2 0 2 0 2 0 2 0 2 0 
2 0 2 0 2 0 2 0 2 0 2 0 2 0 2 0 
2 0 2 0 2 0 2 0 2 0 2 0 2 0 2 0 
2 0 2 0 2 0 2 0 2 0 2 0 2 0 2 0 
2 0 2 0 2 0 2 0 2 0 2 0 2 0 2 0 
2 0 2 0 2 0 2 0 2 0 2 0 2 0 2 0 
2 0 2 0 2 0 2 0 2 0 2 0 2 0 2 0 
2 0 2 0 2 0 2 0 2 0 2 0 2 0 2 0 
2 0 2 0 2 0 2 0 2 0 2 0 2 -151 2 0 
2 0 2 0 2 0 2 0 2 0 2 0 2 0 2 0 
2 0 2 0 2 0 2 0 2 0 2 0 2 0 2 0 
2 0 2 0 2 0 2 0 2 0 2 0 2 0 2 0 
2 0 2 0 2 0 2 0 2 0 2 0 2 0 2 0 
2 0 2 0 2 0 2 0 2 0 2 0 2 0 2 0 
2 0 2 0 2 0 2 0 2 0 2 0 2 0 2 0 
2 0 2 0 2 0 2 0 2 0 2 0 2 0 2 0 
2 0 2 0 2 0 2 0 2 0 2 0 2 0 2 0 
2 0 2 0 2 0 2 0 2 0 2 -219 2 0 2 0 
2 0 2 0 2 0 2 0 2 0 2 0 2 0 2 0 
2 0 2 0 2 0 2 0 2 0 2 0 2 0 2 0 
2 0 2 0 2 0 2 0 2 0 2 0 2 0 2 0 
2 0 2 0 2 0 2 0 2 0 2 0 2 0 2 0 
2 0 2 0 2 0 2 0 2 0 2 0 2 0 2 0 
2 0 2 0 2 0 2 0 2 0 2 0 2 0 2 0 
2 0 2 0 2 0 2 0 2 0 2 0 2 0 2 0 
2 0 2 -265 2 0 2 0 2 0 2 0 2 0 2 0 
2 0 2 0 2 0 2 0 2 0 2 0 2 0 2 0 
2 0 2 0 2 0 2 0 2 0 2 0 2 0 2 0 
2 0 2 0 2 0 2 0 2 0 2 0 2 0 2 0 
2 0 2 0 2 0 2 0 2 0 2 0 2 0 2 0 
2 0 2 0 2 0 2 0 2 0 2 0 2 0 2 0 
2 0 2 0 2 0 2 0 2 -287 2 0 2 0 2 0 
2 0 2 0 2 0 2 0 2 0 2 0 2 0 2 0 
2 0 2 0 2 0 2 0 2 0 2 0 2 0 2 0 
2 0 2 0 2 0 2 0 2 0 2 0 2 0 2 0 
2 0 2 0 2 0 2 0 2 0 2 0 2 0 2 0 
2 0 2 0 2 0 2 0 2 0 2 0 2 -293 2 0 
2 0 2 0 2 0 1566 3270 300 MP stroke
2 0 2 0 2 0 2 0 2 0 2 0 2 0 2 0 
2 0 2 0 2 0 2 0 2 0 2 0 2 0 2 0 
2 0 2 0 2 0 2 0 2 0 2 0 2 0 2 0 
2 0 2 0 2 0 2 0 2 0 2 -284 2 0 2 0 
2 0 2 0 2 0 2 0 2 0 2 0 2 0 2 0 
2 0 2 0 2 0 2 0 2 0 2 0 2 0 2 0 
2 0 2 0 2 0 2 0 2 0 2 0 2 0 2 0 
2 -265 2 0 2 0 2 0 2 0 2 0 2 0 2 0 
2 0 2 0 2 0 2 0 2 0 2 0 2 0 2 0 
2 0 2 0 2 0 2 0 2 -238 2 0 2 0 2 0 
2 0 2 0 2 0 2 0 2 0 2 0 2 0 2 0 
2 0 2 0 2 0 2 -205 2 0 2 0 2 0 2 0 
2 0 2 0 2 0 2 0 2 0 2 -170 2 0 2 0 
2 0 2 0 2 0 2 -134 2 0 2 0 2 -95 2 -77 
1342 4738 113 MP stroke
gr

c8
0 sg
1324 7520 mt 
( ) s
9317  672 mt 
( ) s
1 sg
0 188 772 0 0 -188 8502 878 4 MP
PP
-772 0 0 188 772 0 0 -188 8502 878 5 MP stroke
4 w
DO
SO
6 w
0 sg
8502  690 mt 9274  690 L
8502  878 mt 9274  878 L
9274  878 mt 9274  690 L
8502  878 mt 8502  690 L
8502  878 mt 9274  878 L
8502  878 mt 8502  690 L
8502  690 mt 9274  690 L
8502  878 mt 9274  878 L
9274  878 mt 9274  690 L
8502  878 mt 8502  690 L
8969  827 mt 
(Error) s
gs 8502 690 773 189 rc
c8
359 0 8573 784 2 MP stroke
gr

c8

end %%Color Dict

eplot
%%EndObject

epage
end

showpage

%%Trailer
%%EOF
