%!PS-Adobe-3.0 EPSF-3.0
%%Creator: MATLAB, The MathWorks, Inc. Version 7.14.0.739 (R2012a). Operating System: Linux 3.2.0-56-generic #86-Ubuntu SMP Wed Oct 23 09:20:45 UTC 2013 x86_64.
%%Title: /home/birkeland/andreros/Dropbox/tma4220-element-methods-project/report/images/poisson2d-mixed-boundary-error.eps
%%CreationDate: 11/20/2013  19:46:29
%%DocumentNeededFonts: Helvetica
%%DocumentProcessColors: Cyan Magenta Yellow Black
%%LanguageLevel: 2
%%Pages: 1
%%BoundingBox:    81   227   529   564
%%EndComments

%%BeginProlog
% MathWorks dictionary
/MathWorks 160 dict begin
% definition operators
/bdef {bind def} bind def
/ldef {load def} bind def
/xdef {exch def} bdef
/xstore {exch store} bdef
% operator abbreviations
/c  /clip ldef
/cc /concat ldef
/cp /closepath ldef
/gr /grestore ldef
/gs /gsave ldef
/mt /moveto ldef
/np /newpath ldef
/cm /currentmatrix ldef
/sm /setmatrix ldef
/rm /rmoveto ldef
/rl /rlineto ldef
/s {show newpath} bdef
/sc {setcmykcolor} bdef
/sr /setrgbcolor ldef
/sg /setgray ldef
/w /setlinewidth ldef
/j /setlinejoin ldef
/cap /setlinecap ldef
/rc {rectclip} bdef
/rf {rectfill} bdef
% page state control
/pgsv () def
/bpage {/pgsv save def} bdef
/epage {pgsv restore} bdef
/bplot /gsave ldef
/eplot {stroke grestore} bdef
% orientation switch
/portraitMode 0 def /landscapeMode 1 def /rotateMode 2 def
% coordinate system mappings
/dpi2point 0 def
% font control
/FontSize 0 def
/FMS {/FontSize xstore findfont [FontSize 0 0 FontSize neg 0 0]
  makefont setfont} bdef
/reencode {exch dup where {pop load} {pop StandardEncoding} ifelse
  exch dup 3 1 roll findfont dup length dict begin
  { 1 index /FID ne {def}{pop pop} ifelse } forall
  /Encoding exch def currentdict end definefont pop} bdef
/isroman {findfont /CharStrings get /Agrave known} bdef
/FMSR {3 1 roll 1 index dup isroman {reencode} {pop pop} ifelse
  exch FMS} bdef
/csm {1 dpi2point div -1 dpi2point div scale neg translate
 dup landscapeMode eq {pop -90 rotate}
  {rotateMode eq {90 rotate} if} ifelse} bdef
% line types: solid, dotted, dashed, dotdash
/SO { [] 0 setdash } bdef
/DO { [.5 dpi2point mul 4 dpi2point mul] 0 setdash } bdef
/DA { [6 dpi2point mul] 0 setdash } bdef
/DD { [.5 dpi2point mul 4 dpi2point mul 6 dpi2point mul 4
  dpi2point mul] 0 setdash } bdef
% macros for lines and objects
/L {lineto stroke} bdef
/MP {3 1 roll moveto 1 sub {rlineto} repeat} bdef
/AP {{rlineto} repeat} bdef
/PDlw -1 def
/W {/PDlw currentlinewidth def setlinewidth} def
/PP {closepath eofill} bdef
/DP {closepath stroke} bdef
/MR {4 -2 roll moveto dup  0 exch rlineto exch 0 rlineto
  neg 0 exch rlineto closepath} bdef
/FR {MR stroke} bdef
/PR {MR fill} bdef
/L1i {{currentfile picstr readhexstring pop} image} bdef
/tMatrix matrix def
/MakeOval {newpath tMatrix currentmatrix pop translate scale
0 0 1 0 360 arc tMatrix setmatrix} bdef
/FO {MakeOval stroke} bdef
/PO {MakeOval fill} bdef
/PD {currentlinewidth 2 div 0 360 arc fill
   PDlw -1 eq not {PDlw w /PDlw -1 def} if} def
/FA {newpath tMatrix currentmatrix pop translate scale
  0 0 1 5 -2 roll arc tMatrix setmatrix stroke} bdef
/PA {newpath tMatrix currentmatrix pop	translate 0 0 moveto scale
  0 0 1 5 -2 roll arc closepath tMatrix setmatrix fill} bdef
/FAn {newpath tMatrix currentmatrix pop translate scale
  0 0 1 5 -2 roll arcn tMatrix setmatrix stroke} bdef
/PAn {newpath tMatrix currentmatrix pop translate 0 0 moveto scale
  0 0 1 5 -2 roll arcn closepath tMatrix setmatrix fill} bdef
/vradius 0 def /hradius 0 def /lry 0 def
/lrx 0 def /uly 0 def /ulx 0 def /rad 0 def
/MRR {/vradius xdef /hradius xdef /lry xdef /lrx xdef /uly xdef
  /ulx xdef newpath tMatrix currentmatrix pop ulx hradius add uly
  vradius add translate hradius vradius scale 0 0 1 180 270 arc 
  tMatrix setmatrix lrx hradius sub uly vradius add translate
  hradius vradius scale 0 0 1 270 360 arc tMatrix setmatrix
  lrx hradius sub lry vradius sub translate hradius vradius scale
  0 0 1 0 90 arc tMatrix setmatrix ulx hradius add lry vradius sub
  translate hradius vradius scale 0 0 1 90 180 arc tMatrix setmatrix
  closepath} bdef
/FRR {MRR stroke } bdef
/PRR {MRR fill } bdef
/MlrRR {/lry xdef /lrx xdef /uly xdef /ulx xdef /rad lry uly sub 2 div def
  newpath tMatrix currentmatrix pop ulx rad add uly rad add translate
  rad rad scale 0 0 1 90 270 arc tMatrix setmatrix lrx rad sub lry rad
  sub translate rad rad scale 0 0 1 270 90 arc tMatrix setmatrix
  closepath} bdef
/FlrRR {MlrRR stroke } bdef
/PlrRR {MlrRR fill } bdef
/MtbRR {/lry xdef /lrx xdef /uly xdef /ulx xdef /rad lrx ulx sub 2 div def
  newpath tMatrix currentmatrix pop ulx rad add uly rad add translate
  rad rad scale 0 0 1 180 360 arc tMatrix setmatrix lrx rad sub lry rad
  sub translate rad rad scale 0 0 1 0 180 arc tMatrix setmatrix
  closepath} bdef
/FtbRR {MtbRR stroke } bdef
/PtbRR {MtbRR fill } bdef
/stri 6 array def /dtri 6 array def
/smat 6 array def /dmat 6 array def
/tmat1 6 array def /tmat2 6 array def /dif 3 array def
/asub {/ind2 exch def /ind1 exch def dup dup
  ind1 get exch ind2 get sub exch } bdef
/tri_to_matrix {
  2 0 asub 3 1 asub 4 0 asub 5 1 asub
  dup 0 get exch 1 get 7 -1 roll astore } bdef
/compute_transform {
  dmat dtri tri_to_matrix tmat1 invertmatrix 
  smat stri tri_to_matrix tmat2 concatmatrix } bdef
/ds {stri astore pop} bdef
/dt {dtri astore pop} bdef
/db {2 copy /cols xdef /rows xdef mul dup 3 mul string
  currentfile 
  3 index 0 eq {/ASCIIHexDecode filter}
  {/ASCII85Decode filter 3 index 2 eq {/RunLengthDecode filter} if }
  ifelse exch readstring pop
  dup 0 3 index getinterval /rbmap xdef
  dup 2 index dup getinterval /gbmap xdef
  1 index dup 2 mul exch getinterval /bbmap xdef pop pop}bdef
/it {gs np dtri aload pop moveto lineto lineto cp c
  cols rows 8 compute_transform 
  rbmap gbmap bbmap true 3 colorimage gr}bdef
/il {newpath moveto lineto stroke}bdef
currentdict end def
%%EndProlog

%%BeginSetup
MathWorks begin

0 cap

end
%%EndSetup

%%Page: 1 1
%%BeginPageSetup
%%PageBoundingBox:    81   227   529   564
MathWorks begin
bpage
%%EndPageSetup

%%BeginObject: obj1
bplot

/dpi2point 12 def
portraitMode 0972 6768 csm

    0     0  5376  4033 rc
85 dict begin %Colortable dictionary
/c0 { 0.000000 0.000000 0.000000 sr} bdef
/c1 { 1.000000 1.000000 1.000000 sr} bdef
/c2 { 0.900000 0.000000 0.000000 sr} bdef
/c3 { 0.000000 0.820000 0.000000 sr} bdef
/c4 { 0.000000 0.000000 0.800000 sr} bdef
/c5 { 0.910000 0.820000 0.320000 sr} bdef
/c6 { 1.000000 0.260000 0.820000 sr} bdef
/c7 { 0.000000 0.820000 0.820000 sr} bdef
c0
1 j
1 sg
   0    0 5377 4034 rf
6 w
0 3287 4166 0 0 -3287 699 3589 4 MP
PP
-4166 0 0 3287 4166 0 0 -3287 699 3589 5 MP stroke
4 w
DO
SO
6 w
0 sg
 699 3589 mt 4865 3589 L
 699  302 mt 4865  302 L
 699 3589 mt  699  302 L
4865 3589 mt 4865  302 L
 699 3589 mt 4865 3589 L
 699 3589 mt  699  302 L
 699 3589 mt  699 3547 L
 699  302 mt  699  343 L
%%IncludeResource: font Helvetica
/Helvetica /ISOLatin1Encoding 120 FMSR

 666 3734 mt 
(0) s
1294 3589 mt 1294 3547 L
1294  302 mt 1294  343 L
1194 3734 mt 
(100) s
1889 3589 mt 1889 3547 L
1889  302 mt 1889  343 L
1789 3734 mt 
(200) s
2484 3589 mt 2484 3547 L
2484  302 mt 2484  343 L
2384 3734 mt 
(300) s
3079 3589 mt 3079 3547 L
3079  302 mt 3079  343 L
2979 3734 mt 
(400) s
3674 3589 mt 3674 3547 L
3674  302 mt 3674  343 L
3574 3734 mt 
(500) s
4269 3589 mt 4269 3547 L
4269  302 mt 4269  343 L
4169 3734 mt 
(600) s
4865 3589 mt 4865 3547 L
4865  302 mt 4865  343 L
4765 3734 mt 
(700) s
 699 3589 mt  740 3589 L
4865 3589 mt 4823 3589 L
 294 3633 mt 
(-0.045) s
 699 3223 mt  740 3223 L
4865 3223 mt 4823 3223 L
 361 3267 mt 
(-0.04) s
 699 2858 mt  740 2858 L
4865 2858 mt 4823 2858 L
 294 2902 mt 
(-0.035) s
 699 2493 mt  740 2493 L
4865 2493 mt 4823 2493 L
 361 2537 mt 
(-0.03) s
 699 2128 mt  740 2128 L
4865 2128 mt 4823 2128 L
 294 2172 mt 
(-0.025) s
 699 1762 mt  740 1762 L
4865 1762 mt 4823 1762 L
 361 1806 mt 
(-0.02) s
 699 1397 mt  740 1397 L
4865 1397 mt 4823 1397 L
 294 1441 mt 
(-0.015) s
 699 1032 mt  740 1032 L
4865 1032 mt 4823 1032 L
 361 1076 mt 
(-0.01) s
 699  667 mt  740  667 L
4865  667 mt 4823  667 L
 294  711 mt 
(-0.005) s
 699  302 mt  740  302 L
4865  302 mt 4823  302 L
 598  346 mt 
(0) s
 699 3589 mt 4865 3589 L
 699  302 mt 4865  302 L
 699 3589 mt  699  302 L
4865 3589 mt 4865  302 L
gs 699 302 4167 3288 rc
/c8 { 0.000000 0.000000 1.000000 sr} bdef
c8
5 0 6 0 6 0 6 0 6 0 6 0 6 0 6 0 
6 0 6 0 6 0 6 0 6 0 6 0 6 0 6 0 
6 0 6 0 6 0 6 0 6 0 5 0 6 0 6 0 
6 0 6 0 6 0 6 0 6 0 6 0 6 0 6 0 
6 0 6 0 6 0 6 0 6 0 6 0 6 0 6 0 
6 0 5 0 6 0 6 0 6 0 6 0 6 0 6 0 
6 0 6 0 6 0 6 0 6 0 6 0 6 0 6 0 
6 0 6 0 6 0 6 0 6 0 6 0 5 0 6 0 
6 0 6 0 6 0 6 0 6 0 6 0 6 0 6 0 
6 0 6 0 6 0 6 0 6 0 6 0 6 0 6 0 
6 0 6 0 5 0 6 0 6 0 6 0 6 0 6 0 
6 0 6 0 6 0 6 0 6 0 6 0 6 0 6 0 
6 0 6 0 6 0 6 0 6 0 6 0 6 0 5 0 
6 0 6 0 6 0 6 0 6 0 6 0 6 0 6 0 
6 0 6 0 6 0 6 0 6 0 6 0 6 0 6 0 
6 0 6 0 6 0 6 0 5 0 6 0 6 0 6 0 
6 0 6 0 6 0 6 0 6 0 6 0 6 0 6 0 
6 0 6 0 6 0 6 0 6 0 6 0 6 0 6 0 
5 0 6 0 6 0 6 0 6 0 6 0 6 0 6 0 
6 0 6 0 6 0 6 0 6 0 6 0 6 0 6 0 
6 0 6 0 6 0 6 0 6 0 5 0 6 0 6 0 
6 0 6 0 6 0 6 0 6 0 6 0 6 0 6 0 
6 0 6 0 6 0 6 0 6 0 6 0 6 0 6 0 
6 0 5 0 6 0 6 0 6 0 6 0 6 0 6 0 
6 0 6 0 6 0 6 0 6 0 6 0 6 0 6 0 
6 0 6 0 6 0 6 0 6 0 6 0 5 0 6 0 
6 0 6 0 6 0 6 0 6 0 6 0 6 0 6 0 
6 0 6 0 6 0 6 0 6 0 6 0 6 0 6 0 
6 0 6 0 6 0 5 0 6 0 6 0 6 0 6 0 
6 0 6 0 6 0 6 0 6 0 6 0 6 0 6 0 
6 0 6 0 6 0 6 0 6 0 6 0 6 0 5 0 
6 0 6 0 6 0 6 0 6 0 6 0 6 0 6 0 
6 0 6 0 6 0 6 0 6 0 6 0 6 0 6 0 
6 0 6 0 6 0 6 0 5 0 6 0 6 0 6 0 
6 0 6 0 6 0 6 0 6 0 6 0 6 0 6 0 
6 0 6 0 6 0 6 0 6 0 6 0 6 0 6 0 
5 0 6 0 6 0 6 0 6 0 6 0 6 0 6 0 
6 0 6 0 6 0 2966 302 300 MP stroke
6 0 6 0 6 0 6 0 6 0 6 0 6 0 6 0 
6 0 6 0 5 0 6 0 6 0 6 0 6 0 6 0 
6 0 6 0 6 0 6 0 6 0 6 0 6 0 6 0 
6 0 6 0 6 0 6 0 6 0 6 0 5 0 6 0 
6 0 6 0 6 0 6 0 6 0 6 0 6 0 6 0 
6 -3261 6 1260 6 477 6 271 6 168 6 131 6 55 6 61 
6 71 6 14 6 28 5 33 6 49 6 -3 6 14 6 23 
6 40 6 -9 6 13 6 35 6 -14 6 5 6 15 6 33 
6 -14 6 7 6 31 6 -18 6 1 6 12 6 30 6 -18 
5 0 6 12 6 30 6 -18 6 6 6 27 6 -19 6 0 
6 11 6 30 6 -18 6 6 6 28 6 -18 6 1 6 12 
6 31 6 -15 6 8 6 32 5 -15 6 5 6 16 6 33 
6 -19 6 -6 6 1 6 19 6 -29 6 -5 6 17 6 -28 
6 -9 6 2 6 22 6 -24 6 -2 6 21 6 -26 6 -6 
6 5 5 24 6 -23 6 0 6 23 6 -24 6 -5 6 5 
6 25 6 -23 6 -4 6 7 6 26 6 -21 6 2 6 24 
6 -22 6 -3 6 9 6 27 6 -18 5 4 6 29 6 -18 
6 3 6 8 6 15 6 -31 6 -10 6 1 6 22 6 -25 
6 -2 6 21 6 -26 6 -6 6 4 6 24 6 -23 6 -1 
6 22 6 -25 5 -5 6 5 6 24 6 -22 6 0 6 22 
6 -24 6 -6 6 5 6 24 6 -23 6 -5 6 6 6 25 
6 -23 6 0 6 23 6 -24 6 -5 6 6 6 25 5 -22 
6 0 6 23 6 -24 6 -4 6 5 6 26 6 -22 6 1 
6 23 6 -24 6 -4 6 6 6 25 6 -22 6 -4 6 7 
6 27 6 -21 6 2 5 25 6 -22 6 -3 6 9 6 28 
6 -19 6 5 6 27 6 -19 6 1 6 12 6 31 6 -15 
6 3 6 12 6 27 6 -27 6 -7 6 14 6 -32 6 -12 
5 -1 6 20 6 -27 6 -4 6 20 6 -27 6 -7 6 4 
6 23 6 -23 6 0 6 23 6 -24 6 -4 6 8 6 28 
6 -18 6 2 6 10 6 15 5 -31 6 -6 6 17 6 -29 
6 -9 6 2 6 22 6 -25 6 -2 6 20 6 -26 6 -7 
6 4 6 23 6 -24 6 -1 6 22 6 -26 6 -7 6 5 
6 23 5 -25 6 -6 6 5 6 24 6 -23 6 -1 6 22 
6 -25 6 -6 6 5 6 24 6 -23 6 -1 6 23 6 -25 
6 -6 6 4 6 24 6 -25 6 -5 6 5 5 24 6 -23 
6 -1 6 22 6 -25 6 -5 6 5 6 24 6 -23 6 -1 
6 23 6 -25 6 -6 6 5 6 24 6 -23 6 0 6 23 
6 -25 6 -6 5 5 1187 645 300 MP stroke
6 24 6 -23 6 -5 6 6 6 25 6 -22 6 1 6 23 
6 -23 6 -4 6 7 6 27 6 -21 6 3 6 26 6 -21 
6 -1 6 10 6 30 6 -16 5 7 6 31 6 -17 6 0 
6 5 6 19 6 -32 6 -12 6 0 6 20 6 -24 6 0 
6 22 6 -38 6 -20 6 -7 6 15 6 -33 6 -8 6 15 
5 -32 6 -13 6 -2 6 18 6 -31 6 -11 6 -1 6 19 
6 -30 6 -6 6 16 6 -32 6 -12 6 -2 6 18 6 -31 
6 -8 6 14 6 -34 6 -15 6 -5 5 13 6 -35 6 -13 
6 8 6 -41 6 -23 6 -15 6 2 6 -49 6 -34 6 -28 
6 -16 6 -72 6 -61 6 -57 6 -133 6 -171 6 -276 6 -483 
6 -1261 704 3581 82 MP stroke
gr

c8
0 sg
2618 3877 mt 
(nodes) s
 212 1979 mt  -90 rotate
(u) s
90 rotate
 682 3632 mt 
( ) s
4849  344 mt 
( ) s
1 sg
0 188 1910 0 0 -188 2896 550 4 MP
PP
-1910 0 0 188 1910 0 0 -188 2896 550 5 MP stroke
4 w
DO
SO
6 w
0 sg
2896  550 mt 4806  550 L
2896  362 mt 4806  362 L
2896  550 mt 2896  362 L
4806  550 mt 4806  362 L
2896  550 mt 4806  550 L
2896  550 mt 2896  362 L
2896  550 mt 4806  550 L
2896  362 mt 4806  362 L
2896  550 mt 2896  362 L
4806  550 mt 4806  362 L
3368  499 mt 
(FEM solution on boundary) s
gs 2896 362 1911 189 rc
c8
363 0 2968 456 2 MP stroke
gr

c8

end %%Color Dict

eplot
%%EndObject

epage
end

showpage

%%Trailer
%%EOF
