%!PS-Adobe-3.0 EPSF-3.0
%%Creator: MATLAB, The MathWorks, Inc. Version 8.1.0.604 (R2013a). Operating System: Microsoft Windows 7.
%%Title: C:\USER\SKOLE\TMA4220\tma4220-element-methods-project\report\images\poisson2d-compare_neumann_dirichlet_error.eps
%%CreationDate: 11/20/2013  20:18:14
%%DocumentNeededFonts: Helvetica
%%DocumentProcessColors: Cyan Magenta Yellow Black
%%LanguageLevel: 2
%%Pages: 1
%%BoundingBox:    87   263   507   578
%%EndComments

%%BeginProlog
% MathWorks dictionary
/MathWorks 160 dict begin
% definition operators
/bdef {bind def} bind def
/ldef {load def} bind def
/xdef {exch def} bdef
/xstore {exch store} bdef
% operator abbreviations
/c  /clip ldef
/cc /concat ldef
/cp /closepath ldef
/gr /grestore ldef
/gs /gsave ldef
/mt /moveto ldef
/np /newpath ldef
/cm /currentmatrix ldef
/sm /setmatrix ldef
/rm /rmoveto ldef
/rl /rlineto ldef
/s {show newpath} bdef
/sc {setcmykcolor} bdef
/sr /setrgbcolor ldef
/sg /setgray ldef
/w /setlinewidth ldef
/j /setlinejoin ldef
/cap /setlinecap ldef
/rc {rectclip} bdef
/rf {rectfill} bdef
% page state control
/pgsv () def
/bpage {/pgsv save def} bdef
/epage {pgsv restore} bdef
/bplot /gsave ldef
/eplot {stroke grestore} bdef
% orientation switch
/portraitMode 0 def /landscapeMode 1 def /rotateMode 2 def
% coordinate system mappings
/dpi2point 0 def
% font control
/FontSize 0 def
/FMS {/FontSize xstore findfont [FontSize 0 0 FontSize neg 0 0]
  makefont setfont} bdef
/ISOLatin1Encoding where {pop /WindowsLatin1Encoding 256 array bdef
ISOLatin1Encoding WindowsLatin1Encoding copy pop
/.notdef/.notdef/quotesinglbase/florin/quotedblbase/ellipsis/dagger
/daggerdbl/circumflex/perthousand/Scaron/guilsinglleft/OE/.notdef/.notdef
/.notdef/.notdef/quoteleft/quoteright/quotedblleft/quotedblright/bullet
/endash/emdash/tilde/trademark/scaron/guilsinglright/oe/.notdef/.notdef
/Ydieresis WindowsLatin1Encoding 128 32 getinterval astore pop}
{/WindowsLatin1Encoding StandardEncoding bdef} ifelse
/reencode {exch dup where {pop load} {pop StandardEncoding} ifelse
  exch dup 3 1 roll findfont dup length dict begin
  { 1 index /FID ne {def}{pop pop} ifelse } forall
  /Encoding exch def currentdict end definefont pop} bdef
/isroman {findfont /CharStrings get /Agrave known} bdef
/FMSR {3 1 roll 1 index dup isroman {reencode} {pop pop} ifelse
  exch FMS} bdef
/csm {1 dpi2point div -1 dpi2point div scale neg translate
 dup landscapeMode eq {pop -90 rotate}
  {rotateMode eq {90 rotate} if} ifelse} bdef
% line types: solid, dotted, dashed, dotdash
/SO { [] 0 setdash } bdef
/DO { [.5 dpi2point mul 4 dpi2point mul] 0 setdash } bdef
/DA { [6 dpi2point mul] 0 setdash } bdef
/DD { [.5 dpi2point mul 4 dpi2point mul 6 dpi2point mul 4
  dpi2point mul] 0 setdash } bdef
% macros for lines and objects
/L {lineto stroke} bdef
/MP {3 1 roll moveto 1 sub {rlineto} repeat} bdef
/AP {{rlineto} repeat} bdef
/PDlw -1 def
/W {/PDlw currentlinewidth def setlinewidth} def
/PP {closepath eofill} bdef
/DP {closepath stroke} bdef
/MR {4 -2 roll moveto dup  0 exch rlineto exch 0 rlineto
  neg 0 exch rlineto closepath} bdef
/FR {MR stroke} bdef
/PR {MR fill} bdef
/L1i {{currentfile picstr readhexstring pop} image} bdef
/tMatrix matrix def
/MakeOval {newpath tMatrix currentmatrix pop translate scale
0 0 1 0 360 arc tMatrix setmatrix} bdef
/FO {MakeOval stroke} bdef
/PO {MakeOval fill} bdef
/PD {currentlinewidth 2 div 0 360 arc fill
   PDlw -1 eq not {PDlw w /PDlw -1 def} if} def
/FA {newpath tMatrix currentmatrix pop translate scale
  0 0 1 5 -2 roll arc tMatrix setmatrix stroke} bdef
/PA {newpath tMatrix currentmatrix pop	translate 0 0 moveto scale
  0 0 1 5 -2 roll arc closepath tMatrix setmatrix fill} bdef
/FAn {newpath tMatrix currentmatrix pop translate scale
  0 0 1 5 -2 roll arcn tMatrix setmatrix stroke} bdef
/PAn {newpath tMatrix currentmatrix pop translate 0 0 moveto scale
  0 0 1 5 -2 roll arcn closepath tMatrix setmatrix fill} bdef
/vradius 0 def /hradius 0 def /lry 0 def
/lrx 0 def /uly 0 def /ulx 0 def /rad 0 def
/MRR {/vradius xdef /hradius xdef /lry xdef /lrx xdef /uly xdef
  /ulx xdef newpath tMatrix currentmatrix pop ulx hradius add uly
  vradius add translate hradius vradius scale 0 0 1 180 270 arc 
  tMatrix setmatrix lrx hradius sub uly vradius add translate
  hradius vradius scale 0 0 1 270 360 arc tMatrix setmatrix
  lrx hradius sub lry vradius sub translate hradius vradius scale
  0 0 1 0 90 arc tMatrix setmatrix ulx hradius add lry vradius sub
  translate hradius vradius scale 0 0 1 90 180 arc tMatrix setmatrix
  closepath} bdef
/FRR {MRR stroke } bdef
/PRR {MRR fill } bdef
/MlrRR {/lry xdef /lrx xdef /uly xdef /ulx xdef /rad lry uly sub 2 div def
  newpath tMatrix currentmatrix pop ulx rad add uly rad add translate
  rad rad scale 0 0 1 90 270 arc tMatrix setmatrix lrx rad sub lry rad
  sub translate rad rad scale 0 0 1 270 90 arc tMatrix setmatrix
  closepath} bdef
/FlrRR {MlrRR stroke } bdef
/PlrRR {MlrRR fill } bdef
/MtbRR {/lry xdef /lrx xdef /uly xdef /ulx xdef /rad lrx ulx sub 2 div def
  newpath tMatrix currentmatrix pop ulx rad add uly rad add translate
  rad rad scale 0 0 1 180 360 arc tMatrix setmatrix lrx rad sub lry rad
  sub translate rad rad scale 0 0 1 0 180 arc tMatrix setmatrix
  closepath} bdef
/FtbRR {MtbRR stroke } bdef
/PtbRR {MtbRR fill } bdef
/stri 6 array def /dtri 6 array def
/smat 6 array def /dmat 6 array def
/tmat1 6 array def /tmat2 6 array def /dif 3 array def
/asub {/ind2 exch def /ind1 exch def dup dup
  ind1 get exch ind2 get sub exch } bdef
/tri_to_matrix {
  2 0 asub 3 1 asub 4 0 asub 5 1 asub
  dup 0 get exch 1 get 7 -1 roll astore } bdef
/compute_transform {
  dmat dtri tri_to_matrix tmat1 invertmatrix 
  smat stri tri_to_matrix tmat2 concatmatrix } bdef
/ds {stri astore pop} bdef
/dt {dtri astore pop} bdef
/db {2 copy /cols xdef /rows xdef mul dup 3 mul string
  currentfile 
  3 index 0 eq {/ASCIIHexDecode filter}
  {/ASCII85Decode filter 3 index 2 eq {/RunLengthDecode filter} if }
  ifelse exch readstring pop
  dup 0 3 index getinterval /rbmap xdef
  dup 2 index dup getinterval /gbmap xdef
  1 index dup 2 mul exch getinterval /bbmap xdef pop pop}bdef
/it {gs np dtri aload pop moveto lineto lineto cp c
  cols rows 8 compute_transform 
  rbmap gbmap bbmap true 3 colorimage gr}bdef
/il {newpath moveto lineto stroke}bdef
currentdict end def
%%EndProlog

%%BeginSetup
MathWorks begin

0 cap

end
%%EndSetup

%%Page: 1 1
%%BeginPageSetup
%%PageBoundingBox:    87   263   507   578
MathWorks begin
bpage
%%EndPageSetup

%%BeginObject: obj1
bplot

/dpi2point 12 def
portraitMode 1044 6936 csm

    0     0  5045  3773 rc
85 dict begin %Colortable dictionary
/c0 { 0.000000 0.000000 0.000000 sr} bdef
/c1 { 1.000000 1.000000 1.000000 sr} bdef
/c2 { 0.900000 0.000000 0.000000 sr} bdef
/c3 { 0.000000 0.820000 0.000000 sr} bdef
/c4 { 0.000000 0.000000 0.800000 sr} bdef
/c5 { 0.910000 0.820000 0.320000 sr} bdef
/c6 { 1.000000 0.260000 0.820000 sr} bdef
/c7 { 0.000000 0.820000 0.820000 sr} bdef
c0
1 j
1 sg
   0    0 5046 3774 rf
6 w
0 3075 3910 0 0 -3075 656 3358 4 MP
PP
-3910 0 0 3075 3910 0 0 -3075 656 3358 5 MP stroke
4 w
DO
SO
6 w
0 sg
 656  283 mt 4566  283 L
 656 3358 mt 4566 3358 L
4566 3358 mt 4566  283 L
 656 3358 mt  656  283 L
 656 3358 mt 4566 3358 L
 656 3358 mt  656  283 L
 656 3358 mt  656 3318 L
 656  283 mt  656  322 L
%%IncludeResource: font Helvetica
/Helvetica /WindowsLatin1Encoding 120 FMSR

 623 3503 mt 
(0) s
1633 3358 mt 1633 3318 L
1633  283 mt 1633  322 L
1550 3503 mt 
(0.5) s
2611 3358 mt 2611 3318 L
2611  283 mt 2611  322 L
2578 3503 mt 
(1) s
3588 3358 mt 3588 3318 L
3588  283 mt 3588  322 L
3505 3503 mt 
(1.5) s
4566 3358 mt 4566 3318 L
4566  283 mt 4566  322 L
4533 3503 mt 
(2) s
4296 3705 mt 
(x 10) s
%%IncludeResource: font Helvetica
/Helvetica /WindowsLatin1Encoding 80 FMSR

4522 3631 mt 
(4) s
 656 3358 mt  695 3358 L
4566 3358 mt 4526 3358 L
%%IncludeResource: font Helvetica
/Helvetica /WindowsLatin1Encoding 120 FMSR

 555 3402 mt 
(0) s
 656 3016 mt  695 3016 L
4566 3016 mt 4526 3016 L
 321 3060 mt 
(0.005) s
 656 2674 mt  695 2674 L
4566 2674 mt 4526 2674 L
 388 2718 mt 
(0.01) s
 656 2333 mt  695 2333 L
4566 2333 mt 4526 2333 L
 321 2377 mt 
(0.015) s
 656 1991 mt  695 1991 L
4566 1991 mt 4526 1991 L
 388 2035 mt 
(0.02) s
 656 1649 mt  695 1649 L
4566 1649 mt 4526 1649 L
 321 1693 mt 
(0.025) s
 656 1308 mt  695 1308 L
4566 1308 mt 4526 1308 L
 388 1352 mt 
(0.03) s
 656  966 mt  695  966 L
4566  966 mt 4526  966 L
 321 1010 mt 
(0.035) s
 656  624 mt  695  624 L
4566  624 mt 4526  624 L
 388  668 mt 
(0.04) s
 656  283 mt  695  283 L
4566  283 mt 4526  283 L
 321  327 mt 
(0.045) s
 656  283 mt 4566  283 L
 656 3358 mt 4566 3358 L
4566 3358 mt 4566  283 L
 656 3358 mt  656  283 L
gs 656 283 3911 3076 rc
/c8 { 0.000000 0.000000 1.000000 sr} bdef
c8
1 0 1 0 1 0 1 0 1 0 1 0 1 0 1 0 
1 0 1 0 1 0 1 0 1 0 1 0 1 0 1 0 
1 0 1 0 1 0 1 0 1 0 1 0 1 0 1 0 
1 0 1 0 1 0 1 0 1 0 1 0 1 0 1 0 
1 0 1 0 1 0 1 0 1 0 1 0 1 0 1 0 
1 0 1 0 1 0 1 0 1 0 1 0 1 0 1 0 
1 0 1 0 1 0 1 0 1 0 1 0 1 0 1 0 
1 0 1 0 1 0 1 0 1 0 1 0 1 0 1 0 
1 0 1 0 1 0 0 3052 0 -1625 1 -254 0 -388 1 -66 
0 -116 1 2 0 -76 1 -32 0 13 0 -50 1 14 0 -36 
0 16 1 -11 0 -28 0 5 1 -28 0 16 0 -30 0 18 
1 0 0 -38 0 11 1 -27 0 18 0 -42 1 14 0 -38 
0 10 1 -15 0 -31 0 23 1 -18 0 50 1 -2 0 5 
0 -25 0 5 1 24 0 5 0 -26 0 21 1 0 0 6 
0 -28 0 22 1 -23 0 26 0 -31 1 20 0 -25 0 23 
1 -7 0 -40 1 17 0 -25 0 29 1 10 0 4 0 -26 
0 6 1 24 0 6 0 -26 0 22 1 0 0 8 0 -29 
0 24 1 -23 0 0 0 23 1 5 0 -27 0 27 1 -6 
0 -24 1 23 0 5 0 -29 0 21 1 -1 0 5 0 -27 
0 22 1 -24 0 21 0 -23 0 22 1 4 0 -29 0 18 
1 -25 0 20 0 -26 0 21 1 2 0 -34 0 13 1 -26 
0 18 0 -41 1 15 0 -40 0 25 1 7 0 -13 0 42 
1 -19 0 36 1 7 0 -26 0 22 1 -22 0 26 0 -33 
1 17 0 -26 0 35 1 -16 0 35 0 -22 1 24 0 -18 
0 32 1 -4 0 2 0 -24 0 3 1 24 0 6 0 -25 
0 23 1 5 0 -27 0 23 1 -21 0 29 0 -27 1 22 
0 -21 0 30 1 -5 0 6 0 -28 0 1 1 22 0 -21 
0 29 1 -5 0 -22 0 1 1 23 0 6 0 -28 0 22 
1 0 0 7 0 -28 0 23 1 -22 0 27 0 -30 1 21 
0 -22 0 25 1 -7 0 -32 1 19 0 2 0 -38 0 15 
1 -7 0 -35 1 30 0 -8 0 23 1 -1 0 -20 0 60 
1 -13 0 54 1 12 0 -14 0 39 1 0 0 17 0 -34 
0 19 1 29 0 -3 0 29 1 7 0 -13 0 51 1 -12 
0 75 1 22 0 116 1 14 0 303 1 160 0 1890 0 -2643 
1 -201 0 -170 1 -10 0 -21 1 -2 0 -7 1 -1 0 -3 
1 -1 0 -2 2 -2 1 -1 1 -1 1 0 1 0 1 -1 
1 0 1 0 1 0 1 0 1 0 1 -1 1 0 1 0 
1 0 1 0 1 0 4410 3356 300 MP stroke
1 0 1 0 1 0 1 0 1 0 1 0 1 0 1 0 
1 0 1 1 1 0 1 0 1 0 1 0 1 1 1 0 
1 0 1 1 1 1 0 1 2 2 0 3 1 1 0 5 
1 1 0 13 1 5 0 58 1 43 0 1191 1 -172 0 -426 
1 -44 0 -145 1 -14 0 -56 1 -8 0 -37 1 -4 0 -33 
1 -2 0 -33 1 -3 0 -40 1 -5 0 -21 1 -1 0 21 
1 -2 0 11 1 -4 0 4 0 -5 1 3 0 -13 1 2 
0 -22 1 0 0 -4 0 12 1 -2 0 12 1 -4 0 7 
1 -4 0 5 1 -4 0 4 0 -6 0 2 1 -3 0 4 
0 -7 1 4 0 -8 1 3 0 -6 1 -8 0 -7 1 -9 
0 -18 1 -12 0 -15 0 6 1 4 0 25 1 1 0 10 
0 -1 1 -2 0 4 0 -8 1 -2 0 -1 0 24 1 -1 
0 15 1 -3 0 11 1 -3 0 5 0 0 1 -2 0 6 
0 -1 1 -2 0 9 1 -1 0 -4 0 7 1 0 0 -4 
0 6 1 0 0 -4 0 5 1 1 0 -7 0 1 1 -3 
0 3 0 -10 1 -6 0 1 0 -20 1 -9 0 -3 0 10 
1 5 0 26 1 12 0 42 1 10 0 27 1 11 0 34 
1 13 0 67 1 15 0 110 1 39 0 315 1 163 0 182 
0 -919 1 -142 0 -189 1 -16 0 -34 1 -5 0 -12 1 -2 
0 -6 1 -1 0 -3 1 -1 0 -3 2 -2 1 -1 1 -1 
1 0 1 -1 1 0 1 -1 1 0 1 0 1 -1 1 0 
1 0 1 0 1 0 1 0 1 0 1 0 1 0 1 0 
1 0 1 0 1 0 1 0 1 0 1 1 1 0 1 0 
1 0 1 1 1 0 1 1 1 1 0 1 2 2 0 1 
1 1 0 3 1 1 0 4 1 2 0 8 1 3 0 19 
1 8 0 70 1 40 0 627 1 168 0 -211 1 -50 0 -127 
1 -22 0 -76 1 -12 0 -36 1 -8 0 -30 1 -7 0 -28 
1 -6 0 -32 1 -8 0 -20 1 0 0 11 1 1 1 6 
-1 0 2 -2 0 -9 1 -1 0 -14 1 -2 0 -1 0 5 
1 1 0 6 1 1 0 3 1 -1 0 2 1 -1 0 1 
1 -3 0 -2 1 -1 0 -4 1 -1 0 -9 1 -3 0 -12 
1 -5 0 -19 1 -5 0 -7 0 4 1 6 0 15 1 3 
0 4 1 1 0 -4 1 1 0 16 1 2 0 11 1 2 
0 6 1 2 0 2 1 2 0 2 1 2 0 2 1 -1 
0 2 1 1 0 2 1 -1 0 1 1 1 0 -6 1 -1 
0 -11 1 -4 0 -16 1 -1 0 13 1 5 0 35 1 10 
0 37 1 9 0 32 1 9 0 41 1 13 0 62 1 22 
0 167 1 56 0 189 4243 2385 300 MP stroke
0 -75 1 -375 0 -345 1 -33 0 -69 1 -8 0 -23 1 -4 
0 -10 1 -2 0 -6 1 -1 0 -3 1 -1 0 -2 1 -1 
0 -2 1 -1 1 -1 1 -1 1 -1 1 -1 1 0 1 -1 
1 0 1 0 1 -1 1 0 1 0 1 0 1 0 1 0 
1 0 1 0 1 0 1 0 1 0 1 0 1 0 1 0 
1 1 1 0 1 0 1 1 1 1 1 1 1 1 0 1 
2 2 0 1 1 1 0 3 1 1 0 5 1 2 0 7 
1 3 0 15 1 5 0 38 1 16 0 144 1 81 0 457 
1 2 0 -140 1 -30 0 -90 1 -16 0 -52 1 -10 0 -42 
1 -8 0 -27 1 -7 0 -27 1 -8 0 -27 1 -6 0 -7 
0 1 1 1 0 7 1 1 0 2 1 -1 0 -2 1 -2 
0 -8 1 -2 0 -10 1 0 0 6 1 1 0 3 1 1 
1 1 1 -1 0 -2 1 -1 0 -3 1 -1 0 -5 1 -1 
0 -12 1 -3 0 -16 1 -4 0 -11 1 -1 0 11 1 3 
0 9 2 0 0 9 1 3 0 10 1 3 0 7 1 1 
0 5 1 1 0 2 1 1 0 3 1 1 0 2 2 2 
1 1 0 -3 1 -1 0 -7 1 -3 0 -12 1 -3 0 -1 
0 8 1 4 0 28 1 9 0 35 1 8 0 32 1 9 
0 39 1 11 0 57 1 18 0 99 1 33 0 130 1 -31 
0 -410 1 -71 0 -169 1 -15 0 -37 1 -6 0 -17 1 -3 
0 -8 1 -2 0 -5 1 -2 0 -3 1 -1 0 -2 1 -1 
0 -2 2 -2 1 -1 1 -1 1 -1 1 0 1 -1 1 0 
1 -1 1 0 1 0 1 0 1 0 1 0 1 -1 1 0 
1 1 1 0 1 0 1 0 1 0 1 1 1 0 1 0 
1 1 1 1 1 1 1 1 0 1 2 2 0 2 1 1 
0 2 1 1 0 4 1 2 0 6 1 2 0 10 1 4 
0 20 1 8 0 71 1 27 0 224 1 93 0 203 1 -14 
0 -94 1 -21 0 -66 1 -13 0 -42 1 -9 0 -31 1 -7 
0 -27 1 -7 0 -26 1 -7 0 -26 1 -2 0 -2 0 2 
1 1 0 2 1 1 1 -1 0 -5 1 -2 0 -8 1 -2 
0 -3 1 1 0 4 1 1 0 2 2 0 0 -1 1 -1 
0 -2 1 -1 0 -4 1 -2 0 -6 1 -3 0 -11 1 -3 
0 -14 1 -3 0 -3 0 1 1 2 0 12 1 1 0 3 
1 1 0 3 1 2 0 11 1 2 0 8 1 1 0 5 
1 1 0 3 1 1 0 3 1 1 0 2 1 1 0 1 
1 1 1 1 -1 0 2 -2 0 -5 1 -2 0 -9 1 -2 
0 -3 0 2 1 2 0 19 1 7 0 32 1 8 0 40 
1 8 0 37 1 10 4060 2908 300 MP stroke
0 51 1 15 0 80 1 24 0 77 1 -18 0 -347 1 -54 
0 -129 1 -19 0 -46 1 -7 0 -21 1 -4 0 -13 1 -2 
0 -6 1 -2 0 -4 1 -1 0 -2 1 -1 0 -2 1 -1 
0 -1 1 -1 1 -1 1 -1 1 -1 1 -1 1 -1 1 0 
1 -1 1 0 1 0 1 0 1 -1 1 0 1 0 1 0 
1 0 1 1 1 0 1 0 1 0 1 1 1 0 1 1 
1 1 1 1 0 1 2 2 0 1 1 1 0 2 1 1 
0 2 1 1 0 6 1 1 0 7 1 2 0 11 1 4 
0 21 1 7 0 47 1 18 0 129 1 54 0 253 1 32 
0 11 0 -30 1 -17 0 -65 1 -14 0 -55 1 -9 0 -31 
1 -7 0 -27 1 -6 0 -25 1 -6 0 -21 1 -4 1 -6 
-1 0 2 2 1 -1 0 -5 1 -2 0 -7 1 -1 0 -3 
1 1 0 3 2 2 1 0 -1 0 2 -2 0 -2 1 -1 
0 -4 1 -1 0 -9 1 -2 0 -11 1 -3 0 -11 1 -2 
0 -1 0 2 1 1 0 8 1 1 0 3 1 1 0 5 
1 1 0 9 1 3 0 7 1 1 0 6 1 1 0 3 
1 1 0 3 1 1 0 2 2 2 1 1 0 -2 1 -1 
0 -5 1 -2 0 -7 1 -1 0 8 1 4 0 23 1 8 
0 30 1 8 0 31 1 8 0 38 1 11 0 52 1 15 
0 71 1 16 0 15 0 -43 1 -53 0 -263 1 -36 0 -94 
1 -14 0 -39 1 -7 0 -19 1 -4 0 -11 1 -2 0 -7 
1 -1 0 -5 1 -1 0 -3 1 -1 0 -2 1 -1 0 -2 
2 -2 1 -1 1 -1 1 -1 1 -1 1 0 1 -1 1 0 
1 -1 1 0 1 0 1 0 1 0 1 0 1 0 1 1 
1 0 1 0 1 1 1 0 1 1 1 1 1 1 0 1 
2 2 0 2 1 1 0 2 1 1 0 4 1 1 0 4 
1 2 0 7 1 2 0 11 1 3 0 20 1 6 0 39 
1 15 0 129 1 43 0 201 1 35 0 30 0 -8 1 -10 
0 -52 1 -12 0 -42 1 -9 0 -32 1 -7 0 -27 1 -6 
0 -24 1 -6 0 -21 1 -4 0 -10 1 -1 1 0 1 -1 
0 -4 1 -1 0 -7 1 -1 0 -2 1 -1 0 2 2 2 
1 0 -1 0 2 -2 0 -3 1 -1 0 -4 1 -2 0 -6 
1 -2 0 -10 1 -3 0 -9 1 -2 0 -1 0 1 1 2 
0 5 1 2 0 3 1 1 0 7 1 2 0 8 1 1 
0 7 1 1 0 4 1 1 0 3 1 1 0 3 1 1 
0 2 2 2 1 0 0 -3 1 -1 0 -5 1 -1 0 -2 
1 1 0 10 1 5 0 24 1 7 0 29 1 7 0 31 
1 9 0 38 1 11 3879 2893 300 MP stroke
0 63 1 14 0 33 1 -9 0 -192 1 -42 0 -131 1 -22 
0 -61 1 -10 0 -29 1 -5 0 -16 1 -3 0 -10 1 -2 
0 -6 1 -2 0 -5 1 -1 0 -3 1 -1 0 -1 1 -1 
0 -2 2 -2 0 -1 2 -2 1 0 1 -1 1 -1 1 0 
1 -1 1 0 1 0 1 0 1 0 1 0 1 0 1 0 
1 1 1 0 1 1 1 0 1 1 0 1 2 2 0 1 
1 1 0 1 1 1 0 2 1 1 0 2 1 1 0 4 
1 1 0 6 1 2 0 8 1 2 0 13 1 5 0 30 
1 9 0 52 1 19 0 113 1 40 0 158 1 24 0 22 
0 -4 1 -8 0 -39 1 -10 0 -37 1 -8 0 -29 1 -7 
0 -25 1 -5 0 -28 1 -5 0 -17 1 -2 0 -5 1 -1 
1 -1 0 -2 1 -1 0 -5 1 -1 0 -5 1 -1 0 -2 
1 1 1 1 1 1 1 -1 0 -2 1 -1 0 -3 1 -1 
0 -5 1 -1 0 -8 1 -2 0 -9 1 -2 0 -5 1 -1 
0 4 1 1 0 4 1 1 0 4 1 1 0 7 1 2 
0 7 1 1 0 6 1 1 0 3 1 1 0 3 1 1 
0 2 1 1 0 1 1 1 1 1 -1 0 2 -2 0 -3 
1 -1 0 -2 1 -1 0 6 1 3 0 18 1 5 0 26 
1 7 0 29 1 8 0 42 1 9 0 42 1 11 0 33 
1 0 0 -78 1 -42 0 -136 1 -30 0 -86 1 -15 0 -42 
1 -8 0 -23 1 -4 0 -16 1 -2 0 -8 1 -2 0 -5 
1 -2 0 -3 1 -1 0 -3 1 -1 0 -2 1 -1 0 -1 
1 -1 0 -1 2 -2 1 -1 1 -1 1 -1 1 0 1 -1 
1 0 1 0 1 0 1 0 1 0 1 0 1 0 1 1 
1 0 1 1 1 1 1 1 0 1 2 2 0 1 1 1 
0 1 1 1 0 2 1 1 0 4 1 1 0 4 1 1 
0 7 1 2 0 9 1 3 0 20 1 5 0 29 1 10 
0 56 1 20 0 111 1 35 0 124 1 18 0 18 0 -3 
1 -5 0 -32 1 -8 0 -32 1 -7 0 -26 1 -7 0 -29 
1 -5 0 -20 1 -4 0 -14 1 -2 0 -5 1 -1 0 -1 
1 -1 0 -2 1 -1 0 -5 1 -1 0 -4 1 -1 1 0 
1 1 1 0 -1 0 2 -2 0 -2 1 -1 0 -4 1 -1 
0 -5 1 -2 0 -8 1 -2 0 -7 1 -2 0 -2 1 1 
0 4 1 1 0 4 1 1 0 5 1 1 0 7 1 1 
0 6 1 2 0 4 1 1 0 3 1 1 0 2 1 1 
0 2 1 1 1 1 1 0 -1 0 2 -2 0 -2 1 -1 
0 2 1 2 0 12 1 5 0 22 1 6 0 26 1 7 
0 38 1 8 0 35 3704 2898 300 MP stroke
1 9 0 30 1 3 0 -34 1 -24 0 -152 1 -28 0 -85 
1 -16 0 -46 1 -8 0 -26 1 -4 0 -18 1 -3 0 -9 
1 -2 0 -6 1 -1 0 -5 1 -1 0 -3 1 -1 0 -2 
1 -1 0 -1 1 -1 0 -2 2 -2 1 -1 1 -1 1 -1 
1 0 1 -1 1 0 1 0 1 0 1 0 1 0 1 0 
1 0 1 1 1 1 1 0 1 1 1 1 0 2 2 2 
0 2 1 1 0 2 1 1 0 3 1 1 0 4 1 2 
0 6 1 1 0 9 1 3 0 13 1 4 0 29 1 8 
0 43 1 15 0 80 1 27 0 116 1 26 0 56 1 2 
0 -13 1 -7 0 -28 1 -7 0 -26 1 -6 0 -23 1 -5 
0 -26 1 -4 0 -15 1 -3 0 -7 1 -1 0 -3 1 -1 
0 -2 1 -1 0 -4 1 -1 0 -4 1 -1 0 -1 1 -1 
1 1 1 0 -1 0 2 -2 0 -2 1 -1 0 -3 1 -1 
0 -5 1 -2 0 -7 1 -2 0 -6 1 -2 0 -1 1 -1 
0 4 1 1 0 3 1 1 0 5 1 1 0 7 1 1 
0 6 1 1 0 4 1 1 0 3 1 1 0 2 1 1 
0 2 2 2 1 0 -1 0 2 -2 1 -1 0 4 1 3 
0 14 1 4 0 22 1 6 0 25 1 7 0 28 1 8 
0 37 1 7 0 12 1 -4 0 -64 1 -30 0 -100 1 -24 
0 -75 1 -15 0 -43 1 -8 0 -25 1 -4 0 -16 1 -3 
0 -12 1 -1 0 -7 1 -1 0 -5 1 -1 0 -3 1 -1 
0 -2 1 -1 0 -2 1 -1 0 -1 1 -1 0 -1 2 -2 
1 -1 1 -1 1 0 1 -1 1 0 1 0 1 0 1 0 
1 0 1 0 1 1 1 0 1 1 1 1 0 1 2 2 
0 1 1 1 0 2 1 1 0 2 1 1 0 3 1 1 
0 4 1 1 0 6 1 2 0 8 1 3 0 12 1 4 
0 19 1 6 0 33 1 11 0 76 1 21 0 98 1 26 
0 73 1 9 0 8 0 -2 1 -4 0 -21 1 -6 0 -24 
1 -6 0 -22 1 -5 0 -20 1 -5 0 -16 1 -4 0 -12 
1 -1 0 -4 1 -1 0 -2 1 -1 0 -4 1 -1 0 -4 
1 -1 0 -1 1 -1 1 0 1 0 -1 0 2 -2 0 -2 
1 -1 0 -3 1 -1 0 -5 1 -1 0 -7 1 -1 0 -6 
1 -1 0 -1 1 -1 0 2 1 1 0 3 1 1 0 6 
1 1 0 6 1 1 0 5 1 1 0 4 1 1 0 3 
1 1 0 2 1 1 0 2 2 2 1 0 -1 0 2 -2 
1 1 0 7 1 3 0 15 1 4 0 22 1 5 0 25 
1 6 0 26 1 7 0 24 1 5 0 5 0 -11 1 -10 
0 -102 1 -23 0 -83 3530 3134 300 MP stroke
1 -18 0 -55 1 -11 0 -32 1 -7 0 -19 1 -4 0 -13 
1 -3 0 -8 1 -2 0 -6 1 -2 0 -5 1 -1 0 -3 
1 -1 0 -2 1 -1 0 -2 1 -1 0 -1 1 -1 1 -1 
1 -1 1 -1 1 -1 1 -1 1 0 1 0 1 0 1 0 
1 0 1 0 1 1 1 0 1 1 0 1 2 2 0 1 
2 2 0 2 1 1 0 2 1 1 0 4 1 1 0 5 
1 2 0 6 1 2 0 9 1 3 0 13 1 4 0 21 
1 7 0 35 1 11 0 58 1 19 0 85 1 23 0 70 
1 11 0 14 0 -2 1 -2 0 -18 1 -5 0 -22 1 -5 
0 -20 1 -5 0 -18 1 -4 0 -15 1 -3 0 -9 1 -1 
0 -4 1 -1 0 -3 1 -1 0 -5 1 -1 0 -3 1 -1 
1 -1 1 -1 1 0 -1 0 2 -2 0 -2 1 -1 0 -4 
1 -1 0 -6 1 -1 0 -6 1 -2 0 -4 2 0 0 2 
1 1 0 3 1 1 0 5 1 2 0 5 1 1 0 5 
1 1 0 4 1 1 0 3 1 1 0 2 2 2 1 1 
1 0 -1 0 2 0 0 2 1 2 0 9 1 4 0 22 
1 5 0 21 1 6 0 23 1 6 0 22 1 5 0 7 
1 -3 0 -41 1 -18 0 -80 1 -20 0 -70 1 -14 0 -55 
1 -8 0 -26 1 -5 0 -16 1 -3 0 -11 1 -3 0 -7 
1 -2 0 -5 1 -2 0 -4 1 -1 0 -3 1 -1 0 -2 
1 -1 0 -1 1 -1 0 -2 2 -2 1 -1 1 -1 1 0 
1 -1 1 0 1 0 1 0 1 0 1 0 1 1 1 0 
1 1 0 1 2 2 0 1 1 1 0 1 1 1 0 2 
1 1 0 3 1 1 0 3 1 2 0 4 1 2 0 7 
1 2 0 9 1 3 0 14 1 4 0 28 1 8 0 38 
1 12 0 60 1 19 0 78 1 19 0 54 1 8 0 8 
1 -2 0 -14 1 -4 0 -19 1 -5 0 -19 1 -4 0 -21 
1 -3 0 -13 1 -2 0 -7 1 -1 0 -4 1 -1 0 -4 
1 -1 0 -3 1 -1 0 -3 2 -2 1 -1 0 -1 2 -2 
0 -3 1 -1 0 -4 1 -1 0 -5 1 -2 0 -5 1 -1 
0 -2 1 -1 1 1 0 4 1 1 0 4 1 1 0 5 
1 1 0 5 1 1 0 4 1 1 0 3 1 1 0 2 
1 1 0 1 1 1 1 1 1 1 1 0 0 3 1 1 
0 8 1 3 0 14 1 5 0 19 1 5 0 21 1 5 
0 20 1 4 0 9 1 1 0 -36 1 -15 0 -88 1 -18 
0 -62 1 -13 0 -43 1 -8 0 -27 1 -6 0 -17 1 -4 
0 -11 1 -3 0 -8 1 -2 0 -7 1 -1 0 -4 1 -1 
0 -3 1 -1 0 -3 3355 3323 300 MP stroke
1 -1 0 -1 1 -1 0 -2 2 -2 1 -1 1 -1 1 -1 
1 0 1 0 1 0 1 0 1 0 1 0 1 1 1 1 
1 1 1 1 0 2 2 2 0 2 1 1 0 2 1 1 
0 4 1 1 0 4 1 2 0 7 1 2 0 9 1 3 
0 13 1 3 0 20 1 5 0 30 1 9 0 47 1 14 
0 66 1 18 0 65 1 13 0 29 1 3 0 1 0 -7 
1 -3 0 -16 1 -4 0 -17 1 -5 0 -16 1 -3 0 -14 
1 -3 0 -9 1 -1 0 -5 1 -1 0 -4 1 -1 0 -3 
1 -1 0 -4 1 -1 1 -1 1 -1 1 -1 0 -2 1 -1 
0 -2 1 -1 0 -4 1 -1 0 -4 1 -1 0 -6 1 -1 
0 -2 1 -1 1 1 0 3 1 1 0 3 1 1 0 5 
1 1 0 4 1 2 0 3 1 1 0 3 1 1 0 3 
1 1 0 1 1 1 1 1 1 1 1 1 0 3 1 1 
0 8 1 3 0 13 1 4 0 18 1 5 0 23 1 5 
0 15 1 3 0 2 0 -2 1 -4 0 -36 1 -15 0 -64 
1 -16 0 -59 1 -13 0 -42 1 -9 0 -28 1 -6 0 -22 
1 -3 0 -12 1 -2 0 -9 1 -1 0 -7 1 -1 0 -4 
1 -1 0 -4 1 -1 0 -2 1 -1 0 -2 1 -1 0 -1 
1 -1 0 -1 1 -1 1 -1 1 -1 1 -1 1 0 1 0 
1 0 1 0 1 0 1 0 1 1 1 1 1 1 0 2 
2 2 0 2 1 1 0 2 1 1 0 3 1 1 0 5 
1 2 0 5 1 2 0 8 1 2 0 11 1 3 0 16 
1 5 0 24 1 7 0 36 1 12 0 53 1 15 0 79 
1 14 0 38 1 6 0 6 1 -1 0 -10 1 -3 0 -15 
1 -4 0 -15 1 -4 0 -14 1 -3 0 -10 1 -2 0 -7 
1 -1 0 -5 1 -1 0 -3 1 -1 0 -3 1 -1 0 -2 
2 -2 0 -1 2 -2 0 -2 1 -1 0 -3 1 -1 0 -5 
1 -1 0 -5 1 -1 0 -2 1 -1 1 1 0 1 1 1 
0 3 1 1 0 5 1 1 0 4 1 1 0 5 1 1 
0 3 1 1 0 1 1 1 0 2 1 1 1 1 0 1 
2 2 0 3 1 1 0 8 1 2 0 17 1 4 0 16 
1 5 0 16 1 4 0 12 1 1 0 1 0 -6 1 -5 
0 -37 1 -30 0 -56 1 -15 0 -51 1 -11 0 -36 1 -8 
0 -29 1 -5 0 -15 1 -4 0 -10 1 -3 0 -7 1 -2 
0 -6 1 -1 0 -4 1 -1 0 -3 1 -1 0 -3 1 -1 
0 -2 1 -1 0 -1 1 -1 1 -1 1 -1 1 -1 1 -1 
1 0 1 0 1 0 1 0 1 0 1 1 1 1 1 1 
0 2 2 2 0 2 3177 3320 300 MP stroke
1 1 0 2 1 1 0 4 1 1 0 4 1 2 0 6 
1 1 0 8 1 2 0 11 1 3 0 16 1 5 0 22 
1 7 0 34 1 11 0 62 1 14 0 58 1 13 0 39 
1 6 0 10 1 1 0 -7 1 -3 0 -13 1 -3 0 -14 
1 -4 0 -12 1 -3 0 -10 1 -2 0 -8 1 -1 0 -4 
1 -1 0 -3 1 -1 0 -3 1 -1 0 -2 2 -2 0 -1 
2 -2 0 -2 1 -1 0 -4 1 -1 0 -4 1 -1 0 -4 
1 -1 0 -1 1 -1 1 0 0 2 1 1 0 4 1 1 
0 4 1 1 0 5 1 1 0 3 1 1 0 2 1 1 
0 2 1 1 0 2 2 2 0 1 2 2 0 5 1 2 
0 12 1 3 0 14 1 4 0 15 1 4 0 13 1 2 
0 4 0 -1 1 -1 0 -20 1 -9 0 -49 1 -13 0 -52 
1 -13 0 -44 1 -10 0 -38 1 -6 0 -20 1 -4 0 -14 
1 -3 0 -10 1 -2 0 -7 1 -2 0 -5 1 -1 0 -4 
1 -1 0 -3 1 -1 0 -2 1 -1 0 -2 1 -1 0 -2 
2 -2 1 -1 1 0 1 -1 1 0 1 0 1 0 1 0 
1 1 1 1 1 1 0 2 2 2 0 2 1 1 0 2 
1 1 0 4 1 1 0 5 1 1 0 6 1 2 0 8 
1 2 0 11 1 4 0 15 1 5 0 23 1 6 0 33 
1 10 0 46 1 13 0 66 1 12 0 36 1 6 0 12 
1 0 0 -5 1 -2 0 -11 1 -3 0 -13 1 -3 0 -12 
1 -2 0 -9 1 -2 0 -7 1 -2 0 -3 1 -1 0 -4 
1 -1 0 -2 1 -1 0 -2 2 -2 1 -1 0 -2 1 -1 
0 -2 1 -1 0 -4 1 -1 0 -4 1 -1 0 -3 1 -1 
1 -1 -1 0 2 2 0 2 1 1 0 3 1 1 0 4 
1 1 0 4 1 1 0 4 1 1 0 2 1 1 0 2 
2 2 0 1 2 2 0 4 1 1 0 7 1 2 0 15 
1 3 0 14 1 3 0 12 1 3 0 4 1 1 0 -13 
1 -6 0 -51 1 -12 0 -48 1 -12 0 -43 1 -9 0 -32 
1 -6 0 -27 1 -5 0 -14 1 -3 0 -11 1 -2 0 -8 
1 -1 0 -6 1 -1 0 -5 1 -1 0 -3 1 -1 0 -2 
1 -1 0 -2 1 -1 0 -1 1 -1 0 -1 2 -2 1 0 
1 -1 1 0 1 0 1 0 1 1 1 0 1 1 0 2 
2 2 0 1 1 1 0 2 1 1 0 3 1 1 0 4 
1 1 0 7 1 1 0 8 1 2 0 9 1 3 0 13 
1 4 0 19 1 5 0 27 1 8 0 38 1 11 0 48 
1 12 0 46 1 9 0 32 1 3 0 3 1 -1 0 -7 
1 -2 0 -11 1 -3 3006 3021 300 MP stroke
0 -11 1 -3 0 -10 1 -2 0 -7 1 -1 0 -5 1 -1 
0 -4 1 -1 0 -3 1 -1 0 -1 1 -1 0 -2 2 -2 
0 -1 1 -1 0 -2 1 -1 0 -3 1 -1 0 -3 1 -1 
0 -4 1 -1 1 -1 1 1 0 1 1 1 0 4 1 1 
0 3 1 1 0 4 1 1 0 2 1 1 0 3 1 1 
0 2 1 1 0 1 1 1 1 1 0 2 1 1 0 3 
1 1 0 7 1 2 0 10 1 3 0 13 1 3 0 10 
1 3 0 4 1 -1 0 -15 1 -7 0 -39 1 -10 0 -44 
1 -12 0 -41 1 -9 0 -32 1 -7 0 -22 1 -5 0 -16 
1 -4 0 -14 1 -2 0 -8 1 -2 0 -6 1 -1 0 -5 
1 -1 0 -3 1 -1 0 -3 1 -1 0 -2 2 -2 0 -2 
2 -2 1 0 1 -1 1 0 1 0 1 0 1 1 1 1 
0 1 2 2 0 1 1 1 0 2 1 1 0 2 1 1 
0 4 1 1 0 5 1 1 0 6 1 2 0 7 1 3 
0 13 1 4 0 16 1 4 0 22 1 7 0 31 1 9 
0 41 1 11 0 45 1 11 0 36 1 6 0 16 1 2 
0 1 1 -2 0 -9 1 -3 0 -10 1 -2 0 -10 1 -2 
0 -8 1 -1 0 -6 1 -1 0 -4 1 -1 0 -3 1 -1 
0 -2 1 -1 0 -1 1 -1 0 -2 2 -2 0 -2 1 -1 
0 -2 1 -1 0 -3 1 -1 0 -3 1 -1 0 -2 1 -1 
1 0 0 2 1 1 0 3 1 1 0 3 1 1 0 3 
1 1 0 3 1 1 0 2 1 1 0 2 1 1 0 2 
2 2 0 2 1 1 0 3 1 1 0 7 1 2 0 9 
1 3 0 11 1 2 0 9 1 2 0 2 1 -1 0 -13 
1 -6 0 -44 1 -10 0 -52 1 -10 0 -37 1 -8 0 -28 
1 -6 0 -20 1 -4 0 -15 1 -3 0 -10 1 -3 0 -8 
1 -1 0 -6 1 -2 0 -5 1 -1 0 -3 1 -1 0 -3 
1 -1 0 -1 1 -1 0 -2 2 -2 1 -1 1 -1 1 0 
1 0 1 0 1 1 1 1 1 1 1 1 0 2 1 1 
0 1 1 1 0 3 1 1 0 4 1 1 0 5 1 1 
0 6 1 2 0 8 1 2 0 11 1 3 0 15 1 4 
0 20 1 6 0 29 1 8 0 37 1 10 0 53 1 10 
0 33 1 6 0 16 1 2 0 2 1 -1 0 -6 1 -2 
0 -9 1 -2 0 -9 1 -2 0 -7 1 -2 0 -7 1 -1 
0 -3 1 -1 0 -3 1 -1 0 -2 1 -1 0 -1 1 -1 
0 -2 2 -2 0 -2 1 -1 0 -2 1 -1 0 -4 1 -1 
0 -2 1 -1 0 -1 2 0 0 2 1 1 0 2 1 1 
0 3 1 1 0 3 2838 3081 300 MP stroke
1 1 0 3 1 1 0 2 1 1 0 2 1 1 0 1 
1 1 0 1 1 1 0 2 1 1 0 4 1 2 0 7 
1 2 0 9 1 3 0 11 1 2 0 2 1 1 0 -9 
1 -4 0 -25 1 -9 0 -38 1 -10 0 -38 1 -9 0 -33 
1 -7 0 -25 1 -6 0 -18 1 -4 0 -16 1 -2 0 -9 
1 -2 0 -7 1 -2 0 -5 1 -1 0 -4 1 -1 0 -3 
1 -1 0 -2 1 -1 0 -2 1 -1 0 -1 1 -1 1 -1 
1 -1 1 -1 1 0 1 0 1 1 1 0 -1 0 2 2 
0 1 1 1 0 1 1 1 0 2 1 1 0 2 1 1 
0 4 1 1 0 4 1 2 0 6 1 1 0 8 1 2 
0 11 1 3 0 18 1 5 0 21 1 6 0 28 1 8 
0 36 1 10 0 39 1 10 0 32 1 6 0 18 1 2 
0 3 1 1 0 -5 1 -1 0 -10 1 -2 0 -8 1 -2 
0 -7 1 -1 0 -5 1 -1 0 -3 1 -1 0 -3 1 -1 
0 -2 1 -1 0 -1 1 -1 0 -2 1 -1 0 -1 1 -1 
0 -2 1 -1 0 -2 1 -1 0 -3 1 -1 0 -1 1 -1 
1 -1 1 1 0 1 1 1 0 4 1 1 0 3 1 1 
0 2 1 1 0 2 1 1 0 2 1 1 0 2 2 2 
0 2 1 1 0 3 1 1 0 7 1 1 0 8 1 2 
0 9 1 1 0 5 1 1 0 1 0 -3 1 -2 0 -17 
1 -6 0 -41 1 -8 0 -37 1 -9 0 -41 1 -7 0 -25 
1 -5 0 -18 1 -4 0 -14 1 -3 0 -10 1 -2 0 -8 
1 -1 0 -6 1 -1 0 -5 1 -1 0 -3 1 -1 0 -3 
1 -1 0 -2 1 -1 0 -1 1 -1 1 -1 1 -1 1 -1 
1 0 1 0 1 1 1 1 1 1 0 2 2 2 0 3 
1 1 0 3 1 1 0 3 1 2 0 5 1 1 0 7 
1 1 0 12 1 2 0 12 1 4 0 16 1 5 0 23 
1 6 0 30 1 8 0 36 1 9 0 36 1 8 0 27 
1 5 0 14 1 1 0 1 0 -1 1 -1 0 -5 1 -2 
0 -7 1 -2 0 -7 1 -1 0 -6 1 -1 0 -4 1 -1 
0 -3 1 -1 0 -2 1 -1 0 -3 2 -2 0 -2 1 -1 
0 -1 1 -1 0 -2 1 -1 0 -3 1 -1 0 -2 2 -2 
1 0 0 2 1 1 0 2 1 1 0 3 1 1 0 2 
1 1 0 2 1 1 0 2 1 1 0 2 1 1 0 1 
1 1 0 2 1 1 0 3 1 1 0 4 1 2 0 7 
1 1 0 8 1 1 0 5 1 1 0 -3 1 -2 0 -14 
1 -6 0 -29 1 -8 0 -42 1 -9 0 -32 1 -7 0 -26 
1 -6 0 -20 1 -4 2676 3242 300 MP stroke
0 -15 1 -3 0 -11 1 -3 0 -8 1 -2 0 -6 1 -1 
0 -5 1 -1 0 -5 1 -1 0 -2 1 -1 0 -2 1 -1 
0 -2 2 -2 1 -1 1 0 1 -1 1 1 1 0 0 1 
2 2 0 1 1 1 0 1 1 1 0 3 1 1 0 3 
1 1 0 4 1 1 0 7 1 2 0 8 1 2 0 10 
1 3 0 13 1 4 0 18 1 5 0 24 1 6 0 31 
1 8 0 35 1 8 0 32 1 7 0 26 1 3 0 7 
1 1 0 -2 1 -1 0 -5 1 -2 0 -6 1 -2 0 -6 
1 -1 0 -5 1 -1 0 -3 1 -1 0 -3 1 -1 0 -2 
1 -1 0 -2 2 -2 0 -2 1 -1 0 -2 1 -1 0 -2 
1 -1 0 -2 1 -1 0 -1 1 -1 1 0 -1 0 2 2 
0 1 1 1 0 3 1 1 0 2 1 1 0 3 1 1 
0 1 1 1 0 2 1 1 0 1 1 1 0 2 1 1 
0 2 1 1 0 4 1 2 0 5 1 2 0 6 1 2 
0 3 1 1 0 -2 1 -2 0 -13 1 -5 0 -41 1 -8 
0 -32 1 -8 0 -31 1 -6 0 -25 1 -6 0 -18 1 -5 
0 -14 1 -3 0 -10 1 -3 0 -8 1 -2 0 -6 1 -1 
0 -6 1 -1 0 -3 1 -1 0 -3 1 -1 0 -1 1 -1 
0 -2 2 -2 1 -1 1 0 1 0 1 0 1 1 0 1 
2 2 0 2 1 1 0 2 1 1 0 3 1 1 0 4 
1 1 0 5 1 2 0 9 1 2 0 9 1 3 0 12 
1 4 0 16 1 5 0 22 1 6 0 28 1 8 0 32 
1 9 0 31 1 7 0 28 1 3 0 10 1 1 0 1 
1 -1 0 -4 1 -1 0 -6 1 -2 0 -5 1 -1 0 -5 
1 -1 0 -3 1 -1 0 -3 1 -1 0 -2 1 -1 0 -2 
2 -2 0 -2 1 -1 0 -1 1 -1 0 -2 1 -1 0 -3 
2 -2 1 0 -1 0 2 2 0 2 1 1 0 2 1 1 
0 2 1 1 0 2 1 1 0 2 1 1 0 2 2 2 
0 2 1 1 0 3 1 1 0 5 1 1 0 6 1 1 
0 5 1 1 0 1 1 -1 0 -8 1 -3 0 -19 1 -6 
0 -29 1 -7 0 -38 1 -8 0 -27 1 -7 0 -22 1 -5 
0 -17 1 -3 0 -13 1 -3 0 -10 1 -2 0 -8 1 -1 
0 -6 1 -1 0 -5 1 -1 0 -4 1 -1 0 -2 1 -1 
0 -2 2 -2 1 -1 1 -1 1 0 1 0 1 1 0 1 
2 2 0 1 1 1 0 2 1 1 0 3 1 1 0 4 
1 1 0 6 1 1 0 7 1 2 0 11 1 2 0 12 
1 4 0 16 1 4 0 21 1 6 0 26 1 8 0 30 
1 8 0 30 1 7 2508 3091 300 MP stroke
0 23 1 5 0 12 1 2 0 2 1 1 0 -3 1 -1 
0 -5 1 -1 0 -5 1 -1 0 -4 1 -1 0 -3 1 -1 
0 -3 1 -1 0 -2 1 -1 0 -1 1 -1 0 -2 1 -1 
0 -1 1 -1 0 -2 1 -1 0 -1 1 -1 0 -2 1 -1 
1 -1 1 0 -1 0 2 2 0 2 1 1 0 2 1 1 
0 2 1 1 0 2 1 1 0 2 1 1 0 1 1 1 
0 1 1 1 0 2 1 1 0 3 1 1 0 5 1 1 
0 5 1 1 0 1 1 1 0 -3 1 -2 0 -13 1 -4 
0 -31 1 -7 0 -28 1 -8 0 -28 1 -6 0 -24 1 -6 
0 -23 1 -4 0 -14 1 -3 0 -11 1 -2 0 -8 1 -2 
0 -6 1 -1 0 -5 1 -1 0 -4 1 -1 0 -2 1 -1 
0 -3 1 -1 0 -1 2 -2 1 -1 1 0 1 0 1 1 
0 1 2 2 0 2 1 1 0 2 1 1 0 4 1 1 
0 4 1 1 0 6 1 1 0 7 1 3 0 9 1 3 
0 12 1 3 0 16 1 5 0 27 1 6 0 26 1 8 
0 29 1 7 0 28 1 6 0 19 1 4 0 9 1 1 
0 1 1 1 0 -2 1 -1 0 -6 1 -1 0 -4 1 -1 
0 -4 1 -1 0 -2 1 -1 0 -2 1 -1 0 -2 1 -1 
0 -2 2 -2 0 -2 1 -1 0 -2 1 -1 0 -2 2 -2 
1 0 0 1 2 2 0 2 1 1 0 2 1 1 0 2 
1 1 0 2 1 1 0 1 1 1 0 1 1 1 0 2 
1 1 0 2 1 1 0 4 1 1 0 3 1 1 0 2 
1 1 0 -3 1 -2 0 -11 1 -4 0 -22 1 -7 0 -26 
1 -7 0 -27 1 -7 0 -24 1 -6 0 -20 1 -4 0 -16 
1 -4 0 -11 1 -3 0 -11 1 -2 0 -7 1 -1 0 -6 
1 -1 0 -4 1 -1 0 -3 1 -1 0 -1 1 -1 0 -2 
1 -1 1 -1 1 -1 1 -1 1 1 1 0 -1 0 2 2 
0 1 1 1 0 1 1 1 0 3 1 1 0 3 1 1 
0 6 1 1 0 6 1 2 0 7 1 3 0 10 1 3 
0 13 1 3 0 18 1 4 0 22 1 6 0 26 1 7 
0 28 1 7 0 31 1 5 0 16 1 3 0 7 1 1 
0 1 1 -1 0 -2 1 -1 0 -4 1 -1 0 -4 1 -1 
0 -3 1 -1 0 -2 1 -1 0 -3 1 -1 0 -1 1 -1 
0 -2 2 -2 0 -2 1 -1 0 -2 2 -2 1 -1 1 0 
-1 0 2 2 0 1 1 1 0 2 1 1 0 2 1 1 
0 1 1 1 0 2 1 1 0 1 1 1 0 1 1 1 
0 2 1 1 0 3 1 1 0 3 1 1 0 2 1 1 
0 -2 1 -1 0 -9 2345 3073 300 MP stroke
1 -4 0 -17 1 -6 0 -31 1 -7 0 -26 1 -6 0 -30 
1 -5 0 -19 1 -5 0 -15 1 -3 0 -11 1 -3 0 -9 
1 -2 0 -7 1 -1 0 -5 1 -2 0 -4 1 -1 0 -2 
1 -1 0 -3 1 -1 0 -1 1 -1 1 -1 1 -1 1 0 
1 0 0 1 2 2 0 1 1 1 0 2 1 1 0 4 
1 1 0 4 1 1 0 5 1 2 0 7 1 2 0 9 
1 2 0 12 1 3 0 16 1 4 0 24 1 6 0 24 
1 7 0 27 1 6 0 26 1 5 0 19 1 4 0 10 
1 2 0 2 1 1 1 -1 0 -3 1 -1 0 -4 1 -1 
0 -3 1 -1 0 -2 1 -1 0 -3 2 -2 0 -2 1 -1 
0 -1 1 -1 0 -1 1 -1 0 -2 1 -1 0 -1 1 -1 
1 0 -1 0 2 0 1 1 0 2 1 1 0 1 1 1 
0 2 1 1 0 1 1 1 0 2 1 1 0 2 2 2 
0 2 1 1 0 3 1 1 0 2 1 1 1 0 0 -4 
1 -2 0 -11 1 -4 0 -26 1 -6 0 -24 1 -6 0 -25 
1 -6 0 -22 1 -5 0 -18 1 -5 0 -14 1 -3 0 -11 
1 -2 0 -9 1 -2 0 -8 1 -1 0 -5 1 -1 0 -4 
1 -1 0 -3 1 -1 0 -2 2 -2 1 -1 1 -1 1 0 
1 1 0 1 2 2 0 2 1 1 0 3 1 1 0 4 
1 1 0 5 1 1 0 7 1 2 0 8 1 2 0 14 
1 3 0 15 1 4 0 18 1 5 0 23 1 6 0 25 
1 6 0 25 1 6 0 20 1 4 0 13 1 2 0 6 
1 1 1 -1 0 -2 1 -1 0 -3 1 -1 0 -2 1 -1 
0 -2 1 -1 0 -2 1 -1 0 -2 2 -2 0 -2 1 -1 
0 -1 1 -1 0 -2 2 -2 1 -1 1 1 0 1 2 2 
0 2 1 1 0 2 1 1 0 1 1 1 0 2 2 2 
0 1 1 1 0 2 1 1 0 2 1 1 1 1 0 1 
0 -2 1 -1 0 -8 1 -3 0 -15 1 -5 0 -27 1 -6 
0 -24 1 -6 0 -23 1 -5 0 -20 1 -4 0 -16 1 -4 
0 -12 1 -3 0 -11 1 -2 0 -8 1 -1 0 -6 1 -1 
0 -4 1 -1 0 -3 1 -1 0 -2 1 -1 0 -2 2 -2 
1 0 -1 0 2 0 1 0 -1 0 2 2 0 1 1 1 
0 1 1 1 0 3 1 1 0 4 1 1 0 5 1 2 
0 6 1 2 0 11 1 3 0 11 1 3 0 15 1 4 
0 18 1 5 0 22 1 6 0 24 1 7 0 23 1 6 
0 18 1 4 0 14 1 2 0 3 1 1 1 0 0 -2 
1 -1 0 -2 1 -1 0 -2 1 -1 0 -2 1 -1 0 -2 
1 -1 0 -1 1 -1 2176 3085 300 MP stroke
0 -2 2 -2 0 -2 1 -1 0 -1 1 -1 1 -1 1 0 
1 1 1 1 0 2 1 1 0 1 1 1 0 2 1 1 
0 1 1 1 0 1 1 1 1 1 0 2 1 1 0 1 
1 1 1 2 -1 0 2 -2 0 -6 1 -2 0 -12 1 -5 
0 -19 1 -6 0 -22 1 -6 0 -23 1 -5 0 -21 1 -5 
0 -17 1 -4 0 -14 1 -3 0 -13 1 -2 0 -8 1 -2 
0 -6 1 -1 0 -5 1 -1 0 -4 1 -1 0 -2 1 -1 
0 -2 2 -2 1 -1 1 0 1 1 1 1 0 1 1 1 
0 2 1 1 0 3 1 1 0 4 1 1 0 5 1 2 
0 8 1 3 0 9 1 2 0 12 1 3 0 15 1 5 
0 18 1 5 0 22 1 6 0 23 1 6 0 22 1 5 
0 17 1 4 0 11 1 2 0 3 1 1 0 -1 2 -2 
0 -2 1 -1 0 -2 1 -1 0 -2 1 -1 0 -1 1 -1 
0 -1 1 -1 0 -2 2 -2 0 -2 2 -2 1 0 -1 0 
2 0 0 1 2 2 0 2 1 1 0 1 1 1 0 1 
1 1 0 1 1 1 0 1 2 2 0 2 2 2 0 -1 
1 -1 0 -6 1 -2 0 -11 1 -4 0 -24 1 -5 0 -21 
1 -6 0 -22 1 -5 0 -20 1 -5 0 -16 1 -4 0 -13 
1 -3 0 -10 1 -2 0 -10 1 -2 0 -6 1 -1 0 -5 
1 -1 0 -3 1 -1 0 -2 1 -1 0 -2 1 -1 1 -1 
1 -1 1 0 0 1 2 2 0 2 1 1 0 2 1 1 
0 4 1 1 0 5 1 1 0 6 1 2 0 8 1 2 
0 14 1 3 0 13 1 4 0 17 1 5 0 20 1 6 
0 22 1 6 0 22 1 5 0 18 1 4 0 12 1 2 
0 6 1 1 1 1 1 -1 0 -2 1 -1 0 -1 1 -1 
0 -2 1 -1 0 -1 1 -1 0 -1 1 -1 0 -1 1 -1 
0 -1 1 -1 0 -1 1 -1 1 -1 1 -1 1 0 -1 0 
2 2 1 1 0 2 2 2 0 2 1 1 1 1 0 2 
2 2 1 1 0 1 0 -1 2 -2 0 -7 1 -2 0 -12 
1 -4 0 -23 1 -5 0 -21 1 -5 0 -21 1 -5 0 -19 
1 -4 0 -16 1 -4 0 -12 1 -3 0 -10 1 -2 0 -8 
1 -2 0 -6 1 -1 0 -6 1 -1 0 -3 1 -1 0 -2 
1 -1 0 -1 1 -1 1 -1 1 0 1 0 1 1 0 2 
1 1 0 2 1 1 0 3 1 1 0 5 1 1 0 5 
1 2 0 7 1 2 0 10 1 2 0 12 1 4 0 15 
1 4 0 23 1 5 0 21 1 6 0 21 1 6 0 18 
1 4 0 14 1 3 0 7 1 2 0 2 1 1 1 0 
-1 0 2 -2 0 -1 2002 3081 300 MP stroke
1 -1 0 -2 1 -1 0 -1 1 -1 0 -1 1 -1 0 -1 
2 -2 0 -2 2 -2 1 0 1 0 0 1 2 2 0 1 
1 1 0 1 1 1 0 1 2 2 0 1 2 2 1 1 
1 -1 0 -3 1 -2 0 -8 1 -2 0 -14 1 -4 0 -23 
1 -5 0 -21 1 -5 0 -20 1 -5 0 -21 1 -4 0 -14 
1 -3 0 -11 1 -2 0 -9 1 -2 0 -7 1 -1 0 -5 
1 -1 0 -4 1 -1 0 -3 1 -1 0 -2 1 -1 1 -1 
1 -1 1 0 0 1 2 2 0 2 1 1 0 3 1 1 
0 5 1 1 0 7 1 1 0 8 1 2 0 9 1 3 
0 12 1 3 0 15 1 4 0 18 1 5 0 21 1 5 
0 21 1 5 0 18 1 4 0 17 1 2 0 8 1 1 
0 2 1 1 1 0 1 -1 0 -2 2 -2 0 -2 2 -2 
0 -2 2 -2 0 -1 2 -2 1 0 1 0 -1 0 2 2 
0 1 2 2 0 2 2 2 1 1 1 1 1 1 1 0 
0 -2 1 -1 0 -6 1 -2 0 -13 1 -4 0 -17 1 -4 
0 -20 1 -5 0 -19 1 -5 0 -19 1 -4 0 -15 1 -4 
0 -13 1 -2 0 -10 1 -3 0 -8 1 -1 0 -8 1 -1 
0 -5 1 -1 0 -3 1 -1 0 -2 2 -2 1 -1 1 0 
1 1 0 1 1 1 0 2 1 1 0 3 1 1 0 4 
1 1 0 6 1 2 0 7 1 2 0 9 1 3 0 12 
1 3 0 14 1 4 0 23 1 4 0 20 1 6 0 20 
1 4 0 17 1 4 0 13 1 2 0 7 1 2 0 2 
1 1 1 1 -1 0 2 -2 0 -1 1 -1 1 -1 0 -2 
2 -2 0 -1 2 -2 1 -1 0 -1 2 0 1 0 -1 0 
2 2 1 1 0 2 2 2 1 1 1 1 1 1 1 -1 
0 -2 1 -1 0 -5 1 -2 0 -10 1 -3 0 -15 1 -8 
0 -19 1 -5 0 -19 1 -4 0 -18 1 -5 0 -15 1 -4 
0 -15 1 -3 0 -9 1 -3 0 -7 1 -2 0 -6 1 -1 
0 -4 1 -1 0 -3 1 -1 0 -3 2 -2 1 -1 1 0 
-1 0 2 2 0 1 1 1 0 2 1 1 0 4 1 1 
0 5 1 1 0 6 1 2 0 8 1 3 0 13 1 3 
0 13 1 4 0 16 1 5 0 18 1 5 0 20 1 4 
0 19 1 4 0 14 1 3 0 10 1 2 0 5 1 1 
0 1 1 1 1 0 -1 0 2 -2 0 -1 2 -2 1 -1 
0 -2 2 -2 1 -1 1 -1 1 0 1 1 1 1 0 1 
2 2 1 1 1 1 1 1 1 0 1 -1 0 -2 1 -1 
0 -6 1 -2 0 -10 1 -3 0 -15 1 -4 0 -18 1 -5 
0 -18 1 -5 0 -21 1811 3201 300 MP stroke
1 -4 0 -15 1 -4 0 -12 1 -3 0 -9 1 -2 0 -8 
1 -2 0 -6 1 -1 0 -4 1 -1 0 -3 1 -1 0 -3 
2 -2 1 0 1 0 -1 0 2 2 0 1 1 1 0 3 
1 1 0 4 1 1 0 6 1 1 0 9 1 2 0 10 
1 2 0 12 1 3 0 15 1 4 0 17 1 4 0 19 
1 5 0 19 1 4 0 16 1 4 0 12 1 2 0 8 
1 2 0 2 1 1 1 1 1 -1 0 -1 2 -2 0 -1 
2 -2 0 -1 2 -2 1 -1 1 0 1 1 1 1 1 1 
0 1 2 2 1 1 1 0 1 0 1 -1 0 -3 1 -1 
0 -7 1 -2 0 -10 1 -3 0 -20 1 -4 0 -17 1 -5 
0 -22 1 -4 0 -17 1 -3 0 -14 1 -3 0 -11 1 -3 
0 -9 1 -1 0 -7 1 -2 0 -5 1 -1 0 -4 1 -1 
0 -2 1 -1 0 -2 1 -1 1 -1 1 0 -1 0 2 2 
0 1 1 1 0 3 1 1 0 4 1 1 0 5 1 1 
0 9 1 2 0 9 1 3 0 12 1 3 0 14 1 4 
0 16 1 5 0 18 1 5 0 18 1 4 0 16 1 3 
0 12 1 2 0 9 1 1 0 2 1 1 1 1 1 0 
1 -1 0 -1 2 -2 1 -1 0 -1 2 -2 1 0 1 0 
1 0 0 1 2 2 1 1 1 1 1 0 1 0 1 -1 
0 -2 1 -1 0 -6 1 -1 0 -9 1 -3 0 -14 1 -4 
0 -16 1 -4 0 -17 1 -5 0 -21 1 -4 0 -14 1 -4 
0 -12 1 -2 0 -10 1 -2 0 -8 1 -2 0 -6 1 -1 
0 -4 1 -1 0 -3 1 -1 0 -2 1 -1 1 -1 1 0 
0 1 2 2 0 3 1 1 0 4 1 1 0 5 1 1 
0 7 1 2 0 9 1 3 0 14 1 3 0 14 1 4 
0 16 1 4 0 18 1 5 0 17 1 4 0 15 1 3 
0 11 1 3 0 6 1 2 0 3 1 1 1 1 1 0 
1 -1 1 -1 0 -1 2 -2 1 -1 1 -1 1 0 1 0 
1 1 1 1 1 1 1 1 1 0 -1 0 2 0 1 0 
0 -2 1 -1 0 -5 1 -1 0 -8 1 -3 0 -12 1 -3 
0 -19 1 -4 0 -17 1 -4 0 -17 1 -4 0 -15 1 -3 
0 -16 1 -2 0 -10 1 -2 0 -8 1 -2 0 -6 1 -1 
0 -4 1 -1 0 -3 1 -1 0 -2 2 -2 1 0 -1 0 
2 2 0 2 1 1 0 3 1 1 0 4 1 1 0 6 
1 2 0 7 1 3 0 9 1 3 0 12 1 3 0 15 
1 3 0 21 1 5 0 17 1 4 0 16 1 4 0 12 
1 3 0 9 1 2 0 5 1 1 0 1 1 1 1 1 
1 0 1 -1 1 -1 1626 3097 300 MP stroke
1 -1 1 -1 1 -1 1 -1 1 0 1 1 1 1 1 1 
1 0 1 1 1 0 -1 0 2 -2 0 -1 1 -1 0 -5 
1 -1 0 -7 1 -3 0 -14 1 -4 0 -15 1 -4 0 -16 
1 -4 0 -16 1 -4 0 -15 1 -3 0 -13 1 -3 0 -10 
1 -2 0 -8 1 -2 0 -8 1 -1 0 -4 1 -1 0 -3 
1 -1 0 -1 1 -1 1 -1 1 0 -1 0 2 2 0 1 
1 1 0 4 1 1 0 6 1 1 0 7 1 1 0 9 
1 2 0 11 1 3 0 13 1 3 0 15 1 4 0 17 
1 4 0 17 1 4 0 14 1 4 0 13 1 3 0 6 
1 2 0 3 1 1 0 1 1 1 1 0 1 0 1 -1 
1 -1 1 -1 1 -1 1 -1 1 0 1 0 1 1 1 1 
1 1 1 0 1 0 -1 0 2 -2 0 -2 1 -1 0 -4 
1 -2 0 -8 1 -2 0 -12 1 -3 0 -18 1 -4 0 -16 
1 -4 0 -16 1 -4 0 -17 1 -3 0 -12 1 -2 0 -10 
1 -2 0 -7 1 -1 0 -6 1 -1 0 -4 1 -1 0 -3 
2 -2 1 -1 -1 0 2 2 0 1 1 1 0 3 1 1 
0 4 1 2 0 6 1 1 0 8 1 2 0 10 1 3 
0 12 1 3 0 19 1 4 0 16 1 4 0 16 1 4 
0 14 1 4 0 11 1 2 0 8 1 1 0 4 1 1 
0 2 1 1 1 0 1 0 1 0 1 -1 1 -1 1 -1 
1 -1 1 0 1 1 1 0 1 1 1 0 1 0 1 -1 
0 -1 1 -1 0 -3 1 -2 0 -6 1 -2 0 -9 1 -3 
0 -16 1 -4 0 -15 1 -4 0 -16 1 -4 0 -14 1 -4 
0 -12 1 -3 0 -11 1 -2 0 -9 1 -1 0 -7 1 -1 
0 -5 1 -1 0 -4 1 -1 0 -1 1 -1 1 -1 1 1 
0 1 1 1 0 2 1 1 0 4 1 1 0 6 1 2 
0 7 1 2 0 12 1 3 0 12 1 3 0 14 1 4 
0 16 1 4 0 16 1 4 0 14 1 3 0 12 1 2 
0 8 1 1 0 6 1 1 0 1 1 1 1 1 1 0 
1 -1 1 -1 1 -1 1 0 1 -1 1 0 1 1 1 0 
1 1 1 0 1 -1 1 -1 0 -3 1 -1 0 -5 1 -1 
0 -10 1 -3 0 -12 1 -3 0 -17 1 -4 0 -16 1 -3 
0 -15 1 -4 0 -13 1 -3 0 -11 1 -2 0 -9 1 -2 
0 -8 1 -1 0 -5 1 -1 0 -3 1 -1 0 -1 1 -1 
1 -1 1 0 -1 0 2 2 0 3 1 1 0 4 1 2 
0 7 1 2 0 8 1 2 0 11 1 2 0 13 1 3 
0 15 1 3 0 16 1 4 0 15 1 4 0 13 1 3 
0 10 1 2 0 8 1446 3110 300 MP stroke
1 1 0 4 2 2 1 1 1 0 1 -1 1 0 1 -1 
1 -1 1 0 1 1 1 0 1 0 1 0 1 0 -1 0 
2 -2 0 -2 1 -1 0 -6 1 -2 0 -8 1 -2 0 -12 
1 -3 0 -13 1 -4 0 -15 1 -3 0 -15 1 -4 0 -13 
1 -3 0 -11 1 -3 0 -9 1 -2 0 -9 1 -1 0 -5 
1 -1 0 -3 1 -1 0 -2 1 -1 1 -1 0 1 2 2 
0 4 1 1 0 4 1 1 0 9 1 2 0 8 1 3 
0 10 1 3 0 13 1 4 0 14 1 4 0 16 1 3 
0 15 1 3 0 12 1 2 0 11 1 1 0 5 1 1 
0 3 1 1 1 1 1 0 1 0 1 0 1 -1 1 0 
1 -1 1 0 1 1 1 0 1 0 0 -1 2 -2 0 -3 
1 -1 0 -4 1 -2 0 -10 1 -2 0 -12 1 -3 0 -17 
1 -3 0 -15 1 -4 0 -14 1 -3 0 -12 1 -3 0 -11 
1 -2 0 -8 1 -2 0 -8 1 -1 0 -4 1 -1 0 -3 
2 -2 1 0 -1 0 2 2 0 3 1 1 0 4 1 1 
0 6 1 2 0 10 1 2 0 10 1 3 0 13 1 3 
0 14 1 4 0 15 1 3 0 15 1 3 0 12 1 2 
0 9 1 2 0 6 1 1 0 4 1 1 1 1 1 1 
1 0 1 -1 1 0 1 -1 1 0 1 0 1 1 1 0 
1 -1 1 -1 0 -2 1 -1 0 -4 1 -1 0 -6 1 -2 
0 -9 1 -3 0 -15 1 -3 0 -14 1 -4 0 -14 1 -3 
0 -14 1 -3 0 -11 1 -3 0 -9 1 -3 0 -7 1 -2 
0 -5 1 -1 0 -4 1 -1 0 -2 1 -1 1 0 1 1 
0 2 1 1 0 4 1 1 0 5 1 2 0 7 1 2 
0 10 1 2 0 15 1 3 0 14 1 3 0 15 1 3 
0 14 1 4 0 12 1 2 0 10 1 1 0 6 1 2 
0 3 1 1 0 1 1 1 1 1 1 0 1 0 1 0 
1 -1 1 0 1 0 1 0 1 0 0 -1 2 -2 0 -3 
1 -1 0 -5 1 -2 0 -7 1 -2 0 -11 1 -3 0 -15 
1 -4 0 -14 1 -3 0 -14 1 -3 0 -15 1 -3 0 -9 
1 -3 0 -7 1 -2 0 -6 1 -1 0 -4 1 -1 0 -2 
1 -1 1 -1 1 1 0 3 1 1 0 4 1 1 0 6 
1 1 0 8 1 2 0 10 1 3 0 11 1 4 0 13 
1 4 0 14 1 3 0 14 1 3 0 14 1 2 0 9 
1 1 0 5 1 1 0 4 2 2 1 1 1 0 1 0 
1 -1 1 0 1 0 1 0 1 0 0 -1 2 -2 0 -2 
1 -1 0 -5 1 -1 0 -9 1 -2 0 -10 1 -3 0 -11 
1 -4 0 -13 1 -4 1260 3177 300 MP stroke
0 -13 1 -4 0 -12 1 -3 0 -10 1 -3 0 -8 1 -2 
0 -7 1 -1 0 -5 1 -1 0 -2 1 -1 1 -1 1 1 
0 2 1 1 0 4 1 1 0 6 1 2 0 7 1 3 
0 10 1 2 0 15 1 4 0 13 1 4 0 14 1 3 
0 13 1 3 0 10 1 2 0 8 1 1 0 5 1 1 
0 3 2 2 1 0 1 0 1 0 1 0 1 0 1 0 
1 -1 1 -1 0 -1 1 -1 0 -2 1 -1 0 -5 1 -1 
0 -7 1 -2 0 -10 1 -2 0 -15 1 -3 0 -14 1 -3 
0 -13 1 -3 0 -12 1 -3 0 -12 1 -3 0 -7 1 -2 
0 -5 1 -1 0 -4 1 -1 0 -1 1 -1 1 0 -1 0 
2 2 0 3 1 1 0 6 1 2 0 7 1 2 0 10 
1 2 0 12 1 3 0 13 1 3 0 14 1 3 0 13 
1 3 0 11 1 2 0 9 1 1 0 7 1 1 0 3 
2 2 1 1 1 0 1 0 1 0 1 0 1 -1 1 0 
-1 0 2 -2 0 -1 1 -1 0 -3 1 -1 0 -5 1 -2 
0 -8 1 -2 0 -10 1 -3 0 -12 1 -3 0 -16 1 -4 
0 -12 1 -3 0 -11 1 -3 0 -9 1 -2 0 -7 1 -1 
0 -5 1 -1 0 -3 1 -1 1 -1 1 0 0 3 1 1 
0 4 1 2 0 6 1 2 0 8 1 3 0 10 1 3 
0 12 1 3 0 14 1 3 0 13 1 3 0 12 1 2 
0 11 1 2 0 6 1 1 0 3 1 1 0 1 1 1 
1 1 1 1 1 0 1 -1 1 0 1 0 0 -1 2 -2 
0 -2 1 -1 0 -3 1 -1 0 -6 1 -2 0 -8 1 -3 
0 -10 1 -6 0 -16 1 -3 0 -13 1 -3 0 -12 1 -2 
0 -10 1 -2 0 -8 1 -2 0 -5 1 -2 0 -3 1 -1 
0 -1 1 -1 1 1 0 2 1 1 0 5 1 1 0 6 
1 2 0 9 1 2 0 11 1 3 0 12 1 3 0 13 
1 4 0 12 1 3 0 11 1 3 0 10 1 1 0 5 
1 1 0 3 1 1 0 1 1 1 1 1 1 0 1 0 
1 0 1 0 0 -1 2 -2 0 -1 1 -1 0 -4 1 -1 
0 -6 1 -1 0 -8 1 -3 0 -10 1 -3 0 -12 1 -3 
0 -16 1 -3 0 -11 1 -3 0 -10 1 -3 0 -8 1 -1 
0 -6 1 -1 0 -4 1 -1 0 -1 1 -1 1 1 0 1 
1 1 0 6 1 1 0 7 1 2 0 9 1 2 0 11 
1 3 0 12 1 3 0 13 1 4 0 12 1 2 0 10 
1 3 0 8 1 2 0 4 1 1 0 3 2 2 1 1 
1 0 1 0 1 -1 1 0 -1 0 2 -2 0 -1 1 -1 
0 -4 1 -1 0 -5 1087 3130 300 MP stroke
1 -2 0 -7 1 -3 0 -10 1 -3 0 -14 1 -3 0 -12 
1 -3 0 -12 1 -3 0 -12 1 -2 0 -8 1 -1 0 -6 
1 -1 0 -2 1 -1 1 -1 1 1 0 3 1 1 0 5 
1 2 0 9 1 3 0 10 1 2 0 12 1 3 0 13 
1 3 0 12 1 3 0 11 1 2 0 8 1 2 0 5 
1 2 0 3 1 1 0 1 1 1 1 1 1 1 1 -1 
1 0 1 -1 1 -1 0 -2 1 -1 0 -4 1 -1 0 -7 
1 -2 0 -8 1 -2 0 -11 1 -2 0 -12 1 -3 0 -12 
1 -3 0 -12 1 -2 0 -10 1 -2 0 -7 1 -2 0 -5 
1 -1 0 -2 1 -1 0 -1 0 1 2 2 0 4 1 2 
0 6 1 2 0 8 1 3 0 11 1 2 0 12 1 4 
0 15 1 3 0 11 1 2 0 9 1 2 0 6 1 1 
0 4 1 1 0 2 1 1 1 1 1 1 1 0 1 0 
0 -1 2 -2 0 -3 1 -1 0 -4 1 -1 0 -6 1 -2 
0 -8 1 -2 0 -13 1 -3 0 -12 1 -3 0 -15 1 -3 
0 -10 1 -2 0 -8 1 -2 0 -6 1 -1 0 -3 1 -1 
1 -1 -1 0 2 2 0 4 1 1 0 7 1 2 0 9 
1 2 0 11 1 3 0 12 1 3 0 12 1 3 0 11 
1 2 0 9 1 2 0 6 1 1 0 4 1 1 0 2 
1 1 1 1 1 1 1 -1 1 0 -1 0 2 -2 0 -2 
1 -1 0 -3 1 -1 0 -5 1 -2 0 -10 1 -2 0 -11 
1 -2 0 -11 1 -3 0 -12 1 -3 0 -11 1 -2 0 -9 
1 -2 0 -6 1 -2 0 -3 1 -1 1 -2 -1 0 2 2 
0 4 1 1 0 6 1 2 0 8 1 3 0 10 1 3 
0 12 1 3 0 12 1 3 0 10 1 3 0 10 1 1 
0 6 1 1 0 3 1 1 0 1 1 1 1 1 1 0 
1 0 -1 0 2 -2 0 -1 1 -1 0 -4 1 -1 0 -5 
1 -1 0 -7 1 -3 0 -9 1 -3 0 -13 1 -3 0 -12 
1 -3 0 -10 1 -3 0 -8 1 -2 0 -8 1 -1 0 -3 
1 -1 1 0 -1 0 2 2 0 5 1 1 0 7 1 2 
0 9 1 3 0 11 1 3 0 12 1 3 0 14 1 2 
0 9 1 2 0 6 1 2 0 4 1 1 0 2 1 1 
1 1 1 1 1 -1 1 -1 0 -2 1 -1 0 -3 1 -1 
0 -5 1 -2 0 -7 1 -3 0 -9 1 -3 0 -11 1 -2 
0 -12 1 -3 0 -10 1 -3 0 -10 1 -2 0 -5 1 -1 
0 -3 2 0 0 3 1 1 0 5 1 2 0 8 1 2 
0 10 1 3 0 11 1 3 0 15 1 2 0 10 1 2 
0 8 1 1 0 5 922 3131 300 MP stroke
1 1 0 3 2 2 1 1 1 0 -1 0 2 -2 0 -2 
1 -1 0 -4 1 -1 0 -6 1 -1 0 -8 1 -3 0 -12 
1 -3 0 -11 1 -3 0 -11 1 -3 0 -9 1 -2 0 -7 
1 -1 0 -4 1 -1 1 -1 0 3 1 1 0 5 1 1 
0 8 1 2 0 10 1 3 0 11 1 3 0 11 1 3 
0 12 1 2 0 7 1 2 0 4 1 1 0 3 2 2 
1 0 1 -1 0 -1 1 -1 0 -2 1 -1 0 -6 1 -2 
0 -7 1 -2 0 -10 1 -2 0 -11 1 -2 0 -11 1 -3 
0 -10 1 -2 0 -8 1 -1 0 -5 1 -1 0 -1 1 -1 
0 2 1 1 0 4 1 2 0 7 1 2 0 10 1 3 
0 11 1 3 0 11 1 3 0 9 1 2 0 8 1 1 
0 5 1 1 0 2 1 1 0 1 2 0 1 -1 0 -2 
1 -1 0 -4 1 -1 0 -6 1 -2 0 -8 1 -3 0 -15 
1 -2 0 -11 1 -3 0 -10 1 -2 0 -7 1 -2 0 -4 
1 -1 1 -1 -1 0 2 2 0 5 1 2 0 8 1 2 
0 13 1 3 0 11 1 2 0 11 1 2 0 8 1 2 
0 6 1 1 0 4 2 2 1 1 -1 0 2 -2 0 -1 
1 -1 0 -4 1 -2 0 -6 1 -2 0 -8 1 -3 0 -9 
1 -3 0 -11 1 -2 0 -10 1 -3 0 -7 1 -2 0 -5 
1 -1 0 -1 1 1 0 3 1 1 0 6 1 2 0 9 
1 2 0 11 1 3 0 11 1 2 0 10 1 2 0 7 
1 2 0 5 1 1 0 1 1 1 1 1 1 -1 0 -2 
1 -1 0 -4 1 -1 0 -6 1 -2 0 -9 1 -2 0 -15 
1 -3 0 -10 1 -3 0 -8 1 -2 0 -6 1 -1 0 -1 
1 -1 0 2 1 1 0 5 1 1 0 8 1 3 0 10 
1 3 0 13 1 3 0 9 1 2 0 7 1 1 0 4 
1 1 0 2 1 1 1 0 1 -1 0 -3 1 -1 0 -5 
1 -1 0 -10 1 -2 0 -9 1 -3 0 -11 1 -2 0 -10 
1 -2 0 -7 1 -2 0 -3 1 -1 1 1 0 4 1 1 
0 10 1 2 0 10 1 3 0 11 1 2 0 9 1 3 
0 6 1 2 0 4 1 1 0 1 1 1 1 0 -1 0 
2 -2 0 -5 1 -1 0 -6 1 -2 0 -9 1 -3 0 -12 
1 -3 0 -10 1 -2 0 -7 1 -2 0 -3 1 -1 1 1 
0 4 1 2 0 10 1 3 0 10 1 3 0 10 1 3 
0 8 1 2 0 5 1 1 0 3 1 1 1 0 1 -1 
0 -4 1 -1 0 -8 1 -2 0 -9 1 -2 0 -10 1 -3 
0 -9 1 -3 0 -7 1 -1 0 -3 1 -1 0 1 1 1 
0 6 1 2 0 11 760 3180 300 MP stroke
1 3 0 10 1 3 0 9 1 2 0 7 1 2 0 3 
1 1 1 2 -1 0 2 -2 0 -3 1 -1 0 -6 1 -2 
0 -12 1 -4 0 -10 1 -3 0 -8 1 -2 0 -5 1 -1 
0 -1 1 1 0 4 1 1 0 8 1 3 0 10 1 3 
0 10 1 2 0 9 1 1 0 4 1 1 1 1 0 -2 
1 -1 0 -4 1 -2 0 -7 1 -2 0 -9 1 -2 0 -10 
1 -3 0 -9 1 -1 0 -2 1 -1 0 2 1 1 0 7 
1 3 0 9 1 3 0 10 1 2 0 8 1 1 0 4 
1 1 0 2 1 -1 0 -2 1 -1 0 -6 1 -1 0 -9 
1 -2 0 -12 1 -2 0 -9 1 -1 0 -4 1 -1 0 2 
1 1 0 7 1 3 0 10 1 2 0 12 1 2 0 6 
1 1 0 1 1 1 1 -1 0 -5 1 -2 0 -8 1 -2 
0 -9 1 -3 0 -9 1 -1 0 -4 1 -1 0 3 1 2 
0 8 1 3 0 10 1 2 0 8 1 2 0 4 1 1 
1 0 0 -4 1 -2 0 -7 1 -2 0 -14 1 -2 0 -7 
1 -1 0 -1 1 1 0 6 1 2 0 10 1 2 0 9 
1 2 0 5 1 1 1 -1 0 -4 1 -2 0 -10 1 -2 
0 -9 1 -2 0 -5 1 -1 0 3 1 2 0 9 1 2 
0 10 1 2 0 5 1 1 0 -1 1 -1 0 -8 1 -2 
0 -11 1 -2 0 -5 1 -1 0 3 1 2 0 9 1 3 
0 8 1 2 0 1 1 1 0 -5 1 -2 0 -8 1 -3 
0 -8 1 -1 0 4 1 2 0 10 1 2 0 6 1 1 
0 -3 1 -1 0 -10 1 -3 0 -2 1 -3 0 7 1 2 
0 8 1 2 0 -2 1 -2 0 -9 1 -2 0 -1 0 1 
1 2 0 10 1 1 0 -3 1 -3 0 -6 0 1 1 2 
0 7 1 -1 0 -7 1 2 0 3 0 -2 656 3167 207 MP stroke
gr

c8
0 sg
 639 3401 mt 
( ) s
4550  325 mt 
( ) s
1 sg
0 210 774 0 0 -210 3422 616 4 MP
PP
-774 0 0 210 774 0 0 -210 3422 616 5 MP stroke
4 w
DO
SO
6 w
0 sg
3422  406 mt 4196  406 L
3422  616 mt 4196  616 L
4196  616 mt 4196  406 L
3422  616 mt 3422  406 L
3422  616 mt 4196  616 L
3422  616 mt 3422  406 L
3422  406 mt 4196  406 L
3422  616 mt 4196  616 L
4196  616 mt 4196  406 L
3422  616 mt 3422  406 L
3891  554 mt 
(Error) s
gs 3422 406 775 211 rc
c8
360 0 3494 511 2 MP stroke
gr

c8

end %%Color Dict

eplot
%%EndObject

epage
end

showpage

%%Trailer
%%EOF
