%!PS-Adobe-3.0 EPSF-3.0
%%Creator: MATLAB, The MathWorks, Inc. Version 8.1.0.604 (R2013a). Operating System: Microsoft Windows 7.
%%Title: C:\USER\SKOLE\TMA4220\tma4220-element-methods-project\report\images\poisson2d-compare_interior_only.eps
%%CreationDate: 11/20/2013  20:38:49
%%DocumentNeededFonts: Helvetica
%%DocumentProcessColors: Cyan Magenta Yellow Black
%%LanguageLevel: 2
%%Pages: 1
%%BoundingBox:    87   263   507   578
%%EndComments

%%BeginProlog
% MathWorks dictionary
/MathWorks 160 dict begin
% definition operators
/bdef {bind def} bind def
/ldef {load def} bind def
/xdef {exch def} bdef
/xstore {exch store} bdef
% operator abbreviations
/c  /clip ldef
/cc /concat ldef
/cp /closepath ldef
/gr /grestore ldef
/gs /gsave ldef
/mt /moveto ldef
/np /newpath ldef
/cm /currentmatrix ldef
/sm /setmatrix ldef
/rm /rmoveto ldef
/rl /rlineto ldef
/s {show newpath} bdef
/sc {setcmykcolor} bdef
/sr /setrgbcolor ldef
/sg /setgray ldef
/w /setlinewidth ldef
/j /setlinejoin ldef
/cap /setlinecap ldef
/rc {rectclip} bdef
/rf {rectfill} bdef
% page state control
/pgsv () def
/bpage {/pgsv save def} bdef
/epage {pgsv restore} bdef
/bplot /gsave ldef
/eplot {stroke grestore} bdef
% orientation switch
/portraitMode 0 def /landscapeMode 1 def /rotateMode 2 def
% coordinate system mappings
/dpi2point 0 def
% font control
/FontSize 0 def
/FMS {/FontSize xstore findfont [FontSize 0 0 FontSize neg 0 0]
  makefont setfont} bdef
/ISOLatin1Encoding where {pop /WindowsLatin1Encoding 256 array bdef
ISOLatin1Encoding WindowsLatin1Encoding copy pop
/.notdef/.notdef/quotesinglbase/florin/quotedblbase/ellipsis/dagger
/daggerdbl/circumflex/perthousand/Scaron/guilsinglleft/OE/.notdef/.notdef
/.notdef/.notdef/quoteleft/quoteright/quotedblleft/quotedblright/bullet
/endash/emdash/tilde/trademark/scaron/guilsinglright/oe/.notdef/.notdef
/Ydieresis WindowsLatin1Encoding 128 32 getinterval astore pop}
{/WindowsLatin1Encoding StandardEncoding bdef} ifelse
/reencode {exch dup where {pop load} {pop StandardEncoding} ifelse
  exch dup 3 1 roll findfont dup length dict begin
  { 1 index /FID ne {def}{pop pop} ifelse } forall
  /Encoding exch def currentdict end definefont pop} bdef
/isroman {findfont /CharStrings get /Agrave known} bdef
/FMSR {3 1 roll 1 index dup isroman {reencode} {pop pop} ifelse
  exch FMS} bdef
/csm {1 dpi2point div -1 dpi2point div scale neg translate
 dup landscapeMode eq {pop -90 rotate}
  {rotateMode eq {90 rotate} if} ifelse} bdef
% line types: solid, dotted, dashed, dotdash
/SO { [] 0 setdash } bdef
/DO { [.5 dpi2point mul 4 dpi2point mul] 0 setdash } bdef
/DA { [6 dpi2point mul] 0 setdash } bdef
/DD { [.5 dpi2point mul 4 dpi2point mul 6 dpi2point mul 4
  dpi2point mul] 0 setdash } bdef
% macros for lines and objects
/L {lineto stroke} bdef
/MP {3 1 roll moveto 1 sub {rlineto} repeat} bdef
/AP {{rlineto} repeat} bdef
/PDlw -1 def
/W {/PDlw currentlinewidth def setlinewidth} def
/PP {closepath eofill} bdef
/DP {closepath stroke} bdef
/MR {4 -2 roll moveto dup  0 exch rlineto exch 0 rlineto
  neg 0 exch rlineto closepath} bdef
/FR {MR stroke} bdef
/PR {MR fill} bdef
/L1i {{currentfile picstr readhexstring pop} image} bdef
/tMatrix matrix def
/MakeOval {newpath tMatrix currentmatrix pop translate scale
0 0 1 0 360 arc tMatrix setmatrix} bdef
/FO {MakeOval stroke} bdef
/PO {MakeOval fill} bdef
/PD {currentlinewidth 2 div 0 360 arc fill
   PDlw -1 eq not {PDlw w /PDlw -1 def} if} def
/FA {newpath tMatrix currentmatrix pop translate scale
  0 0 1 5 -2 roll arc tMatrix setmatrix stroke} bdef
/PA {newpath tMatrix currentmatrix pop	translate 0 0 moveto scale
  0 0 1 5 -2 roll arc closepath tMatrix setmatrix fill} bdef
/FAn {newpath tMatrix currentmatrix pop translate scale
  0 0 1 5 -2 roll arcn tMatrix setmatrix stroke} bdef
/PAn {newpath tMatrix currentmatrix pop translate 0 0 moveto scale
  0 0 1 5 -2 roll arcn closepath tMatrix setmatrix fill} bdef
/vradius 0 def /hradius 0 def /lry 0 def
/lrx 0 def /uly 0 def /ulx 0 def /rad 0 def
/MRR {/vradius xdef /hradius xdef /lry xdef /lrx xdef /uly xdef
  /ulx xdef newpath tMatrix currentmatrix pop ulx hradius add uly
  vradius add translate hradius vradius scale 0 0 1 180 270 arc 
  tMatrix setmatrix lrx hradius sub uly vradius add translate
  hradius vradius scale 0 0 1 270 360 arc tMatrix setmatrix
  lrx hradius sub lry vradius sub translate hradius vradius scale
  0 0 1 0 90 arc tMatrix setmatrix ulx hradius add lry vradius sub
  translate hradius vradius scale 0 0 1 90 180 arc tMatrix setmatrix
  closepath} bdef
/FRR {MRR stroke } bdef
/PRR {MRR fill } bdef
/MlrRR {/lry xdef /lrx xdef /uly xdef /ulx xdef /rad lry uly sub 2 div def
  newpath tMatrix currentmatrix pop ulx rad add uly rad add translate
  rad rad scale 0 0 1 90 270 arc tMatrix setmatrix lrx rad sub lry rad
  sub translate rad rad scale 0 0 1 270 90 arc tMatrix setmatrix
  closepath} bdef
/FlrRR {MlrRR stroke } bdef
/PlrRR {MlrRR fill } bdef
/MtbRR {/lry xdef /lrx xdef /uly xdef /ulx xdef /rad lrx ulx sub 2 div def
  newpath tMatrix currentmatrix pop ulx rad add uly rad add translate
  rad rad scale 0 0 1 180 360 arc tMatrix setmatrix lrx rad sub lry rad
  sub translate rad rad scale 0 0 1 0 180 arc tMatrix setmatrix
  closepath} bdef
/FtbRR {MtbRR stroke } bdef
/PtbRR {MtbRR fill } bdef
/stri 6 array def /dtri 6 array def
/smat 6 array def /dmat 6 array def
/tmat1 6 array def /tmat2 6 array def /dif 3 array def
/asub {/ind2 exch def /ind1 exch def dup dup
  ind1 get exch ind2 get sub exch } bdef
/tri_to_matrix {
  2 0 asub 3 1 asub 4 0 asub 5 1 asub
  dup 0 get exch 1 get 7 -1 roll astore } bdef
/compute_transform {
  dmat dtri tri_to_matrix tmat1 invertmatrix 
  smat stri tri_to_matrix tmat2 concatmatrix } bdef
/ds {stri astore pop} bdef
/dt {dtri astore pop} bdef
/db {2 copy /cols xdef /rows xdef mul dup 3 mul string
  currentfile 
  3 index 0 eq {/ASCIIHexDecode filter}
  {/ASCII85Decode filter 3 index 2 eq {/RunLengthDecode filter} if }
  ifelse exch readstring pop
  dup 0 3 index getinterval /rbmap xdef
  dup 2 index dup getinterval /gbmap xdef
  1 index dup 2 mul exch getinterval /bbmap xdef pop pop}bdef
/it {gs np dtri aload pop moveto lineto lineto cp c
  cols rows 8 compute_transform 
  rbmap gbmap bbmap true 3 colorimage gr}bdef
/il {newpath moveto lineto stroke}bdef
currentdict end def
%%EndProlog

%%BeginSetup
MathWorks begin

0 cap

end
%%EndSetup

%%Page: 1 1
%%BeginPageSetup
%%PageBoundingBox:    87   263   507   578
MathWorks begin
bpage
%%EndPageSetup

%%BeginObject: obj1
bplot

/dpi2point 12 def
portraitMode 1044 6936 csm

    0     0  5045  3773 rc
85 dict begin %Colortable dictionary
/c0 { 0.000000 0.000000 0.000000 sr} bdef
/c1 { 1.000000 1.000000 1.000000 sr} bdef
/c2 { 0.900000 0.000000 0.000000 sr} bdef
/c3 { 0.000000 0.820000 0.000000 sr} bdef
/c4 { 0.000000 0.000000 0.800000 sr} bdef
/c5 { 0.910000 0.820000 0.320000 sr} bdef
/c6 { 1.000000 0.260000 0.820000 sr} bdef
/c7 { 0.000000 0.820000 0.820000 sr} bdef
c0
1 j
1 sg
   0    0 5046 3774 rf
6 w
0 3075 3910 0 0 -3075 656 3358 4 MP
PP
-3910 0 0 3075 3910 0 0 -3075 656 3358 5 MP stroke
4 w
DO
SO
6 w
0 sg
 656  283 mt 4566  283 L
 656 3358 mt 4566 3358 L
4566 3358 mt 4566  283 L
 656 3358 mt  656  283 L
 656 3358 mt 4566 3358 L
 656 3358 mt  656  283 L
 656 3358 mt  656 3318 L
 656  283 mt  656  322 L
%%IncludeResource: font Helvetica
/Helvetica /WindowsLatin1Encoding 120 FMSR

 623 3503 mt 
(0) s
1633 3358 mt 1633 3318 L
1633  283 mt 1633  322 L
1550 3503 mt 
(0.5) s
2611 3358 mt 2611 3318 L
2611  283 mt 2611  322 L
2578 3503 mt 
(1) s
3588 3358 mt 3588 3318 L
3588  283 mt 3588  322 L
3505 3503 mt 
(1.5) s
4566 3358 mt 4566 3318 L
4566  283 mt 4566  322 L
4533 3503 mt 
(2) s
4296 3705 mt 
(x 10) s
%%IncludeResource: font Helvetica
/Helvetica /WindowsLatin1Encoding 80 FMSR

4522 3631 mt 
(4) s
 656 3358 mt  695 3358 L
4566 3358 mt 4526 3358 L
%%IncludeResource: font Helvetica
/Helvetica /WindowsLatin1Encoding 120 FMSR

 555 3402 mt 
(0) s
 656 3050 mt  695 3050 L
4566 3050 mt 4526 3050 L
 321 3094 mt 
(0.002) s
 656 2743 mt  695 2743 L
4566 2743 mt 4526 2743 L
 321 2787 mt 
(0.004) s
 656 2435 mt  695 2435 L
4566 2435 mt 4526 2435 L
 321 2479 mt 
(0.006) s
 656 2128 mt  695 2128 L
4566 2128 mt 4526 2128 L
 321 2172 mt 
(0.008) s
 656 1820 mt  695 1820 L
4566 1820 mt 4526 1820 L
 388 1864 mt 
(0.01) s
 656 1513 mt  695 1513 L
4566 1513 mt 4526 1513 L
 321 1557 mt 
(0.012) s
 656 1205 mt  695 1205 L
4566 1205 mt 4526 1205 L
 321 1249 mt 
(0.014) s
 656  898 mt  695  898 L
4566  898 mt 4526  898 L
 321  942 mt 
(0.016) s
 656  590 mt  695  590 L
4566  590 mt 4526  590 L
 321  634 mt 
(0.018) s
 656  283 mt  695  283 L
4566  283 mt 4526  283 L
 388  327 mt 
(0.02) s
 656  283 mt 4566  283 L
 656 3358 mt 4566 3358 L
4566 3358 mt 4566  283 L
 656 3358 mt  656  283 L
gs 656 283 3911 3076 rc
/c8 { 0.000000 0.000000 1.000000 sr} bdef
c8
1 -451 0 -383 1 -23 0 -47 1 -6 0 -16 1 -2 0 -8 
1 -1 0 -4 1 -1 0 -2 1 -1 0 -2 2 -2 1 -1 
1 -1 1 0 1 -1 1 0 1 0 1 -1 1 0 1 0 
1 0 1 0 1 -1 1 0 1 0 1 0 1 0 1 0 
1 0 1 0 1 1 1 0 1 0 1 0 1 0 1 1 
1 0 1 0 1 1 1 0 1 1 1 1 1 1 0 2 
1 1 0 2 1 1 0 3 1 1 0 6 1 2 0 11 
1 4 0 28 1 13 0 130 1 96 0 2680 1 -386 0 -961 
1 -97 0 -326 1 -34 0 -126 1 -18 0 -82 1 -8 0 -76 
1 -4 0 -74 1 -6 0 -90 1 -12 0 -48 0 2 1 -3 
0 47 1 -5 0 25 1 -10 0 10 0 -11 1 6 0 -30 
1 5 0 -48 1 -1 0 -8 0 26 1 -4 0 27 1 -8 
0 16 1 -11 0 13 1 -10 0 9 0 -14 0 5 1 -7 
0 10 0 -16 1 9 0 -20 1 9 0 -15 1 -17 0 1 
0 -18 1 -20 0 -40 1 -26 0 -34 0 13 1 8 0 57 
1 2 0 22 0 0 1 -6 0 9 0 -19 0 1 1 -5 
0 -2 0 55 1 -3 0 33 1 -6 0 25 1 -7 0 12 
0 -1 1 -4 0 14 0 -2 1 -4 0 18 1 0 0 -10 
0 15 1 0 0 -9 0 14 1 1 0 -11 0 13 1 1 
0 -16 0 4 1 -9 0 7 0 -21 1 -14 0 1 0 -43 
1 -20 0 -7 0 21 1 12 0 58 1 27 0 96 1 21 
0 62 1 25 0 75 1 29 0 151 1 35 0 247 1 88 
0 709 1 367 0 409 0 -2068 1 -319 0 -426 1 -36 0 -77 
1 -10 0 -28 1 -4 0 -14 1 -2 0 -8 1 -1 0 -6 
1 -1 0 -3 1 -1 0 -1 1 -1 0 -2 2 -2 1 -1 
1 -1 1 -1 1 -1 1 0 1 -1 1 0 1 0 1 0 
1 -1 1 0 1 0 1 0 1 0 1 0 1 0 1 1 
1 0 1 0 1 0 1 1 1 0 1 1 1 1 1 1 
1 1 0 1 2 2 0 2 1 1 0 2 1 1 0 5 
1 1 0 6 1 2 0 10 1 3 0 19 1 7 0 43 
1 18 0 158 1 90 0 1410 1 377 0 -473 1 -113 0 -286 
1 -50 0 -171 1 -27 0 -80 1 -19 0 -68 1 -14 0 -63 
1 -15 0 -72 1 -17 0 -45 1 -1 0 25 1 3 0 14 
1 -1 0 1 0 -4 1 -1 0 -20 1 -3 0 -32 1 -4 
0 -2 0 12 1 2 0 16 1 0 0 6 1 -1 0 3 
1 -1 0 1 0 -6 1 -1 0 1 0 -7 1 -1 0 -10 
1 -1 0 -19 1 -7 0 -28 1 -10 0 -44 1 -11 0 -15 
0 9 1 12 0 34 4265 2790 300 MP stroke
1 8 0 8 1 2 0 -9 1 3 0 36 1 4 0 26 
1 4 0 14 1 4 0 4 1 4 0 5 1 4 0 4 
1 -1 0 6 1 0 0 5 1 -1 0 4 1 -1 0 -12 
1 -3 0 -26 1 -8 0 -37 1 -1 0 29 1 12 0 78 
1 23 0 82 1 20 0 72 1 22 0 90 1 30 0 140 
1 49 0 376 1 127 0 424 0 -169 1 -843 0 -775 1 -76 
0 -154 1 -20 0 -51 1 -8 0 -23 1 -5 0 -13 1 -2 
0 -8 1 -2 0 -5 1 -2 0 -4 1 -1 0 -2 1 -1 
0 -2 1 -1 0 -1 1 -1 1 -1 1 -1 1 -1 1 -1 
1 -1 1 0 1 -1 1 0 1 0 1 -1 1 0 1 0 
1 0 1 0 1 0 1 1 1 0 1 0 1 1 1 1 
1 0 0 1 2 2 0 1 2 2 0 1 1 1 0 2 
1 1 0 3 1 1 0 4 1 2 0 6 1 2 0 12 
1 3 0 17 1 6 0 34 1 12 0 84 1 36 0 326 
1 181 0 1029 1 3 0 -313 1 -68 0 -203 1 -37 0 -115 
1 -24 0 -94 1 -17 0 -62 1 -16 0 -61 1 -17 0 -62 
1 -12 0 -16 0 2 1 3 0 14 1 3 0 4 1 0 
0 -6 1 -4 0 -18 1 -6 0 -22 1 2 0 12 1 3 
0 7 1 2 0 1 1 1 0 -2 1 -1 0 -5 1 -1 
0 -7 1 -3 0 -10 1 -3 0 -28 1 -7 0 -35 1 -9 
0 -28 1 1 0 26 1 7 0 18 1 2 0 2 0 -1 
1 -1 0 19 1 7 0 24 1 5 0 15 1 4 0 10 
1 2 0 7 1 2 0 7 1 1 0 4 1 1 0 3 
1 1 0 1 1 1 0 -7 1 -2 0 -16 1 -6 0 -27 
1 -6 0 -4 0 18 1 9 0 64 1 19 0 79 1 18 
0 73 1 19 0 88 1 25 0 127 1 41 0 223 1 75 
0 293 1 -71 0 -922 1 -159 0 -381 1 -34 0 -84 1 -13 
0 -37 1 -6 0 -20 1 -4 0 -12 1 -3 0 -7 1 -2 
0 -6 1 -1 0 -4 1 -1 0 -3 1 -1 0 -2 1 -1 
0 -2 2 -2 1 -1 1 -1 1 -1 1 -1 1 0 1 -1 
1 0 1 -1 1 0 1 0 1 0 1 0 1 1 1 0 
1 0 1 1 1 1 1 0 0 1 2 2 0 1 2 2 
0 2 1 1 0 3 1 1 0 3 1 1 0 4 1 2 
0 6 1 2 0 9 1 2 0 14 1 5 0 23 1 8 
0 46 1 17 0 161 1 61 0 503 1 210 0 457 1 -32 
0 -211 1 -47 0 -149 1 -29 0 -96 1 -19 0 -71 1 -16 
0 -60 1 -15 0 -59 1 -15 0 -59 1 -6 0 -3 0 3 
1 3 0 7 1 1 4093 2665 300 MP stroke
0 -2 1 -1 0 -12 1 -4 0 -19 1 -4 0 -6 0 1 
1 2 0 9 1 2 0 5 2 0 0 -4 1 -1 0 -6 
1 -2 0 -9 1 -3 0 -15 1 -5 0 -25 1 -8 0 -31 
1 -6 0 -8 0 3 1 5 0 26 1 3 0 7 1 1 
0 8 1 5 0 23 1 5 0 17 1 4 0 12 1 2 
0 7 1 2 0 7 1 2 0 4 1 1 0 5 1 1 
0 1 1 1 0 -3 1 -2 0 -12 1 -4 0 -20 1 -5 
0 -6 0 4 1 6 0 42 1 16 0 71 1 18 0 90 
1 18 0 82 1 24 0 114 1 35 0 179 1 54 0 174 
1 -40 0 -781 1 -121 0 -292 1 -41 0 -105 1 -16 0 -47 
1 -8 0 -30 1 -5 0 -14 1 -3 0 -9 1 -2 0 -6 
1 -2 0 -4 1 -2 0 -3 1 -1 0 -2 1 -1 0 -3 
2 -2 0 -2 2 -2 1 -1 1 -1 1 0 1 -1 1 0 
1 -1 1 0 1 0 1 0 1 1 1 0 1 0 1 1 
1 1 1 1 0 1 2 2 1 1 0 2 1 1 0 2 
1 1 0 2 1 1 0 4 1 1 0 5 1 1 0 7 
1 2 0 12 1 3 0 15 1 5 0 25 1 9 0 47 
1 16 0 104 1 41 0 291 1 121 0 569 1 72 0 25 
0 -66 1 -39 0 -146 1 -31 0 -124 1 -20 0 -71 1 -16 
0 -59 1 -15 0 -56 1 -14 0 -48 1 -8 0 -13 1 -1 
0 4 1 1 0 -1 1 -1 0 -12 1 -3 0 -16 1 -4 
0 -5 1 1 0 7 1 1 0 4 2 0 0 -3 1 -1 
0 -6 1 -2 0 -9 1 -2 0 -19 1 -5 0 -24 1 -7 
0 -25 1 -4 0 -3 0 4 1 3 0 17 1 3 0 8 
1 1 0 10 1 4 0 20 1 5 0 16 1 4 0 13 
1 2 0 8 1 1 0 7 1 1 0 5 1 1 0 3 
1 1 1 1 0 -4 1 -2 0 -11 1 -4 0 -17 1 0 
0 17 1 9 0 52 1 17 0 68 1 17 0 71 1 19 
0 84 1 25 0 116 1 35 0 158 1 37 0 34 0 -97 
1 -118 0 -592 1 -82 0 -210 1 -33 0 -88 1 -14 0 -44 
1 -8 0 -25 1 -5 0 -15 1 -3 0 -11 1 -2 0 -7 
1 -2 0 -5 1 -2 0 -5 1 -1 0 -2 1 -1 0 -2 
1 -1 0 -2 1 -1 0 -1 1 -1 1 -1 1 -1 1 -1 
1 -1 1 -1 1 0 1 -1 1 0 1 0 1 1 1 0 
1 0 1 1 1 1 1 1 1 1 0 2 2 2 0 2 
1 1 0 2 1 1 0 3 1 1 0 5 1 1 0 5 
1 2 0 8 1 2 0 10 1 3 0 16 1 5 0 25 
1 8 0 44 1 14 3924 3167 300 MP stroke
0 88 1 33 0 291 1 96 0 453 1 78 0 67 0 -17 
1 -24 0 -115 1 -28 0 -95 1 -20 0 -72 1 -16 0 -60 
1 -14 0 -54 1 -13 0 -47 1 -10 0 -23 1 -1 1 1 
0 -2 1 -2 0 -9 1 -3 0 -13 1 -3 0 -7 1 0 
0 4 1 1 0 3 1 1 1 0 0 -5 1 -1 0 -6 
1 -2 0 -9 1 -3 0 -16 1 -4 0 -22 1 -6 0 -21 
1 -3 0 -3 0 3 1 2 0 13 1 3 0 9 1 1 
0 15 1 4 0 18 1 4 0 14 1 3 0 10 1 2 
0 8 1 2 0 6 1 1 0 4 1 1 0 3 1 1 
0 1 1 -1 0 -6 1 -2 0 -11 1 -2 0 -6 1 2 
0 24 1 10 0 54 1 16 0 65 1 16 0 71 1 19 
0 85 1 25 0 143 1 31 0 74 1 -19 0 -432 1 -95 
0 -295 1 -50 0 -136 1 -23 0 -66 1 -12 0 -36 1 -6 
0 -22 1 -5 0 -14 1 -3 0 -12 1 -2 0 -7 1 -1 
0 -5 1 -2 0 -3 1 -1 0 -3 1 -1 0 -2 1 -1 
0 -2 1 -1 0 -1 1 -1 0 -1 2 -2 1 -1 1 0 
1 -1 1 0 1 0 1 0 1 0 1 0 1 1 1 0 
0 1 2 2 1 1 0 2 2 2 0 2 1 1 0 4 
1 1 0 4 1 1 0 5 1 1 0 7 1 2 0 8 
1 3 0 12 1 4 0 18 1 6 0 29 1 10 0 68 
1 20 0 117 1 42 0 257 1 88 0 355 1 55 0 50 
0 -10 1 -16 0 -89 1 -23 0 -82 1 -18 0 -66 1 -15 
0 -56 1 -13 0 -63 1 -12 0 -36 1 -6 0 -13 1 -1 
0 -1 1 -1 0 -4 1 -2 0 -10 1 -3 0 -12 1 -2 
0 -2 1 -1 0 3 1 1 0 2 1 -1 0 -1 1 -1 
0 -5 1 -1 0 -7 1 -2 0 -11 1 -4 0 -16 1 -5 
0 -21 1 -4 0 -13 1 -1 0 9 1 3 0 9 1 2 
0 9 1 3 0 15 1 4 0 15 1 4 0 12 1 2 
0 9 1 1 0 7 1 2 0 5 1 1 0 4 1 1 
0 1 1 1 0 -3 1 -1 0 -7 1 -2 0 -6 1 -1 
0 13 1 6 0 41 1 13 0 59 1 15 0 65 1 17 
0 95 1 21 0 94 1 25 0 74 1 1 0 -176 1 -96 
0 -306 1 -66 0 -193 1 -34 0 -96 1 -17 0 -51 1 -10 
0 -36 1 -6 0 -17 1 -4 0 -12 1 -3 0 -9 1 -2 
0 -6 1 -2 0 -5 1 -1 0 -4 1 -1 0 -2 1 -1 
0 -2 1 -1 0 -2 1 -1 0 -2 2 -2 1 -1 1 -1 
1 -1 1 0 1 0 1 0 1 0 1 0 1 1 1 1 
1 1 1 1 0 2 3760 3319 300 MP stroke
2 2 0 2 1 1 0 3 1 1 0 3 1 1 0 5 
1 1 0 6 1 1 0 8 1 2 0 10 1 3 0 14 
1 5 0 21 1 6 0 45 1 12 0 65 1 22 0 127 
1 45 0 249 1 78 0 280 1 41 0 39 0 -6 1 -12 
0 -70 1 -19 0 -71 1 -16 0 -60 1 -14 0 -65 1 -13 
0 -45 1 -10 0 -30 1 -5 0 -11 1 -1 0 -4 1 -1 
0 -6 1 -2 0 -10 1 -3 0 -9 1 -1 0 -1 1 -1 
0 2 1 1 1 0 0 -3 1 -1 0 -6 1 -1 0 -9 
1 -2 0 -13 1 -3 0 -17 1 -5 0 -17 1 -3 0 -5 
0 1 1 1 0 9 1 2 0 9 1 2 0 11 1 3 
0 15 1 4 0 13 1 3 0 10 1 2 0 7 1 2 
0 6 1 1 0 6 1 1 0 2 2 0 0 -4 1 -2 
0 -5 1 -1 0 5 1 4 0 28 1 11 0 49 1 14 
0 59 1 16 0 84 1 18 0 78 1 21 0 68 1 7 
0 -76 1 -55 0 -342 1 -62 0 -192 1 -36 0 -103 1 -19 
0 -57 1 -11 0 -40 1 -6 0 -20 1 -5 0 -13 1 -3 
0 -10 1 -2 0 -8 1 -1 0 -6 1 -1 0 -5 1 -1 
0 -3 1 -1 0 -2 1 -1 0 -2 1 -1 0 -2 1 -1 
0 -1 2 -2 1 -1 1 0 1 -1 1 0 1 0 1 0 
1 1 1 1 1 1 0 1 2 2 0 1 1 1 0 2 
1 1 0 3 1 1 0 3 1 1 0 5 1 1 0 5 
1 2 0 7 1 2 0 10 1 3 0 13 1 4 0 20 
1 6 0 29 1 10 0 64 1 18 0 97 1 33 0 182 
1 60 0 262 1 58 0 125 1 6 0 -31 1 -15 0 -63 
1 -15 0 -59 1 -14 0 -51 1 -13 0 -56 1 -11 0 -34 
1 -6 0 -16 1 -3 0 -6 1 -1 0 -6 1 -2 0 -9 
1 -2 0 -9 1 -2 0 -2 1 -1 1 1 1 -1 0 -2 
1 -1 0 -5 1 -2 0 -8 1 -2 0 -12 1 -3 0 -16 
1 -4 0 -15 1 -3 0 -5 1 1 0 8 1 2 0 8 
1 2 0 11 1 3 0 14 1 3 0 12 1 3 0 10 
1 2 0 7 1 2 0 6 1 1 0 4 1 1 0 3 
1 1 1 -1 0 -3 1 -1 0 -3 1 1 0 10 1 5 
0 31 1 11 0 49 1 13 0 57 1 15 0 64 1 16 
0 85 1 15 0 28 0 -1 1 -9 0 -144 1 -68 0 -225 
1 -53 0 -170 1 -32 0 -97 1 -18 0 -56 1 -11 0 -34 
1 -7 0 -27 1 -4 0 -14 1 -3 0 -11 1 -2 0 -8 
1 -2 0 -6 1 -1 0 -5 1 -1 0 -3 1 -1 0 -3 
1 -1 0 -2 1 -1 3601 3309 300 MP stroke
0 -2 2 -2 1 -1 1 -1 1 -1 1 -1 1 0 1 0 
1 1 1 1 1 1 0 1 2 2 0 1 1 1 0 2 
1 1 0 2 1 1 0 3 1 1 0 6 1 1 0 6 
1 1 0 7 1 2 0 10 1 3 0 13 1 4 0 18 
1 6 0 28 1 8 0 44 1 14 0 73 1 24 0 172 
1 47 0 221 1 57 0 166 1 20 0 18 0 -5 1 -8 
0 -48 1 -14 0 -54 1 -13 0 -50 1 -12 0 -45 1 -10 
0 -37 1 -8 0 -26 1 -4 0 -8 1 -2 0 -6 1 -2 
0 -8 1 -3 0 -8 1 -2 0 -4 1 -1 1 0 1 0 
0 -3 1 -1 0 -5 1 -2 0 -7 1 -3 0 -11 1 -3 
0 -14 1 -4 0 -13 1 -2 0 -4 1 -1 0 5 1 2 
0 7 1 2 0 13 1 3 0 13 1 3 0 11 1 3 
0 9 1 2 0 7 1 2 0 6 1 1 0 4 1 1 
0 2 1 1 1 0 1 -3 -1 0 2 2 0 15 1 6 
0 34 1 10 0 48 1 13 0 55 1 14 0 59 1 15 
0 55 1 10 0 11 0 -24 1 -24 0 -229 1 -50 0 -188 
1 -39 0 -125 1 -24 0 -73 1 -14 0 -45 1 -9 0 -29 
1 -6 0 -19 1 -4 0 -14 1 -3 0 -12 1 -2 0 -8 
1 -1 0 -6 1 -1 0 -5 1 -1 0 -3 1 -1 0 -2 
1 -1 0 -3 2 -2 0 -2 2 -2 1 -1 1 0 1 0 
1 0 1 0 1 1 1 1 0 1 2 2 0 2 1 1 
0 2 1 1 0 3 1 1 0 3 1 1 0 5 1 1 
0 6 1 2 0 7 1 2 0 13 1 3 0 15 1 4 
0 21 1 6 0 30 1 9 0 47 1 15 0 78 1 25 
0 132 1 41 0 193 1 50 0 159 1 24 0 32 0 -4 
1 -6 0 -40 1 -12 0 -47 1 -12 0 -46 1 -11 0 -41 
1 -9 0 -33 1 -7 0 -19 1 -4 0 -9 1 -2 0 -7 
1 -2 0 -10 1 -3 0 -7 1 -1 0 -3 1 -1 1 -1 
1 -1 0 -3 1 -1 0 -6 1 -1 0 -8 1 -3 0 -14 
1 -3 0 -13 1 -3 0 -10 1 -1 0 -1 1 1 0 6 
1 2 0 8 1 2 0 11 1 3 0 11 1 3 0 11 
1 2 0 11 1 1 0 7 1 1 0 5 1 1 0 3 
1 1 0 1 1 1 1 -1 1 0 0 6 1 4 0 21 
1 8 0 49 1 12 0 48 1 13 0 53 1 13 0 49 
1 10 0 17 0 -1 1 -6 0 -92 1 -40 0 -181 1 -45 
0 -157 1 -32 0 -124 1 -18 0 -58 1 -11 0 -37 1 -7 
0 -25 1 -5 0 -17 1 -4 0 -12 1 -3 0 -9 1 -2 
0 -7 1 -2 0 -6 3437 3285 300 MP stroke
1 -1 0 -5 1 -1 0 -3 1 -1 0 -2 1 -1 0 -2 
1 -1 0 -2 2 -2 1 -1 1 0 1 -1 1 0 1 0 
1 1 0 1 2 2 0 1 1 1 0 1 1 1 0 2 
1 1 0 4 1 1 0 4 1 1 0 6 1 1 0 7 
1 1 0 9 1 2 0 11 1 4 0 15 1 4 0 22 
1 6 0 32 1 9 0 63 1 17 0 85 1 27 0 137 
1 41 0 177 1 42 0 122 1 17 0 19 0 -1 1 -4 
0 -31 1 -10 0 -42 1 -11 0 -42 1 -10 0 -47 1 -8 
0 -28 1 -5 0 -16 1 -3 0 -9 1 -2 0 -7 1 -2 
0 -9 1 -2 0 -6 1 -1 0 -3 2 -2 0 -2 1 -1 
0 -4 1 -2 0 -6 1 -2 0 -9 1 -3 0 -11 1 -3 
0 -11 1 -3 0 -6 1 -1 0 2 1 1 0 8 1 2 
0 9 1 3 0 11 1 3 0 11 1 2 0 9 1 2 
0 7 1 2 0 5 1 1 0 4 1 1 0 3 1 1 
1 1 1 0 0 6 1 2 0 18 1 7 0 33 1 9 
0 43 1 12 0 47 1 12 0 45 1 9 0 23 1 -1 
0 -81 1 -33 0 -199 1 -40 0 -140 1 -30 0 -95 1 -19 
0 -61 1 -12 0 -39 1 -8 0 -26 1 -6 0 -18 1 -4 
0 -17 1 -3 0 -9 1 -2 0 -8 1 -1 0 -6 1 -1 
0 -5 1 -1 0 -3 1 -1 0 -3 1 -1 0 -1 1 -1 
0 -2 1 -1 0 -1 2 -2 1 0 1 0 1 0 1 0 
1 1 0 1 2 2 0 2 1 1 0 2 1 1 0 3 
1 1 0 4 1 1 0 5 1 1 0 6 1 2 0 8 
1 2 0 10 1 3 0 18 1 4 0 20 1 6 0 29 
1 8 0 43 1 13 0 67 1 21 0 105 1 32 0 149 
1 40 0 147 1 28 0 65 1 6 0 2 0 -15 1 -7 
0 -35 1 -10 0 -38 1 -10 0 -36 1 -9 0 -30 1 -6 
0 -20 1 -4 0 -11 1 -3 0 -8 1 -2 0 -8 1 -2 
0 -8 1 -1 0 -4 2 -2 0 -2 1 -1 0 -4 1 -1 
0 -6 1 -2 0 -8 1 -2 0 -10 1 -3 0 -13 1 -2 
1 -6 -1 0 2 2 0 6 1 2 0 8 1 2 0 10 
1 3 0 10 1 3 0 9 1 2 0 7 1 1 0 7 
1 1 0 4 1 1 0 2 1 1 0 2 2 2 0 6 
1 3 0 17 1 7 0 30 1 10 0 39 1 11 0 53 
1 10 0 35 1 5 0 6 0 -6 1 -8 0 -82 1 -32 
0 -144 1 -36 0 -133 1 -29 0 -96 1 -19 0 -63 1 -13 
0 -50 1 -8 0 -26 1 -6 0 -18 1 -4 0 -14 1 -3 
0 -10 1 -2 0 -8 3275 3266 300 MP stroke
1 -2 0 -6 1 -1 0 -5 1 -1 0 -4 1 -1 0 -3 
1 -1 0 -2 1 -1 0 -2 2 -2 1 -1 1 -1 1 0 
1 0 1 1 0 1 2 2 0 1 1 1 0 2 1 1 
0 3 1 1 0 3 1 1 0 5 1 1 0 5 1 2 
0 7 1 2 0 12 1 3 0 13 1 4 0 18 1 5 
0 24 1 8 0 35 1 11 0 54 1 16 0 82 1 25 
0 120 1 35 0 176 1 31 0 87 1 12 0 16 0 -1 
1 -2 0 -23 1 -7 0 -34 1 -9 0 -34 1 -9 0 -31 
1 -7 0 -23 1 -4 0 -15 1 -2 0 -12 1 -2 0 -8 
1 -2 0 -7 1 -1 0 -5 1 -1 0 -2 1 -1 0 -1 
1 -1 0 -4 1 -1 0 -5 1 -1 0 -8 1 -2 0 -11 
1 -3 0 -10 1 -2 0 -6 1 -1 1 1 0 4 1 2 
0 7 1 2 0 10 1 2 0 10 1 2 0 11 1 2 
0 7 1 2 0 5 1 1 0 4 1 1 0 3 1 1 
0 1 1 1 0 2 1 1 0 7 1 3 0 17 1 6 
0 37 1 9 0 37 1 10 0 37 1 9 0 26 1 4 
0 1 0 -13 1 -11 0 -84 1 -67 0 -127 1 -32 0 -115 
1 -25 0 -82 1 -17 0 -66 1 -11 0 -34 1 -8 0 -24 
1 -5 0 -17 1 -4 0 -13 1 -3 0 -10 1 -2 0 -7 
1 -2 0 -6 1 -1 0 -6 1 -1 0 -3 1 -1 0 -3 
1 -1 0 -2 1 -1 0 -1 1 -1 1 -1 1 -1 1 0 
1 0 1 0 1 1 0 2 2 2 0 2 1 1 0 3 
1 1 0 3 1 1 0 5 1 1 0 6 1 2 0 9 
1 2 0 10 1 3 0 13 1 4 0 17 1 6 0 24 
1 7 0 35 1 11 0 51 1 15 0 77 1 23 0 141 
1 32 0 129 1 30 0 88 1 13 0 24 1 0 0 -15 
1 -6 0 -29 1 -8 0 -32 1 -7 0 -29 1 -7 0 -22 
1 -4 0 -17 1 -3 0 -9 1 -2 0 -8 1 -2 0 -6 
1 -2 0 -4 1 -1 0 -3 1 -1 0 -2 1 -1 0 -3 
1 -2 0 -5 1 -2 0 -9 1 -2 0 -9 1 -2 0 -9 
1 -2 0 -4 1 -1 0 1 1 1 0 5 1 1 0 8 
1 2 0 9 1 2 0 12 1 2 0 8 1 1 0 7 
1 1 0 5 1 1 0 4 1 1 0 2 1 1 0 2 
1 1 0 4 1 2 0 10 1 4 0 28 1 7 0 31 
1 9 0 34 1 9 0 29 1 5 0 8 0 -1 1 -4 
0 -45 1 -19 0 -110 1 -29 0 -118 1 -29 0 -99 1 -22 
0 -86 1 -13 0 -45 1 -10 0 -31 1 -6 0 -23 1 -4 
0 -17 1 -3 0 -13 3118 3240 300 MP stroke
1 -2 0 -10 1 -2 0 -7 1 -2 0 -5 1 -2 0 -5 
1 -1 0 -3 1 -1 0 -2 1 -1 0 -2 1 -1 0 -1 
1 -1 1 -1 1 -1 1 0 1 1 1 1 0 1 2 2 
0 2 1 1 0 3 1 1 0 4 1 1 0 5 1 1 
0 6 1 2 0 9 1 2 0 11 1 3 0 13 1 4 
0 18 1 5 0 25 1 7 0 36 1 10 0 51 1 15 
0 75 1 22 0 103 1 29 0 149 1 26 0 82 1 14 
0 25 1 1 0 -11 1 -5 0 -25 1 -7 0 -29 1 -7 
0 -26 1 -6 0 -20 1 -4 0 -16 1 -3 0 -9 1 -2 
0 -7 1 -2 0 -6 1 -1 0 -5 1 -1 0 -2 1 -1 
0 -3 1 -1 0 -4 1 -1 0 -6 1 -2 0 -9 1 -2 
0 -9 1 -2 0 -7 1 -1 0 -3 1 1 0 2 1 1 
0 5 1 2 0 8 1 2 0 9 1 2 0 8 1 2 
0 9 1 2 0 6 1 1 0 4 1 1 0 3 1 1 
0 2 1 1 0 4 1 1 0 8 1 3 0 16 1 5 
0 32 1 7 0 31 1 8 0 27 1 6 0 12 1 -1 
0 -28 1 -14 0 -115 1 -26 0 -108 1 -27 0 -97 1 -21 
0 -72 1 -14 0 -61 1 -10 0 -32 1 -7 0 -24 1 -5 
0 -17 1 -4 0 -13 1 -2 0 -10 1 -2 0 -8 1 -2 
0 -6 1 -1 0 -5 1 -1 0 -4 1 -1 0 -3 1 -1 
0 -2 2 -2 1 -1 1 -1 1 0 1 0 0 2 2 2 
0 1 1 1 0 3 1 1 0 3 1 1 0 4 1 1 
0 6 1 1 0 7 1 2 0 9 1 3 0 14 1 4 
0 16 1 4 0 22 1 6 0 30 1 9 0 42 1 12 
0 61 1 18 0 85 1 24 0 108 1 27 0 104 1 21 
0 71 1 6 0 8 1 -2 0 -16 1 -6 0 -24 1 -7 
0 -25 1 -6 0 -22 1 -4 0 -16 1 -3 0 -10 1 -3 
0 -10 1 -2 0 -6 1 -2 0 -5 1 -1 0 -3 1 -1 
0 -3 1 -1 0 -4 1 -1 0 -5 1 -1 0 -7 1 -2 
0 -8 1 -2 0 -9 1 -1 1 -3 -1 0 2 2 0 4 
1 2 0 7 1 2 0 8 1 2 0 8 1 2 0 7 
1 2 0 6 1 1 0 6 1 1 0 3 1 1 0 3 
1 1 0 4 1 1 0 8 1 3 0 15 1 5 0 23 
1 7 0 27 1 7 0 24 1 5 0 10 1 -3 0 -34 
1 -14 0 -88 1 -23 0 -100 1 -25 0 -93 1 -21 0 -71 
1 -15 0 -51 1 -11 0 -36 1 -8 0 -32 1 -5 0 -18 
1 -4 0 -14 1 -2 0 -11 1 -2 0 -8 1 -2 0 -6 
1 -2 0 -5 1 -1 2960 3265 300 MP stroke
0 -4 1 -1 0 -2 1 -1 0 -3 1 -1 0 -1 1 -1 
1 -1 1 0 1 0 1 0 -1 0 2 2 0 1 1 1 
0 2 1 1 0 3 1 1 0 4 1 1 0 5 1 1 
0 7 1 1 0 8 1 3 0 10 1 3 0 13 1 4 
0 18 1 5 0 31 1 7 0 36 1 10 0 50 1 15 
0 70 1 20 0 92 1 25 0 102 1 24 0 80 1 15 
0 36 1 4 0 3 0 -2 1 -2 0 -22 1 -5 0 -23 
1 -6 0 -22 1 -5 0 -16 1 -4 0 -12 1 -3 0 -8 
1 -2 0 -8 1 -1 0 -6 1 -1 0 -4 1 -1 0 -4 
1 -1 0 -4 1 -1 0 -5 1 -1 0 -6 1 -2 0 -7 
1 -2 0 -7 1 -2 0 -4 1 -1 1 0 0 5 1 1 
0 6 1 2 0 8 1 2 0 8 1 1 0 7 1 2 
0 6 1 1 0 5 1 1 0 4 1 1 0 3 1 1 
0 5 1 1 0 8 1 3 0 14 1 5 0 21 1 6 
0 24 1 6 0 21 1 3 0 5 1 -3 0 -29 1 -13 
0 -99 1 -22 0 -117 1 -23 0 -82 1 -19 0 -63 1 -13 
0 -46 1 -9 0 -33 1 -7 0 -24 1 -5 0 -18 1 -4 
0 -13 1 -3 0 -13 1 -2 0 -7 1 -2 0 -6 1 -1 
0 -5 1 -1 0 -4 1 -1 0 -2 1 -1 0 -2 1 -1 
1 -1 1 -1 1 -1 1 1 0 1 2 2 0 2 1 1 
0 3 1 1 0 3 1 1 0 5 1 1 0 7 1 1 
0 10 1 2 0 11 1 3 0 14 1 3 0 18 1 6 
0 24 1 7 0 33 1 9 0 46 1 14 0 64 1 18 
0 84 1 23 0 118 1 22 0 75 1 14 0 36 1 5 
0 4 0 -1 1 -1 0 -14 1 -5 0 -20 1 -5 0 -20 
1 -5 0 -16 1 -4 0 -14 1 -3 0 -8 1 -2 0 -7 
1 -2 0 -5 1 -1 0 -4 1 -1 0 -4 1 -1 0 -3 
1 -1 0 -5 1 -2 0 -6 1 -1 0 -9 1 -2 0 -5 
1 -2 0 -2 1 -1 0 1 1 1 0 4 1 1 0 7 
1 1 0 8 1 2 0 7 1 2 0 6 1 2 0 6 
1 2 0 4 1 1 0 3 1 1 0 4 1 1 0 5 
1 2 0 10 1 3 0 17 1 4 0 21 1 6 0 24 
1 4 0 8 1 -1 0 -18 1 -10 0 -57 1 -20 0 -86 
1 -22 0 -86 1 -21 0 -73 1 -17 0 -55 1 -12 0 -41 
1 -9 0 -36 1 -6 0 -21 1 -4 0 -16 1 -3 0 -12 
1 -3 0 -9 1 -2 0 -7 1 -2 0 -6 1 -1 0 -4 
1 -1 0 -3 1 -1 0 -3 1 -1 0 -1 1 -1 1 -1 
1 -1 1 1 1 1 2804 3269 300 MP stroke
1 1 0 2 1 1 0 3 1 1 0 4 1 1 0 5 
1 2 0 6 1 2 0 8 1 2 0 11 1 2 0 14 
1 4 0 17 1 5 0 24 1 7 0 41 1 10 0 47 
1 14 0 63 1 18 0 81 1 22 0 89 1 21 0 73 
1 15 0 39 1 5 0 7 1 1 0 -10 1 -4 0 -22 
1 -5 0 -17 1 -5 0 -14 1 -3 0 -11 1 -3 0 -8 
1 -2 0 -7 1 -1 0 -5 1 -2 0 -3 1 -1 0 -5 
1 -1 0 -4 1 -1 0 -5 1 -2 0 -6 1 -1 0 -7 
1 -1 0 -5 1 -1 1 -2 -1 0 2 2 0 4 1 2 
0 8 1 2 0 7 1 1 0 7 1 2 0 6 1 1 
0 5 1 1 0 4 1 1 0 3 1 1 0 5 1 1 
0 7 1 2 0 15 1 4 0 18 1 4 0 19 1 4 
0 12 1 2 0 -6 1 -5 0 -36 1 -14 0 -92 1 -20 
0 -82 1 -20 0 -92 1 -16 0 -56 1 -12 0 -41 1 -9 
0 -31 1 -7 0 -22 1 -5 0 -17 1 -4 0 -13 1 -3 
0 -10 1 -2 0 -8 1 -2 0 -7 1 -2 0 -4 1 -1 
0 -4 1 -1 0 -2 1 -1 0 -1 1 -1 1 -1 1 -1 
1 0 -1 0 2 2 0 1 1 1 0 2 1 1 0 3 
1 1 0 4 1 1 0 6 1 1 0 7 1 2 0 9 
1 3 0 11 1 3 0 15 1 4 0 25 1 6 0 27 
1 8 0 37 1 11 0 51 1 14 0 67 1 18 0 81 
1 21 0 81 1 18 0 61 1 11 0 32 1 2 0 2 
0 -2 1 -2 0 -12 1 -4 0 -16 1 -4 0 -16 1 -3 
0 -13 1 -2 0 -10 1 -2 0 -7 1 -2 0 -6 1 -1 
0 -6 1 -1 0 -4 1 -1 0 -3 1 -2 0 -4 1 -1 
0 -6 1 -1 0 -6 1 -2 0 -5 1 -1 0 -3 1 -1 
1 1 0 4 1 1 0 6 1 2 0 6 1 2 0 7 
1 1 0 6 1 1 0 6 1 1 0 4 1 1 0 4 
1 1 0 5 1 1 0 7 1 2 0 11 1 3 0 16 
1 4 0 16 1 4 0 10 1 1 0 1 0 -6 1 -4 
0 -33 1 -12 0 -67 1 -17 0 -95 1 -19 0 -73 1 -16 
0 -59 1 -13 0 -44 1 -10 0 -33 1 -7 0 -25 1 -6 
0 -18 1 -4 0 -15 1 -3 0 -11 1 -2 0 -11 1 -2 
0 -6 1 -1 0 -5 1 -1 0 -4 1 -1 0 -3 1 -1 
0 -1 1 -1 1 -1 1 -1 1 1 0 1 2 2 0 2 
1 1 0 4 1 1 0 4 1 2 0 6 1 1 0 8 
1 2 0 10 1 2 0 16 1 4 0 17 1 5 0 22 
1 7 0 29 1 9 2650 3105 300 MP stroke
0 40 1 12 0 53 1 16 0 68 1 18 0 78 1 20 
0 72 1 16 0 57 1 8 0 15 1 1 0 1 0 -4 
1 -2 0 -12 1 -3 0 -15 1 -4 0 -13 1 -3 0 -10 
1 -2 0 -9 1 -2 0 -8 1 -1 0 -5 1 -1 0 -4 
1 -1 0 -4 1 -1 0 -4 1 -1 0 -5 1 -2 0 -5 
1 -2 0 -5 1 -1 0 -4 1 -1 0 -1 1 1 0 2 
1 1 0 5 1 1 0 6 1 2 0 6 1 2 0 6 
1 1 0 5 1 1 0 5 1 1 0 4 1 1 0 5 
1 1 0 6 1 2 0 9 1 3 0 13 1 4 0 14 
1 3 0 9 1 1 0 -5 1 -3 0 -30 1 -11 0 -94 
1 -17 0 -73 1 -18 0 -68 1 -15 0 -56 1 -12 0 -43 
1 -9 0 -32 1 -7 0 -24 1 -5 0 -18 1 -4 0 -14 
1 -3 0 -13 1 -3 0 -8 1 -1 0 -7 1 -1 0 -5 
1 -1 0 -3 1 -1 0 -2 1 -1 0 -2 1 -1 1 -1 
1 0 0 1 2 2 0 2 1 1 0 3 1 1 0 4 
1 2 0 5 1 2 0 7 1 2 0 9 1 3 0 12 
1 3 0 20 1 4 0 21 1 6 0 28 1 8 0 38 
1 10 0 50 1 14 0 63 1 17 0 73 1 19 0 70 
1 16 0 62 1 9 0 21 1 2 0 2 1 -2 0 -9 
1 -3 0 -12 1 -4 0 -12 1 -3 0 -10 1 -2 0 -8 
1 -2 0 -6 1 -2 0 -6 1 -1 0 -4 1 -1 0 -4 
1 -1 0 -4 1 -2 0 -4 1 -2 0 -5 1 -1 0 -5 
1 -1 0 -3 1 -1 0 -1 1 1 0 3 1 1 0 4 
1 2 0 6 1 1 0 6 1 2 0 5 1 2 0 4 
1 1 0 5 1 1 0 3 1 1 0 6 1 1 0 7 
1 2 0 10 1 3 0 13 1 3 0 10 1 2 0 2 
1 -2 0 -16 1 -8 0 -42 1 -14 0 -65 1 -16 0 -86 
1 -17 0 -62 1 -14 0 -50 1 -11 0 -38 1 -9 0 -29 
1 -6 0 -22 1 -5 0 -17 1 -3 0 -13 1 -3 0 -10 
1 -2 0 -10 1 -2 0 -5 1 -2 0 -4 1 -1 0 -3 
1 -1 0 -2 1 -1 1 -1 1 -1 1 1 1 1 0 2 
1 1 0 3 1 1 0 4 1 1 0 6 1 1 0 7 
1 2 0 9 1 3 0 11 1 4 0 15 1 4 0 25 
1 6 0 27 1 8 0 35 1 11 0 46 1 14 0 59 
1 16 0 69 1 18 0 67 1 16 0 52 1 10 0 28 
1 5 0 6 1 1 0 -7 1 -2 0 -11 1 -3 0 -11 
1 -3 0 -9 1 -3 0 -7 1 -2 0 -6 1 -2 0 -5 
1 -1 0 -5 1 -1 2497 2734 300 MP stroke
0 -4 1 -1 0 -4 1 -1 0 -5 1 -1 0 -5 1 -1 
0 -5 1 -1 0 -2 2 0 0 2 1 1 0 6 1 2 
0 5 1 2 0 5 1 2 0 5 1 1 0 4 1 2 
0 3 1 1 0 4 1 1 0 5 1 2 0 7 1 2 
0 12 1 3 0 10 1 2 0 2 1 3 0 -7 1 -5 
0 -28 1 -10 0 -70 1 -15 0 -64 1 -16 0 -64 1 -15 
0 -54 1 -12 0 -52 1 -9 0 -31 1 -7 0 -24 1 -5 
0 -18 1 -4 0 -14 1 -3 0 -11 1 -3 0 -8 1 -2 
0 -7 1 -1 0 -6 1 -1 0 -3 1 -1 0 -3 2 -2 
1 -1 1 1 1 1 0 2 1 1 0 3 1 1 0 5 
1 1 0 6 1 2 0 8 1 2 0 9 1 3 0 13 
1 3 0 16 1 5 0 21 1 6 0 28 1 8 0 36 
1 10 0 60 1 14 0 60 1 16 0 67 1 16 0 61 
1 14 0 43 1 8 0 22 1 3 0 4 1 -1 0 -5 
1 -2 0 -13 1 -2 0 -10 1 -2 0 -8 1 -2 0 -7 
1 -1 0 -6 1 -1 0 -5 1 -1 0 -3 1 -1 0 -4 
1 -1 0 -5 1 -1 0 -6 1 -1 0 -4 1 -1 0 -3 
1 -1 1 -1 -1 0 2 2 0 4 1 1 0 5 1 1 
0 6 1 1 0 5 1 2 0 5 1 1 0 4 1 1 
0 4 1 1 0 5 1 1 0 6 1 2 0 8 1 2 
0 9 1 2 0 5 1 1 0 -7 1 -4 0 -26 1 -9 
0 -48 1 -16 0 -59 1 -15 0 -62 1 -15 0 -55 1 -13 
0 -45 1 -10 0 -35 1 -8 0 -27 1 -6 0 -25 1 -4 
0 -15 1 -4 0 -11 1 -3 0 -9 1 -2 0 -7 1 -2 
0 -5 1 -1 0 -4 1 -1 0 -2 1 -1 0 -2 1 -1 
1 -1 1 1 1 1 0 2 1 1 0 4 1 1 0 4 
1 1 0 6 1 2 0 8 1 2 0 13 1 3 0 13 
1 4 0 18 1 5 0 22 1 7 0 29 1 9 0 38 
1 11 0 49 1 13 0 59 1 15 0 64 1 15 0 69 
1 12 0 36 1 6 0 16 1 2 0 2 1 -1 0 -6 
1 -2 0 -8 1 -3 0 -8 1 -2 0 -8 1 -1 0 -6 
1 -2 0 -6 1 -1 0 -4 1 -1 0 -4 1 -1 0 -4 
1 -1 0 -4 1 -2 0 -4 1 -1 0 -4 1 -1 0 -1 
1 -1 1 1 0 2 1 1 0 5 1 1 0 5 1 1 
0 5 1 1 0 5 1 1 0 4 1 1 0 4 1 1 
0 4 1 1 0 6 1 2 0 7 1 2 0 7 1 2 
0 4 1 1 0 -4 1 -3 0 -20 1 -7 0 -41 1 -12 
0 -70 1 -15 0 -59 2342 2922 300 MP stroke
1 -15 0 -66 1 -12 0 -43 1 -10 0 -33 1 -8 0 -25 
1 -6 0 -20 1 -5 0 -15 1 -3 0 -12 1 -3 0 -9 
1 -2 0 -7 1 -2 0 -7 1 -1 0 -3 1 -1 0 -3 
2 -2 1 0 1 0 -1 0 2 2 0 3 1 1 0 5 
1 1 0 6 1 1 0 8 1 2 0 9 1 3 0 12 
1 3 0 16 1 4 0 21 1 5 0 27 1 7 0 34 
1 10 0 55 1 13 0 55 1 14 0 61 1 15 0 56 
1 13 0 42 1 8 0 24 1 3 0 7 1 1 0 -2 
1 -1 0 -7 1 -2 0 -10 1 -2 0 -7 1 -1 0 -6 
1 -1 0 -5 1 -1 0 -5 1 -1 0 -3 1 -1 0 -4 
1 -1 0 -4 1 -2 0 -5 1 -1 0 -3 1 -1 0 -1 
1 -1 1 1 0 2 1 1 0 4 1 2 0 4 1 2 
0 4 1 2 0 4 1 1 0 5 1 1 0 3 1 1 
0 4 1 2 0 5 1 1 0 6 1 2 0 6 1 1 
0 1 1 -1 0 -9 1 -4 0 -25 1 -9 0 -58 1 -13 
0 -55 1 -14 0 -56 1 -14 0 -49 1 -12 0 -40 1 -10 
0 -32 1 -7 0 -25 1 -5 0 -20 1 -4 0 -18 1 -3 
0 -11 1 -3 0 -8 1 -2 0 -7 1 -1 0 -5 1 -1 
0 -3 1 -1 0 -2 1 -1 1 -1 1 0 -1 0 2 2 
0 2 1 1 0 4 1 1 0 5 1 1 0 7 1 2 
0 8 1 3 0 11 1 3 0 14 1 5 0 18 1 5 
0 31 1 7 0 33 1 9 0 42 1 11 0 51 1 13 
0 57 1 15 0 56 1 13 0 45 1 9 0 29 1 5 
0 14 1 1 0 -1 1 -1 0 -5 1 -2 0 -7 1 -1 
0 -7 1 -1 0 -6 1 -1 0 -5 1 -1 0 -4 1 -1 
0 -4 1 -1 0 -5 1 -1 0 -4 1 -1 0 -4 1 -1 
0 -3 1 -1 1 -1 1 0 0 3 1 1 0 3 1 1 
0 5 1 1 0 6 1 1 0 4 1 1 0 3 1 1 
0 4 1 1 0 4 1 1 0 5 1 1 0 5 1 1 
0 3 1 1 0 1 0 -4 1 -3 0 -17 1 -6 0 -34 
1 -11 0 -62 1 -13 0 -54 1 -14 0 -51 1 -12 0 -44 
1 -10 0 -36 1 -8 0 -28 1 -6 0 -26 1 -5 0 -16 
1 -3 0 -13 1 -2 0 -10 1 -2 0 -8 1 -1 0 -6 
1 -1 0 -4 1 -1 0 -2 1 -1 0 -1 1 -1 1 0 
-1 0 2 2 0 2 1 1 0 3 1 1 0 5 1 2 
0 7 1 2 0 8 1 3 0 11 1 4 0 14 1 4 
0 25 1 5 0 26 1 7 0 33 1 9 0 41 1 12 
0 49 1 13 0 55 2188 2881 300 MP stroke
1 14 0 53 1 12 0 42 1 9 0 31 1 4 0 9 
1 1 1 -1 0 -5 1 -1 0 -6 1 -1 0 -6 1 -1 
0 -6 1 -1 0 -4 1 -1 0 -4 1 -1 0 -5 1 -1 
0 -3 1 -1 0 -4 1 -1 0 -4 1 -1 0 -1 1 -1 
1 -1 -1 0 2 2 0 2 1 1 0 4 1 1 0 6 
1 1 0 4 1 1 0 3 1 1 0 4 1 1 0 3 
1 1 0 4 1 1 0 4 1 1 0 3 1 1 0 -2 
1 -2 0 -13 1 -5 0 -28 1 -9 0 -45 1 -11 0 -51 
1 -13 0 -51 1 -13 0 -46 1 -11 0 -39 1 -9 0 -31 
1 -6 0 -30 1 -5 0 -18 1 -4 0 -14 1 -3 0 -11 
1 -2 0 -8 1 -2 0 -6 1 -2 0 -4 1 -1 0 -3 
1 -1 0 -1 1 -1 1 0 1 1 0 2 1 1 0 4 
1 1 0 5 1 1 0 7 1 2 0 9 1 3 0 12 
1 3 0 20 1 4 0 21 1 6 0 26 1 8 0 33 
1 10 0 42 1 11 0 49 1 13 0 53 1 14 0 49 
1 11 0 38 1 8 0 27 1 3 0 7 1 1 1 -1 
0 -4 1 -1 0 -6 1 -1 0 -5 1 -1 0 -5 1 -1 
0 -4 1 -1 0 -3 1 -1 0 -5 1 -1 0 -3 1 -1 
0 -4 1 -1 0 -3 2 -2 1 1 0 1 1 1 0 4 
1 1 0 5 1 1 0 4 1 1 0 3 1 1 0 3 
1 1 0 3 1 1 0 3 1 1 0 4 1 1 1 3 
-1 0 2 -3 0 -14 1 -4 0 -26 1 -9 0 -53 1 -11 
0 -49 1 -12 0 -50 1 -12 0 -44 1 -10 0 -37 1 -9 
0 -29 1 -7 0 -23 1 -5 0 -23 1 -3 0 -14 1 -3 
0 -10 1 -2 0 -8 1 -2 0 -6 1 -1 0 -4 1 -1 
0 -3 2 -2 1 0 0 2 1 1 0 2 1 1 0 5 
1 1 0 6 1 2 0 8 1 3 0 11 1 3 0 14 
1 4 0 18 1 5 0 29 1 7 0 31 1 9 0 38 
1 11 0 45 1 12 0 51 1 13 0 49 1 12 0 40 
1 9 0 27 1 5 0 13 1 2 0 3 1 1 0 -3 
1 -1 0 -4 1 -1 0 -5 1 -1 0 -4 1 -1 0 -4 
1 -1 0 -3 1 -1 0 -4 1 -1 0 -3 1 -1 0 -4 
1 -1 0 -3 2 -2 1 1 0 1 1 1 0 3 1 1 
0 4 1 1 0 4 1 1 0 4 1 1 0 3 1 1 
0 2 1 1 0 3 1 1 0 2 1 1 1 1 0 -4 
1 -3 0 -13 1 -5 0 -28 1 -8 0 -52 1 -11 0 -47 
1 -13 0 -47 1 -11 0 -43 1 -9 0 -36 1 -8 0 -28 
1 -6 0 -23 1 -5 2030 3132 300 MP stroke
0 -17 1 -4 0 -14 1 -3 0 -13 1 -2 0 -7 1 -2 
0 -5 1 -2 0 -3 1 -1 0 -2 1 -1 1 -1 1 1 
0 2 1 1 0 4 1 1 0 6 1 2 0 7 1 2 
0 10 1 3 0 13 1 3 0 17 1 4 0 22 1 5 
0 27 1 8 0 34 1 9 0 52 1 11 0 48 1 12 
0 49 1 12 0 42 1 9 0 31 1 6 0 17 1 3 
0 7 2 0 0 -3 1 -1 0 -5 1 -1 0 -4 1 -1 
0 -3 1 -1 0 -3 1 -1 0 -4 1 -1 0 -3 1 -1 
0 -3 1 -1 0 -3 2 -2 1 1 0 1 1 1 0 3 
1 1 0 3 1 1 0 4 1 1 0 3 1 1 0 2 
1 1 0 2 1 1 0 3 1 1 0 1 1 1 0 -1 
1 -1 0 -8 1 -3 0 -17 1 -6 0 -31 1 -9 0 -53 
1 -11 0 -46 1 -12 0 -44 1 -11 0 -48 1 -9 0 -31 
1 -7 0 -25 1 -5 0 -20 1 -4 0 -15 1 -4 0 -11 
1 -3 0 -9 1 -2 0 -7 1 -1 0 -6 1 -1 0 -2 
1 -1 1 -1 1 0 0 2 1 1 0 3 1 1 0 5 
1 2 0 7 1 2 0 9 1 3 0 16 1 3 0 17 
1 5 0 21 1 6 0 27 1 8 0 33 1 10 0 40 
1 11 0 46 1 12 0 46 1 12 0 41 1 10 0 37 
1 5 0 17 1 2 0 7 1 1 1 0 0 -2 1 -1 
0 -4 1 -1 0 -3 1 -1 0 -3 1 -1 0 -3 1 -1 
0 -4 1 -1 0 -3 1 -1 0 -3 1 -1 0 -1 1 -1 
1 -1 1 1 0 1 1 1 0 3 1 1 0 4 1 1 
0 3 1 1 0 2 1 1 0 2 1 1 0 2 1 1 
0 1 1 1 1 -1 0 -4 1 -2 0 -13 1 -4 0 -31 
1 -8 0 -39 1 -10 0 -43 1 -11 0 -45 1 -11 0 -41 
1 -9 0 -35 1 -8 0 -29 1 -6 0 -23 1 -5 0 -18 
1 -3 0 -17 1 -3 0 -10 1 -2 0 -8 1 -1 0 -6 
1 -1 0 -3 1 -1 0 -1 1 -1 0 -1 0 1 2 2 
0 3 1 1 0 6 1 1 0 7 1 2 0 10 1 3 
0 12 1 4 0 16 1 5 0 21 1 6 0 26 1 8 
0 33 1 9 0 50 1 10 0 45 1 12 0 45 1 11 
0 38 1 9 0 28 1 5 0 16 1 3 0 7 1 1 
1 1 -1 0 2 -2 0 -4 1 -1 0 -3 1 -1 0 -3 
1 -1 0 -3 1 -1 0 -2 1 -1 0 -3 1 -1 0 -3 
2 -2 0 -1 0 1 2 2 0 2 1 1 0 2 1 1 
0 3 1 1 0 3 1 1 0 1 1 1 0 2 1 1 
1 1 1 -1 0 -4 1871 2755 300 MP stroke
1 -2 0 -12 1 -4 0 -22 1 -7 0 -34 1 -20 0 -41 
1 -11 0 -43 1 -10 0 -41 1 -9 0 -35 1 -8 0 -35 
1 -6 0 -22 1 -4 0 -17 1 -4 0 -13 1 -3 0 -10 
1 -3 0 -7 1 -2 0 -5 1 -1 0 -3 1 -1 0 -1 
1 -1 1 1 0 2 1 1 0 3 1 2 0 6 1 1 
0 8 1 3 0 11 1 3 0 14 1 4 0 18 1 5 
0 30 1 7 0 30 1 8 0 37 1 10 0 41 1 11 
0 44 1 11 0 41 1 10 0 33 1 6 0 22 1 4 
0 12 1 1 0 4 1 1 1 0 0 -2 1 -1 0 -3 
1 -1 0 -2 1 -1 0 -3 1 -1 0 -3 1 -1 0 -2 
1 -1 0 -3 1 -1 0 -1 1 -1 1 0 -1 0 2 2 
0 1 1 1 0 3 1 1 0 2 1 1 0 2 1 1 
0 2 1 1 0 1 1 1 1 0 -1 0 2 -2 0 -6 
1 -2 0 -13 1 -4 0 -23 1 -7 0 -34 1 -10 0 -39 
1 -10 0 -42 1 -11 0 -48 1 -9 0 -34 1 -7 0 -28 
1 -6 0 -22 1 -4 0 -18 1 -3 0 -14 1 -3 0 -10 
1 -2 0 -7 1 -2 0 -5 1 -1 0 -3 1 -1 1 -1 
1 1 0 2 1 1 0 5 1 1 0 7 1 2 0 9 
1 3 0 12 1 3 0 20 1 5 0 21 1 6 0 27 
1 7 0 33 1 9 0 38 1 10 0 42 1 11 0 42 
1 10 0 36 1 8 0 27 1 5 0 19 1 3 0 7 
2 2 1 -1 0 -2 1 -1 0 -2 1 -1 0 -3 1 -1 
0 -2 1 -1 0 -2 1 -1 0 -3 1 -1 0 -1 1 -1 
1 0 1 1 0 1 1 1 0 2 1 1 0 2 1 1 
0 2 1 1 0 2 2 2 1 -1 0 -2 1 -1 0 -7 
1 -2 0 -14 1 -5 0 -24 1 -7 0 -43 1 -9 0 -40 
1 -10 0 -50 1 -10 0 -36 1 -9 0 -30 1 -7 0 -25 
1 -6 0 -20 1 -4 0 -16 1 -3 0 -12 1 -3 0 -8 
1 -2 0 -7 1 -1 0 -5 1 -1 0 -1 2 0 0 2 
1 1 0 4 1 1 0 6 1 2 0 9 1 3 0 11 
1 4 0 19 1 5 0 21 1 6 0 26 1 7 0 32 
1 8 0 38 1 10 0 41 1 10 0 41 1 9 0 36 
1 8 0 26 1 5 0 19 1 3 0 7 1 1 0 1 
1 1 0 -1 2 -2 0 -2 1 -1 0 -2 1 -1 0 -2 
1 -1 0 -2 1 -1 0 -3 2 -2 1 0 -1 0 2 2 
0 1 1 1 0 2 1 1 0 2 1 1 0 1 1 1 
1 1 1 0 0 -2 1 -1 0 -5 1 -2 0 -12 1 -4 
0 -20 1 -7 0 -30 1710 2847 300 MP stroke
1 -9 0 -36 1 -10 0 -39 1 -10 0 -47 1 -9 0 -33 
1 -7 0 -28 1 -6 0 -22 1 -4 0 -18 1 -3 0 -14 
1 -3 0 -10 1 -2 0 -7 1 -1 0 -5 1 -1 0 -3 
1 -1 1 0 0 2 1 1 0 4 1 1 0 6 1 2 
0 9 1 2 0 12 1 3 0 16 1 4 0 20 1 6 
0 31 1 8 0 31 1 9 0 37 1 9 0 40 1 10 
0 39 1 10 0 33 1 8 0 24 1 5 0 16 1 3 
0 9 1 1 0 1 1 1 1 0 -1 0 2 -2 0 -2 
1 -1 0 -2 1 -1 0 -2 1 -1 0 -1 1 -1 0 -2 
2 -2 0 1 2 2 0 1 1 1 0 1 1 1 0 2 
1 1 1 1 1 0 -1 0 2 -2 0 -5 1 -2 0 -10 
1 -3 0 -18 1 -5 0 -27 1 -8 0 -43 1 -9 0 -38 
1 -10 0 -37 1 -9 0 -34 1 -7 0 -35 1 -6 0 -22 
1 -5 0 -17 1 -4 0 -13 1 -3 0 -10 1 -2 0 -7 
1 -2 0 -4 1 -1 0 -2 1 -1 1 0 0 3 1 1 
0 4 1 2 0 7 1 2 0 10 1 2 0 14 1 3 
0 17 1 5 0 22 1 6 0 27 1 8 0 32 1 9 
0 46 1 10 0 39 1 10 0 35 1 9 0 28 1 7 
0 19 1 4 0 12 1 2 0 5 1 1 0 1 1 1 
0 -1 2 -2 0 -2 1 -1 0 -1 1 -1 0 -2 1 -1 
0 -1 1 -1 1 -1 1 0 0 1 2 2 0 2 2 2 
1 1 1 0 0 -2 1 -1 0 -4 1 -2 0 -10 1 -3 
0 -16 1 -6 0 -33 1 -7 0 -34 1 -9 0 -37 1 -9 
0 -37 1 -8 0 -33 1 -8 0 -28 1 -6 0 -23 1 -5 
0 -18 1 -4 0 -18 1 -2 0 -10 1 -2 0 -7 1 -2 
0 -4 1 -1 0 -1 1 -1 1 0 0 3 1 1 0 5 
1 1 0 7 1 3 0 13 1 3 0 15 1 4 0 19 
1 5 0 24 1 7 0 29 1 7 0 34 1 9 0 38 
1 9 0 38 1 9 0 33 1 7 0 31 1 5 0 16 
1 3 0 8 1 1 0 3 1 1 1 1 1 -1 1 -1 
0 -2 1 -1 0 -2 1 -1 0 -1 1 -1 1 -1 1 0 
1 0 -1 0 2 2 0 2 2 2 1 0 1 -1 0 -2 
1 -1 0 -5 1 -2 0 -10 1 -4 0 -17 1 -6 0 -25 
1 -8 0 -41 1 -8 0 -37 1 -9 0 -35 1 -9 0 -39 
1 -7 0 -26 1 -6 0 -20 1 -5 0 -16 1 -4 0 -12 
1 -3 0 -9 1 -2 0 -6 1 -1 0 -3 1 -1 1 -1 
-1 0 2 2 0 4 1 2 0 7 1 2 0 10 1 3 
0 13 1 4 0 17 1545 3093 300 MP stroke
1 5 0 22 1 7 0 27 1 7 0 41 1 9 0 36 
1 10 0 36 1 9 0 33 1 7 0 25 1 5 0 17 
1 4 0 9 1 2 0 5 2 2 1 0 0 -2 2 -2 
0 -2 2 -2 1 -1 1 0 1 1 0 1 2 2 1 1 
1 -1 0 -1 1 -1 0 -4 1 -1 0 -8 1 -2 0 -14 
1 -5 0 -21 1 -6 0 -37 1 -8 0 -34 1 -9 0 -35 
1 -9 0 -33 1 -8 0 -29 1 -6 0 -24 1 -5 0 -19 
1 -4 0 -15 1 -3 0 -11 1 -2 0 -9 1 -2 0 -4 
1 -1 0 -1 1 -1 0 1 1 1 0 3 1 1 0 7 
1 1 0 9 1 3 0 13 1 3 0 17 1 5 0 27 
1 6 0 27 1 7 0 32 1 9 0 35 1 9 0 36 
1 8 0 33 1 7 0 26 1 5 0 18 1 3 0 12 
1 2 0 5 2 2 1 0 1 -1 0 -2 2 -2 1 -1 
1 -1 1 0 1 1 1 1 1 1 1 0 1 -1 0 -3 
1 -1 0 -6 1 -2 0 -11 1 -3 0 -23 1 -5 0 -27 
1 -7 0 -40 1 -8 0 -35 1 -8 0 -33 1 -8 0 -30 
1 -6 0 -25 1 -6 0 -19 1 -5 0 -18 1 -4 0 -10 
1 -3 0 -7 1 -1 0 -5 1 -1 0 -1 1 -1 0 1 
1 1 0 3 1 2 0 6 1 2 0 10 1 2 0 17 
1 5 0 18 1 5 0 23 1 6 0 28 1 8 0 32 
1 9 0 34 1 9 0 34 1 9 0 29 1 7 0 23 
1 5 0 18 1 2 0 8 1 2 0 3 1 1 0 1 
2 0 0 -1 2 -2 1 -1 1 -1 1 -1 1 1 1 1 
1 1 1 0 -1 0 2 -2 0 -3 1 -1 0 -5 1 -2 
0 -14 1 -3 0 -18 1 -6 0 -25 1 -7 0 -30 1 -9 
0 -33 1 -8 0 -34 1 -8 0 -29 1 -7 0 -26 1 -6 
0 -20 1 -5 0 -19 1 -4 0 -11 1 -2 0 -8 1 -1 
0 -5 1 -1 1 -2 -1 0 2 2 0 4 1 1 0 7 
1 3 0 10 1 3 0 18 1 5 0 19 1 6 0 24 
1 7 0 29 1 8 0 32 1 9 0 34 1 9 0 32 
1 8 0 26 1 6 0 24 1 3 0 11 1 3 0 6 
1 1 0 2 1 1 1 1 1 -1 1 -1 1 -1 1 -1 
1 -1 1 0 1 1 1 1 0 -1 2 -2 0 -3 1 -1 
0 -6 1 -2 0 -11 1 -4 0 -22 1 -5 0 -26 1 -7 
0 -38 1 -8 0 -33 1 -8 0 -32 1 -7 0 -28 1 -7 
0 -23 1 -5 0 -19 1 -4 0 -17 1 -3 0 -10 1 -2 
0 -6 1 -1 0 -3 2 0 0 3 1 1 0 6 1 2 
0 9 1 3 0 14 1369 3095 300 MP stroke
1 3 0 23 1 5 0 23 1 7 0 28 1 7 0 32 
1 8 0 34 1 8 0 32 1 7 0 27 1 6 0 20 
1 4 0 13 1 3 0 9 1 1 0 3 1 1 1 1 
1 0 1 -1 1 -1 1 -1 1 0 1 0 1 0 1 0 
1 -1 0 -2 1 -1 0 -5 1 -2 0 -8 1 -3 0 -13 
1 -5 0 -20 1 -6 0 -34 1 -7 0 -31 1 -8 0 -32 
1 -8 0 -30 1 -7 0 -26 1 -6 0 -21 1 -5 0 -17 
1 -3 0 -13 1 -2 0 -9 1 -2 0 -6 2 -2 0 2 
1 1 0 5 1 2 0 8 1 3 0 12 1 4 0 16 
1 5 0 21 1 6 0 33 1 7 0 31 1 8 0 33 
1 8 0 31 1 8 0 27 1 6 0 20 1 4 0 14 
1 3 0 8 1 1 0 4 1 1 0 2 1 1 1 0 
1 -1 1 -1 1 0 1 -1 1 0 1 0 1 0 0 -2 
1 -1 0 -3 1 -2 0 -6 1 -2 0 -11 1 -4 0 -16 
1 -5 0 -24 1 -7 0 -35 1 -8 0 -31 1 -8 0 -30 
1 -8 0 -33 1 -6 0 -22 1 -5 0 -18 1 -4 0 -13 
1 -2 0 -9 1 -2 0 -5 1 -1 0 -2 1 -1 0 1 
1 1 0 7 1 1 0 9 1 3 0 13 1 4 0 17 
1 5 0 22 1 6 0 26 1 7 0 31 1 8 0 32 
1 8 0 30 1 7 0 32 1 5 0 18 1 4 0 12 
1 2 0 7 1 1 0 4 1 1 1 1 1 1 1 -1 
1 -1 1 0 1 0 1 -1 1 0 -1 0 2 -2 0 -3 
1 -1 0 -6 1 -2 0 -9 1 -3 0 -20 1 -4 0 -23 
1 -6 0 -27 1 -8 0 -30 1 -8 0 -30 1 -8 0 -28 
1 -6 0 -24 1 -5 0 -19 1 -4 0 -15 1 -3 0 -12 
1 -2 0 -5 1 -1 1 -2 -1 0 2 2 0 5 1 2 
0 8 1 3 0 13 1 4 0 17 1 5 0 23 1 6 
0 34 1 7 0 31 1 8 0 31 1 8 0 28 1 7 
0 23 1 5 0 17 1 3 0 11 1 2 0 6 1 1 
0 3 1 1 1 1 1 0 1 0 1 -1 1 0 1 0 
0 -1 2 -2 0 -4 1 -1 0 -6 1 -2 0 -10 1 -3 
0 -16 1 -4 0 -22 1 -6 0 -33 1 -7 0 -30 1 -8 
0 -30 1 -7 0 -27 1 -6 0 -28 1 -4 0 -17 1 -4 
0 -12 1 -3 0 -8 1 -2 0 -4 1 -1 1 0 0 3 
1 1 0 7 1 2 0 15 1 3 0 17 1 4 0 21 
1 6 0 26 1 7 0 29 1 8 0 30 1 8 0 29 
1 7 0 25 1 5 0 18 1 4 0 15 1 2 0 7 
1 1 0 4 2 2 1199 2803 300 MP stroke
1 0 1 0 1 0 1 -1 1 0 -1 0 2 -2 0 -2 
1 -1 0 -4 1 -1 0 -7 1 -3 0 -11 1 -4 0 -17 
1 -5 0 -23 1 -6 0 -27 1 -7 0 -37 1 -7 0 -29 
1 -6 0 -25 1 -6 0 -21 1 -4 0 -16 1 -3 0 -11 
1 -3 0 -7 1 -1 0 -2 1 -1 1 1 0 7 1 2 
0 10 1 3 0 14 1 4 0 19 1 5 0 24 1 6 
0 28 1 7 0 30 1 8 0 29 1 7 0 26 1 6 
0 24 1 4 0 13 1 2 0 8 1 2 0 4 1 1 
0 1 1 1 1 1 1 0 1 0 1 -1 0 -1 2 -2 
0 -2 1 -1 0 -5 1 -2 0 -8 1 -3 0 -13 1 -4 
0 -18 1 -6 0 -24 1 -13 0 -35 1 -8 0 -28 1 -7 
0 -27 1 -6 0 -22 1 -5 0 -17 1 -4 0 -12 1 -3 
0 -8 1 -2 0 -3 1 -1 1 1 0 6 1 2 0 10 
1 3 0 14 1 4 0 19 1 6 0 24 1 6 0 28 
1 7 0 30 1 7 0 29 1 6 0 25 1 5 0 23 
1 3 0 12 1 2 0 7 1 2 0 4 2 2 1 1 
1 0 1 0 -1 0 2 -2 1 -1 0 -3 1 -1 0 -4 
1 -2 0 -8 1 -2 0 -13 1 -4 0 -17 1 -6 0 -23 
1 -7 0 -26 1 -7 0 -36 1 -7 0 -26 1 -6 0 -23 
1 -5 0 -18 1 -4 0 -13 1 -3 0 -9 1 -1 0 -4 
1 -1 1 1 0 5 1 2 0 12 1 3 0 15 1 4 
0 20 1 6 0 24 1 7 0 28 1 7 0 29 1 7 
0 27 1 7 0 22 1 5 0 20 1 3 0 10 1 2 
0 6 1 1 0 3 1 1 0 1 1 1 1 0 1 0 
0 -1 2 -2 0 -2 1 -1 0 -5 1 -1 0 -8 1 -2 
0 -12 1 -3 0 -18 1 -5 0 -22 1 -7 0 -32 1 -7 
0 -28 1 -7 0 -26 1 -6 0 -28 1 -5 0 -16 1 -4 
0 -12 1 -2 0 -7 1 -1 0 -2 1 -1 0 2 1 2 
0 6 1 3 0 11 1 4 0 21 1 5 0 23 1 6 
0 26 1 7 0 29 1 7 0 27 1 7 0 24 1 5 
0 18 1 4 0 12 1 3 0 8 1 1 0 5 1 1 
0 1 1 1 1 1 1 0 0 -1 2 -2 0 -3 1 -1 
0 -4 1 -2 0 -8 1 -2 0 -16 1 -4 0 -19 1 -5 
0 -24 1 -5 0 -27 1 -7 0 -27 1 -7 0 -25 1 -6 
0 -21 1 -5 0 -17 1 -3 0 -14 1 -2 0 -5 1 -1 
0 -1 1 1 0 4 1 2 0 9 1 3 0 14 1 4 
0 20 1 5 0 24 1 6 0 28 1 7 0 34 1 7 
0 25 1 5 0 20 1036 2861 300 MP stroke
1 4 0 14 1 3 0 9 1 2 0 5 1 1 0 2 
1 1 0 1 2 0 1 -1 0 -1 1 -1 0 -3 1 -1 
0 -6 1 -1 0 -9 1 -3 0 -14 1 -4 0 -19 1 -5 
0 -29 1 -7 0 -27 1 -7 0 -33 1 -6 0 -23 1 -5 
0 -18 1 -4 0 -13 1 -2 0 -8 1 -1 0 -1 1 -1 
0 2 1 2 0 8 1 2 0 17 1 4 0 20 1 5 
0 25 1 6 0 27 1 7 0 27 1 7 0 25 1 5 
0 20 1 4 0 14 1 2 0 9 1 2 0 6 1 1 
0 1 1 1 1 1 1 0 -1 0 2 -2 0 -2 1 -1 
0 -5 1 -1 0 -8 1 -2 0 -12 1 -4 0 -22 1 -5 
0 -24 1 -5 0 -26 1 -7 0 -26 1 -7 0 -24 1 -5 
0 -20 1 -4 0 -15 1 -3 0 -9 1 -1 0 -3 1 -1 
0 3 1 1 0 8 1 3 0 14 1 4 0 19 1 6 
0 23 1 7 0 26 1 7 0 27 1 6 0 24 1 6 
0 22 1 4 0 12 1 2 0 8 1 1 0 4 1 1 
0 1 1 1 1 1 1 -1 0 -2 1 -1 0 -4 1 -1 
0 -8 1 -3 0 -11 1 -3 0 -17 1 -5 0 -22 1 -6 
0 -30 1 -6 0 -27 1 -6 0 -24 1 -5 0 -20 1 -4 
0 -17 1 -2 0 -7 1 -1 0 -1 1 -1 0 4 1 2 
0 10 1 3 0 16 1 4 0 21 1 6 0 25 1 6 
0 27 1 7 0 31 1 5 0 21 1 4 0 14 1 3 
0 10 1 2 0 5 1 1 0 2 1 1 1 1 1 -1 
0 -1 1 -1 0 -5 1 -2 0 -7 1 -2 0 -12 1 -4 
0 -16 1 -5 0 -22 1 -6 0 -24 1 -6 0 -26 1 -7 
0 -23 1 -6 0 -23 1 -4 0 -12 1 -2 0 -6 1 -1 
0 -1 1 1 0 6 1 3 0 12 1 3 0 18 1 5 
0 23 1 6 0 26 1 7 0 32 1 6 0 22 1 5 
0 17 1 3 0 11 1 2 0 7 1 1 0 4 2 2 
1 -1 0 -2 1 -1 0 -6 1 -1 0 -9 1 -2 0 -13 
1 -4 0 -18 1 -6 0 -27 1 -7 0 -25 1 -7 0 -24 
1 -6 0 -21 1 -4 0 -15 1 -3 0 -11 1 -1 0 -2 
1 1 0 5 1 2 0 11 1 4 0 17 1 5 0 23 
1 6 0 25 1 7 0 25 1 6 0 28 1 4 0 16 
1 3 0 11 1 2 0 6 1 1 0 2 1 1 1 1 
-1 0 2 -2 0 -3 1 -1 0 -7 1 -2 0 -13 1 -4 
0 -16 1 -5 0 -21 1 -6 0 -23 1 -7 0 -24 1 -6 
0 -23 1 -5 0 -17 1 -3 0 -11 1 -2 0 -3 1 -1 
0 4 1 1 0 11 880 3025 300 MP stroke
1 3 0 17 1 5 0 22 1 6 0 26 1 6 0 25 
1 6 0 21 1 5 0 16 1 3 0 13 1 2 0 5 
1 1 0 2 1 1 1 0 0 -2 1 -1 0 -5 1 -2 
0 -9 1 -3 0 -13 1 -4 0 -19 1 -5 0 -34 1 -6 
0 -25 1 -6 0 -22 1 -5 0 -16 1 -4 0 -10 1 -1 
0 -2 1 -1 0 4 1 2 0 11 1 4 0 17 1 5 
0 29 1 6 0 25 1 6 0 24 1 5 0 19 1 4 
0 13 1 2 0 8 1 2 0 3 1 1 1 1 0 -2 
1 -1 0 -5 1 -1 0 -9 1 -3 0 -14 1 -4 0 -19 
1 -6 0 -21 1 -6 0 -25 1 -6 0 -22 1 -5 0 -18 
1 -3 0 -12 1 -1 0 -2 1 1 0 6 1 3 0 13 
1 5 0 19 1 6 0 24 1 6 0 25 1 6 0 22 
1 4 0 17 1 3 0 12 1 2 0 5 1 1 1 1 
-1 0 2 -2 0 -5 1 -1 0 -9 1 -3 0 -14 1 -4 
0 -20 1 -6 0 -33 1 -6 0 -24 1 -5 0 -19 1 -4 
0 -13 1 -2 0 -4 1 -1 0 4 1 1 0 12 1 4 
0 18 1 5 0 23 1 7 0 30 1 6 0 21 1 4 
0 15 1 3 0 10 1 2 0 4 1 1 1 1 0 -2 
1 -1 0 -7 1 -2 0 -11 1 -3 0 -22 1 -5 0 -20 
1 -6 0 -24 1 -6 0 -22 1 -4 0 -17 1 -3 0 -8 
1 -1 0 -1 0 1 1 1 0 9 1 3 0 22 1 5 
0 23 1 6 0 24 1 6 0 21 1 4 0 16 1 3 
0 10 1 1 0 5 2 0 0 -3 1 -1 0 -11 1 -3 
0 -14 1 -5 0 -20 1 -5 0 -28 1 -6 0 -22 1 -5 
0 -17 1 -3 0 -9 1 -1 0 -1 0 2 1 1 0 10 
1 3 0 24 1 5 0 24 1 6 0 23 1 6 0 18 
1 4 0 13 1 2 0 7 1 1 0 1 1 1 0 -3 
1 -1 0 -8 1 -3 0 -18 1 -4 0 -21 1 -5 0 -22 
1 -5 0 -23 1 -5 0 -16 1 -3 0 -6 1 -1 0 -1 
0 3 1 2 0 13 1 4 0 25 1 6 0 24 1 6 
0 21 1 5 0 15 1 3 0 9 1 1 0 2 1 1 
0 -2 1 -1 0 -7 1 -3 0 -14 1 -4 0 -25 1 -10 
0 -23 1 -5 0 -20 1 -4 0 -12 1 -2 0 -1 1 1 
0 9 1 4 0 18 1 5 0 23 1 6 0 22 1 5 
0 21 1 3 0 8 1 2 0 1 1 1 0 -4 1 -1 
0 -10 1 -3 0 -17 1 -5 0 -19 1 -6 0 -23 1 -5 
0 -21 1 -3 0 -3 1 -3 0 5 1 3 0 15 1 5 
0 23 1 5 0 23 729 2913 300 MP stroke
1 5 0 17 1 3 0 10 1 2 0 1 1 1 0 -6 
1 -2 0 -12 1 -4 0 -19 1 -6 0 -26 1 -6 0 -19 
1 -3 0 -8 1 -1 0 4 1 2 0 16 1 5 0 22 
1 6 0 27 1 4 0 14 1 2 0 5 1 1 0 -3 
1 -2 0 -10 1 -4 0 -18 1 -6 0 -20 1 -6 0 -19 
1 -4 0 -10 1 0 0 7 1 3 0 19 1 5 0 23 
1 6 0 18 1 4 0 10 1 1 0 1 0 -1 1 -1 
0 -8 1 -3 0 -18 1 -5 0 -31 1 -5 0 -15 1 -2 
0 -2 1 2 0 13 1 5 0 22 1 6 0 20 1 4 
0 11 1 2 0 1 1 -2 0 -9 1 -4 0 -24 1 -4 
0 -21 1 -5 0 -11 1 -1 0 7 1 4 0 20 1 5 
0 22 1 4 0 12 1 1 0 1 0 -1 1 -2 0 -18 
1 -6 0 -25 1 -5 0 -12 1 -1 0 8 1 4 0 21 
1 5 0 19 1 3 0 4 1 1 0 -10 1 -5 0 -18 
1 -6 0 -19 1 -1 0 8 1 5 0 22 1 5 0 13 
1 1 0 -5 1 -3 0 -23 1 -5 0 -11 1 -1 0 15 
1 5 0 19 1 2 0 2 0 -6 1 -4 0 -19 1 -5 
0 -4 0 5 1 4 0 21 1 2 0 1 0 -8 1 -5 
0 -14 0 2 1 4 0 16 1 -2 0 -15 1 3 0 8 
0 -5 656 2929 154 MP stroke
gr

c8
0 sg
 639 3401 mt 
( ) s
4550  325 mt 
( ) s
1 sg
0 188 773 0 0 -188 3734 531 4 MP
PP
-773 0 0 188 773 0 0 -188 3734 531 5 MP stroke
4 w
DO
SO
6 w
0 sg
3734  343 mt 4507  343 L
3734  531 mt 4507  531 L
4507  531 mt 4507  343 L
3734  531 mt 3734  343 L
3734  531 mt 4507  531 L
3734  531 mt 3734  343 L
3734  343 mt 4507  343 L
3734  531 mt 4507  531 L
4507  531 mt 4507  343 L
3734  531 mt 3734  343 L
4202  480 mt 
(Error) s
gs 3734 343 774 189 rc
c8
360 0 3805 437 2 MP stroke
gr

c8

end %%Color Dict

eplot
%%EndObject

epage
end

showpage

%%Trailer
%%EOF
