%!PS-Adobe-3.0 EPSF-3.0
%%Creator: MATLAB, The MathWorks, Inc. Version 8.1.0.604 (R2013a). Operating System: Microsoft Windows 7.
%%Title: C:\USER\SKOLE\TMA4220\tma4220-element-methods-project\report\images\Poission3d_neumannBC.eps
%%CreationDate: 11/21/2013  17:47:19
%%DocumentNeededFonts: Helvetica
%%DocumentProcessColors: Cyan Magenta Yellow Black
%%LanguageLevel: 2
%%Pages: 1
%%BoundingBox:    87   262   507   578
%%EndComments

%%BeginProlog
% MathWorks dictionary
/MathWorks 160 dict begin
% definition operators
/bdef {bind def} bind def
/ldef {load def} bind def
/xdef {exch def} bdef
/xstore {exch store} bdef
% operator abbreviations
/c  /clip ldef
/cc /concat ldef
/cp /closepath ldef
/gr /grestore ldef
/gs /gsave ldef
/mt /moveto ldef
/np /newpath ldef
/cm /currentmatrix ldef
/sm /setmatrix ldef
/rm /rmoveto ldef
/rl /rlineto ldef
/s {show newpath} bdef
/sc {setcmykcolor} bdef
/sr /setrgbcolor ldef
/sg /setgray ldef
/w /setlinewidth ldef
/j /setlinejoin ldef
/cap /setlinecap ldef
/rc {rectclip} bdef
/rf {rectfill} bdef
% page state control
/pgsv () def
/bpage {/pgsv save def} bdef
/epage {pgsv restore} bdef
/bplot /gsave ldef
/eplot {stroke grestore} bdef
% orientation switch
/portraitMode 0 def /landscapeMode 1 def /rotateMode 2 def
% coordinate system mappings
/dpi2point 0 def
% font control
/FontSize 0 def
/FMS {/FontSize xstore findfont [FontSize 0 0 FontSize neg 0 0]
  makefont setfont} bdef
/ISOLatin1Encoding where {pop /WindowsLatin1Encoding 256 array bdef
ISOLatin1Encoding WindowsLatin1Encoding copy pop
/.notdef/.notdef/quotesinglbase/florin/quotedblbase/ellipsis/dagger
/daggerdbl/circumflex/perthousand/Scaron/guilsinglleft/OE/.notdef/.notdef
/.notdef/.notdef/quoteleft/quoteright/quotedblleft/quotedblright/bullet
/endash/emdash/tilde/trademark/scaron/guilsinglright/oe/.notdef/.notdef
/Ydieresis WindowsLatin1Encoding 128 32 getinterval astore pop}
{/WindowsLatin1Encoding StandardEncoding bdef} ifelse
/reencode {exch dup where {pop load} {pop StandardEncoding} ifelse
  exch dup 3 1 roll findfont dup length dict begin
  { 1 index /FID ne {def}{pop pop} ifelse } forall
  /Encoding exch def currentdict end definefont pop} bdef
/isroman {findfont /CharStrings get /Agrave known} bdef
/FMSR {3 1 roll 1 index dup isroman {reencode} {pop pop} ifelse
  exch FMS} bdef
/csm {1 dpi2point div -1 dpi2point div scale neg translate
 dup landscapeMode eq {pop -90 rotate}
  {rotateMode eq {90 rotate} if} ifelse} bdef
% line types: solid, dotted, dashed, dotdash
/SO { [] 0 setdash } bdef
/DO { [.5 dpi2point mul 4 dpi2point mul] 0 setdash } bdef
/DA { [6 dpi2point mul] 0 setdash } bdef
/DD { [.5 dpi2point mul 4 dpi2point mul 6 dpi2point mul 4
  dpi2point mul] 0 setdash } bdef
% macros for lines and objects
/L {lineto stroke} bdef
/MP {3 1 roll moveto 1 sub {rlineto} repeat} bdef
/AP {{rlineto} repeat} bdef
/PDlw -1 def
/W {/PDlw currentlinewidth def setlinewidth} def
/PP {closepath eofill} bdef
/DP {closepath stroke} bdef
/MR {4 -2 roll moveto dup  0 exch rlineto exch 0 rlineto
  neg 0 exch rlineto closepath} bdef
/FR {MR stroke} bdef
/PR {MR fill} bdef
/L1i {{currentfile picstr readhexstring pop} image} bdef
/tMatrix matrix def
/MakeOval {newpath tMatrix currentmatrix pop translate scale
0 0 1 0 360 arc tMatrix setmatrix} bdef
/FO {MakeOval stroke} bdef
/PO {MakeOval fill} bdef
/PD {currentlinewidth 2 div 0 360 arc fill
   PDlw -1 eq not {PDlw w /PDlw -1 def} if} def
/FA {newpath tMatrix currentmatrix pop translate scale
  0 0 1 5 -2 roll arc tMatrix setmatrix stroke} bdef
/PA {newpath tMatrix currentmatrix pop	translate 0 0 moveto scale
  0 0 1 5 -2 roll arc closepath tMatrix setmatrix fill} bdef
/FAn {newpath tMatrix currentmatrix pop translate scale
  0 0 1 5 -2 roll arcn tMatrix setmatrix stroke} bdef
/PAn {newpath tMatrix currentmatrix pop translate 0 0 moveto scale
  0 0 1 5 -2 roll arcn closepath tMatrix setmatrix fill} bdef
/vradius 0 def /hradius 0 def /lry 0 def
/lrx 0 def /uly 0 def /ulx 0 def /rad 0 def
/MRR {/vradius xdef /hradius xdef /lry xdef /lrx xdef /uly xdef
  /ulx xdef newpath tMatrix currentmatrix pop ulx hradius add uly
  vradius add translate hradius vradius scale 0 0 1 180 270 arc 
  tMatrix setmatrix lrx hradius sub uly vradius add translate
  hradius vradius scale 0 0 1 270 360 arc tMatrix setmatrix
  lrx hradius sub lry vradius sub translate hradius vradius scale
  0 0 1 0 90 arc tMatrix setmatrix ulx hradius add lry vradius sub
  translate hradius vradius scale 0 0 1 90 180 arc tMatrix setmatrix
  closepath} bdef
/FRR {MRR stroke } bdef
/PRR {MRR fill } bdef
/MlrRR {/lry xdef /lrx xdef /uly xdef /ulx xdef /rad lry uly sub 2 div def
  newpath tMatrix currentmatrix pop ulx rad add uly rad add translate
  rad rad scale 0 0 1 90 270 arc tMatrix setmatrix lrx rad sub lry rad
  sub translate rad rad scale 0 0 1 270 90 arc tMatrix setmatrix
  closepath} bdef
/FlrRR {MlrRR stroke } bdef
/PlrRR {MlrRR fill } bdef
/MtbRR {/lry xdef /lrx xdef /uly xdef /ulx xdef /rad lrx ulx sub 2 div def
  newpath tMatrix currentmatrix pop ulx rad add uly rad add translate
  rad rad scale 0 0 1 180 360 arc tMatrix setmatrix lrx rad sub lry rad
  sub translate rad rad scale 0 0 1 0 180 arc tMatrix setmatrix
  closepath} bdef
/FtbRR {MtbRR stroke } bdef
/PtbRR {MtbRR fill } bdef
/stri 6 array def /dtri 6 array def
/smat 6 array def /dmat 6 array def
/tmat1 6 array def /tmat2 6 array def /dif 3 array def
/asub {/ind2 exch def /ind1 exch def dup dup
  ind1 get exch ind2 get sub exch } bdef
/tri_to_matrix {
  2 0 asub 3 1 asub 4 0 asub 5 1 asub
  dup 0 get exch 1 get 7 -1 roll astore } bdef
/compute_transform {
  dmat dtri tri_to_matrix tmat1 invertmatrix 
  smat stri tri_to_matrix tmat2 concatmatrix } bdef
/ds {stri astore pop} bdef
/dt {dtri astore pop} bdef
/db {2 copy /cols xdef /rows xdef mul dup 3 mul string
  currentfile 
  3 index 0 eq {/ASCIIHexDecode filter}
  {/ASCII85Decode filter 3 index 2 eq {/RunLengthDecode filter} if }
  ifelse exch readstring pop
  dup 0 3 index getinterval /rbmap xdef
  dup 2 index dup getinterval /gbmap xdef
  1 index dup 2 mul exch getinterval /bbmap xdef pop pop}bdef
/it {gs np dtri aload pop moveto lineto lineto cp c
  cols rows 8 compute_transform 
  rbmap gbmap bbmap true 3 colorimage gr}bdef
/il {newpath moveto lineto stroke}bdef
currentdict end def
%%EndProlog

%%BeginSetup
MathWorks begin

0 cap

end
%%EndSetup

%%Page: 1 1
%%BeginPageSetup
%%PageBoundingBox:    87   262   507   578
MathWorks begin
bpage
%%EndPageSetup

%%BeginObject: obj1
bplot

/dpi2point 12 def
portraitMode 1044 6936 csm

    0     0  5045  3782 rc
85 dict begin %Colortable dictionary
/c0 { 0.000000 0.000000 0.000000 sr} bdef
/c1 { 1.000000 1.000000 1.000000 sr} bdef
/c2 { 0.900000 0.000000 0.000000 sr} bdef
/c3 { 0.000000 0.820000 0.000000 sr} bdef
/c4 { 0.000000 0.000000 0.800000 sr} bdef
/c5 { 0.910000 0.820000 0.320000 sr} bdef
/c6 { 1.000000 0.260000 0.820000 sr} bdef
/c7 { 0.000000 0.820000 0.820000 sr} bdef
c0
1 j
1 sg
   0    0 5046 3783 rf
6 w
0 3083 3910 0 0 -3083 656 3366 4 MP
PP
-3910 0 0 3083 3910 0 0 -3083 656 3366 5 MP stroke
4 w
DO
SO
6 w
0 sg
 656  283 mt 4566  283 L
 656 3366 mt 4566 3366 L
4566 3366 mt 4566  283 L
 656 3366 mt  656  283 L
 656 3366 mt 4566 3366 L
 656 3366 mt  656  283 L
 656 3366 mt  656 3326 L
 656  284 mt  656  323 L
%%IncludeResource: font Helvetica
/Helvetica /WindowsLatin1Encoding 120 FMSR

 623 3511 mt 
(0) s
1144 3366 mt 1144 3326 L
1144  284 mt 1144  323 L
1044 3511 mt 
(500) s
1633 3366 mt 1633 3326 L
1633  284 mt 1633  323 L
1500 3511 mt 
(1000) s
2122 3366 mt 2122 3326 L
2122  284 mt 2122  323 L
1989 3511 mt 
(1500) s
2611 3366 mt 2611 3326 L
2611  284 mt 2611  323 L
2478 3511 mt 
(2000) s
3099 3366 mt 3099 3326 L
3099  284 mt 3099  323 L
2966 3511 mt 
(2500) s
3588 3366 mt 3588 3326 L
3588  284 mt 3588  323 L
3455 3511 mt 
(3000) s
4077 3366 mt 4077 3326 L
4077  284 mt 4077  323 L
3944 3511 mt 
(3500) s
4566 3366 mt 4566 3326 L
4566  284 mt 4566  323 L
4433 3511 mt 
(4000) s
 656 3366 mt  695 3366 L
4566 3366 mt 4526 3366 L
 485 3410 mt 
(-1) s
 656 2749 mt  695 2749 L
4566 2749 mt 4526 2749 L
 385 2793 mt 
(-0.5) s
 656 2133 mt  695 2133 L
4566 2133 mt 4526 2133 L
 555 2177 mt 
(0) s
 656 1516 mt  695 1516 L
4566 1516 mt 4526 1516 L
 455 1560 mt 
(0.5) s
 656  900 mt  695  900 L
4566  900 mt 4526  900 L
 555  944 mt 
(1) s
 656  284 mt  695  284 L
4566  284 mt 4526  284 L
 455  328 mt 
(1.5) s
 656  283 mt 4566  283 L
 656 3366 mt 4566 3366 L
4566 3366 mt 4566  283 L
 656 3366 mt  656  283 L
gs 656 284 3911 3083 rc
/c8 { 0.000000 0.000000 1.000000 sr} bdef
c8
1 31 1 -28 1 -18 1 -6 1 -31 1 31 1 -4 1 1 
1 -12 1 -8 1 -4 1 -32 1 41 1 4 1 3 1 -6 
1 -10 1 -4 1 -18 1 -4 1 10 1 2 1 2 1 5 
1 -26 1 -12 1 -4 1 37 1 6 1 -6 1 3 1 2 
1 -20 1 1 1 -2 1 11 1 2 1 -16 1 5 1 -9 
1 11 1 10 1 6 1 -4 0 6 1 -7 1 2 1 1 
1 2 1 -5 1 -3 1 -8 1 -4 1 -11 1 14 1 -3 
1 -8 1 -15 1 -5 1 -5 1 -5 1 -3 1 -49 1 -17 
1 -3 1 -3 1 0 1 3 1 14 1 -24 1 1 1 27 
1 -14 1 4 1 7 1 0 1 -9 1 -3 1 5 1 -8 
1 16 1 -13 1 -27 1 -29 1 34 1 13 1 -2 1 9 
0 -3 1 73 1 -12 1 14 1 10 1 1 1 -5 1 0 
1 6 1 19 1 17 1 -1 1 7 1 -7 1 -7 1 -3 
1 2 1 -22 1 19 1 8 1 13 1 -8 1 -30 1 1 
1 0 1 -4 1 7 1 46 1 5 1 4 1 -18 1 14 
1 13 1 22 1 -20 1 -19 1 -8 1 2 1 18 1 9 
1 -8 1 0 1 -1 1 -15 1 -14 0 3 1 16 1 19 
1 -5 1 14 1 -6 1 -22 1 -7 1 2 1 30 1 -21 
1 3 1 8 1 1 1 31 1 7 1 -4 1 -26 1 17 
1 -10 1 1 1 -2 1 21 1 -1 1 2 1 0 1 0 
1 -9 1 -18 1 -16 1 2 1 -1 1 -3 1 -13 1 1 
1 22 1 8 1 -13 1 -3 1 11 1 -16 1 26 1 -39 
1 32 0 -26 1 1 1 36 1 4 1 -16 1 -47 1 15 
1 -54 1 55 1 -7 1 -20 1 -3 1 4 1 42 1 -6 
1 -63 1 5 1 -17 1 41 1 -80 1 0 1 0 1 0 
1 0 1 0 1 0 1 0 1 0 1 0 1 0 1 0 
1 0 1 0 1 0 1 0 1 0 1 0 1 0 1 0 
1 0 1 0 1 0 1 0 1 0 1 0 1 0 1 0 
1 0 1 0 1 0 1 0 1 0 1 0 1 0 1 0 
1 0 1 0 1 0 1 0 1 0 1 0 1 0 1 0 
1 0 1 0 1 0 1 0 1 0 1 0 1 0 1 0 
1 0 1 0 1 0 1 0 1 0 1 0 1 0 1 0 
1 0 1 0 1 0 1 0 1 0 1 0 1 0 1 0 
1 0 1 0 1 0 1 0 1 0 1 0 1 0 1 0 
1 0 1 0 1 0 1 0 1 0 1 0 1 0 1 0 
1 0 1 0 1 0 1 0 1 0 1 0 1 0 1 0 
1 0 1 0 1 0 1 0 1 0 1 0 1 0 1 0 
1 0 1 0 1 0 4271 2133 300 MP stroke
1 0 1 0 1 0 1 0 1 0 1 0 1 0 1 0 
1 0 1 0 1 0 1 0 1 0 1 0 1 0 1 0 
1 0 1 0 1 0 1 0 1 0 1 0 1 0 1 0 
1 0 1 0 1 0 1 0 1 0 1 0 1 0 1 0 
1 0 1 0 1 0 1 0 1 0 1 0 1 0 1 0 
1 0 1 0 1 0 1 0 1 0 1 0 1 0 1 0 
1 0 1 0 1 0 1 0 1 0 1 0 1 0 1 0 
1 0 1 0 1 0 1 0 1 0 1 0 1 0 1 0 
1 0 1 0 1 0 1 0 1 0 1 0 1 0 1 0 
1 0 1 0 1 0 1 0 1 0 1 0 1 0 1 0 
1 0 1 0 1 0 1 0 1 0 1 0 1 0 1 0 
1 0 1 0 1 0 1 -240 1 -20 1 -9 1 -22 1 13 
0 -10 1 -51 1 45 1 -8 1 11 1 -10 1 -13 1 2 
1 -21 1 -1 1 5 1 5 1 7 1 13 1 -32 1 8 
1 -2 1 18 1 -2 1 -21 1 6 1 -3 1 -20 1 1 
1 8 1 0 1 12 1 -12 1 6 1 -4 1 17 1 19 
1 10 1 -5 1 -1 1 -11 1 7 1 2 1 0 1 -7 
1 -4 1 0 1 -6 1 -14 1 14 0 -6 1 -4 1 1 
1 -3 1 -2 1 -7 1 1 1 -23 1 -6 1 -1 1 -10 
1 8 1 8 1 30 1 -5 1 -10 1 1 1 -46 1 -2 
1 3 1 7 1 41 1 0 1 -1 1 2 1 4 1 -9 
1 -26 1 10 1 22 1 5 1 5 1 13 1 -7 1 -43 
1 -3 1 6 1 -6 1 13 1 -4 1 -4 1 2 1 -7 
1 22 0 3 1 16 1 -25 1 -13 1 -15 1 9 1 38 
1 20 1 -7 1 2 1 0 1 -15 1 -4 1 0 1 7 
1 5 1 0 1 18 1 -11 1 -19 1 1 1 18 1 27 
1 -17 1 1 1 3 1 0 1 13 1 15 1 -2 1 -19 
1 10 1 -10 1 2 1 9 1 28 1 1 1 0 1 0 
1 -2 1 -4 1 -24 1 -15 1 15 1 -7 0 -3 1 -8 
1 3 1 23 1 33 1 -15 1 3 1 11 1 -17 1 22 
1 -34 1 28 1 -35 1 2 1 31 1 3 1 -11 1 -50 
1 18 1 -49 1 29 1 -4 1 -22 1 -2 1 14 1 31 
1 -9 1 -50 1 5 1 -18 1 46 1 -69 1 17 1 -1 
1 2 1 1 1 4 1 -2 1 -8 1 0 1 -7 1 17 
1 -18 1 -13 0 6 1 -13 1 13 1 0 1 -3 1 -1 
1 -5 1 -1 1 -11 1 -1 1 8 1 -7 1 -2 1 -23 
1 -6 1 1 1 1 1 23 1 1 1 -12 1 12 1 -5 
1 -3 1 -5 1 -7 3977 2574 300 MP stroke
1 -5 1 -1 1 -8 1 2 1 0 1 -1 1 -50 1 49 
1 -3 1 1 1 5 1 -11 1 -9 1 5 1 0 1 2 
1 2 1 -2 1 1 1 8 0 -3 1 4 1 -5 1 -2 
1 1 1 5 1 0 1 6 1 53 1 -34 1 0 1 1 
1 -9 1 6 1 -2 1 18 1 6 1 -13 1 -3 1 -4 
1 5 1 -9 1 0 1 2 1 1 1 1 1 -1 1 -2 
1 1 1 0 1 0 1 4 1 -2 1 26 1 -1 1 -3 
1 8 1 1 1 -2 1 3 1 5 1 3 1 -5 1 -1 
0 3 1 2 1 0 1 1 1 -12 1 2 1 0 1 0 
1 7 1 -1 1 3 1 -52 1 0 1 1 1 0 1 0 
1 0 1 0 1 4 1 -5 1 0 1 -17 1 26 1 -1 
1 -5 1 -1 1 0 1 -3 1 -1 1 4 1 -1 1 -67 
1 87 1 0 1 2 1 3 1 -1 1 0 1 1 1 1 
1 0 1 0 1 78 1 2 1 3 0 -107 1 0 1 5 
1 -1 1 -1 1 -1 1 -6 1 3 1 -1 1 0 1 11 
1 8 1 -1 1 -7 1 1 1 37 1 -3 1 32 1 -28 
1 -7 1 -2 1 2 1 -1 1 -22 1 -1 1 -25 1 0 
1 -4 1 28 1 -9 1 -2 1 -31 1 0 1 15 1 33 
1 19 1 -11 1 19 1 -292 1 -65 1 87 1 -41 1 52 
1 -24 0 27 1 -14 1 -25 1 -7 1 17 1 15 1 -1 
1 0 1 -20 1 -1 1 -10 1 9 1 3 1 0 1 -27 
1 -20 1 -31 1 -8 1 68 1 2 1 11 1 9 1 6 
1 -16 1 5 1 -2 1 -1 1 -9 1 -14 1 5 1 -8 
1 -14 1 -4 1 -2 1 6 1 17 1 -2 1 3 1 -3 
1 3 1 2 1 -8 1 -11 1 9 0 -21 1 23 1 14 
1 -5 1 -32 1 1 1 42 1 -3 1 1 1 38 1 -65 
1 -3 1 4 1 -7 1 3 1 -2 1 -53 1 8 1 59 
1 -1 1 8 1 9 1 -8 1 -8 1 -1 1 9 1 -15 
1 21 1 -7 1 -7 1 -19 1 1 1 39 1 -1 1 12 
1 13 1 -29 1 -14 1 12 1 -11 1 34 1 -3 1 1 
1 -2 1 -23 0 7 1 -2 1 4 1 -3 1 10 1 25 
1 -13 1 -19 1 13 1 24 1 22 1 -16 1 7 1 2 
1 -1 1 -2 1 19 1 -7 1 -18 1 12 1 -9 1 2 
1 15 1 6 1 5 1 6 1 1 1 -3 1 -3 1 -34 
1 27 1 -6 1 -11 1 -1 1 4 1 4 1 20 1 46 
1 -18 1 3 1 12 1 -16 1 29 1 -40 0 26 1 -44 
1 1 1 26 1 3 1 -15 1 -63 1 25 1 -53 1 15 
1 -4 1 -26 1 -3 3685 2846 300 MP stroke
1 20 1 30 1 -11 1 8 1 6 1 -20 1 -3 1 -67 
1 29 1 1 1 1 1 2 1 8 1 -9 1 -7 1 0 
1 4 1 18 1 -37 1 -21 1 14 1 -23 1 25 1 0 
1 -4 1 -2 1 -11 1 -1 1 -11 1 3 1 16 1 -9 
0 2 1 -53 1 81 1 3 1 4 1 -28 1 9 1 -27 
1 18 1 -1 1 -7 1 -10 1 -17 1 -11 1 3 1 -26 
1 4 1 -2 1 -2 1 124 1 -102 1 -9 1 -1 1 8 
1 -19 1 -19 1 12 1 -2 1 1 1 2 1 -1 1 0 
1 13 1 -8 1 7 1 -12 1 -9 1 1 1 45 1 -3 
1 6 1 38 1 -9 1 3 0 -1 1 45 1 -7 1 -1 
1 -56 1 2 1 -9 1 -3 1 -5 1 4 1 -18 1 -1 
1 4 1 -5 1 1 1 1 1 -4 1 0 1 0 1 0 
1 5 1 -6 1 20 1 -2 1 -8 1 7 1 0 1 -2 
1 2 1 2 1 9 1 -12 1 0 1 4 1 0 1 -1 
1 -1 1 -6 1 1 1 -1 1 -1 1 21 1 -4 1 3 
1 -42 1 1 1 0 1 -1 1 0 1 0 1 8 1 -12 
1 -1 1 -69 1 102 1 -1 1 -8 1 0 1 2 1 1 
1 -1 1 -2 1 1 1 98 1 -125 1 -1 1 20 1 -12 
1 -2 1 -6 1 3 1 2 1 -1 1 -4 1 21 1 1 
1 -4 1 -17 1 -1 1 77 1 -20 1 -4 1 -11 1 -11 
1 1 1 4 1 -18 1 -15 0 -10 1 -38 1 32 1 1 
1 112 1 -47 1 -15 1 -22 1 -5 1 113 1 -29 1 1 
1 26 1 -4 1 -190 1 -58 1 20 1 40 1 -7 1 -61 
1 94 1 -74 1 5 1 0 1 0 1 -27 1 93 1 6 
1 21 1 -18 1 6 1 10 1 -23 1 15 1 8 1 -1 
1 -1 1 -9 1 -97 1 36 1 -10 1 -60 1 -10 1 0 
1 -9 0 45 1 -2 1 11 1 -3 1 -5 1 -8 1 9 
1 -29 1 -2 1 -14 1 13 1 9 1 1 1 9 1 0 
1 24 1 -4 1 -2 1 25 1 -35 1 -4 1 -19 1 20 
1 -4 1 1 1 32 1 17 1 -46 1 0 1 12 1 5 
1 -10 1 9 1 0 1 11 1 7 1 24 1 -8 1 -9 
1 19 1 0 1 -10 1 -7 1 4 0 13 1 -15 1 -15 
1 19 1 3 1 31 1 -3 1 6 1 -9 1 -33 1 8 
1 -1 1 11 1 -8 1 1 1 32 1 -4 1 -19 1 22 
1 1 1 29 1 -14 1 18 1 -2 1 -4 1 -2 1 23 
1 -51 1 -2 1 13 1 -7 1 0 1 -1 1 -12 1 12 
1 12 1 0 1 -4 1 -13 1 -42 1 27 1 25 1 -8 
1 2 0 8 1 6 3392 3008 300 MP stroke
1 12 1 23 1 -28 1 -6 1 14 1 1 1 32 1 -45 
1 18 1 -51 1 0 1 22 1 3 1 5 1 -80 1 34 
1 16 1 3 1 -4 1 -30 1 -2 1 13 1 -17 1 -14 
1 -3 1 6 1 -23 1 3 1 -67 1 41 1 3 1 0 
1 2 1 7 1 11 1 -7 1 -2 1 -10 1 23 1 -55 
1 -34 1 28 1 56 0 -52 1 0 1 -2 1 -3 1 -17 
1 -3 1 -11 1 7 1 18 1 -9 1 1 1 -82 1 97 
1 7 1 6 1 -26 1 11 1 -32 1 11 1 0 1 -9 
1 -11 1 -6 1 -20 1 6 1 22 1 28 1 -47 1 -3 
1 101 1 -78 1 1 1 3 1 5 1 21 1 -10 1 28 
1 -1 1 6 1 -3 1 1 1 -3 1 70 1 7 0 -10 
1 -23 1 -7 1 -3 1 -36 1 -3 1 2 1 18 1 -5 
1 2 1 0 1 25 1 -2 1 1 1 -29 1 0 1 -6 
1 2 1 -5 1 5 1 -35 1 -2 1 6 1 -4 1 -1 
1 3 1 -4 1 1 1 -2 1 -2 1 12 1 -12 1 9 
1 -6 1 14 1 5 1 -1 1 -2 1 3 1 0 1 27 
1 -36 1 -1 1 5 1 -1 0 -1 1 -2 1 -2 1 1 
1 -1 1 -2 1 65 1 -6 1 -3 1 -64 1 0 1 3 
1 -1 1 -1 1 -1 1 1 1 -1 1 -10 1 -1 1 104 
1 -109 1 -5 1 -7 1 0 1 4 1 -1 1 -5 1 -2 
1 1 1 17 1 -15 1 -3 1 88 1 -11 1 8 1 -41 
1 -5 1 7 1 2 1 -26 1 23 1 -57 1 -21 1 49 
0 -4 1 182 1 -30 1 -60 1 -31 1 10 1 79 1 -42 
1 33 1 13 1 -20 1 -68 1 -1 1 57 1 -61 1 41 
1 -10 1 -6 1 -7 1 -3 1 18 1 17 1 7 1 7 
1 -1 1 -9 1 -33 1 -22 1 -28 1 -2 1 4 1 0 
1 25 1 3 1 30 1 -2 1 -53 1 -5 1 59 1 33 
1 -6 1 -19 1 6 1 -3 1 -5 0 -32 1 9 1 3 
1 -4 1 8 1 -61 1 10 1 -5 1 -27 1 10 1 -15 
1 1 1 24 1 -24 1 -44 1 1 1 7 1 0 1 27 
1 37 1 -2 1 18 1 3 1 10 1 -7 1 0 1 21 
1 -16 1 -7 1 -8 1 0 1 13 1 0 1 11 1 -18 
1 -25 1 10 1 -2 1 7 1 -9 1 -38 1 8 1 -2 
1 15 0 10 1 -13 1 15 1 0 1 -23 1 21 1 7 
1 32 1 -13 1 27 1 -1 1 -1 1 -1 1 31 1 9 
1 -35 1 18 1 -6 1 -28 1 -4 1 -27 1 3 1 11 
1 1 1 -5 1 28 1 18 1 21 1 -23 1 -11 1 4 
1 8 1 10 1 -20 3099 3147 300 MP stroke
1 35 1 -34 1 18 1 1 1 1 1 45 1 -52 1 36 
1 -72 1 -1 1 -40 0 2 1 0 1 -37 1 53 1 -3 
1 -4 1 1 1 32 1 12 1 -27 1 -18 1 -8 1 26 
1 5 1 13 1 -21 1 -70 1 -15 1 6 1 0 1 7 
1 -1 1 7 1 -10 1 -3 1 -12 1 111 1 -87 1 43 
1 -29 1 28 1 -39 1 12 1 2 1 -6 1 -15 1 -13 
1 -9 1 -2 1 19 1 -8 1 4 1 110 1 -89 0 -27 
1 13 1 -11 1 17 1 -21 1 7 1 -1 1 -20 1 4 
1 28 1 -8 1 5 1 43 1 -26 1 35 1 0 1 70 
1 -52 1 4 1 7 1 -2 1 13 1 -28 1 -43 1 -4 
1 3 1 -3 1 2 1 -4 1 -53 1 -3 1 -8 1 56 
1 -6 1 -4 1 -20 1 -3 1 1 1 4 1 -4 1 3 
1 -3 1 13 1 0 0 -5 1 -15 1 -2 1 -6 1 5 
1 -6 1 3 1 24 1 -1 1 6 1 -3 1 -2 1 2 
1 -2 1 3 1 -4 1 -1 1 30 1 -30 1 3 1 -10 
1 4 1 3 1 -1 1 -3 1 5 1 -1 1 87 1 -112 
1 -1 1 -4 1 15 1 -4 1 -3 1 -1 1 1 1 -1 
1 -3 1 -50 1 -7 1 -4 1 59 1 0 1 1 1 2 
0 -3 1 -3 1 0 1 -5 1 10 1 -5 1 48 1 39 
1 -14 1 -34 1 -2 1 -32 1 7 1 -7 1 12 1 -40 
1 -1 1 37 1 -10 1 152 1 -36 1 33 1 -39 1 20 
1 1 1 -10 1 39 1 1 1 -46 1 99 1 -13 1 11 
1 -22 1 28 1 29 1 -1 1 -72 1 4 1 67 1 2 
1 2 1 1 1 11 1 -1 0 -4 1 -2 1 -7 1 -4 
1 23 1 14 1 -7 1 -7 1 1 1 -4 1 -5 1 -14 
1 34 1 -17 1 -4 1 20 1 -27 1 8 1 1 1 -52 
1 4 1 6 1 -3 1 11 1 -9 1 -1 1 7 1 -1 
1 -7 1 7 1 -11 1 -2 1 -6 1 -8 1 -18 1 -8 
1 1 1 9 1 11 1 -1 1 -13 1 -6 1 21 1 17 
1 8 0 -17 1 -24 1 -23 1 -7 1 4 1 1 1 37 
1 1 1 -2 1 -8 1 2 1 -13 1 31 1 -3 1 -36 
1 8 1 -13 1 9 1 16 1 29 1 9 1 -4 1 -1 
1 -25 1 3 1 13 1 -15 1 -5 1 -1 1 15 1 -10 
1 2 1 13 1 3 1 -8 1 -19 1 28 1 24 1 -20 
1 -13 1 7 1 -8 1 -1 1 -19 0 30 1 -42 1 -26 
1 -1 1 3 1 54 1 -37 1 -23 1 47 1 -3 1 -25 
1 3 1 1 1 66 1 -55 1 -28 1 -8 1 8 1 21 
1 51 1 -58 1 -14 2807 3162 300 MP stroke
1 -12 1 12 1 3 1 14 1 -8 1 20 1 -75 1 38 
1 -1 1 7 1 2 1 3 1 0 1 -6 1 -22 1 -87 
1 89 1 25 1 -4 1 8 1 -27 1 -32 1 4 0 -9 
1 14 1 25 1 -3 1 21 1 -1 1 -4 1 6 1 69 
1 -67 1 -19 1 23 1 -26 1 28 1 -12 1 3 1 -1 
1 38 1 1 1 20 1 -21 1 -2 1 -34 1 -16 1 17 
1 -2 1 -11 1 -32 1 -5 1 0 1 -1 1 5 1 56 
1 -23 1 -3 1 2 1 -3 1 4 1 -5 1 -23 1 -4 
1 -2 1 27 1 -3 0 -4 1 -7 1 -3 1 3 1 -4 
1 -2 1 6 1 -5 1 4 1 -1 1 -2 1 -4 1 -1 
1 -3 1 10 1 -6 1 6 1 -9 1 -1 1 6 1 -5 
1 -3 1 0 1 -1 1 6 1 -7 1 -2 1 96 1 -107 
1 -3 1 -8 1 -2 1 1 1 -1 1 -5 1 -1 1 1 
1 -83 1 106 1 -1 1 -7 1 5 1 -10 1 1 1 2 
0 -3 1 2 1 -5 1 -1 1 56 1 -16 1 -5 1 -1 
1 -62 1 30 1 -8 1 16 1 -15 1 -5 1 36 1 -14 
1 119 1 -45 1 30 1 37 1 1 1 -22 1 -20 1 14 
1 36 1 -55 1 267 1 -32 1 -63 1 53 1 -11 1 15 
1 -13 1 7 1 6 1 -1 1 -4 1 3 1 2 1 -10 
1 12 1 -2 1 -9 1 -9 0 2 1 22 1 15 1 -6 
1 46 1 -14 1 3 1 -1 1 -5 1 2 1 5 1 -3 
1 2 1 2 1 -18 1 26 1 -1 1 -5 1 -9 1 -8 
1 0 1 14 1 -6 1 -7 1 -1 1 2 1 3 1 -18 
1 0 1 -14 1 -16 1 7 1 5 1 6 1 18 1 -19 
1 -17 1 -11 1 -2 1 -7 1 23 1 2 1 -6 1 3 
0 -10 1 -4 1 -28 1 6 1 42 1 -4 1 -17 1 -11 
1 0 1 15 1 13 1 -12 1 -7 1 -32 1 9 1 -2 
1 -11 1 -3 1 6 1 -12 1 5 1 7 1 -1 1 -4 
1 35 1 -17 1 25 1 35 1 -49 1 -15 1 11 1 -12 
1 -2 1 -17 1 44 1 -51 1 -17 1 -5 1 2 1 -49 
1 48 1 -20 1 32 1 -11 1 -10 0 4 1 6 1 57 
1 -41 1 37 1 -16 1 17 1 16 1 58 1 -63 1 -9 
1 -16 1 11 1 3 1 -16 1 -10 1 23 1 -15 1 -36 
1 -1 1 6 1 -7 1 7 1 -2 1 -5 1 28 1 -48 
1 50 1 16 1 -28 1 36 1 -16 1 -10 1 3 1 -14 
1 8 1 21 1 -1 1 30 1 -3 1 -3 1 6 1 46 
1 -65 0 -13 1 -33 1 -19 1 -25 1 -1 1 2 1 0 
1 21 1 -4 1 6 2515 3004 300 MP stroke
1 48 1 3 1 -18 1 -9 1 9 1 -4 1 -9 1 -18 
1 -2 1 6 1 -2 1 2 1 26 1 -12 1 -2 1 0 
1 -3 1 7 1 -7 1 -9 1 -2 1 -1 1 14 1 -2 
1 -4 1 0 1 -2 1 6 1 -8 1 -2 1 10 1 -11 
1 -1 1 -4 1 -2 0 1 1 -1 1 -3 1 15 1 -8 
1 9 1 -34 1 -3 1 4 1 -12 1 -7 1 0 1 -1 
1 -2 1 1 1 -4 1 -90 1 115 1 -6 1 3 1 4 
1 -5 1 3 1 -8 1 4 1 16 1 3 1 6 1 -2 
1 -65 1 56 1 -52 1 40 1 3 1 -4 1 30 1 -20 
1 59 1 21 1 34 1 42 1 -15 1 -53 1 -24 0 12 
1 58 1 -82 1 304 1 62 1 -38 1 6 1 36 1 4 
1 -21 1 8 1 0 1 -5 1 3 1 1 1 5 1 40 
1 -10 1 50 1 -13 1 0 1 -4 1 1 1 3 1 14 
1 -4 1 -9 1 6 1 -56 1 -25 1 -6 1 10 1 -8 
1 -1 1 -9 1 10 1 -3 1 -5 1 -2 1 16 1 -10 
1 -13 1 2 1 -18 1 3 0 5 1 8 1 5 1 11 
1 -17 1 -12 1 -10 1 -3 1 -5 1 13 1 -9 1 2 
1 9 1 -14 1 -2 1 -17 1 5 1 13 1 3 1 3 
1 -8 1 1 1 8 1 -15 1 -7 1 -5 1 -12 1 12 
1 21 1 -10 1 4 1 -7 1 5 1 -1 1 8 1 0 
1 -6 1 4 1 -10 1 9 1 6 1 12 1 -14 1 8 
0 -15 1 -5 1 1 1 -55 1 50 1 -14 1 -4 1 6 
1 -32 1 33 1 -19 1 27 1 2 1 1 1 0 1 7 
1 38 1 -31 1 9 1 10 1 -7 1 12 1 -60 1 44 
1 2 1 1 1 11 1 0 1 -7 1 -5 1 13 1 -5 
1 -32 1 1 1 6 1 0 1 4 1 -5 1 -7 1 19 
1 -27 1 28 1 9 1 -16 1 26 0 -11 1 -1 1 -3 
1 -22 1 4 1 -3 1 1 1 -36 1 -6 1 -6 1 -2 
1 31 1 23 1 -10 1 -12 1 -11 1 -12 1 -3 1 1 
1 3 1 7 1 -4 1 8 1 20 1 3 1 -7 1 -5 
1 5 1 -3 1 -5 1 -9 1 -1 1 7 1 -3 1 0 
1 11 1 -5 1 0 1 -1 1 -3 1 11 1 -11 1 -2 
1 -6 0 -5 1 6 1 0 1 -4 1 2 1 -3 1 11 
1 -13 1 -2 1 12 1 -25 1 -10 1 -12 1 -2 1 0 
1 -1 1 -6 1 -11 1 -2 1 -10 1 50 1 2 1 -7 
1 11 1 -15 1 7 1 4 1 6 1 1 1 -5 1 -12 
1 -19 1 -2 1 23 1 8 1 -11 1 38 1 -17 1 22 
1 40 1 33 1 51 2222 2575 300 MP stroke
1 -30 1 -65 0 -24 1 -1 1 83 1 -101 1 448 1 8 
1 -27 1 20 1 2 1 3 1 -1 1 10 1 -11 1 6 
1 -14 1 -2 1 5 1 1 1 4 1 7 1 -5 1 8 
1 13 1 -39 1 -12 1 -2 1 5 1 -8 1 -2 1 -8 
1 5 1 0 1 0 1 -3 1 23 1 -5 1 -14 1 -2 
1 -19 1 2 1 4 1 -10 1 7 1 7 1 -13 0 -6 
1 -9 1 -3 1 2 1 10 1 -10 1 0 1 2 1 24 
1 1 1 -14 1 -8 1 7 1 2 1 -13 1 -5 1 -2 
1 5 1 -11 1 11 1 2 1 -10 1 9 1 21 1 -8 
1 -1 1 -14 1 -7 1 -2 1 7 1 3 1 -20 1 5 
1 1 1 11 1 -22 1 12 1 -22 1 10 1 -14 1 -5 
1 3 1 -33 1 40 0 1 1 -10 1 14 1 -23 1 23 
1 -12 1 19 1 1 1 10 1 0 1 -3 1 29 1 -22 
1 26 1 4 1 -5 1 12 1 -38 1 27 1 3 1 -4 
1 7 1 -4 1 -3 1 -4 1 9 1 3 1 -20 1 -31 
1 5 1 1 1 5 1 -12 1 -4 1 17 1 -23 1 16 
1 4 1 -14 1 10 1 -7 1 -16 1 -2 1 43 1 1 
0 -2 1 2 1 -20 1 -9 1 4 1 9 1 16 1 2 
1 -11 1 -1 1 -5 1 -5 1 -4 1 0 1 5 1 -1 
1 -3 1 5 1 8 1 3 1 -2 1 -4 1 6 1 -3 
1 -2 1 -7 1 -4 1 6 1 -4 1 -2 1 -1 1 -2 
1 5 1 -1 1 -4 1 17 1 -17 1 -2 1 -13 1 -18 
1 0 1 -3 1 -8 1 -1 0 -3 1 -17 1 23 1 -2 
1 -14 1 33 1 -3 1 7 1 5 1 3 1 -6 1 -7 
1 7 1 -41 1 3 1 25 1 13 1 -18 1 47 1 -15 
1 12 1 21 1 43 1 39 1 -43 1 -58 1 -10 1 -13 
1 91 1 -110 1 455 1 -14 1 2 1 -35 1 52 1 3 
1 6 1 2 1 7 1 6 1 0 1 -5 1 -7 1 16 
1 -26 0 1 1 -3 1 8 1 -8 1 -3 1 -15 1 6 
1 -4 1 1 1 -5 1 -3 1 -2 1 -14 1 -2 1 -12 
1 1 1 10 1 -9 1 3 1 5 1 -12 1 -4 1 -6 
1 -1 1 2 1 15 1 -13 1 1 1 0 1 19 1 5 
1 -18 1 0 1 3 1 3 1 -12 1 -4 1 -2 1 4 
1 -4 1 11 1 0 1 -14 1 9 0 29 1 -7 1 -10 
1 -4 1 -11 1 -18 1 -7 1 26 1 -22 1 5 1 -4 
1 9 1 -19 1 -37 1 34 1 11 1 -15 1 -7 1 5 
1 -18 1 27 1 -2 1 -3 1 15 1 -12 1 -11 1 2 
1 13 1 5 1 11 1930 2015 300 MP stroke
1 -2 1 -1 1 15 1 -19 1 19 1 0 1 3 1 10 
1 -23 1 17 1 6 1 -11 1 4 1 -2 1 -6 0 -1 
1 5 1 8 1 -15 1 -33 1 -7 1 1 1 5 1 22 
1 1 1 4 1 -17 1 9 1 14 1 -4 1 7 1 -8 
1 6 1 -1 1 8 1 1 1 -2 1 4 1 -8 1 -5 
1 -4 1 12 1 10 1 -5 1 -1 1 4 1 -2 1 1 
1 -5 1 -1 1 6 1 -5 1 -3 1 -5 1 2 1 7 
1 -1 1 -4 1 6 0 -7 1 -1 1 -4 1 -5 1 3 
1 -23 1 -6 1 -4 1 -2 1 -1 1 2 1 -7 1 -16 
1 19 1 -6 1 22 1 13 1 3 1 -12 1 -15 1 2 
1 -9 1 -7 1 26 1 4 1 -14 1 39 1 -4 1 -5 
1 14 1 37 1 22 1 -34 1 -45 1 -3 1 -19 1 86 
1 -107 1 435 1 0 1 8 1 9 1 6 1 4 0 12 
1 4 1 -8 1 8 1 -31 1 9 1 -1 1 2 1 -11 
1 -7 1 -14 1 0 1 -3 1 2 1 -7 1 3 1 -2 
1 -7 1 -2 1 -13 1 -1 1 8 1 -4 1 4 1 6 
1 -13 1 -6 1 -5 1 -4 1 1 1 18 1 -6 1 4 
1 1 1 13 1 6 1 -14 1 -2 1 2 1 -2 1 -5 
1 1 1 -6 1 -1 1 2 0 -2 1 2 1 -15 1 4 
1 30 1 -30 1 7 1 -5 1 -18 1 -17 1 -3 1 24 
1 -17 1 6 1 -6 1 8 1 -23 1 -32 1 28 1 10 
1 -1 1 -3 1 3 1 5 1 15 1 3 1 -3 1 -8 
1 -6 1 -7 1 2 1 5 1 7 1 2 1 -1 1 0 
1 4 1 -8 1 11 1 0 1 -1 1 10 1 -15 1 21 
0 13 1 -28 1 2 1 6 1 -3 1 -1 1 2 1 -33 
1 -12 1 37 1 -8 1 9 1 12 1 10 1 3 1 6 
1 -8 1 -4 1 6 1 1 1 4 1 -7 1 23 1 1 
1 -15 1 -1 1 -3 1 7 1 -7 1 -4 1 -1 1 -20 
1 8 1 25 1 -4 1 5 1 -6 1 -1 1 1 1 -4 
1 8 1 -11 1 -3 1 -24 1 1 0 1 1 2 1 -7 
1 -5 1 3 1 -10 1 12 1 5 1 4 1 2 1 -22 
1 4 1 2 1 4 1 17 1 -2 1 -4 1 22 1 -7 
1 -13 1 18 1 16 1 10 1 -14 1 -29 1 -2 1 -20 
1 71 1 -94 1 393 1 -8 1 15 1 -12 1 15 1 21 
1 -25 1 8 1 -7 1 3 1 -15 1 -2 1 -7 1 -7 
1 -5 0 9 1 -9 1 15 1 -4 1 -8 1 -2 1 -2 
1 -2 1 9 1 0 1 2 1 0 1 -10 1 -4 1 -2 
1 -6 1 2 1 13 1638 1370 300 MP stroke
1 -7 1 8 1 -1 1 14 1 -5 1 -11 1 1 1 3 
1 -6 1 2 1 -10 1 -8 1 -2 1 5 1 1 1 2 
1 -21 1 7 1 11 1 -7 1 0 1 -7 1 -17 1 -12 
1 -2 1 16 1 -17 0 11 1 -15 1 13 1 -26 1 -19 
1 22 1 13 1 9 1 -9 1 5 1 -8 1 7 1 2 
1 -1 1 -1 1 -7 1 1 1 3 1 6 1 4 1 4 
1 0 1 0 1 20 1 -2 1 -3 1 2 1 -3 1 -7 
1 -5 1 14 1 -43 1 43 1 2 1 14 1 -3 1 0 
1 3 1 -17 1 -8 1 24 1 -8 1 6 1 10 0 -5 
1 5 1 20 1 -6 1 -25 1 3 1 0 1 6 1 -4 
1 -18 1 2 1 27 1 -2 1 -4 1 10 1 -10 1 -5 
1 -7 1 -21 1 7 1 13 1 -9 1 -1 1 -2 1 -7 
1 5 1 -5 1 -2 1 -6 1 -14 1 17 1 -3 1 15 
1 20 1 -8 1 -1 1 -7 1 -7 1 6 1 20 1 -27 
1 31 1 -14 1 -13 1 -3 0 -16 1 49 1 -73 1 345 
1 1 1 2 1 -33 1 12 1 6 1 2 1 13 1 -29 
1 9 1 -4 1 -5 1 -12 1 13 1 -9 1 11 1 -3 
1 -6 1 0 1 -5 1 -9 1 8 1 7 1 2 1 8 
1 -6 1 -5 1 -5 1 -17 1 -3 1 -6 1 -11 1 21 
1 2 1 12 1 -3 1 4 1 -4 1 5 1 -8 1 7 
0 -8 1 -12 1 3 1 -10 1 0 1 15 1 -33 1 8 
1 -22 1 -9 1 7 1 -7 1 14 1 -8 1 -5 1 21 
1 -10 1 6 1 -29 1 22 1 -23 1 -9 1 10 1 24 
1 -9 1 -7 1 6 1 -7 1 32 1 3 1 0 1 -3 
1 -6 1 4 1 -14 1 1 1 6 1 -1 1 8 1 1 
1 5 1 0 1 8 1 -1 0 3 1 2 1 -1 1 9 
1 -17 1 1 1 3 1 21 1 -4 1 0 1 8 1 -14 
1 -4 1 9 1 20 1 5 1 -19 1 -4 1 5 1 -28 
1 -7 1 22 1 -5 1 -10 1 13 1 -5 1 -3 1 -2 
1 4 1 1 1 -14 1 -5 1 17 1 -12 1 -9 1 3 
1 25 1 15 1 -27 1 0 1 8 1 0 1 -20 1 -1 
1 13 0 6 1 -8 1 3 1 -3 1 -14 1 26 1 -50 
1 270 1 -34 1 -19 1 3 1 8 1 15 1 -8 1 14 
1 -2 1 4 1 -9 1 8 1 3 1 7 1 -5 1 -19 
1 10 1 -10 1 -3 1 17 1 -7 1 0 1 -3 1 -7 
1 0 1 -13 1 -4 1 1 1 6 1 -23 1 21 1 3 
1 -4 1 1 1 -4 1 8 1 11 0 -12 1 9 1 3 
1 -15 1 -3 1 -17 1346 1014 300 MP stroke
1 -11 1 -10 1 -25 1 7 1 -16 1 29 1 3 1 -6 
1 -11 1 4 1 2 1 38 1 -9 1 16 1 -22 1 -2 
1 -11 1 1 1 4 1 34 1 -2 1 -8 1 6 1 -41 
1 15 1 5 1 0 1 0 1 -3 1 2 1 17 1 0 
1 -1 1 -2 1 10 1 1 1 -2 1 2 1 -20 0 -1 
1 19 1 21 1 -13 1 5 1 -6 1 29 1 3 1 -29 
1 -2 1 -3 1 28 1 -39 1 -2 1 5 1 5 1 -6 
1 8 1 -3 1 -4 1 -4 1 -12 1 4 1 1 1 2 
1 37 1 -22 1 -1 1 -2 1 10 1 -5 1 -20 1 6 
1 12 1 -24 1 10 1 4 1 -12 1 4 1 -27 1 111 
1 33 1 37 1 -1 0 -3 1 6 1 9 1 -8 1 -12 
1 9 1 14 1 3 1 0 1 -24 1 -3 1 8 1 -1 
1 -1 1 -8 1 -37 1 11 1 -4 1 -9 1 -5 1 -8 
1 -16 1 10 1 -7 1 -7 1 36 1 8 1 -5 1 0 
1 -9 1 5 1 27 1 -25 1 9 1 7 1 -28 1 -8 
1 -24 1 17 1 -33 1 -35 1 18 1 38 1 15 1 24 
0 12 1 -5 1 4 1 -28 1 10 1 -5 1 8 1 -7 
1 -4 1 -6 1 47 1 3 1 -41 1 -6 1 19 1 6 
1 -13 1 2 1 1 1 -2 1 3 1 0 1 1 1 7 
1 0 1 1 1 4 1 11 1 -8 1 -3 1 3 1 14 
1 -5 1 -28 1 -11 1 32 1 -8 1 -7 1 2 1 -2 
1 -6 1 0 1 -7 1 6 0 21 1 21 1 -21 1 -17 
1 32 1 -25 1 -18 1 8 1 10 1 -16 1 15 1 -5 
1 -4 1 -20 1 -1 1 72 1 -9 1 34 1 13 1 -34 
1 31 1 6 1 3 1 10 1 7 1 1 1 2 1 5 
1 -27 1 7 1 -12 1 -6 1 4 1 7 1 -30 1 -11 
1 9 1 -26 1 4 1 -22 1 36 1 18 1 9 1 -18 
1 -12 0 13 1 -8 1 0 1 -18 1 -15 1 25 1 -61 
1 52 1 -16 1 -27 1 16 1 -12 1 18 1 29 1 -23 
1 14 1 -17 1 4 1 12 1 -1 1 24 1 8 1 27 
1 -54 1 -1 1 5 1 -2 1 -5 1 -2 1 8 1 0 
1 -2 1 -20 1 27 1 0 1 -3 1 5 1 14 1 -27 
1 2 1 -2 1 -13 1 26 1 -3 0 -5 1 0 1 0 
1 -6 1 -3 1 -27 1 46 1 11 1 15 1 -14 1 -14 
1 -5 1 -24 1 16 1 1 1 -2 1 12 1 0 1 -4 
1 -31 1 12 1 47 1 -29 1 10 1 21 1 -26 1 8 
1 16 1 -17 1 5 1 1 1 9 1 -5 1 14 1 -13 
1 -2 1 -1 1 3 1053 849 300 MP stroke
1 1 1 4 1 -17 1 -10 1 4 1 16 0 20 1 -29 
1 25 1 -55 1 8 1 -10 1 10 1 -5 1 -22 1 14 
1 -10 1 -4 1 46 1 -60 1 34 1 4 1 -5 1 2 
1 -7 1 15 1 5 1 -11 1 13 1 -23 1 1 1 3 
1 -4 1 19 1 -9 1 5 1 -12 1 9 1 3 1 -14 
1 -5 1 5 1 13 1 1 1 -9 1 20 1 -23 1 -4 
1 -2 1 0 1 11 0 13 1 9 1 -9 1 -10 1 -7 
1 -3 1 -1 1 -6 1 0 1 18 1 -3 1 4 1 -34 
1 19 1 26 1 -22 1 41 1 -7 1 -6 1 14 1 -21 
1 -38 1 20 1 -21 1 18 1 -3 1 -17 1 12 1 7 
1 -4 1 -5 1 -5 1 -15 1 -10 1 7 1 1 1 -7 
1 15 1 21 1 11 1 -6 1 -21 1 -24 1 -7 0 1 
1 16 1 -10 1 -6 1 -1 1 -5 1 -3 1 12 1 -11 
1 8 1 -4 1 1 1 15 1 -20 1 4 1 2 1 -10 
1 2 1 -15 1 11 1 2 1 6 1 4 1 -5 1 -7 
1 -1 1 -10 1 16 1 17 1 -6 1 13 1 -30 1 -8 
1 12 1 -15 1 7 1 21 1 -7 1 13 1 -41 1 27 
1 -32 1 -7 1 38 1 -41 0 19 1 2 1 -4 1 27 
1 -15 1 -35 1 31 1 -26 1 -19 1 -8 1 0 1 1 
1 4 1 -5 1 10 1 54 1 -32 1 2 1 22 1 -10 
1 -11 1 -10 1 -14 1 -9 1 -4 1 -2 1 -7 1 1 
1 -3 1 -19 1 16 1 -17 1 -4 1 -3 1 0 1 16 
1 0 1 -7 1 8 1 2 1 -18 1 4 1 -2 1 22 
0 -8 1 7 1 -10 1 -3 1 0 1 -7 1 3 1 5 
1 -7 1 21 1 -31 1 32 1 -67 1 13 1 -14 1 13 
1 4 1 15 1 -9 1 -30 1 -13 1 11 1 -11 1 -3 
1 11 1 -20 1 16 1 1 1 16 1 10 1 -5 1 -13 
1 12 1 -20 1 8 1 -10 1 -14 1 -10 1 9 1 -19 
1 -5 1 -12 1 8 1 -5 1 -1 0 5 1 -6 1 -1 
1 13 1 -7 1 3 1 -2 1 8 1 12 1 -23 1 -4 
1 3 1 2 1 1 1 -2 1 19 1 -27 1 35 1 -87 
1 8 1 0 1 27 1 -31 1 -13 1 -10 1 8 1 -4 
1 -2 1 -5 1 4 1 9 1 2 1 27 1 -38 1 -6 
1 -4 1 -11 1 14 1 -8 1 -8 1 -2 1 -6 1 -7 
1 -11 0 10 1 -2 1 -3 1 -3 1 3 1 8 1 15 
1 -8 1 -13 1 -12 1 19 1 -6 1 -5 1 20 1 -26 
1 38 1 -97 1 10 1 -7 1 -18 1 -6 1 4 1 4 
1 -1 1 6 1 -4 761 1365 300 MP stroke
1 5 1 1 1 -14 1 8 1 -15 1 -7 1 1 1 -13 
1 5 1 -1 1 -3 1 -4 1 -14 1 -8 1 9 1 19 
1 -10 1 -4 1 3 0 -2 1 0 1 13 1 -25 1 40 
1 -89 1 -15 1 4 1 -6 1 -1 1 -1 1 -4 1 -12 
1 -4 1 9 1 -4 1 -5 1 2 1 -2 1 -4 1 -10 
1 -5 1 -7 1 8 1 4 1 -8 1 0 1 2 1 3 
1 1 1 -20 1 44 1 -95 1 6 1 -11 1 -9 1 -8 
1 3 1 -1 1 -1 1 -10 1 -1 1 -9 1 1 0 -2 
1 -2 1 -5 1 5 1 -2 1 -3 1 -16 1 46 1 -93 
1 -1 1 8 1 -11 1 -16 1 8 1 -9 1 -3 1 0 
1 -5 1 -4 1 -8 1 -5 1 -7 1 43 1 -82 1 -10 
1 16 1 -12 1 -14 1 -1 1 -12 1 -14 1 11 1 25 
1 -62 1 -3 1 -14 1 -7 1 -5 1 18 1 -44 1 -21 
1 12 1 -38 1 -53 656 2028 108 MP stroke
/c9 { 1.000000 0.000000 0.000000 sr} bdef
c9
1 0 1 0 1 0 1 0 1 0 1 0 1 0 1 0 
1 0 1 0 1 0 1 0 1 0 1 0 1 0 1 0 
1 0 1 0 1 0 1 0 1 0 1 0 1 0 1 0 
1 0 1 0 1 0 1 0 1 0 1 0 1 0 1 0 
1 0 1 0 1 0 1 0 1 0 1 0 1 0 1 0 
1 0 1 0 1 0 1 0 1 0 1 0 1 0 1 0 
1 0 1 0 1 0 1 0 1 0 1 0 1 0 1 0 
1 0 1 0 1 0 1 0 1 0 1 0 1 0 1 0 
1 0 1 0 1 0 1 0 1 0 1 0 1 0 1 0 
1 0 1 0 1 0 1 0 1 0 1 0 1 0 1 0 
1 0 1 0 1 0 1 0 1 0 1 0 1 0 1 0 
1 0 1 0 1 0 1 0 1 0 1 0 1 0 1 0 
1 0 1 0 1 0 1 0 1 0 1 0 1 0 1 0 
1 0 1 0 1 0 1 0 1 0 1 0 1 0 1 0 
1 0 1 0 1 0 1 0 1 0 1 0 1 0 1 0 
1 0 1 0 1 0 1 0 1 0 1 0 1 0 1 0 
1 0 1 0 1 0 1 0 1 0 1 0 1 0 1 0 
1 0 1 0 1 0 1 0 1 0 1 0 1 0 1 0 
1 0 1 0 1 0 1 0 1 0 1 0 1 0 1 0 
1 0 1 0 1 0 1 0 1 0 1 0 1 0 1 0 
1 0 1 0 1 0 1 0 1 0 1 0 1 0 1 0 
1 0 1 0 1 0 1 0 1 0 1 0 1 0 1 0 
1 0 1 0 1 0 1 0 1 0 1 0 1 0 1 0 
1 0 1 0 1 0 1 0 1 0 1 0 1 0 1 0 
1 0 1 0 1 0 1 0 1 0 1 0 1 0 1 0 
1 0 1 0 1 0 1 0 1 0 1 0 1 0 1 0 
1 0 1 0 1 0 1 0 1 0 1 0 1 0 1 0 
1 0 1 0 1 0 1 0 1 0 1 0 1 0 1 0 
1 0 1 0 1 0 1 0 1 0 1 0 1 0 1 0 
1 0 1 0 1 0 1 0 1 0 1 0 1 0 1 0 
1 0 1 0 1 0 1 0 1 0 1 0 1 0 1 0 
1 0 1 0 1 0 1 0 1 0 1 0 1 0 1 0 
1 0 1 0 1 0 1 0 1 0 1 0 1 0 1 0 
1 0 1 0 1 0 1 0 1 0 1 0 1 0 1 0 
1 0 1 0 1 0 1 0 1 0 1 0 1 0 1 0 
1 0 1 0 1 0 1 0 1 0 1 0 1 0 1 0 
1 0 1 0 1 0 1 0 1 0 1 0 1 0 1 0 
1 0 1 0 1 0 4267 2133 300 MP stroke
1 0 1 0 1 0 1 0 1 0 1 0 1 0 1 0 
1 0 1 0 1 0 1 0 1 0 1 0 1 0 1 0 
1 0 1 0 1 0 1 0 1 0 1 0 1 0 1 0 
1 0 1 0 1 0 1 0 1 0 1 0 1 0 1 0 
1 0 1 0 1 0 1 0 1 0 1 0 1 0 1 0 
1 0 1 0 1 0 1 0 1 0 1 0 1 0 1 0 
1 0 1 0 1 0 1 0 1 0 1 0 1 0 1 0 
1 0 1 0 1 0 1 0 1 0 1 0 1 0 1 0 
1 0 1 0 1 0 1 0 1 0 1 0 1 0 1 0 
1 0 1 0 1 0 1 0 1 0 1 0 1 0 1 0 
1 0 1 0 1 0 1 0 1 0 1 0 1 0 1 -493 
1 0 1 0 1 0 1 0 1 0 1 0 1 0 1 0 
1 0 1 0 1 0 1 0 1 0 1 0 1 0 1 0 
1 0 1 0 1 0 1 0 1 0 1 0 1 0 1 0 
1 0 1 0 1 0 1 0 1 0 1 0 1 0 1 0 
1 0 1 0 1 0 1 0 1 0 1 0 1 0 1 0 
1 0 1 0 1 0 1 0 1 0 1 0 1 0 1 0 
1 0 1 0 1 0 1 0 1 0 1 0 1 0 1 0 
1 0 1 0 1 0 1 0 1 0 1 0 1 0 1 0 
1 0 1 0 1 0 1 0 1 0 1 0 1 0 1 0 
1 0 1 0 1 0 1 0 1 0 1 0 1 0 1 0 
1 0 1 0 1 0 1 0 1 0 1 0 1 0 1 0 
1 0 1 0 1 0 1 0 1 0 1 0 1 0 1 0 
1 0 1 0 1 0 1 0 1 0 1 0 1 0 1 0 
1 0 1 0 1 0 1 0 1 0 1 0 1 0 1 0 
1 0 1 0 1 0 1 0 1 0 1 0 1 0 1 0 
1 0 1 0 1 0 1 0 1 0 1 0 1 0 1 0 
1 0 1 0 1 0 1 0 1 0 1 0 1 0 1 0 
1 0 1 0 1 0 1 0 1 0 1 0 1 0 1 0 
1 0 1 0 1 0 1 0 1 0 1 0 1 0 1 0 
1 0 1 0 1 0 1 0 1 0 1 0 1 0 1 0 
1 0 1 0 1 0 1 0 1 0 1 0 1 0 1 0 
1 0 1 0 1 0 1 0 1 0 1 0 1 0 1 0 
1 0 1 0 1 0 1 0 1 0 1 0 1 0 1 0 
1 0 1 0 1 0 1 0 1 0 1 0 1 0 1 0 
1 0 1 0 1 0 1 0 1 0 1 0 1 0 1 0 
1 0 1 0 1 0 1 0 1 0 1 0 1 0 1 0 
1 0 1 0 1 0 3968 2626 300 MP stroke
1 0 1 0 1 0 1 0 1 0 1 0 1 0 1 0 
1 0 1 0 1 0 1 0 1 0 1 0 1 0 1 0 
1 0 1 0 1 0 1 0 1 0 1 0 1 0 1 0 
1 0 1 0 1 0 1 0 1 0 1 0 1 0 1 0 
1 0 1 0 1 0 1 0 1 0 1 0 1 0 1 0 
1 0 1 0 1 0 1 0 1 0 1 0 1 0 1 0 
1 0 1 0 1 0 1 0 1 0 1 0 1 0 1 0 
1 0 1 0 1 0 1 0 1 0 1 0 1 0 1 0 
1 0 1 0 1 0 1 0 1 0 1 0 1 0 1 0 
1 0 1 0 1 0 1 0 1 0 1 0 1 0 1 0 
1 0 1 0 1 0 1 0 1 0 1 0 1 0 1 0 
1 0 1 0 1 0 1 0 1 0 1 0 1 0 1 0 
1 0 1 0 1 0 1 0 1 0 1 0 1 0 1 0 
1 0 1 0 1 0 1 0 1 0 1 0 1 0 1 0 
1 0 1 0 1 0 1 0 1 0 1 0 1 0 1 0 
1 0 1 0 1 0 1 0 1 0 1 0 1 0 1 0 
1 0 1 0 1 0 1 0 1 0 1 0 1 0 1 -399 
1 0 1 0 1 0 1 0 1 0 1 0 1 0 1 0 
1 0 1 0 1 0 1 0 1 0 1 0 1 0 1 0 
1 0 1 0 1 0 1 0 1 0 1 0 1 0 1 0 
1 0 1 0 1 0 1 0 1 0 1 0 1 0 1 0 
1 0 1 0 1 0 1 0 1 0 1 0 1 0 1 0 
1 0 1 0 1 0 1 0 1 0 1 0 1 0 1 0 
1 0 1 0 1 0 1 0 1 0 1 0 1 0 1 0 
1 0 1 0 1 0 1 0 1 0 1 0 1 0 1 0 
1 0 1 0 1 0 1 0 1 0 1 0 1 0 1 0 
1 0 1 0 1 0 1 0 1 0 1 0 1 0 1 0 
1 0 1 0 1 0 1 0 1 0 1 0 1 0 1 0 
1 0 1 0 1 0 1 0 1 0 1 0 1 0 1 0 
1 0 1 0 1 0 1 0 1 0 1 0 1 0 1 0 
1 0 1 0 1 0 1 0 1 0 1 0 1 0 1 0 
1 0 1 0 1 0 1 0 1 0 1 0 1 0 1 0 
1 0 1 0 1 0 1 0 1 0 1 0 1 0 1 0 
1 0 1 0 1 0 1 0 1 0 1 0 1 0 1 0 
1 0 1 0 1 0 1 0 1 0 1 0 1 0 1 0 
1 0 1 0 1 0 1 0 1 0 1 0 1 0 1 0 
1 0 1 0 1 0 1 0 1 0 1 0 1 0 1 0 
1 0 1 0 1 0 3669 3025 300 MP stroke
1 0 1 0 1 0 1 0 1 0 1 0 1 0 1 0 
1 0 1 0 1 0 1 0 1 0 1 0 1 0 1 0 
1 0 1 0 1 0 1 0 1 0 1 0 1 0 1 0 
1 0 1 0 1 0 1 0 1 0 1 0 1 0 1 0 
1 0 1 0 1 0 1 0 1 0 1 0 1 0 1 0 
1 0 1 0 1 0 1 0 1 0 1 0 1 0 1 0 
1 0 1 0 1 0 1 0 1 0 1 0 1 0 1 0 
1 0 1 0 1 0 1 0 1 0 1 0 1 0 1 0 
1 0 1 0 1 0 1 0 1 0 1 0 1 0 1 0 
1 0 1 0 1 0 1 0 1 0 1 0 1 0 1 0 
1 0 1 0 1 0 1 0 1 0 1 0 1 0 1 0 
1 0 1 0 1 0 1 0 1 0 1 0 1 0 1 0 
1 0 1 0 1 0 1 0 1 0 1 0 1 0 1 0 
1 0 1 0 1 0 1 0 1 0 1 0 1 0 1 0 
1 0 1 0 1 0 1 0 1 0 1 0 1 0 1 0 
1 0 1 0 1 0 1 0 1 0 1 0 1 0 1 0 
1 0 1 0 1 0 1 0 1 0 1 0 1 0 1 0 
1 0 1 0 1 0 1 0 1 0 1 0 1 0 1 0 
1 0 1 0 1 0 1 0 1 0 1 0 1 0 1 0 
1 0 1 0 1 0 1 0 1 0 1 0 1 0 1 -254 
1 0 1 0 1 0 1 0 1 0 1 0 1 0 1 0 
1 0 1 0 1 0 1 0 1 0 1 0 1 0 1 0 
1 0 1 0 1 0 1 0 1 0 1 0 1 0 1 0 
1 0 1 0 1 0 1 0 1 0 1 0 1 0 1 0 
1 0 1 0 1 0 1 0 1 0 1 0 1 0 1 0 
1 0 1 0 1 0 1 0 1 0 1 0 1 0 1 0 
1 0 1 0 1 0 1 0 1 0 1 0 1 0 1 0 
1 0 1 0 1 0 1 0 1 0 1 0 1 0 1 0 
1 0 1 0 1 0 1 0 1 0 1 0 1 0 1 0 
1 0 1 0 1 0 1 0 1 0 1 0 1 0 1 0 
1 0 1 0 1 0 1 0 1 0 1 0 1 0 1 0 
1 0 1 0 1 0 1 0 1 0 1 0 1 0 1 0 
1 0 1 0 1 0 1 0 1 0 1 0 1 0 1 0 
1 0 1 0 1 0 1 0 1 0 1 0 1 0 1 0 
1 0 1 0 1 0 1 0 1 0 1 0 1 0 1 0 
1 0 1 0 1 0 1 0 1 0 1 0 1 0 1 0 
1 0 1 0 1 0 1 0 1 0 1 0 1 0 1 0 
1 0 1 0 1 0 3370 3279 300 MP stroke
1 0 1 0 1 0 1 0 1 0 1 0 1 0 1 0 
1 0 1 0 1 0 1 0 1 0 1 0 1 0 1 0 
1 0 1 0 1 0 1 0 1 0 1 0 1 0 1 0 
1 0 1 0 1 0 1 0 1 0 1 0 1 0 1 0 
1 0 1 0 1 0 1 0 1 0 1 0 1 0 1 0 
1 0 1 0 1 0 1 0 1 0 1 0 1 0 1 0 
1 0 1 0 1 0 1 0 1 0 1 0 1 0 1 0 
1 0 1 0 1 0 1 0 1 0 1 0 1 0 1 0 
1 0 1 0 1 0 1 0 1 0 1 0 1 0 1 0 
1 0 1 0 1 0 1 0 1 0 1 0 1 0 1 0 
1 0 1 0 1 0 1 0 1 0 1 0 1 0 1 0 
1 0 1 0 1 0 1 0 1 0 1 0 1 0 1 0 
1 0 1 0 1 0 1 0 1 0 1 0 1 0 1 0 
1 0 1 0 1 0 1 0 1 0 1 0 1 0 1 0 
1 0 1 0 1 0 1 0 1 0 1 0 1 0 1 0 
1 0 1 0 1 0 1 0 1 0 1 0 1 0 1 0 
1 0 1 0 1 0 1 0 1 0 1 0 1 0 1 0 
1 0 1 0 1 0 1 0 1 0 1 0 1 0 1 0 
1 0 1 0 1 0 1 0 1 0 1 0 1 0 1 0 
1 0 1 0 1 0 1 0 1 0 1 0 1 0 1 0 
1 0 1 -86 1 0 1 0 1 0 1 0 1 0 1 0 
1 0 1 0 1 0 1 0 1 0 1 0 1 0 1 0 
1 0 1 0 1 0 1 0 1 0 1 0 1 0 1 0 
1 0 1 0 1 0 1 0 1 0 1 0 1 0 1 0 
1 0 1 0 1 0 1 0 1 0 1 0 1 0 1 0 
1 0 1 0 1 0 1 0 1 0 1 0 1 0 1 0 
1 0 1 0 1 0 1 0 1 0 1 0 1 0 1 0 
1 0 1 0 1 0 1 0 1 0 1 0 1 0 1 0 
1 0 1 0 1 0 1 0 1 0 1 0 1 0 1 0 
1 0 1 0 1 0 1 0 1 0 1 0 1 0 1 0 
1 0 1 0 1 0 1 0 1 0 1 0 1 0 1 0 
1 0 1 0 1 0 1 0 1 0 1 0 1 0 1 0 
1 0 1 0 1 0 1 0 1 0 1 0 1 0 1 0 
1 0 1 0 1 0 1 0 1 0 1 0 1 0 1 0 
1 0 1 0 1 0 1 0 1 0 1 0 1 0 1 0 
1 0 1 0 1 0 1 0 1 0 1 0 1 0 1 0 
1 0 1 0 1 0 1 0 1 0 1 0 1 0 1 0 
1 0 1 0 1 0 3071 3365 300 MP stroke
1 0 1 0 1 0 1 0 1 0 1 0 1 0 1 0 
1 0 1 0 1 0 1 0 1 0 1 0 1 0 1 0 
1 0 1 0 1 0 1 0 1 0 1 0 1 0 1 0 
1 0 1 0 1 0 1 0 1 0 1 0 1 0 1 0 
1 0 1 0 1 0 1 0 1 0 1 0 1 0 1 0 
1 0 1 0 1 0 1 0 1 0 1 0 1 0 1 0 
1 0 1 0 1 0 1 0 1 0 1 0 1 0 1 0 
1 0 1 0 1 0 1 0 1 0 1 0 1 0 1 0 
1 0 1 0 1 0 1 0 1 0 1 0 1 0 1 0 
1 0 1 0 1 0 1 0 1 0 1 0 1 0 1 0 
1 0 1 0 1 0 1 0 1 0 1 0 1 0 1 0 
1 0 1 0 1 0 1 0 1 0 1 0 1 0 1 0 
1 0 1 0 1 0 1 0 1 0 1 0 1 0 1 0 
1 0 1 0 1 0 1 0 1 0 1 0 1 0 1 0 
1 0 1 0 1 0 1 0 1 0 1 0 1 0 1 0 
1 0 1 0 1 0 1 0 1 0 1 0 1 0 1 0 
1 0 1 0 1 0 1 0 1 0 1 0 1 0 1 0 
1 0 1 0 1 0 1 0 1 0 1 74 1 0 1 0 
1 0 1 0 1 0 1 0 1 0 1 0 1 0 1 0 
1 0 1 0 1 0 1 0 1 0 1 0 1 0 1 0 
1 0 1 0 1 0 1 0 1 0 1 0 1 0 1 0 
1 0 1 0 1 0 1 0 1 0 1 0 1 0 1 0 
1 0 1 0 1 0 1 0 1 0 1 0 1 0 1 0 
1 0 1 0 1 0 1 0 1 0 1 0 1 0 1 0 
1 0 1 0 1 0 1 0 1 0 1 0 1 0 1 0 
1 0 1 0 1 0 1 0 1 0 1 0 1 0 1 0 
1 0 1 0 1 0 1 0 1 0 1 0 1 0 1 0 
1 0 1 0 1 0 1 0 1 0 1 0 1 0 1 0 
1 0 1 0 1 0 1 0 1 0 1 0 1 0 1 0 
1 0 1 0 1 0 1 0 1 0 1 0 1 0 1 0 
1 0 1 0 1 0 1 0 1 0 1 0 1 0 1 0 
1 0 1 0 1 0 1 0 1 0 1 0 1 0 1 0 
1 0 1 0 1 0 1 0 1 0 1 0 1 0 1 0 
1 0 1 0 1 0 1 0 1 0 1 0 1 0 1 0 
1 0 1 0 1 0 1 0 1 0 1 0 1 0 1 0 
1 0 1 0 1 0 1 0 1 0 1 0 1 0 1 0 
1 0 1 0 1 0 1 0 1 0 1 0 1 0 1 0 
1 0 1 0 1 0 2772 3291 300 MP stroke
1 0 1 0 1 0 1 0 1 0 1 0 1 0 1 0 
1 0 1 0 1 0 1 0 1 0 1 0 1 0 1 0 
1 0 1 0 1 0 1 0 1 0 1 0 1 0 1 0 
1 0 1 0 1 0 1 0 1 0 1 0 1 0 1 0 
1 0 1 0 1 0 1 0 1 0 1 0 1 0 1 0 
1 0 1 0 1 0 1 0 1 0 1 0 1 0 1 0 
1 0 1 0 1 0 1 0 1 0 1 0 1 0 1 0 
1 0 1 0 1 0 1 0 1 0 1 0 1 0 1 0 
1 0 1 0 1 0 1 0 1 0 1 0 1 0 1 0 
1 0 1 0 1 0 1 0 1 0 1 0 1 0 1 0 
1 0 1 0 1 0 1 0 1 0 1 0 1 0 1 0 
1 0 1 0 1 0 1 0 1 0 1 0 1 0 1 0 
1 0 1 0 1 0 1 0 1 208 1 0 1 0 1 0 
1 0 1 0 1 0 1 0 1 0 1 0 1 0 1 0 
1 0 1 0 1 0 1 0 1 0 1 0 1 0 1 0 
1 0 1 0 1 0 1 0 1 0 1 0 1 0 1 0 
1 0 1 0 1 0 1 0 1 0 1 0 1 0 1 0 
1 0 1 0 1 0 1 0 1 0 1 0 1 0 1 0 
1 0 1 0 1 0 1 0 1 0 1 0 1 0 1 0 
1 0 1 0 1 0 1 0 1 0 1 0 1 0 1 0 
1 0 1 0 1 0 1 0 1 0 1 0 1 0 1 0 
1 0 1 0 1 0 1 0 1 0 1 0 1 0 1 0 
1 0 1 0 1 0 1 0 1 0 1 0 1 0 1 0 
1 0 1 0 1 0 1 0 1 0 1 0 1 0 1 0 
1 0 1 0 1 0 1 0 1 0 1 0 1 0 1 0 
1 0 1 0 1 0 1 0 1 0 1 0 1 0 1 0 
1 0 1 0 1 0 1 0 1 0 1 0 1 0 1 0 
1 0 1 0 1 0 1 0 1 0 1 0 1 0 1 0 
1 0 1 0 1 0 1 0 1 0 1 0 1 0 1 0 
1 0 1 0 1 0 1 0 1 0 1 0 1 0 1 0 
1 0 1 0 1 0 1 0 1 0 1 0 1 0 1 0 
1 0 1 0 1 0 1 0 1 0 1 0 1 0 1 0 
1 0 1 0 1 0 1 0 1 0 1 0 1 0 1 0 
1 0 1 0 1 0 1 0 1 0 1 0 1 0 1 0 
1 0 1 0 1 0 1 0 1 0 1 0 1 0 1 0 
1 0 1 0 1 0 1 0 1 0 1 0 1 0 1 0 
1 0 1 0 1 0 1 0 1 0 1 0 1 0 1 0 
1 0 1 0 1 0 2473 3083 300 MP stroke
1 0 1 0 1 0 1 0 1 0 1 0 1 0 1 0 
1 0 1 0 1 0 1 0 1 0 1 0 1 0 1 0 
1 0 1 0 1 0 1 0 1 0 1 0 1 0 1 0 
1 0 1 0 1 0 1 0 1 0 1 0 1 0 1 0 
1 0 1 0 1 0 1 0 1 0 1 0 1 304 1 0 
1 0 1 0 1 0 1 0 1 0 1 0 1 0 1 0 
1 0 1 0 1 0 1 0 1 0 1 0 1 0 1 0 
1 0 1 0 1 0 1 0 1 0 1 0 1 0 1 0 
1 0 1 0 1 0 1 0 1 0 1 0 1 0 1 0 
1 0 1 0 1 0 1 0 1 0 1 0 1 0 1 0 
1 0 1 0 1 0 1 0 1 0 1 0 1 0 1 0 
1 0 1 0 1 0 1 0 1 0 1 0 1 0 1 0 
1 0 1 0 1 0 1 0 1 0 1 0 1 0 1 0 
1 0 1 0 1 0 1 0 1 0 1 0 1 0 1 0 
1 0 1 0 1 0 1 0 1 0 1 0 1 0 1 0 
1 0 1 0 1 0 1 0 1 0 1 0 1 0 1 0 
1 0 1 0 1 0 1 0 1 0 1 0 1 0 1 0 
1 0 1 0 1 0 1 0 1 0 1 0 1 0 1 0 
1 0 1 0 1 0 1 0 1 0 1 0 1 0 1 0 
1 0 1 0 1 0 1 0 1 0 1 0 1 0 1 0 
1 0 1 0 1 0 1 0 1 0 1 0 1 0 1 0 
1 0 1 0 1 0 1 0 1 0 1 0 1 0 1 0 
1 0 1 0 1 0 1 0 1 0 1 0 1 0 1 0 
1 0 1 0 1 0 1 0 1 0 1 0 1 0 1 0 
1 0 1 0 1 0 1 0 1 0 1 0 1 0 1 0 
1 0 1 0 1 0 1 0 1 0 1 0 1 0 1 0 
1 0 1 0 1 0 1 0 1 0 1 0 1 0 1 0 
1 0 1 0 1 0 1 0 1 0 1 0 1 0 1 0 
1 0 1 0 1 0 1 0 1 0 1 0 1 0 1 0 
1 0 1 0 1 0 1 0 1 0 1 0 1 0 1 0 
1 0 1 0 1 0 1 0 1 0 1 0 1 0 1 0 
1 0 1 0 1 0 1 0 1 0 1 0 1 0 1 0 
1 356 1 0 1 0 1 0 1 0 1 0 1 0 1 0 
1 0 1 0 1 0 1 0 1 0 1 0 1 0 1 0 
1 0 1 0 1 0 1 0 1 0 1 0 1 0 1 0 
1 0 1 0 1 0 1 0 1 0 1 0 1 0 1 0 
1 0 1 0 1 0 1 0 1 0 1 0 1 0 1 0 
1 0 1 0 1 0 2174 2423 300 MP stroke
1 0 1 0 1 0 1 0 1 0 1 0 1 0 1 0 
1 0 1 0 1 0 1 0 1 0 1 0 1 0 1 0 
1 0 1 0 1 0 1 0 1 0 1 0 1 0 1 0 
1 0 1 0 1 0 1 0 1 0 1 0 1 0 1 0 
1 0 1 0 1 0 1 0 1 0 1 0 1 0 1 0 
1 0 1 0 1 0 1 0 1 0 1 0 1 0 1 0 
1 0 1 0 1 0 1 0 1 0 1 0 1 0 1 0 
1 0 1 0 1 0 1 0 1 0 1 0 1 0 1 0 
1 0 1 0 1 0 1 0 1 0 1 0 1 0 1 0 
1 0 1 0 1 0 1 0 1 0 1 0 1 0 1 0 
1 0 1 0 1 0 1 0 1 0 1 0 1 0 1 0 
1 0 1 0 1 0 1 0 1 0 1 0 1 0 1 0 
1 0 1 0 1 0 1 0 1 0 1 0 1 0 1 0 
1 0 1 0 1 0 1 0 1 0 1 0 1 0 1 0 
1 0 1 0 1 0 1 0 1 0 1 0 1 0 1 0 
1 0 1 0 1 0 1 0 1 0 1 0 1 0 1 0 
1 0 1 0 1 0 1 0 1 0 1 0 1 0 1 0 
1 0 1 0 1 0 1 0 1 0 1 0 1 0 1 0 
1 0 1 0 1 0 1 0 1 0 1 0 1 0 1 0 
1 0 1 0 1 0 1 0 1 0 1 368 1 0 1 0 
1 0 1 0 1 0 1 0 1 0 1 0 1 0 1 0 
1 0 1 0 1 0 1 0 1 0 1 0 1 0 1 0 
1 0 1 0 1 0 1 0 1 0 1 0 1 0 1 0 
1 0 1 0 1 0 1 0 1 0 1 0 1 0 1 0 
1 0 1 0 1 0 1 0 1 0 1 0 1 0 1 0 
1 0 1 0 1 0 1 0 1 0 1 0 1 0 1 0 
1 0 1 0 1 0 1 0 1 0 1 0 1 0 1 0 
1 0 1 0 1 0 1 0 1 0 1 0 1 0 1 0 
1 0 1 0 1 0 1 0 1 0 1 0 1 0 1 0 
1 0 1 0 1 0 1 0 1 0 1 0 1 0 1 0 
1 0 1 0 1 0 1 0 1 0 1 0 1 0 1 0 
1 0 1 0 1 0 1 0 1 0 1 0 1 0 1 0 
1 0 1 0 1 0 1 0 1 0 1 0 1 0 1 0 
1 0 1 0 1 0 1 0 1 0 1 0 1 0 1 0 
1 0 1 0 1 0 1 0 1 0 1 0 1 0 1 0 
1 0 1 0 1 0 1 0 1 0 1 0 1 0 1 0 
1 0 1 0 1 0 1 0 1 0 1 0 1 0 1 0 
1 0 1 0 1 0 1875 2055 300 MP stroke
1 0 1 0 1 0 1 0 1 0 1 0 1 0 1 0 
1 0 1 0 1 0 1 0 1 0 1 0 1 0 1 0 
1 0 1 0 1 0 1 0 1 0 1 0 1 0 1 0 
1 0 1 0 1 0 1 0 1 0 1 0 1 0 1 0 
1 0 1 0 1 0 1 0 1 0 1 0 1 0 1 0 
1 344 1 0 1 0 1 0 1 0 1 0 1 0 1 0 
1 0 1 0 1 0 1 0 1 0 1 0 1 0 1 0 
1 0 1 0 1 0 1 0 1 0 1 0 1 0 1 0 
1 0 1 0 1 0 1 0 1 0 1 0 1 0 1 0 
1 0 1 0 1 0 1 0 1 0 1 0 1 0 1 0 
1 0 1 0 1 0 1 0 1 0 1 0 1 0 1 0 
1 0 1 0 1 0 1 0 1 0 1 0 1 0 1 0 
1 0 1 0 1 0 1 0 1 0 1 0 1 0 1 0 
1 0 1 0 1 0 1 0 1 0 1 0 1 0 1 0 
1 0 1 0 1 0 1 0 1 0 1 0 1 0 1 0 
1 0 1 0 1 0 1 0 1 0 1 0 1 0 1 0 
1 0 1 0 1 0 1 0 1 0 1 0 1 0 1 0 
1 0 1 0 1 0 1 0 1 0 1 0 1 0 1 0 
1 0 1 0 1 0 1 0 1 0 1 0 1 0 1 0 
1 0 1 0 1 0 1 0 1 0 1 0 1 0 1 0 
1 0 1 0 1 0 1 0 1 0 1 0 1 0 1 0 
1 0 1 0 1 0 1 0 1 0 1 0 1 0 1 0 
1 0 1 0 1 0 1 0 1 0 1 0 1 0 1 0 
1 0 1 0 1 0 1 0 1 0 1 0 1 0 1 0 
1 0 1 0 1 0 1 0 1 0 1 0 1 0 1 0 
1 0 1 0 1 0 1 0 1 0 1 296 1 0 1 0 
1 0 1 0 1 0 1 0 1 0 1 0 1 0 1 0 
1 0 1 0 1 0 1 0 1 0 1 0 1 0 1 0 
1 0 1 0 1 0 1 0 1 0 1 0 1 0 1 0 
1 0 1 0 1 0 1 0 1 0 1 0 1 0 1 0 
1 0 1 0 1 0 1 0 1 0 1 0 1 0 1 0 
1 0 1 0 1 0 1 0 1 0 1 0 1 0 1 0 
1 0 1 0 1 0 1 0 1 0 1 0 1 0 1 0 
1 0 1 0 1 0 1 0 1 0 1 0 1 0 1 0 
1 0 1 0 1 0 1 0 1 0 1 0 1 0 1 0 
1 0 1 0 1 0 1 0 1 0 1 0 1 0 1 0 
1 0 1 0 1 0 1 0 1 0 1 0 1 0 1 0 
1 0 1 0 1 0 1576 1415 300 MP stroke
1 0 1 0 1 0 1 0 1 0 1 0 1 0 1 0 
1 0 1 0 1 0 1 0 1 0 1 0 1 0 1 0 
1 0 1 0 1 0 1 0 1 0 1 0 1 0 1 0 
1 0 1 0 1 0 1 0 1 0 1 0 1 0 1 0 
1 0 1 0 1 0 1 0 1 0 1 0 1 0 1 0 
1 0 1 0 1 0 1 0 1 0 1 0 1 0 1 0 
1 0 1 0 1 0 1 0 1 0 1 0 1 232 1 0 
1 0 1 0 1 0 1 0 1 0 1 0 1 0 1 0 
1 0 1 0 1 0 1 0 1 0 1 0 1 0 1 0 
1 0 1 0 1 0 1 0 1 0 1 0 1 0 1 0 
1 0 1 0 1 0 1 0 1 0 1 0 1 0 1 0 
1 0 1 0 1 0 1 0 1 0 1 0 1 0 1 0 
1 0 1 0 1 0 1 0 1 0 1 0 1 0 1 0 
1 0 1 0 1 0 1 0 1 0 1 0 1 0 1 0 
1 0 1 0 1 0 1 0 1 0 1 0 1 0 1 0 
1 0 1 0 1 0 1 0 1 0 1 0 1 0 1 0 
1 0 1 0 1 0 1 0 1 0 1 0 1 0 1 0 
1 0 1 0 1 0 1 0 1 0 1 0 1 0 1 0 
1 0 1 0 1 0 1 0 1 0 1 0 1 0 1 0 
1 0 1 0 1 0 1 0 1 0 1 0 1 0 1 0 
1 0 1 0 1 0 1 0 1 0 1 0 1 0 1 0 
1 0 1 0 1 0 1 0 1 0 1 0 1 0 1 0 
1 0 1 0 1 0 1 0 1 0 1 0 1 0 1 0 
1 0 1 0 1 0 1 0 1 162 1 0 1 0 1 0 
1 0 1 0 1 0 1 0 1 0 1 0 1 0 1 0 
1 0 1 0 1 0 1 0 1 0 1 0 1 0 1 0 
1 0 1 0 1 0 1 0 1 0 1 0 1 0 1 0 
1 0 1 0 1 0 1 0 1 0 1 0 1 0 1 0 
1 0 1 0 1 0 1 0 1 0 1 0 1 0 1 0 
1 0 1 0 1 0 1 0 1 0 1 0 1 0 1 0 
1 0 1 0 1 0 1 0 1 0 1 0 1 0 1 0 
1 0 1 0 1 0 1 0 1 0 1 0 1 0 1 0 
1 0 1 0 1 0 1 0 1 0 1 0 1 0 1 0 
1 0 1 0 1 0 1 0 1 0 1 0 1 0 1 0 
1 0 1 0 1 0 1 0 1 0 1 0 1 0 1 0 
1 0 1 0 1 0 1 0 1 0 1 0 1 0 1 0 
1 0 1 0 1 0 1 0 1 0 1 0 1 0 1 0 
1 0 1 0 1 0 1277 1021 300 MP stroke
1 0 1 0 1 0 1 0 1 0 1 0 1 0 1 0 
1 0 1 92 1 0 1 0 1 0 1 0 1 0 1 0 
1 0 1 0 1 0 1 0 1 0 1 0 1 0 1 0 
1 0 1 0 1 0 1 0 1 0 1 0 1 0 1 0 
1 0 1 0 1 0 1 0 1 0 1 0 1 0 1 0 
1 0 1 0 1 0 1 0 1 0 1 0 1 0 1 0 
1 0 1 0 1 0 1 0 1 0 1 0 1 0 1 0 
1 0 1 0 1 0 1 0 1 0 1 0 1 0 1 0 
1 0 1 0 1 0 1 0 1 0 1 0 1 0 1 0 
1 0 1 0 1 0 1 0 1 0 1 0 1 0 1 0 
1 0 1 0 1 0 1 0 1 0 1 0 1 0 1 0 
1 0 1 0 1 0 1 0 1 0 1 0 1 0 1 0 
1 0 1 0 1 0 1 0 1 0 1 0 1 0 1 0 
1 0 1 0 1 0 1 0 1 0 1 0 1 0 1 0 
1 0 1 0 1 29 1 0 1 0 1 0 1 0 1 0 
1 0 1 0 1 0 1 0 1 0 1 0 1 0 1 0 
1 0 1 0 1 0 1 0 1 0 1 0 1 0 1 0 
1 0 1 0 1 0 1 0 1 0 1 0 1 0 1 0 
1 0 1 0 1 0 1 0 1 0 1 0 1 0 1 0 
1 0 1 0 1 0 1 0 1 0 1 0 1 0 1 0 
1 0 1 0 1 0 1 0 1 0 1 0 1 0 1 0 
1 0 1 0 1 0 1 0 1 0 1 0 1 0 1 0 
1 0 1 0 1 0 1 0 1 0 1 0 1 0 1 0 
1 0 1 0 1 0 1 0 1 0 1 0 1 0 1 0 
1 0 1 0 1 0 1 0 1 0 1 0 1 0 1 0 
1 0 1 0 1 0 1 0 1 0 1 0 1 0 1 -25 
1 0 1 0 1 0 1 0 1 0 1 0 1 0 1 0 
1 0 1 0 1 0 1 0 1 0 1 0 1 0 1 0 
1 0 1 0 1 0 1 0 1 0 1 0 1 0 1 0 
1 0 1 0 1 0 1 0 1 0 1 0 1 0 1 0 
1 0 1 0 1 0 1 0 1 0 1 0 1 0 1 0 
1 0 1 0 1 0 1 0 1 0 1 0 1 0 1 0 
1 0 1 0 1 0 1 0 1 0 1 0 1 0 1 0 
1 0 1 0 1 0 1 0 1 0 1 0 1 0 1 0 
1 0 1 0 1 0 1 0 1 0 1 0 1 0 1 0 
1 0 1 0 1 0 1 0 1 0 1 0 1 0 1 -68 
1 0 1 0 1 0 1 0 1 0 1 0 1 0 1 0 
1 0 1 0 1 0 978 993 300 MP stroke
1 0 1 0 1 0 1 0 1 0 1 0 1 0 1 0 
1 0 1 0 1 0 1 0 1 0 1 0 1 0 1 0 
1 0 1 0 1 0 1 0 1 0 1 0 1 0 1 0 
1 0 1 0 1 0 1 0 1 0 1 0 1 0 1 0 
1 0 1 0 1 0 1 0 1 0 1 0 1 0 1 0 
1 0 1 0 1 0 1 0 1 0 1 0 1 0 1 0 
1 0 1 0 1 0 1 0 1 0 1 0 1 0 1 0 
1 0 1 0 1 -99 1 0 1 0 1 0 1 0 1 0 
1 0 1 0 1 0 1 0 1 0 1 0 1 0 1 0 
1 0 1 0 1 0 1 0 1 0 1 0 1 0 1 0 
1 0 1 0 1 0 1 0 1 0 1 0 1 0 1 0 
1 0 1 0 1 0 1 0 1 0 1 0 1 0 1 0 
1 0 1 0 1 0 1 0 1 0 1 0 1 0 1 0 
1 0 1 0 1 0 1 0 1 0 1 0 1 0 1 0 
1 0 1 0 1 0 1 0 1 -119 1 0 1 0 1 0 
1 0 1 0 1 0 1 0 1 0 1 0 1 0 1 0 
1 0 1 0 1 0 1 0 1 0 1 0 1 0 1 0 
1 0 1 0 1 0 1 0 1 0 1 0 1 0 1 0 
1 0 1 0 1 0 1 0 1 0 1 0 1 0 1 0 
1 0 1 0 1 0 1 0 1 0 1 0 1 0 1 0 
1 0 1 0 1 0 1 0 1 0 1 0 1 -129 1 0 
1 0 1 0 1 0 1 0 1 0 1 0 1 0 1 0 
1 0 1 0 1 0 1 0 1 0 1 0 1 0 1 0 
1 0 1 0 1 0 1 0 1 0 1 0 1 0 1 0 
1 0 1 0 1 0 1 0 1 0 1 0 1 0 1 0 
1 0 1 0 1 0 1 0 1 0 1 0 1 0 1 -132 
1 0 1 0 1 0 1 0 1 0 1 0 1 0 1 0 
1 0 1 0 1 0 1 0 1 0 1 0 1 0 1 0 
1 0 1 0 1 0 1 0 1 0 1 0 1 0 1 0 
1 0 1 0 1 0 1 0 1 0 1 0 1 0 1 0 
1 -128 1 0 1 0 1 0 1 0 1 0 1 0 1 0 
1 0 1 0 1 0 1 0 1 0 1 0 1 0 1 0 
1 0 1 0 1 0 1 0 1 0 1 0 1 0 1 0 
1 0 1 0 1 0 1 -119 1 0 1 0 1 0 1 0 
1 0 1 0 1 0 1 0 1 0 1 0 1 0 1 0 
1 0 1 0 1 0 1 0 1 0 1 0 1 -107 1 0 
1 0 1 0 1 0 1 0 1 0 1 0 1 0 1 0 
1 0 1 0 1 0 679 1826 300 MP stroke
1 0 1 0 1 -93 1 0 1 0 1 0 1 0 1 0 
1 0 1 0 1 0 1 0 1 -76 1 0 1 0 1 0 
1 0 1 0 1 -60 1 0 1 0 1 -43 1 -35 656 2133 24 MP stroke
gr

c9
0 sg
 639 3409 mt 
( ) s
4550  326 mt 
( ) s
1 sg
0 334 1257 0 0 -334 3250 678 4 MP
PP
-1257 0 0 334 1257 0 0 -334 3250 678 5 MP stroke
4 w
DO
SO
6 w
0 sg
3250  344 mt 4507  344 L
3250  678 mt 4507  678 L
4507  678 mt 4507  344 L
3250  678 mt 3250  344 L
3250  678 mt 4507  678 L
3250  678 mt 3250  344 L
3250  344 mt 4507  344 L
3250  678 mt 4507  678 L
4507  678 mt 4507  344 L
3250  678 mt 3250  344 L
3721  479 mt 
(approximation) s
gs 3250 344 1258 335 rc
c8
362 0 3322 436 2 MP stroke
gr

c8
0 sg
3721  628 mt 
(exact solution) s
gs 3250 344 1258 335 rc
c9
362 0 3322 585 2 MP stroke
gr

c9

end %%Color Dict

eplot
%%EndObject

epage
end

showpage

%%Trailer
%%EOF
