%!PS-Adobe-3.0 EPSF-3.0
%%Creator: MATLAB, The MathWorks, Inc. Version 8.1.0.604 (R2013a). Operating System: Microsoft Windows 7.
%%Title: C:\USER\SKOLE\TMA4220\tma4220-element-methods-project\report\images\poisson2d-dirichlet-20000-errorplot.eps
%%CreationDate: 11/19/2013  18:13:13
%%DocumentNeededFonts: Helvetica
%%DocumentProcessColors: Cyan Magenta Yellow Black
%%LanguageLevel: 2
%%Pages: 1
%%BoundingBox:    87   262   507   578
%%EndComments

%%BeginProlog
% MathWorks dictionary
/MathWorks 160 dict begin
% definition operators
/bdef {bind def} bind def
/ldef {load def} bind def
/xdef {exch def} bdef
/xstore {exch store} bdef
% operator abbreviations
/c  /clip ldef
/cc /concat ldef
/cp /closepath ldef
/gr /grestore ldef
/gs /gsave ldef
/mt /moveto ldef
/np /newpath ldef
/cm /currentmatrix ldef
/sm /setmatrix ldef
/rm /rmoveto ldef
/rl /rlineto ldef
/s {show newpath} bdef
/sc {setcmykcolor} bdef
/sr /setrgbcolor ldef
/sg /setgray ldef
/w /setlinewidth ldef
/j /setlinejoin ldef
/cap /setlinecap ldef
/rc {rectclip} bdef
/rf {rectfill} bdef
% page state control
/pgsv () def
/bpage {/pgsv save def} bdef
/epage {pgsv restore} bdef
/bplot /gsave ldef
/eplot {stroke grestore} bdef
% orientation switch
/portraitMode 0 def /landscapeMode 1 def /rotateMode 2 def
% coordinate system mappings
/dpi2point 0 def
% font control
/FontSize 0 def
/FMS {/FontSize xstore findfont [FontSize 0 0 FontSize neg 0 0]
  makefont setfont} bdef
/ISOLatin1Encoding where {pop /WindowsLatin1Encoding 256 array bdef
ISOLatin1Encoding WindowsLatin1Encoding copy pop
/.notdef/.notdef/quotesinglbase/florin/quotedblbase/ellipsis/dagger
/daggerdbl/circumflex/perthousand/Scaron/guilsinglleft/OE/.notdef/.notdef
/.notdef/.notdef/quoteleft/quoteright/quotedblleft/quotedblright/bullet
/endash/emdash/tilde/trademark/scaron/guilsinglright/oe/.notdef/.notdef
/Ydieresis WindowsLatin1Encoding 128 32 getinterval astore pop}
{/WindowsLatin1Encoding StandardEncoding bdef} ifelse
/reencode {exch dup where {pop load} {pop StandardEncoding} ifelse
  exch dup 3 1 roll findfont dup length dict begin
  { 1 index /FID ne {def}{pop pop} ifelse } forall
  /Encoding exch def currentdict end definefont pop} bdef
/isroman {findfont /CharStrings get /Agrave known} bdef
/FMSR {3 1 roll 1 index dup isroman {reencode} {pop pop} ifelse
  exch FMS} bdef
/csm {1 dpi2point div -1 dpi2point div scale neg translate
 dup landscapeMode eq {pop -90 rotate}
  {rotateMode eq {90 rotate} if} ifelse} bdef
% line types: solid, dotted, dashed, dotdash
/SO { [] 0 setdash } bdef
/DO { [.5 dpi2point mul 4 dpi2point mul] 0 setdash } bdef
/DA { [6 dpi2point mul] 0 setdash } bdef
/DD { [.5 dpi2point mul 4 dpi2point mul 6 dpi2point mul 4
  dpi2point mul] 0 setdash } bdef
% macros for lines and objects
/L {lineto stroke} bdef
/MP {3 1 roll moveto 1 sub {rlineto} repeat} bdef
/AP {{rlineto} repeat} bdef
/PDlw -1 def
/W {/PDlw currentlinewidth def setlinewidth} def
/PP {closepath eofill} bdef
/DP {closepath stroke} bdef
/MR {4 -2 roll moveto dup  0 exch rlineto exch 0 rlineto
  neg 0 exch rlineto closepath} bdef
/FR {MR stroke} bdef
/PR {MR fill} bdef
/L1i {{currentfile picstr readhexstring pop} image} bdef
/tMatrix matrix def
/MakeOval {newpath tMatrix currentmatrix pop translate scale
0 0 1 0 360 arc tMatrix setmatrix} bdef
/FO {MakeOval stroke} bdef
/PO {MakeOval fill} bdef
/PD {currentlinewidth 2 div 0 360 arc fill
   PDlw -1 eq not {PDlw w /PDlw -1 def} if} def
/FA {newpath tMatrix currentmatrix pop translate scale
  0 0 1 5 -2 roll arc tMatrix setmatrix stroke} bdef
/PA {newpath tMatrix currentmatrix pop	translate 0 0 moveto scale
  0 0 1 5 -2 roll arc closepath tMatrix setmatrix fill} bdef
/FAn {newpath tMatrix currentmatrix pop translate scale
  0 0 1 5 -2 roll arcn tMatrix setmatrix stroke} bdef
/PAn {newpath tMatrix currentmatrix pop translate 0 0 moveto scale
  0 0 1 5 -2 roll arcn closepath tMatrix setmatrix fill} bdef
/vradius 0 def /hradius 0 def /lry 0 def
/lrx 0 def /uly 0 def /ulx 0 def /rad 0 def
/MRR {/vradius xdef /hradius xdef /lry xdef /lrx xdef /uly xdef
  /ulx xdef newpath tMatrix currentmatrix pop ulx hradius add uly
  vradius add translate hradius vradius scale 0 0 1 180 270 arc 
  tMatrix setmatrix lrx hradius sub uly vradius add translate
  hradius vradius scale 0 0 1 270 360 arc tMatrix setmatrix
  lrx hradius sub lry vradius sub translate hradius vradius scale
  0 0 1 0 90 arc tMatrix setmatrix ulx hradius add lry vradius sub
  translate hradius vradius scale 0 0 1 90 180 arc tMatrix setmatrix
  closepath} bdef
/FRR {MRR stroke } bdef
/PRR {MRR fill } bdef
/MlrRR {/lry xdef /lrx xdef /uly xdef /ulx xdef /rad lry uly sub 2 div def
  newpath tMatrix currentmatrix pop ulx rad add uly rad add translate
  rad rad scale 0 0 1 90 270 arc tMatrix setmatrix lrx rad sub lry rad
  sub translate rad rad scale 0 0 1 270 90 arc tMatrix setmatrix
  closepath} bdef
/FlrRR {MlrRR stroke } bdef
/PlrRR {MlrRR fill } bdef
/MtbRR {/lry xdef /lrx xdef /uly xdef /ulx xdef /rad lrx ulx sub 2 div def
  newpath tMatrix currentmatrix pop ulx rad add uly rad add translate
  rad rad scale 0 0 1 180 360 arc tMatrix setmatrix lrx rad sub lry rad
  sub translate rad rad scale 0 0 1 0 180 arc tMatrix setmatrix
  closepath} bdef
/FtbRR {MtbRR stroke } bdef
/PtbRR {MtbRR fill } bdef
/stri 6 array def /dtri 6 array def
/smat 6 array def /dmat 6 array def
/tmat1 6 array def /tmat2 6 array def /dif 3 array def
/asub {/ind2 exch def /ind1 exch def dup dup
  ind1 get exch ind2 get sub exch } bdef
/tri_to_matrix {
  2 0 asub 3 1 asub 4 0 asub 5 1 asub
  dup 0 get exch 1 get 7 -1 roll astore } bdef
/compute_transform {
  dmat dtri tri_to_matrix tmat1 invertmatrix 
  smat stri tri_to_matrix tmat2 concatmatrix } bdef
/ds {stri astore pop} bdef
/dt {dtri astore pop} bdef
/db {2 copy /cols xdef /rows xdef mul dup 3 mul string
  currentfile 
  3 index 0 eq {/ASCIIHexDecode filter}
  {/ASCII85Decode filter 3 index 2 eq {/RunLengthDecode filter} if }
  ifelse exch readstring pop
  dup 0 3 index getinterval /rbmap xdef
  dup 2 index dup getinterval /gbmap xdef
  1 index dup 2 mul exch getinterval /bbmap xdef pop pop}bdef
/it {gs np dtri aload pop moveto lineto lineto cp c
  cols rows 8 compute_transform 
  rbmap gbmap bbmap true 3 colorimage gr}bdef
/il {newpath moveto lineto stroke}bdef
currentdict end def
%%EndProlog

%%BeginSetup
MathWorks begin

0 cap

end
%%EndSetup

%%Page: 1 1
%%BeginPageSetup
%%PageBoundingBox:    87   262   507   578
MathWorks begin
bpage
%%EndPageSetup

%%BeginObject: obj1
bplot

/dpi2point 12 def
portraitMode 1044 6936 csm

    0     0  5045  3782 rc
85 dict begin %Colortable dictionary
/c0 { 0.000000 0.000000 0.000000 sr} bdef
/c1 { 1.000000 1.000000 1.000000 sr} bdef
/c2 { 0.900000 0.000000 0.000000 sr} bdef
/c3 { 0.000000 0.820000 0.000000 sr} bdef
/c4 { 0.000000 0.000000 0.800000 sr} bdef
/c5 { 0.910000 0.820000 0.320000 sr} bdef
/c6 { 1.000000 0.260000 0.820000 sr} bdef
/c7 { 0.000000 0.820000 0.820000 sr} bdef
c0
1 j
1 sg
   0    0 5046 3783 rf
6 w
0 3082 3910 0 0 -3082 656 3366 4 MP
PP
-3910 0 0 3082 3910 0 0 -3082 656 3366 5 MP stroke
4 w
DO
SO
6 w
0 sg
 656  284 mt 4566  284 L
 656 3366 mt 4566 3366 L
4566 3366 mt 4566  284 L
 656 3366 mt  656  284 L
 656 3366 mt 4566 3366 L
 656 3366 mt  656  284 L
 656 3366 mt  656 3326 L
 656  284 mt  656  323 L
%%IncludeResource: font Helvetica
/Helvetica /WindowsLatin1Encoding 120 FMSR

 623 3511 mt 
(0) s
1633 3366 mt 1633 3326 L
1633  284 mt 1633  323 L
1550 3511 mt 
(0.5) s
2611 3366 mt 2611 3326 L
2611  284 mt 2611  323 L
2578 3511 mt 
(1) s
3588 3366 mt 3588 3326 L
3588  284 mt 3588  323 L
3505 3511 mt 
(1.5) s
4566 3366 mt 4566 3326 L
4566  284 mt 4566  323 L
4533 3511 mt 
(2) s
4296 3713 mt 
(x 10) s
%%IncludeResource: font Helvetica
/Helvetica /WindowsLatin1Encoding 80 FMSR

4522 3639 mt 
(4) s
 656 3366 mt  695 3366 L
4566 3366 mt 4526 3366 L
%%IncludeResource: font Helvetica
/Helvetica /WindowsLatin1Encoding 120 FMSR

 385 3410 mt 
(-1.5) s
 656 2852 mt  695 2852 L
4566 2852 mt 4526 2852 L
 485 2896 mt 
(-1) s
 656 2338 mt  695 2338 L
4566 2338 mt 4526 2338 L
 385 2382 mt 
(-0.5) s
 656 1825 mt  695 1825 L
4566 1825 mt 4526 1825 L
 555 1869 mt 
(0) s
 656 1311 mt  695 1311 L
4566 1311 mt 4526 1311 L
 455 1355 mt 
(0.5) s
 656  797 mt  695  797 L
4566  797 mt 4526  797 L
 555  841 mt 
(1) s
 656  284 mt  695  284 L
4566  284 mt 4526  284 L
 455  328 mt 
(1.5) s
 656  230 mt 
(x 10) s
%%IncludeResource: font Helvetica
/Helvetica /WindowsLatin1Encoding 80 FMSR

 882  156 mt 
(-3) s
 656  284 mt 4566  284 L
 656 3366 mt 4566 3366 L
4566 3366 mt 4566  284 L
 656 3366 mt  656  284 L
gs 656 284 3911 3083 rc
/c8 { 0.000000 0.000000 1.000000 sr} bdef
c8
1 0 1 0 1 0 -1 0 2 0 1 0 1 0 1 0 
1 0 1 0 1 0 1 0 1 0 1 0 1 0 1 0 
1 0 -1 0 2 0 1 0 0 0 2 0 1 0 1 0 
1 0 1 0 1 0 1 0 1 0 0 0 2 0 1 -1 
1 1 1 0 1 0 1 0 1 0 1 0 0 0 2 0 
1 0 1 0 1 0 1 0 1 0 1 0 1 0 1 0 
0 0 2 0 1 0 0 0 2 0 1 0 1 0 1 -1 
1 1 1 0 1 0 1 0 1 0 1 0 1 0 1 0 
1 0 -1 0 2 0 1 0 0 0 2 0 1 0 1 -1 
1 1 1 0 1 0 -1 0 2 0 0 0 2 0 1 0 
1 0 1 0 1 0 -1 0 2 0 1 0 1 0 1 0 
1 0 1 0 1 0 0 0 2 0 1 0 1 0 1 0 
1 0 1 0 1 0 1 0 1 0 1 0 0 0 2 0 
0 -1 1 1 1 0 -1 0 2 0 1 0 1 0 1 0 
1 0 1 0 1 0 -1 0 2 0 1 0 1 0 1 0 
1 0 0 -1 1 1 0 -1 1 1 0 0 2 0 1 -1 
1 1 1 0 1 0 1 0 1 0 1 0 1 0 1 0 
1 0 1 0 -1 0 2 0 1 0 1 0 1 0 1 -1 
0 1 0 -205 1 179 0 -179 1 183 0 1 0 -165 0 161 
1 -182 0 173 0 -175 0 174 1 -177 0 173 0 -176 0 174 
1 -175 0 -3 0 181 1 -160 0 160 0 -176 0 128 1 -115 
0 402 0 -348 1 190 0 283 0 -293 0 177 1 -280 0 62 
0 -161 0 140 1 -183 0 168 0 -175 0 173 1 -174 0 187 
1 -163 0 165 0 -181 0 130 1 -129 0 179 0 -47 1 -130 
0 180 0 -46 1 -131 0 186 0 -3 1 -181 0 176 0 -177 
0 176 1 -176 0 -1 0 182 1 -163 0 161 0 -184 0 127 
1 -127 0 172 0 -174 0 125 1 -123 0 178 0 -20 1 -57 
0 468 0 -533 0 142 1 -8 0 -181 0 173 1 2 0 -170 
0 207 1 28 0 224 0 -345 0 235 1 -231 0 125 0 -221 
0 120 1 -136 0 173 0 -179 0 129 1 -130 0 187 1 -1 
0 -182 0 179 1 1 0 -178 0 180 1 -1 0 -175 0 183 
1 1 0 -183 1 127 0 46 0 -175 1 127 0 -126 0 181 
1 1 0 -174 0 560 1 -299 0 -264 0 167 1 -3 0 -177 
0 177 1 2 0 -184 1 128 0 49 0 -177 0 2 1 132 
0 74 0 -198 0 41 1 159 0 304 0 -385 0 189 1 40 
0 -339 0 170 1 -4 0 -182 0 181 1 3 0 1 0 -184 
1 131 0 49 0 -178 1 129 0 49 0 -176 0 1 1 128 
0 54 0 -181 0 21 4387 2013 300 MP stroke
1 160 0 -178 0 6 1 177 0 341 0 -429 0 2 1 108 
0 -202 1 177 0 -182 1 126 0 47 0 -175 1 128 0 53 
0 -182 0 18 1 163 0 -186 0 0 1 175 0 2 0 -180 
0 3 1 181 0 4 0 -170 0 36 1 223 0 237 0 -123 
1 -263 0 82 0 -159 0 145 1 -185 0 166 0 -175 0 173 
1 -175 0 183 0 -183 0 22 1 162 0 -179 0 3 1 175 
0 3 0 -167 0 30 1 237 0 304 0 -464 0 74 1 -184 
0 -3 0 173 1 -176 0 177 1 -174 0 184 1 -163 0 163 
0 -184 0 130 1 -130 0 176 0 -180 1 178 0 -180 1 182 
0 1 0 -165 0 161 1 -183 0 180 1 -173 0 237 1 -125 
0 341 0 -125 1 -220 0 121 0 -220 0 117 1 -132 0 171 
0 -175 0 125 1 -123 0 267 1 310 0 -554 0 159 1 -175 
0 -2 0 175 1 -172 0 184 1 -161 0 163 0 -182 0 130 
1 -129 0 177 0 -46 1 -130 0 184 0 0 1 -1 0 -185 
0 176 1 1 0 -180 0 177 1 -1 0 -180 0 181 1 1 
0 -188 0 128 1 -129 0 176 0 -45 1 -123 0 205 1 -63 
0 397 0 -230 1 -53 0 157 0 -347 0 207 1 -71 0 -205 
0 174 1 2 0 0 0 -180 1 129 0 51 0 -177 0 1 
1 130 0 51 0 -178 0 133 1 -128 0 186 1 -1 0 -183 
0 178 1 1 0 -179 0 101 1 23 0 -37 0 21 1 23 
0 -41 1 -5 0 26 0 -37 1 1 0 25 0 -37 1 6 
0 33 0 -46 0 16 1 28 0 -38 0 62 1 -30 0 -307 
0 454 1 98 0 754 0 -802 1 -90 0 -139 1 4 0 24 
0 -39 1 11 0 41 0 -16 1 25 0 -42 0 13 1 29 
0 -35 0 15 1 27 0 -34 0 20 1 26 0 -40 1 -7 
0 38 0 -32 1 -9 0 46 0 -9 1 3 0 -52 0 33 
1 6 0 -41 0 43 1 11 0 -322 1 269 0 41 0 -58 
1 11 0 26 0 -40 0 8 1 24 0 419 1 561 0 -864 
1 -54 0 -65 0 24 1 -21 0 -20 0 46 1 -13 0 18 
0 -39 1 -1 0 40 0 -33 1 -3 0 41 0 -31 1 -5 
0 48 0 -8 1 6 0 -50 0 33 1 8 0 -42 0 50 
1 -30 0 32 0 -41 0 14 1 -58 0 -239 0 307 1 -27 
0 32 0 -51 0 12 1 -12 0 40 0 -2 1 -14 0 -36 
0 39 1 -11 0 -23 0 75 1 10 0 428 1 517 0 -960 
1 -29 0 9 0 -46 1 20 0 26 1 -33 0 -10 0 41 
1 -33 0 -6 0 43 1 -36 0 -2 0 50 1 -29 0 28 
0 -42 0 15 1 -11 0 54 0 -352 1 277 0 82 0 -43 
1 -16 0 41 0 -2 4288 1906 300 MP stroke
1 -12 0 -39 0 27 1 -31 0 44 0 -9 1 -15 0 22 
0 -49 0 3 1 4 0 27 0 -38 0 4 1 13 0 52 
1 67 0 894 0 -518 1 -231 0 -206 1 -48 0 -27 0 34 
1 -34 0 46 0 -51 0 24 1 25 0 3 0 -40 1 42 
0 10 0 -31 0 22 1 8 0 20 0 -321 0 315 1 -48 
0 33 0 -38 0 33 1 -38 0 44 0 -7 1 -32 0 49 
0 -6 1 -17 0 26 0 -48 0 5 1 1 0 30 0 -41 
0 3 1 6 0 26 0 -39 0 14 1 26 0 -36 1 -11 
0 37 0 -41 0 17 1 6 0 147 1 116 0 714 0 -786 
1 -70 0 -147 1 29 0 3 0 -39 0 3 1 46 0 12 
0 -312 1 258 0 62 0 -11 1 -43 0 42 0 -39 1 15 
0 38 0 -42 0 20 1 28 0 -46 0 8 1 33 0 -38 
0 14 1 33 0 0 0 -26 1 -19 0 33 0 -34 0 7 
1 -12 0 32 0 -35 0 6 1 -8 0 37 0 -42 0 17 
1 10 0 6 0 -52 0 28 1 11 0 -34 0 52 1 29 
0 -2 0 408 1 552 0 -950 1 -57 0 35 0 -336 0 287 
1 5 0 20 0 -39 0 11 1 30 0 -46 0 7 1 38 
0 -37 0 11 1 37 0 -36 0 15 1 36 0 5 0 -44 
1 2 0 35 0 -37 1 17 0 6 0 -9 1 5 0 9 
0 -2 1 -10 0 -14 0 4 1 -8 0 -12 0 6 1 -10 
0 -7 0 13 1 -5 0 4 0 -7 0 6 1 15 0 146 
0 -49 1 -1 0 376 0 -144 1 -123 0 -201 1 -25 0 -10 
0 3 1 -5 0 29 1 2 0 4 0 -10 0 2 1 7 
0 6 0 -7 0 4 1 8 0 4 0 -6 0 5 1 9 
0 6 0 -5 1 -9 0 4 0 -10 1 -2 0 13 0 -3 
1 -1 0 -24 0 4 1 3 0 -12 0 11 1 12 0 116 
1 -87 0 -71 1 -6 0 11 0 -13 0 11 1 14 0 190 
1 115 0 165 0 -292 1 -59 0 -114 1 -8 0 -6 0 20 
1 1 0 4 0 -11 1 3 0 11 0 -7 1 3 0 10 
0 -6 1 5 0 13 1 -6 0 -13 0 8 1 -5 0 -7 
0 16 1 -1 0 6 0 0 1 20 0 121 0 -149 1 -6 
0 -26 1 8 0 3 0 -10 1 -12 0 -3 0 10 1 -3 
0 86 1 43 0 352 1 -170 0 -265 1 -14 0 -28 1 8 
0 9 0 -8 1 -3 0 11 0 -6 1 -1 0 12 0 -7 
1 1 0 17 0 -1 1 3 0 -12 0 15 1 23 0 85 
0 -48 1 -24 0 -41 0 4 1 4 0 -18 1 -6 0 6 
0 -8 1 -2 0 13 0 -3 1 -8 0 -16 0 6 1 -4 
0 -6 0 23 1 8 4189 1937 300 MP stroke
0 177 1 104 0 169 0 -278 1 -73 0 -120 1 -8 0 3 
0 -10 1 3 0 21 1 -2 0 -8 0 21 1 6 0 161 
0 -69 1 -44 0 -56 1 2 0 5 0 -12 0 2 1 7 
0 5 0 -7 0 4 1 9 0 7 0 -3 1 -10 0 1 
0 -6 0 4 1 -8 0 3 0 -7 0 4 1 -8 0 9 
0 -11 0 9 1 -2 0 -22 0 7 1 9 0 64 1 50 
0 350 1 -165 0 -281 1 -23 0 -24 1 3 0 44 1 31 
0 85 0 -110 1 -9 0 -22 0 4 1 9 0 -6 0 14 
1 11 0 4 0 -13 1 2 0 10 0 -8 1 4 0 14 
0 -1 1 -4 0 -15 0 6 1 -4 0 -12 0 7 1 -6 
0 -9 0 10 1 -4 0 -26 1 -5 0 8 0 -4 1 8 
0 143 1 85 0 268 0 -327 1 -50 0 48 0 -107 1 -41 
0 -22 0 7 1 -3 0 5 0 -12 0 2 1 6 0 10 
0 -1 1 7 0 9 1 9 0 12 0 -1 1 -8 0 -5 
0 9 1 -6 0 -3 0 16 1 -1 0 3 0 -4 0 3 
1 -2 0 -19 1 -2 0 -18 1 -2 0 -13 1 0 0 -3 
1 5 0 728 1 -522 0 -86 0 66 1 -373 0 403 0 -138 
1 -37 0 -55 0 2 1 1 0 22 1 5 0 7 1 3 
0 10 1 3 0 8 1 4 0 7 0 -1 1 -3 0 -6 
1 -2 0 -2 0 2 1 -2 0 -20 1 -3 0 -9 0 3 
1 6 0 703 1 -556 0 -181 1 -7 0 -3 0 11 1 13 
0 153 1 0 0 123 0 -494 0 402 1 -63 0 -109 1 -5 
0 -6 0 8 1 6 0 7 0 -1 1 1 0 9 1 3 
0 6 1 3 0 5 0 -2 1 -5 0 -7 1 -3 0 -1 
0 5 1 1 0 32 1 118 0 565 0 -711 1 -13 0 -23 
1 0 0 1 0 -14 1 -3 0 -1 0 7 1 9 0 129 
1 82 0 149 0 -640 0 394 1 26 0 -118 1 -11 0 -12 
0 4 1 4 0 3 0 -1 1 -1 0 6 0 -1 1 1 
0 5 0 -1 1 2 0 8 0 -1 1 -3 0 45 1 119 
0 563 0 -691 1 -14 0 -12 1 -1 0 -13 1 1 0 -4 
1 2 0 1 0 -8 1 -7 0 -9 1 -3 0 26 1 17 
0 103 0 -419 1 639 0 -283 1 -35 0 -52 1 -2 0 -2 
0 10 1 3 0 4 1 2 0 36 1 35 0 680 0 -681 
1 -29 0 -21 1 0 0 -1 0 8 1 0 0 13 1 0 
0 -8 1 -1 0 -9 1 0 0 -8 1 1 0 -13 1 -6 
0 -2 0 11 1 11 0 162 1 76 0 15 0 -494 0 371 
1 -50 0 -119 1 -3 0 -1 0 23 1 13 0 706 0 -549 
1 -119 0 -47 1 2 4075 1955 300 MP stroke
0 13 1 5 0 18 1 -1 0 -1 0 4 1 1 0 8 
1 1 0 -11 1 -2 0 -11 1 -1 0 -10 1 -1 0 -19 
1 -8 0 -9 1 3 0 90 1 56 0 84 0 -402 0 374 
1 4 0 -71 0 605 1 -548 0 -190 1 1 0 4 1 4 
0 15 1 5 0 16 1 5 0 14 1 -1 0 -3 0 2 
1 -1 0 -1 0 22 1 -1 0 -2 1 -2 0 -18 1 -4 
0 -20 1 -5 0 -21 1 -3 0 -4 0 1 1 1 0 -670 
0 556 1 148 0 1065 1 -669 0 -405 1 -20 0 -17 0 3 
1 3 0 27 1 6 0 16 1 4 0 12 1 4 0 13 
1 3 0 1 0 -4 1 -1 0 -6 1 -1 0 -7 1 -5 
0 -18 1 -3 0 -7 1 -6 0 -701 0 556 1 113 0 17 
0 -22 1 -5 0 19 1 20 0 1123 1 -673 0 -411 1 -24 
0 -25 1 2 0 19 1 4 0 11 1 3 0 10 1 2 
0 8 1 1 0 -6 1 -2 0 -7 1 1 0 1 1 -5 
0 -700 0 557 1 114 0 20 0 -14 1 -5 0 -11 1 -4 
0 -13 1 -1 0 28 1 25 0 456 1 709 0 -1136 1 -27 
0 -41 1 3 0 13 1 1 0 9 1 1 0 7 1 1 
0 6 1 1 0 -3 1 -4 0 -688 0 573 1 125 0 22 
0 -13 1 -3 0 -10 1 -3 0 -6 1 -1 0 -9 1 -5 
0 -17 1 -3 0 -2 0 13 1 12 0 151 1 177 0 855 
0 -1064 1 -62 0 -85 1 -4 0 -1 0 5 1 5 0 15 
1 4 0 20 1 -18 0 -670 0 674 1 23 0 1 0 -5 
1 1 0 6 1 2 0 9 1 2 0 -6 1 -2 0 -9 
1 -2 0 -12 1 -2 0 -21 1 -5 0 -1 0 11 1 14 
0 220 1 216 0 672 0 -1045 1 -47 0 -66 1 -1 0 25 
1 5 0 -693 0 549 1 119 0 37 1 3 0 17 1 5 
0 17 1 1 0 6 1 1 0 5 1 -1 0 -11 1 -2 
0 -12 1 -4 0 -14 1 -4 0 -26 1 -7 0 -11 1 5 
0 221 1 220 0 671 0 -986 1 -78 0 -711 0 646 1 18 
0 -1 0 3 1 3 0 16 1 5 0 21 1 5 0 19 
1 5 0 7 1 -1 0 2 1 -1 0 19 0 -2 1 -1 
0 -8 1 -4 0 -21 1 -6 0 -25 1 -7 0 -23 1 -5 
0 -4 0 5 1 -3 0 -131 0 145 1 44 0 329 0 -169 
1 -102 0 -123 1 -5 0 -1 0 23 1 8 0 30 1 6 
0 19 1 4 0 14 1 3 0 9 1 0 0 -4 1 -2 
0 -7 1 -2 0 -17 1 -6 0 -23 1 -3 0 -62 1 -93 
0 135 0 -12 1 -12 0 -18 1 3 0 72 1 54 0 309 
0 -250 1 -59 0 -87 3943 1959 300 MP stroke
1 -3 0 12 1 6 0 20 1 4 0 18 1 3 0 8 
1 2 0 1 0 -2 1 -2 0 -10 1 -2 0 -5 1 -1 
0 1 0 -32 1 -92 0 110 0 -3 1 -6 0 -19 1 -3 
0 -15 1 -4 0 -6 0 6 1 9 0 142 1 112 0 176 
0 -354 1 -29 0 -44 1 -1 0 14 1 4 0 13 1 3 
0 8 1 2 0 3 1 1 0 -4 1 -2 0 -106 0 32 
1 101 0 17 0 -24 1 -4 0 -8 1 -2 0 -4 1 -2 
0 -9 1 -4 0 -20 1 -5 0 -8 0 1 1 4 0 72 
1 49 0 305 0 -351 1 -38 0 -52 1 -2 0 10 1 4 
0 14 1 3 0 23 1 4 0 -109 0 91 1 27 0 2 
0 -5 1 1 0 9 1 3 0 10 1 2 0 -4 1 -2 
0 -11 1 -3 0 -15 1 -4 0 -23 1 -5 0 -6 0 4 
1 9 0 137 1 97 0 152 0 -365 1 -31 0 -39 1 1 
0 36 1 11 0 -148 0 128 1 14 0 19 1 6 0 23 
1 6 0 14 1 2 0 7 1 1 0 3 1 -2 0 -10 
1 -3 0 -15 1 -4 0 -27 1 -7 0 -33 1 -6 0 -9 
0 6 1 11 0 219 1 171 0 -370 1 -66 0 -90 0 125 
1 -2 0 -1 0 13 1 6 0 27 1 7 0 25 1 5 
0 24 1 2 0 4 1 1 0 21 1 -1 0 -6 1 -3 
0 -18 1 -6 0 -28 1 -8 0 -34 1 -8 0 -25 1 1 
0 215 1 -132 0 -228 1 92 0 41 0 -8 1 0 0 25 
1 10 0 40 1 9 0 27 1 6 0 18 1 4 0 11 
1 1 0 2 0 -2 1 -1 0 -11 1 -3 0 -19 1 -7 
0 -26 1 -5 0 -9 0 7 1 25 0 177 0 -204 1 -35 
0 -44 1 -2 0 12 1 4 0 -111 0 124 1 42 0 1 
0 -25 1 -2 0 26 1 8 0 26 1 5 0 17 1 4 
0 9 1 2 0 1 0 -2 1 -1 0 -12 1 -3 0 -13 
1 -2 0 59 1 93 0 45 0 -205 1 -13 0 -24 1 -4 
0 -17 1 -4 0 -10 1 2 0 14 0 -7 1 -38 0 79 
0 -161 0 159 1 -11 0 -17 1 3 0 21 1 5 0 17 
1 4 0 9 1 1 0 1 0 -1 1 -1 0 -5 1 3 
0 215 1 -106 0 -98 1 -3 0 -2 1 -1 0 -4 1 -2 
0 -13 1 -5 0 -25 1 -6 0 -12 0 3 1 7 0 25 
0 -37 1 -126 0 128 0 -3 1 -5 0 -6 0 3 1 3 
0 17 1 4 0 14 1 4 0 53 1 57 0 124 0 -181 
1 -16 0 -6 0 5 1 3 0 18 1 3 0 6 1 0 
0 -6 1 -3 0 -14 1 -5 0 -22 1 -7 0 -29 1 -5 
0 -5 0 8 1 10 3811 1951 300 MP stroke
0 11 0 -170 1 69 0 39 0 -11 1 -1 0 23 1 15 
0 247 1 -111 0 -112 0 3 1 6 0 29 1 7 0 25 
1 5 0 12 1 2 0 6 1 1 0 -5 1 -3 0 -19 
1 -4 0 -24 1 -7 0 -36 1 -10 0 -37 1 -5 0 -3 
0 8 1 -2 0 -123 0 137 1 19 0 194 0 -108 1 -76 
0 -40 0 6 1 8 0 37 1 9 0 40 1 7 0 22 
1 5 0 10 1 1 0 2 1 22 0 -3 1 -2 0 -14 
1 -5 0 -27 1 -9 0 -38 1 -10 0 -56 1 -8 0 -4 
0 191 1 638 0 -937 1 -166 0 -657 0 865 1 16 0 47 
1 13 0 51 1 12 0 39 1 8 0 25 1 5 0 15 
1 2 0 4 0 -1 1 -1 0 -9 1 -3 0 -19 1 -7 
0 -30 1 -9 0 -23 1 6 0 832 0 -665 1 -164 0 -91 
1 -5 0 -15 1 -5 0 -886 1 762 0 181 1 6 0 36 
1 10 0 34 1 7 0 22 1 5 0 11 1 2 0 1 
0 -1 1 -2 0 -13 1 -4 0 -20 1 -4 0 -5 0 46 
1 152 0 664 0 -881 1 -9 0 -15 1 -3 0 -19 1 -6 
0 -24 1 -6 0 -89 1 -174 0 -678 0 968 1 -2 0 -1 
0 11 1 6 0 30 1 7 0 25 1 3 0 6 1 1 
0 -4 1 -3 0 -7 0 1 1 10 0 875 0 -658 1 -152 
0 -65 1 0 0 3 1 1 0 -5 1 -2 0 -18 1 -7 
0 -39 1 -7 0 -15 1 2 0 3 0 -969 1 677 0 262 
1 7 0 22 1 6 0 21 1 4 0 13 1 5 0 231 
1 659 0 -864 1 0 0 23 1 5 0 15 1 3 0 3 
1 -1 0 -9 1 -4 0 -20 1 -6 0 -33 1 -9 0 -37 
1 -8 0 -16 1 -26 0 -907 0 865 1 17 0 22 1 7 
0 63 1 54 0 800 0 -819 1 -31 0 -1 0 26 1 10 
0 35 1 7 0 22 1 4 0 11 1 2 0 1 1 -2 
0 -15 1 -4 0 -23 1 -7 0 -36 1 -11 0 -51 1 -13 
0 -48 1 -11 0 -872 1 662 0 451 1 629 0 -835 1 9 
0 49 1 12 0 53 1 9 0 29 1 6 0 16 1 3 
0 4 1 1 0 31 0 -3 1 -2 0 -15 1 -6 0 -29 
1 -9 0 -44 1 -13 0 -75 1 -15 0 -194 1 -631 0 719 
1 81 0 587 0 -673 0 5 1 21 0 84 1 18 0 65 
1 14 0 45 1 9 0 28 1 5 0 16 1 2 0 4 
0 -1 1 -2 0 -11 1 -4 0 -24 1 -8 0 -38 1 -11 
0 -36 1 -25 0 -781 0 718 1 17 0 -21 1 -7 0 -38 
1 -16 0 740 0 -752 0 164 1 -99 0 -4 0 57 1 14 
0 54 1 11 0 39 3677 1870 300 MP stroke
1 7 0 23 1 4 0 10 1 0 0 -5 1 -3 0 -18 
1 -6 0 -29 1 -9 0 -793 0 650 1 113 0 12 0 -10 
1 -3 0 -14 1 -6 0 -32 1 -10 0 -52 1 -20 0 -57 
0 828 1 -597 0 -125 0 13 1 10 0 44 1 11 0 35 
1 7 0 22 1 2 0 2 0 -1 1 -2 0 -14 1 -5 
0 -143 1 -636 0 785 1 2 0 10 1 2 0 1 0 -1 
1 -2 0 -16 1 -7 0 -35 1 -11 0 -56 1 -9 0 -10 
0 133 1 591 0 -833 0 63 1 22 0 52 1 9 0 31 
1 6 0 14 1 3 0 10 0 -12 1 -112 0 -651 0 781 
1 10 0 30 1 7 0 25 1 3 0 4 1 1 0 -10 
1 -4 0 -23 1 -7 0 -39 1 -11 0 -53 1 -14 0 -51 
1 8 0 680 0 -767 1 15 0 66 1 9 0 47 1 -2 
0 -774 0 749 1 37 0 62 1 12 0 41 1 8 0 24 
1 4 0 11 1 2 0 1 0 -2 1 -1 0 -14 1 -5 
0 -33 1 -9 0 -45 1 -14 0 -65 1 -19 0 -84 1 -22 
0 676 0 -681 0 105 1 -70 0 10 0 -785 1 612 0 231 
1 19 0 66 1 14 0 48 1 10 0 38 1 6 0 15 
1 2 0 3 1 24 0 -6 1 -3 0 -18 1 -7 0 -35 
1 -11 0 -54 1 -17 0 -78 1 -22 0 -151 1 -12 0 10 
0 -48 1 -104 0 190 1 36 0 109 1 22 0 73 1 14 
0 47 1 9 0 27 1 5 0 13 1 2 0 1 0 -2 
1 -2 0 -20 1 -6 0 -33 1 -11 0 -52 1 -14 0 -31 
1 -85 0 -47 0 52 1 -2 0 -31 1 -12 0 -69 1 -34 
0 -68 0 145 1 33 0 94 1 19 0 76 1 12 0 35 
1 7 0 18 1 3 0 3 0 -1 1 -1 0 -14 1 -6 
0 -31 1 -10 0 -64 1 -33 0 51 0 -95 0 86 1 -2 
0 1 0 -2 1 -4 0 -27 1 -10 0 -57 1 -19 0 -110 
1 -30 0 -25 0 144 1 23 0 71 1 15 0 52 1 10 
0 29 1 5 0 8 1 1 0 -16 1 -6 0 -35 1 -14 
0 -21 0 39 1 11 0 28 1 5 0 6 1 1 0 -13 
1 -6 0 -35 1 -12 0 -58 1 -17 0 -74 1 -21 0 -118 
0 84 1 35 0 83 1 15 0 42 1 7 0 16 1 1 
0 -1 0 2 1 5 0 3 0 -95 0 77 1 22 0 50 
1 9 0 28 1 5 0 11 1 1 0 -9 1 -4 0 -25 
1 -8 0 -45 1 -14 0 -68 1 -20 0 -99 1 -32 0 -108 
0 67 1 33 0 72 1 12 0 41 1 16 0 51 0 -179 
0 114 1 34 0 80 1 14 0 47 1 9 0 26 1 5 
0 11 1 1 0 1 3544 1784 300 MP stroke
0 -3 1 -2 0 -16 1 -6 0 -31 1 -10 0 -51 1 -16 
0 -102 1 -26 0 -142 1 -52 0 -91 0 174 1 32 0 79 
0 -251 0 79 1 71 0 139 1 23 0 76 1 15 0 50 
1 10 0 32 1 6 0 17 1 2 0 24 0 -1 1 -2 
0 -13 1 -5 0 -30 1 -10 0 -51 1 -16 0 -79 1 -25 
0 -124 1 -21 0 564 0 -650 1 -15 0 -981 0 664 1 210 
0 279 1 32 0 101 1 19 0 63 1 12 0 37 1 7 
0 19 1 3 0 4 1 -1 0 -12 1 -5 0 -28 1 -10 
0 -51 1 -16 0 -85 1 76 0 513 0 -676 1 4 0 1 
0 -22 1 -13 0 -70 1 -25 0 -937 0 877 1 82 0 152 
1 26 0 82 1 16 0 50 1 9 0 27 1 4 0 8 
1 -1 0 -15 1 -6 0 -35 1 -13 0 -73 1 -12 0 641 
0 -632 1 -7 0 17 1 -1 0 -20 1 -11 0 -61 1 -22 
0 -158 1 -118 0 -757 0 960 1 37 0 99 1 19 0 62 
1 12 0 32 1 5 0 8 1 -1 0 -16 1 -7 0 -47 
1 -2 0 631 0 -635 1 3 0 58 1 6 0 8 1 -1 
0 -17 1 -8 0 -45 1 -15 0 -79 1 -25 0 -141 1 -142 
0 -745 0 908 1 37 0 100 1 17 0 51 1 8 0 13 
0 -1 1 -4 0 -11 0 97 1 542 0 -642 0 33 1 20 
0 54 1 9 0 27 1 4 0 7 1 0 0 -12 1 -5 
0 -31 1 -11 0 -73 1 -20 0 -101 1 -33 0 -306 1 -691 
0 929 1 21 0 58 1 8 0 136 1 537 0 -646 0 52 
1 28 0 79 1 15 0 46 1 8 0 29 1 3 0 4 
1 1 0 -10 1 -5 0 -26 1 -8 0 -47 1 -15 0 -76 
1 -23 0 -123 1 -42 0 -433 1 -659 0 1153 1 527 0 -651 
0 120 1 36 0 107 1 21 0 66 1 13 0 42 1 8 
0 23 1 3 0 7 1 1 0 29 0 -5 1 -3 0 -20 
1 -7 0 -53 1 -15 0 -74 1 -24 0 -125 1 -44 0 -919 
1 551 0 728 1 -592 0 -54 0 176 1 54 0 160 1 30 
0 92 1 18 0 56 1 10 0 36 1 5 0 8 1 1 
0 -8 1 -5 0 -26 1 -9 0 -51 1 -16 0 -94 1 -40 
0 -827 0 560 1 134 0 56 0 -4 1 -10 0 -77 1 -23 
0 504 0 -594 1 39 0 186 1 35 0 104 1 20 0 61 
1 11 0 32 1 5 0 10 1 1 0 -11 1 -5 0 -34 
1 -12 0 -113 1 -62 0 -733 0 727 1 48 0 43 1 0 
0 -25 1 -12 0 -78 1 -29 0 -139 1 42 0 451 0 -465 
0 18 1 32 0 128 1 25 0 79 1 14 0 46 1 5 
0 6 0 -1 1 -2 3408 1818 300 MP stroke
0 -25 1 -10 0 -114 1 -153 0 -588 0 786 1 32 0 56 
1 7 0 9 1 -2 0 -21 1 -10 0 -55 1 -19 0 -137 
1 -40 0 -83 0 454 1 -358 0 -75 0 53 1 32 0 98 
1 17 0 44 1 5 0 2 0 -9 1 -11 0 -798 1 579 
0 277 1 20 0 62 1 8 0 20 1 2 0 1 0 -3 
1 -3 0 -23 1 -9 0 -48 1 -16 0 -85 1 -28 0 -154 
1 -53 0 383 0 -433 0 151 1 -82 0 -14 0 53 1 19 
0 39 0 -10 1 -38 0 -705 0 741 1 69 0 124 1 21 
0 62 1 12 0 34 1 6 0 15 1 1 0 1 0 -3 
1 -3 0 -19 1 -8 0 -39 1 -13 0 -91 1 -24 0 -127 
1 -42 0 -242 1 -80 0 768 0 -654 1 -155 0 -557 0 828 
1 60 0 157 1 29 0 90 1 17 0 55 1 11 0 31 
1 5 0 15 1 1 0 19 0 -7 1 -3 0 -24 1 -9 
0 -48 1 -15 0 -81 1 -26 0 -141 1 -49 0 -420 1 105 
0 43 0 -461 1 817 0 -332 0 185 1 54 0 160 1 30 
0 91 1 17 0 53 1 10 0 28 1 4 0 8 1 -1 
0 -10 1 -5 0 -32 1 -11 0 -61 1 -20 0 -180 1 -91 
0 -140 0 183 1 11 0 1 0 -34 1 -22 0 -149 1 -100 
0 462 0 -833 0 495 1 48 0 194 1 35 0 106 1 19 
0 59 1 10 0 29 1 4 0 5 0 -2 1 -3 0 -24 
1 -9 0 -57 1 -20 0 -174 1 -127 0 218 1 16 0 16 
0 -1 1 -5 0 -48 1 -20 0 -124 1 -46 0 -668 0 1048 
1 -348 0 -52 0 105 1 38 0 115 1 20 0 60 1 10 
0 22 1 2 0 -11 1 -7 0 -49 1 -21 0 -231 1 111 
0 155 1 15 0 34 1 0 0 -14 1 -8 0 -52 1 -18 
0 -105 1 -36 0 -239 1 -147 0 656 0 -1060 0 644 1 16 
0 137 1 26 0 72 1 11 0 13 0 -1 1 -5 0 -202 
1 -42 0 276 1 24 0 65 1 11 0 30 1 4 0 5 
1 -2 0 -19 1 -8 0 -45 1 -16 0 -84 1 -28 0 -214 
1 -69 0 -646 0 1085 1 -351 0 -69 0 58 1 25 0 41 
0 -1 1 -14 0 -176 0 150 1 85 0 145 1 24 0 74 
1 14 0 41 1 8 0 18 1 2 0 1 0 -5 1 -3 
0 -24 1 -8 0 -47 1 -16 0 -82 1 -27 0 -142 1 -47 
0 -240 1 -41 0 8 0 -110 0 52 1 -35 0 -69 0 345 
1 61 0 170 1 32 0 117 1 17 0 53 1 9 0 29 
1 4 0 10 1 0 0 16 0 -5 1 -3 0 -25 1 -9 
0 -49 1 -17 0 -86 1 -28 0 -204 1 -60 0 -166 0 56 
1 -84 0 30 0 -745 3278 3085 300 MP stroke
1 457 0 437 1 61 0 175 1 32 0 98 1 19 0 55 
1 11 0 28 1 4 0 5 1 1 0 -20 1 -7 0 -44 
1 -14 0 -82 1 -28 0 -145 1 -6 0 44 0 -73 1 -5 
0 -68 1 -32 0 -192 1 140 0 -737 0 722 1 74 0 196 
1 35 0 121 1 17 0 47 1 8 0 19 1 1 0 -7 
1 -5 0 -36 1 -13 0 -76 1 -26 0 -45 0 21 1 -43 
0 41 1 7 0 3 0 -12 1 -11 0 -111 1 -37 0 -243 
1 -118 0 -153 0 317 1 74 0 199 1 34 0 100 1 17 
0 46 1 6 0 9 0 -1 1 -3 0 -31 1 -13 0 -52 
0 19 1 -28 0 -47 0 67 1 22 0 51 1 6 0 6 
0 -3 1 -4 0 -37 1 -15 0 -87 1 -31 0 -181 1 -70 
0 -374 0 63 1 160 0 257 1 41 0 131 1 14 0 23 
1 -3 0 -47 1 -1 0 42 0 -1 1 26 0 85 1 15 
0 43 1 6 0 12 1 1 0 -13 1 -7 0 -41 1 -15 
0 -108 1 -30 0 -174 1 -64 0 -460 1 79 0 346 1 37 
0 79 1 2 0 -11 0 98 1 14 0 84 1 28 0 87 
1 16 0 57 1 7 0 17 1 2 0 1 0 -4 1 -3 
0 -24 1 -9 0 -49 1 -17 0 -88 1 -28 0 -155 1 -52 
0 -266 1 -32 0 176 0 -950 0 664 1 99 0 285 1 52 
0 162 1 31 0 94 1 18 0 56 1 10 0 28 1 5 
0 8 1 14 0 -12 1 -5 0 -35 1 -11 0 -65 1 -22 
0 -151 1 -42 0 -222 1 -50 0 301 0 -524 1 -160 0 -445 
0 639 1 112 0 285 1 49 0 147 1 27 0 83 1 15 
0 45 1 7 0 21 1 0 0 -7 1 -5 0 -32 1 -12 
0 -66 1 -22 0 -122 1 -36 0 338 0 -362 0 26 1 -74 
0 -55 1 -21 0 -174 1 -86 0 -615 0 503 1 139 0 349 
1 43 0 124 1 23 0 66 1 11 0 30 1 3 0 3 
0 -2 1 -3 0 -29 1 -11 0 -67 1 -22 0 -59 0 48 
1 321 0 -403 0 12 1 12 0 13 0 -11 1 -11 0 -85 
1 -33 0 -206 1 -77 0 -751 0 526 1 199 0 303 1 44 
0 125 1 21 0 58 1 9 0 13 1 -2 0 -41 1 -16 
0 -37 0 52 1 322 0 -405 0 27 1 22 0 59 1 7 
0 8 0 -2 1 -4 0 -38 1 -15 0 -93 1 -33 0 -194 
1 -71 0 -832 1 515 0 467 1 39 0 104 1 15 0 21 
1 -4 0 -32 1 62 0 340 0 -368 0 11 1 23 0 84 
1 15 0 43 1 6 0 10 1 -1 0 -17 1 -8 0 -68 
1 -20 0 -110 1 -37 0 -215 1 -77 0 -820 1 506 0 381 
1 35 0 64 1 4 3143 2104 300 MP stroke
0 453 0 -302 1 -37 0 112 1 26 0 96 1 13 0 37 
1 6 0 12 1 0 0 -10 1 -5 0 -34 1 -12 0 -65 
1 -22 0 -116 1 -39 0 -212 1 -73 0 -879 1 305 0 845 
0 -258 1 -5 0 210 1 46 0 139 1 26 0 80 1 15 
0 45 1 7 0 20 1 2 0 18 0 -1 1 -2 0 -20 
1 -8 0 -46 1 -15 0 -113 1 -31 0 -170 1 -56 0 -354 
1 -384 0 453 1 -214 0 346 1 76 0 220 1 40 0 120 
1 22 0 66 1 12 0 33 1 5 0 7 0 -1 1 -2 
0 -21 1 -9 0 -53 1 -18 0 -100 1 -35 0 -243 1 -349 
0 407 0 -4 1 -10 0 -116 1 -53 0 -192 0 215 1 -218 
0 363 1 57 0 164 1 29 0 86 1 15 0 41 1 6 
0 9 1 -2 0 -22 1 -10 0 -61 1 -22 0 -121 1 -95 
0 -355 0 441 1 20 0 26 0 -4 1 -8 0 -77 1 -31 
0 -193 1 -67 0 102 0 -320 1 80 0 336 1 52 0 145 
1 24 0 66 1 10 0 16 1 -1 0 -31 1 -14 0 -189 
1 -347 0 481 1 23 0 59 1 8 0 7 0 -3 1 -4 
0 -44 1 -18 0 -106 1 -37 0 -219 1 -74 0 76 0 -273 
1 70 0 344 1 39 0 96 1 13 0 13 0 -5 1 -8 
0 -146 1 -329 0 521 1 27 0 80 1 14 0 36 1 5 
0 5 0 -2 1 -2 0 -28 1 -11 0 -89 1 -26 0 -144 
1 -50 0 -276 1 -82 0 146 0 -223 0 59 1 81 0 194 
1 23 0 25 0 -11 1 -61 0 -319 0 522 1 42 0 122 
1 23 0 66 1 12 0 36 1 4 0 3 0 -2 1 -2 
0 -22 1 -9 0 -52 1 -18 0 -95 1 -31 0 -172 1 -58 
0 -338 1 -125 0 234 0 -330 0 103 1 -18 0 -258 0 694 
1 60 0 184 1 35 0 105 1 19 0 59 1 11 0 29 
1 4 0 13 1 -2 0 -18 1 -8 0 -46 1 -16 0 -87 
1 -29 0 -206 1 -58 0 -316 1 -120 0 -224 1 112 0 392 
1 76 0 226 1 41 0 123 1 23 0 68 1 12 0 32 
1 5 0 6 1 -2 0 -28 1 -11 0 -59 1 -21 0 -115 
1 -39 0 -247 1 56 0 24 0 -14 1 -17 0 -156 1 -67 
0 -273 0 106 1 95 0 318 1 58 0 200 1 27 0 77 
1 13 0 34 1 4 0 4 0 -4 1 -4 0 -34 1 -14 
0 -80 1 -26 0 -184 1 -9 0 130 1 11 0 6 0 -12 
1 -12 0 -137 1 -45 0 -265 1 -89 0 -118 0 268 1 87 
0 237 1 39 0 111 1 19 0 45 1 4 0 3 0 -8 
1 -7 0 -61 1 -25 0 -132 1 51 0 133 1 15 0 29 
1 1 0 -23 1 -12 3007 1812 300 MP stroke
0 -80 1 -29 0 -169 1 -59 0 -322 1 -122 0 348 1 68 
0 177 1 27 0 64 1 -1 0 -55 1 -37 0 -54 0 132 
1 31 0 102 1 18 0 51 1 7 0 13 1 -1 0 -19 
1 -10 0 -58 1 -20 0 -116 1 -39 0 -293 1 -82 0 -301 
0 96 1 92 0 250 1 32 0 52 1 -3 0 -65 0 157 
1 54 0 143 1 26 0 76 1 13 0 37 1 6 0 9 
1 -1 0 -24 1 -9 0 -52 1 -18 0 -98 1 -32 0 -177 
1 -60 0 -337 1 -113 0 -191 0 151 1 36 0 341 1 72 
0 215 1 40 0 121 1 22 0 80 1 10 0 29 1 3 
0 9 1 -1 0 -17 1 -8 0 -46 1 -16 0 -87 1 -29 
0 -158 1 -52 0 -275 1 -63 0 38 0 -645 1 287 0 442 
1 77 0 227 1 42 0 125 1 23 0 68 1 12 0 32 
1 5 0 4 0 -1 1 -2 0 -24 1 -9 0 -59 1 -20 
0 -152 1 -43 0 -118 0 121 1 -125 0 -52 1 -24 0 -200 
1 -88 0 -402 0 419 1 98 0 285 1 52 0 152 1 27 
0 78 1 14 0 33 1 4 0 2 0 -10 1 -6 0 -49 
1 -18 0 -102 1 -30 0 82 0 -159 1 21 0 57 1 1 
0 -39 1 -22 0 -145 1 -54 0 -363 1 -287 0 662 1 62 
0 177 1 30 0 82 1 13 0 22 1 -1 0 -30 1 -16 
0 -97 1 -8 0 118 0 -121 0 31 1 26 0 72 1 10 
0 12 0 -1 1 -4 0 -61 1 -22 0 -129 1 -46 0 -258 
1 -93 0 -433 0 402 1 95 0 251 1 40 0 101 1 12 
0 11 0 -7 1 -12 0 -60 0 11 1 149 0 -95 0 72 
1 27 0 92 1 11 0 23 1 2 0 -12 1 -7 0 -50 
1 -18 0 -103 1 -35 0 -195 1 -66 0 -391 1 -290 0 557 
1 55 0 124 1 7 0 150 0 -93 1 50 0 163 1 29 
0 85 1 16 0 42 1 6 0 11 1 1 0 -15 1 -8 
0 -45 1 -16 0 -88 1 -29 0 -213 1 -60 0 -333 1 -115 
0 -426 0 367 1 90 0 300 1 73 0 221 1 41 0 123 
1 22 0 68 1 12 0 33 1 5 0 10 1 -2 0 -30 
1 -10 0 -61 1 -20 0 -112 1 -38 0 -202 1 -68 0 -498 
1 69 0 -75 0 56 1 99 0 350 1 66 0 199 1 37 
0 131 1 18 0 50 1 8 0 17 1 1 0 -11 1 -6 
0 -43 1 -16 0 -89 1 -30 0 -166 1 -57 0 -226 0 164 
1 6 0 -80 1 -44 0 -274 0 28 1 23 0 323 1 64 
0 189 1 34 0 99 1 17 0 46 1 6 0 8 0 -1 
1 -3 0 -32 1 -13 0 -82 1 -30 0 -308 1 128 0 118 
1 6 0 -25 1 -18 2869 1956 300 MP stroke
0 -129 1 -48 0 -285 1 -81 0 234 1 75 0 218 1 38 
0 105 1 17 0 37 1 2 0 -19 1 -12 0 -129 1 -58 
0 -147 0 239 1 29 0 72 1 9 0 12 0 -2 1 -4 
0 -47 1 -20 0 -120 1 -43 0 -242 1 -80 0 -172 0 76 
1 85 0 298 1 36 0 85 1 9 0 4 0 -16 1 -16 
0 -220 1 164 0 174 1 25 0 70 1 11 0 23 1 2 
0 -14 1 -9 0 -54 1 -20 0 -152 1 -44 0 -241 1 -80 
0 -226 1 74 0 243 1 34 0 46 0 -5 1 -32 0 -129 
0 288 1 50 0 146 1 26 0 77 1 13 0 35 1 5 
0 6 0 -3 1 -4 0 -30 1 -12 0 -67 1 -23 0 -125 
1 -41 0 -226 1 -76 0 -377 1 -33 0 58 0 -76 0 8 
1 216 0 355 1 59 0 211 1 29 0 88 1 16 0 45 
1 7 0 15 1 0 0 -11 1 -5 0 -37 1 -14 0 -77 
1 -26 0 -141 1 -46 0 -257 1 -88 0 -338 1 -77 0 426 
1 81 0 248 1 46 0 139 1 26 0 75 1 13 0 35 
1 5 0 5 0 -1 1 -3 0 -27 1 -11 0 -65 1 -23 
0 -167 1 -48 0 -174 0 13 1 22 0 8 0 -42 1 -32 
0 -224 1 -77 0 -89 0 299 1 78 0 240 1 43 0 128 
1 23 0 63 1 10 0 20 1 -2 0 -27 1 -12 0 -77 
1 -29 0 -186 1 0 0 100 1 10 0 7 0 -11 1 -13 
0 -103 1 -41 0 -239 1 -77 0 -153 0 215 1 82 0 285 
1 37 0 104 1 16 0 35 1 2 0 -22 1 -14 0 -101 
1 -43 0 -46 0 90 1 31 0 77 1 10 0 14 0 -1 
1 -4 0 -46 1 -19 0 -161 1 -49 0 -270 1 -96 0 -125 
0 220 1 72 0 213 1 35 0 83 1 8 0 4 0 -17 
1 -16 0 -84 1 60 0 154 1 25 0 75 1 8 0 11 
1 -2 0 -28 1 -12 0 -74 1 -26 0 -146 1 -49 0 -268 
1 -86 0 -214 0 163 1 70 0 186 1 24 0 19 0 -28 
1 -12 0 270 1 37 0 109 1 19 0 56 1 9 0 19 
1 1 0 -10 1 -6 0 -42 1 -16 0 -86 1 -29 0 -156 
1 -53 0 -279 1 -91 0 -335 0 134 1 38 0 339 1 77 
0 226 1 41 0 124 1 23 0 66 1 12 0 31 1 3 
0 4 0 -9 1 -3 0 -29 1 -11 0 -88 1 -26 0 -137 
1 -46 0 -249 1 -85 0 -273 1 -55 0 -79 0 327 1 87 
0 270 1 50 0 153 1 29 0 84 1 15 0 40 1 6 
0 8 0 -3 1 -3 0 -30 1 -12 0 -72 1 -24 0 -135 
1 -45 0 -167 0 8 1 11 0 3 0 -41 1 -30 0 -208 
1 -74 0 -93 0 288 2734 2297 300 MP stroke
1 77 0 235 1 42 0 148 1 19 0 52 1 8 0 10 
0 -1 1 -2 0 -31 1 -13 0 -84 1 -31 0 -156 1 27 
0 71 1 6 0 1 0 -23 1 -17 0 -122 1 -47 0 -334 
1 -71 0 357 1 62 0 180 1 31 0 86 1 12 0 22 
1 -2 0 -38 1 -19 0 -135 1 -11 0 121 1 21 0 57 
1 2 0 -20 1 -12 0 -84 1 -31 0 -177 1 -61 0 -362 
1 69 0 277 1 55 0 149 1 22 0 41 1 -1 0 -50 
1 -26 0 -27 0 156 1 31 0 84 1 13 0 31 1 2 
0 1 0 -11 1 -7 0 -52 1 -19 0 -111 1 -37 0 -207 
1 -69 0 -368 1 93 0 242 1 39 0 72 0 -3 1 -9 
0 -7 0 170 1 46 0 134 1 24 0 70 1 12 0 30 
1 3 0 2 0 -4 1 -4 0 -34 1 -13 0 -74 1 -25 
0 -182 1 -51 0 -271 1 -88 0 -326 0 80 1 55 0 277 
1 86 0 249 1 45 0 137 1 25 0 74 1 14 0 34 
1 5 0 6 0 -9 1 -2 0 -29 1 -11 0 -63 1 -21 
0 -119 1 -39 0 -211 1 -70 0 -344 0 37 1 -33 0 -51 
0 133 1 93 0 289 1 55 0 166 1 31 0 92 1 17 
0 53 1 5 0 6 0 -1 1 -2 0 -27 1 -11 0 -67 
1 -23 0 -125 1 -42 0 -243 0 77 1 13 0 -43 1 -28 
0 -192 1 -60 0 -15 0 260 1 67 0 200 1 36 0 107 
1 19 0 50 1 7 0 8 0 -1 1 -3 0 -34 1 -14 
0 -89 1 -31 0 -206 0 96 1 29 0 44 1 2 0 -60 
1 -26 0 -165 1 -60 0 -222 0 49 1 33 0 266 1 52 
0 150 1 26 0 69 1 9 0 10 0 -2 1 -5 0 -54 
1 -23 0 -186 0 99 1 35 0 104 1 11 0 17 1 -3 
0 -41 1 -19 0 -111 1 -40 0 -218 1 -72 0 -158 0 71 
1 78 0 227 1 38 0 97 1 12 0 10 0 -15 1 -13 
0 -142 0 118 1 51 0 119 1 20 0 54 1 7 0 9 
0 -1 1 -3 0 -32 1 -14 0 -81 1 -28 0 -156 1 -52 
0 -290 1 -87 0 -11 0 184 1 45 0 101 1 7 0 -87 
0 134 1 64 0 159 1 29 0 87 1 15 0 41 1 6 
0 7 0 -1 1 -2 0 -25 1 -10 0 -63 1 -22 0 -157 
1 -44 0 -233 1 -76 0 -310 1 5 0 213 1 99 0 266 
1 49 0 149 1 28 0 81 1 14 0 40 1 5 0 9 
0 -15 1 -4 0 -30 1 -12 0 -70 1 -24 0 -129 1 -42 
0 -225 1 -64 0 -251 1 -93 0 -187 0 449 1 81 0 243 
1 46 0 140 1 26 0 91 1 11 0 28 1 2 0 1 
0 -6 1 -6 0 -39 2599 1743 300 MP stroke
1 -15 0 -86 1 -28 0 -140 1 -18 0 64 0 -162 1 -9 
0 -96 1 -41 0 -401 1 225 0 395 1 48 0 143 1 25 
0 73 1 12 0 26 1 1 0 -15 1 -9 0 -63 1 -23 
0 -85 1 81 0 -116 0 15 1 8 0 5 0 -11 1 -12 
0 -132 1 -43 0 -296 1 -217 0 461 1 58 0 171 1 31 
0 84 1 12 0 21 1 -2 0 -38 1 -17 0 -35 0 84 
1 -100 0 -9 0 72 1 14 0 27 1 0 0 -31 1 -15 
0 -97 1 -35 0 -193 1 -65 0 -399 0 216 1 108 0 230 
1 37 0 96 1 12 0 11 0 -5 1 -7 0 101 0 -116 
0 35 1 6 0 102 1 20 0 52 1 7 0 8 0 -1 
1 -4 0 -34 1 -14 0 -85 1 -29 0 -161 1 -54 0 -340 
1 -226 0 398 1 42 0 107 1 11 0 152 0 -44 1 36 
0 133 1 25 0 74 1 13 0 32 1 3 0 3 0 -4 
1 -5 0 -35 1 -13 0 -77 1 -27 0 -187 1 -51 0 -273 
1 -96 0 -353 0 281 1 82 0 236 1 64 0 203 1 38 
0 114 1 21 0 60 1 10 0 24 1 2 0 1 0 -19 
1 -5 0 -47 1 -15 0 -85 1 -29 0 -153 1 -50 0 -247 
1 -45 0 -259 1 124 0 315 1 59 0 183 1 35 0 106 
1 20 0 55 1 9 0 18 1 -1 0 -21 1 -10 0 -59 
1 -21 0 -113 1 -36 0 -135 1 -15 0 -43 1 -25 0 -160 
1 -63 0 -91 0 284 1 64 0 224 1 31 0 92 1 16 
0 40 1 5 0 3 0 -4 1 -5 0 -44 1 -18 0 -101 
1 -26 0 -25 0 8 1 10 0 12 0 -3 1 -7 0 -70 
1 -29 0 -230 1 -80 0 -111 0 244 1 58 0 179 1 32 
0 93 1 15 0 29 1 1 0 -26 1 -14 0 -61 1 -14 
0 -9 0 60 1 18 0 39 1 3 0 -28 1 -14 0 -92 
1 -32 0 -178 1 -58 0 -246 0 110 1 79 0 196 1 34 
0 89 1 11 0 11 0 -5 1 -7 0 -18 0 16 1 9 
0 127 1 17 0 44 1 6 0 4 0 -3 1 -5 0 -41 
1 -15 0 -93 1 -31 0 -168 1 -55 0 -347 1 85 0 195 
1 32 0 63 1 6 0 153 1 36 0 113 1 20 0 59 
1 10 0 21 1 1 0 -12 1 -7 0 -48 1 -17 0 -95 
1 -31 0 -166 1 -53 0 -277 1 -97 0 -123 0 261 1 45 
0 248 1 50 0 153 1 28 0 85 1 15 0 41 1 6 
0 9 0 -17 1 -3 0 -24 1 -10 0 -61 1 -21 0 -113 
1 -37 0 -274 1 -90 0 -96 1 -12 0 219 1 58 0 187 
1 36 0 112 1 21 0 60 1 9 0 23 1 1 0 -10 
1 -7 0 -62 1 -19 2462 1820 300 MP stroke
0 -104 1 -35 0 -218 1 38 0 19 0 -26 1 -23 0 -126 
1 -20 0 -7 0 141 1 52 0 169 1 33 0 97 1 17 
0 46 1 7 0 6 0 -5 1 -6 0 -45 1 -18 0 -122 
1 -62 0 -30 0 92 1 9 0 6 0 -10 1 -10 0 -81 
1 -30 0 -152 1 -35 0 -33 0 94 1 51 0 161 1 30 
0 100 1 10 0 17 1 -3 0 -37 1 -18 0 -125 1 55 
0 96 1 12 0 17 1 -3 0 -36 1 -17 0 -98 1 -34 
0 -227 1 -37 0 -10 0 106 1 41 0 129 1 22 0 50 
1 3 0 -30 1 -28 0 -48 0 136 1 31 0 80 1 12 
0 27 1 2 0 -13 1 -8 0 -76 1 -22 0 -124 1 -40 
0 -192 1 -44 0 -55 0 59 1 37 0 102 1 10 0 -56 
0 61 1 68 0 157 1 27 0 81 1 14 0 38 1 5 
0 5 0 -5 1 -5 0 -37 1 -14 0 -78 1 -27 0 -139 
1 -45 0 -221 1 -61 0 -97 0 24 1 4 0 -13 0 258 
1 61 0 178 1 33 0 119 1 16 0 45 1 7 0 11 
1 -18 0 -15 1 -7 0 -48 1 -17 0 -93 1 -30 0 -162 
1 -54 0 -473 0 214 1 40 0 230 0 -164 1 48 0 238 
1 37 0 116 1 21 0 64 1 11 0 27 1 2 0 1 
0 -7 1 -5 0 -40 1 -15 0 -83 1 -28 0 -208 1 -272 
0 292 0 -9 1 -16 0 -132 1 24 0 232 0 -145 1 44 
0 149 1 30 0 90 1 16 0 42 1 5 0 6 0 -2 
1 -4 0 -37 1 -14 0 -103 1 -80 0 -270 0 337 1 4 
0 1 0 -19 1 -13 0 -88 1 -30 0 -88 0 15 1 190 
0 -255 0 103 1 42 0 130 1 24 0 67 1 10 0 15 
1 -2 0 -36 1 -19 0 -364 0 327 1 30 0 52 1 6 
0 3 0 -7 1 -7 0 -55 1 -20 0 -116 1 -38 0 -146 
1 255 0 -206 0 55 1 32 0 103 1 16 0 32 1 0 
0 -341 1 270 0 165 1 17 0 45 1 6 0 7 0 -2 
1 -4 0 -34 1 -14 0 -79 1 -27 0 -138 1 -42 0 -76 
0 203 1 -299 0 131 1 21 0 25 0 -55 1 -237 0 450 
1 32 0 93 1 17 0 47 1 7 0 12 1 -1 0 -20 
1 -9 0 -56 1 -19 0 -104 1 -34 0 -222 1 -53 0 116 
0 -195 1 -34 0 -253 0 403 1 69 0 183 1 34 0 103 
1 20 0 55 1 9 0 21 1 1 0 -33 1 -7 0 -44 
1 -16 0 -112 1 -31 0 -157 1 -41 0 188 0 -338 1 -81 
0 -282 0 456 1 51 0 165 1 33 0 104 1 20 0 57 
1 10 0 21 1 1 0 -10 1 -7 0 -59 1 -18 0 -98 
1 -31 0 211 0 -243 2330 2016 300 MP stroke
1 -53 0 -70 1 -24 0 -205 1 -150 0 446 1 35 0 117 
1 23 0 68 1 11 0 28 1 1 0 -18 1 -9 0 -57 
1 -18 0 230 0 -254 1 -39 0 8 1 -3 0 -42 1 -18 
0 -103 1 -31 0 -431 0 304 1 99 0 157 1 28 0 99 
1 12 0 24 1 0 0 -20 1 -11 0 -20 0 264 1 -239 
0 -31 0 31 1 9 0 14 1 -2 0 -33 1 -14 0 -84 
1 -27 0 -158 1 -99 0 -304 0 460 1 30 0 92 1 16 
0 30 1 0 0 -8 0 39 1 254 0 -244 0 32 1 17 
0 49 1 7 0 10 1 -2 0 -26 1 -12 0 -91 1 -26 
0 -130 1 -39 0 -454 1 272 0 162 1 19 0 102 1 243 
0 -237 0 58 1 29 0 87 1 15 0 44 1 7 0 10 
1 -2 0 -31 1 -11 0 -66 1 -23 0 -115 1 -37 0 -179 
1 -61 0 -395 0 363 1 79 0 260 0 -146 1 44 0 144 
1 27 0 85 1 16 0 43 1 7 0 12 0 -21 1 -1 
0 -20 1 -9 0 -53 1 -18 0 -93 1 -29 0 -149 1 -48 
0 -93 1 -27 0 162 1 40 0 134 1 27 0 101 1 13 
0 38 1 5 0 7 0 -1 1 -2 0 -24 1 -11 0 -58 
1 -20 0 -110 1 -42 0 15 0 -32 1 -15 0 -87 1 -39 
0 280 0 -578 0 417 1 -13 0 130 1 25 0 77 1 15 
0 37 1 5 0 5 0 -2 1 -4 0 -31 1 -12 0 -56 
1 -16 0 -50 0 31 1 2 0 -19 1 -10 0 -71 1 -26 
0 -118 1 40 0 116 1 26 0 83 1 15 0 39 1 4 
0 3 0 -5 1 -5 0 -39 1 -16 0 -2 0 36 1 9 
0 19 1 0 0 -31 1 -13 0 -73 1 -24 0 -112 1 -31 
0 -40 0 59 1 30 0 95 1 16 0 39 1 3 0 1 
0 -18 1 -14 0 95 1 14 0 44 1 7 0 11 0 -2 
1 -3 0 -31 1 -12 0 -70 1 -23 0 -113 1 -35 0 -374 
0 507 1 -186 0 -20 0 55 1 18 0 63 1 -18 0 110 
1 24 0 75 1 13 0 43 1 4 0 2 0 -3 1 -4 
0 -31 1 -12 0 -68 1 -22 0 -114 1 -35 0 -163 1 -40 
0 -35 0 71 1 12 0 168 1 35 0 134 1 20 0 60 
1 10 0 26 1 3 0 1 0 -26 1 -5 0 -34 1 -12 
0 -66 1 -21 0 -102 1 -30 0 -439 0 257 1 41 0 297 
0 -276 1 29 0 160 1 26 0 83 1 16 0 46 1 8 
0 14 1 1 0 -13 1 -7 0 -43 1 -15 0 -75 1 -31 
0 -379 0 323 1 -5 0 -65 1 -22 0 235 0 -254 0 62 
1 7 0 93 1 22 0 76 1 14 0 40 1 6 0 9 
0 -1 1 -2 0 -23 2197 1848 300 MP stroke
1 -9 0 -51 1 -65 0 -310 0 343 1 -1 0 -20 1 -10 
0 -84 1 -27 0 -69 0 392 1 -264 0 -42 0 46 1 21 
0 71 1 13 0 35 1 4 0 3 0 -3 1 -3 0 -83 
1 -298 0 370 1 5 0 9 0 -2 1 -4 0 -34 1 -13 
0 -70 1 -21 0 -46 0 41 1 264 0 -392 0 68 1 27 
0 73 1 12 0 27 1 3 0 -342 1 310 0 106 1 10 
0 32 1 2 0 -8 1 -6 0 -41 1 -14 0 -76 1 -23 
0 -94 1 20 0 234 0 -331 0 13 1 21 0 71 1 13 
0 5 0 -322 0 302 1 76 0 90 1 17 0 58 1 6 
0 14 1 -1 0 -15 1 -8 0 -46 1 -16 0 -84 1 -26 
0 -125 1 -35 0 247 0 -276 0 21 1 -42 0 -297 0 399 
1 41 0 131 1 21 0 66 1 13 0 33 1 5 0 6 
0 -25 1 -1 0 -18 1 -8 0 -47 1 -15 0 -75 1 -21 
0 -41 0 45 1 267 0 -858 1 317 0 233 1 25 0 84 
1 17 0 51 1 9 0 22 1 2 0 1 0 -7 1 -5 
0 -33 1 -12 0 -56 1 -11 0 337 0 -313 1 -79 0 -70 
1 -14 0 -468 0 356 1 98 0 105 1 19 0 67 1 13 
0 38 1 5 0 8 1 -1 0 -20 1 -8 0 -21 0 8 
1 59 0 290 0 -401 1 -8 0 -28 1 -9 0 -59 1 -27 
0 -481 0 426 1 66 0 62 1 15 0 55 1 10 0 24 
1 2 0 1 0 -4 1 -1 0 380 1 -306 0 -81 0 3 
1 3 0 4 0 -6 1 -5 0 -36 1 -13 0 -62 1 -15 
0 -523 1 332 0 195 1 15 0 42 1 6 0 21 1 21 
0 381 0 -349 1 -8 0 29 1 7 0 14 1 -1 0 -20 
1 -9 0 -50 1 -16 0 -76 1 -20 0 -545 1 338 0 173 
1 13 0 136 1 313 0 -337 0 11 1 15 0 64 1 9 
0 22 1 2 0 1 0 -6 1 -5 0 -34 1 -12 0 -64 
1 -21 0 -97 1 -29 0 -493 1 324 0 534 0 -267 1 -45 
0 63 1 20 0 83 1 13 0 35 1 5 0 7 0 -20 
1 -2 0 -20 1 -8 0 -44 1 -14 0 -64 1 -15 0 -17 
0 47 1 -98 0 -149 0 63 1 42 0 93 1 20 0 83 
1 14 0 39 1 6 0 12 1 1 0 -12 1 -6 0 -36 
1 -11 0 -39 1 12 0 41 0 -123 1 -11 0 -34 1 -15 
0 -96 0 111 1 24 0 82 1 15 0 47 1 8 0 22 
1 2 0 1 0 -4 1 -4 0 -24 1 -6 0 54 0 -57 
0 30 1 -45 0 -37 1 -5 0 -27 1 -9 0 -100 1 -61 
0 143 1 11 0 49 1 11 0 31 1 5 0 5 1 1 
0 -1 0 27 1 44 2066 1830 300 MP stroke
0 -80 0 1 1 3 0 5 0 -1 1 -2 0 -20 1 -9 
0 -57 1 -12 0 -71 1 -84 0 138 1 12 0 35 1 7 
0 19 1 9 0 91 0 -45 1 -12 0 23 1 5 0 12 
1 1 0 -11 1 -7 0 -50 1 -13 0 -61 1 -15 0 -163 
1 59 0 78 1 8 0 82 1 61 0 -53 0 15 1 12 
0 44 1 8 0 22 1 2 0 1 0 -8 1 -5 0 -34 
1 -12 0 -60 1 -18 0 -81 1 -23 0 -133 0 60 1 39 
0 149 0 -47 1 5 0 61 1 15 0 54 1 10 0 30 
1 4 0 5 0 -21 1 -2 0 -20 1 -8 0 -40 1 -12 
0 -50 1 -12 0 -151 1 56 0 127 0 -74 1 0 0 51 
1 15 0 52 1 11 0 33 1 5 0 10 1 -1 0 -16 
1 -7 0 -35 1 -11 0 -87 1 -59 0 66 0 -2 1 -3 
0 -1 0 44 1 56 0 -91 0 8 1 11 0 47 1 11 
0 41 1 6 0 8 1 1 0 -10 1 -5 0 -47 1 -45 
0 -26 0 63 1 -2 0 -18 1 -5 0 -19 1 0 0 93 
0 -74 1 -27 0 -4 0 20 1 9 0 43 1 6 0 14 
1 1 0 1 0 -2 1 -3 0 -77 0 46 1 22 0 14 
1 -2 0 -14 1 -6 0 -33 1 -10 0 -30 1 5 0 100 
0 -84 1 -9 0 19 1 5 0 17 1 2 0 -62 0 25 
1 46 0 47 1 5 0 9 1 1 0 -10 1 -5 0 -31 
1 -11 0 -46 1 -11 0 -15 0 85 1 -59 0 -40 0 2 
1 3 0 2 0 -65 1 59 0 87 1 11 0 35 1 7 
0 16 1 1 0 -6 1 -4 0 -29 1 -9 0 -50 1 -14 
0 -66 1 0 0 75 0 -128 1 -55 0 152 1 11 0 50 
1 13 0 40 1 7 0 20 1 2 0 1 0 -23 1 -3 
0 -23 1 -8 0 -36 1 -10 0 -59 1 -76 0 -298 0 785 
1 -315 0 -86 0 7 1 9 0 41 1 10 0 34 1 6 
0 16 1 1 0 1 0 -4 1 -4 0 -21 1 -7 0 -64 
1 -76 0 -307 0 369 1 1 0 42 1 83 0 314 0 -435 
1 3 0 32 1 9 0 30 1 6 0 16 1 2 0 -2 
1 -2 0 -19 1 -22 0 -382 0 369 1 1 0 -14 1 -3 
0 -6 0 3 1 11 0 434 0 -393 1 -65 0 -9 0 14 
1 7 0 27 1 6 0 16 1 2 0 2 0 -3 1 -5 
0 -379 0 304 1 67 0 19 0 -4 1 -3 0 -16 1 -6 
0 -28 1 -7 0 -14 0 9 1 65 0 393 0 -434 1 -11 
0 -3 0 5 1 4 0 14 1 -1 0 -369 0 309 1 73 
0 38 1 3 0 4 0 -1 1 -1 0 -16 1 -6 0 -31 
1 -9 0 -30 1 -2 1937 1987 300 MP stroke
0 432 0 -316 1 -83 0 -38 1 -2 0 -368 0 307 1 76 
0 56 1 8 0 28 1 4 0 4 0 -1 1 -1 0 -16 
1 -6 0 -34 1 -10 0 -42 1 -9 0 -6 0 85 1 315 
0 -784 0 298 1 76 0 51 1 9 0 37 1 9 0 30 
1 3 0 5 0 -23 1 -1 0 -12 1 -5 0 -25 1 -7 
0 -24 1 -4 0 -1 0 343 1 -277 0 -374 0 293 1 4 
0 12 1 7 0 29 1 6 0 24 1 2 0 2 0 -1 
1 -2 0 -14 1 -5 0 -24 1 -7 0 338 0 -283 1 -59 
0 -16 0 9 1 11 0 11 0 -340 0 257 1 45 0 19 
1 5 0 28 1 5 0 12 1 2 0 1 0 -1 1 -1 
0 -6 1 8 0 331 0 -359 1 -11 0 -12 1 -2 0 -1 
0 8 1 10 0 32 0 -377 1 257 0 63 1 3 0 21 
1 3 0 10 1 2 0 -7 1 4 0 375 0 -341 1 -15 
0 -15 1 -3 0 -13 1 -4 0 -17 1 -4 0 -63 1 -257 
0 377 0 -32 1 -10 0 -8 0 3 1 2 0 20 1 57 
0 302 0 -338 1 1 0 6 1 1 0 -3 1 -2 0 -15 
1 -5 0 -23 1 -6 0 -17 1 -45 0 81 0 -339 0 318 
1 -6 0 -2 0 75 1 283 0 -338 0 7 1 6 0 23 
1 4 0 12 1 1 0 -5 1 -3 0 -20 1 -7 0 -29 
1 -7 0 -12 1 -4 0 -292 0 650 1 -280 0 -62 0 5 
1 5 0 27 1 7 0 22 1 5 0 8 1 -17 0 -8 
1 -4 0 -18 1 -4 0 -11 1 -1 0 38 1 9 0 11 
0 -58 1 -7 0 -2 0 5 1 4 0 19 1 5 0 13 
1 1 0 2 0 -1 1 -2 0 -11 1 -3 0 -15 1 -7 
0 37 0 -46 0 26 1 -11 0 -3 0 37 1 14 0 3 
0 -58 1 -1 0 6 1 4 0 14 1 3 0 8 1 1 
1 1 0 16 1 14 0 -56 1 -4 0 -7 1 2 0 59 
1 14 0 -80 1 -1 0 6 1 2 0 10 1 3 0 7 
1 -1 0 -37 0 69 1 55 0 -77 1 -5 0 -13 1 -3 
0 -10 1 -3 0 -3 0 5 1 16 0 59 0 -34 1 -16 
0 -25 1 0 0 11 1 3 0 53 0 -14 1 -9 0 -6 
1 -1 0 -2 1 -1 0 -10 1 -4 0 -17 1 -3 0 -1 
0 9 1 15 0 36 0 -33 1 -12 0 -8 0 14 1 20 
0 -46 0 16 1 5 0 13 1 4 0 8 1 1 0 1 
0 -4 1 -2 0 -15 1 -5 0 -22 1 -2 0 20 1 18 
0 30 0 -20 1 -24 0 -14 1 2 0 15 1 4 0 17 
1 3 0 5 1 -15 0 -5 1 -2 0 -12 1 -2 0 -3 
0 8 1 6 0 -254 1810 2189 300 MP stroke
0 265 1 107 0 271 0 -387 1 -11 0 -12 1 1 0 11 
1 3 0 9 1 1 0 1 0 -1 1 -1 0 -6 1 -1 
0 -6 1 -43 0 56 0 -297 0 295 1 2 0 116 1 272 
0 -401 1 -3 0 -2 0 1 1 2 0 8 1 2 0 6 
1 1 0 7 1 4 0 4 0 -303 1 242 0 38 0 -12 
1 -1 0 17 1 12 0 394 1 -355 0 -70 1 -2 0 1 
1 2 0 8 1 3 0 7 0 -5 1 -44 0 83 0 -325 
0 320 1 -12 0 -25 1 -3 0 -10 1 -1 0 4 1 3 
0 421 0 -274 1 -72 0 -70 1 -5 0 -3 0 4 1 4 
0 5 0 -280 1 261 0 42 0 -8 1 -3 0 -5 1 -1 
0 -7 1 -2 0 -9 1 -1 0 10 1 14 0 383 0 -340 
1 -26 0 -23 0 2 1 -1 0 -296 0 284 1 6 0 1 
1 2 0 5 1 1 0 -2 1 -2 0 -14 1 -2 0 -6 
1 1 0 45 1 71 0 292 0 -642 1 223 0 33 0 -13 
1 -2 0 5 1 2 0 11 1 2 0 3 0 -1 1 -17 
0 -6 1 -1 0 -4 0 2 1 3 0 60 1 77 0 271 
0 -606 1 203 0 29 0 -26 1 -7 0 -8 1 -1 0 5 
1 2 0 2 1 1 0 -2 1 -1 0 7 1 8 0 352 
0 -320 1 -18 0 -4 0 25 1 9 0 -297 0 256 1 2 
0 -19 1 -2 0 -2 0 1 1 1 0 3 1 2 0 6 
1 4 0 100 1 259 0 -373 1 -2 0 16 1 11 0 47 
0 -25 1 -304 0 270 0 -4 1 -5 0 -12 1 -1 0 5 
1 2 0 40 1 65 0 268 0 -340 1 -12 0 -22 1 -2 
0 -3 0 1 1 3 0 17 1 -4 0 -266 0 328 1 -15 
0 -50 1 -6 0 -3 0 7 1 10 0 358 0 -259 1 -63 
0 -41 1 -2 0 -5 1 -1 0 -4 1 -1 0 6 1 5 
0 10 0 -39 1 -218 0 300 0 -21 1 -9 0 -4 0 83 
1 258 0 -361 1 -4 0 -2 1 1 1 1 0 -4 1 -1 
0 -5 1 2 0 24 1 10 0 -225 0 255 1 100 0 251 
0 -378 1 -15 0 -18 1 -1 0 4 1 2 0 3 1 1 
0 -13 2 0 0 30 1 16 0 143 0 -32 1 -31 0 -69 
1 -16 0 -38 1 -4 0 -3 1 -1 0 2 1 1 1 1 
0 7 1 5 0 115 1 -39 0 -45 0 15 1 13 0 14 
0 -22 0 1 1 -5 0 -42 1 -6 0 -11 1 -1 0 2 
1 1 0 8 1 4 0 51 1 51 0 -99 1 -5 0 -2 
0 9 1 8 0 57 1 -29 0 3 0 -27 1 -10 0 -22 
1 -2 0 4 1 3 0 54 1 49 0 -85 1 -7 0 -16 
1 -1 0 -1 0 5 1682 1955 300 MP stroke
1 4 0 48 1 4 0 25 0 -28 0 13 1 -16 0 -40 
1 -3 0 18 1 23 0 65 0 -77 1 -12 0 -20 1 -2 
0 -5 1 -1 0 2 1 2 0 20 1 10 0 54 1 1 
0 -43 1 1 0 82 0 -57 1 -32 0 -34 1 -2 0 -3 
2 -2 1 -1 0 13 1 8 0 58 1 13 0 102 0 -72 
1 -45 0 -61 1 -5 1 -7 -1 0 2 2 0 1 0 -1 
1 -9 0 3 1 3 0 26 1 11 0 42 1 60 0 118 
0 -174 1 -25 0 -51 1 -5 0 -11 2 0 0 3 1 2 
0 14 1 8 0 14 0 -34 1 30 0 44 1 18 0 143 
0 -83 1 -49 0 -86 1 -7 0 -13 1 0 0 -1 0 3 
1 2 0 14 1 5 0 5 0 -28 1 24 0 4 0 -8 
1 1 0 29 1 15 0 169 1 -78 0 -120 1 -12 0 -21 
1 -1 0 14 1 7 0 9 0 -36 1 19 0 5 0 -11 
1 -3 0 -4 0 1 1 3 0 30 1 15 0 183 1 -83 
0 -102 1 -11 0 -19 0 1 1 3 0 4 0 -27 0 11 
1 15 0 1 0 -15 1 -4 0 -8 1 -1 0 2 1 2 
0 23 1 11 0 112 1 87 0 -156 1 -13 0 -64 1 26 
0 8 0 -28 1 -4 0 -7 1 -1 0 -1 1 -1 0 2 
1 2 0 21 1 11 0 91 1 54 0 86 0 -178 1 -5 
0 -48 1 -10 0 -19 1 -1 0 -1 1 -1 0 -8 1 1 
0 7 1 4 0 32 1 13 0 26 0 -163 1 218 0 342 
0 -325 1 -42 0 -79 1 -10 0 -21 1 -2 0 -2 1 -1 
0 6 1 3 0 22 1 7 0 -208 0 185 1 45 0 56 
1 33 0 322 0 -330 1 -38 0 -70 1 -8 0 -17 1 -2 
0 3 1 2 0 22 1 -3 0 -217 0 218 1 5 0 -1 
0 5 1 6 0 53 1 26 0 350 0 -330 1 -44 0 -71 
1 -7 0 -10 1 1 0 18 1 -2 0 -223 0 215 1 5 
0 -13 1 -1 0 17 1 10 0 104 1 88 0 243 0 -376 
1 -18 0 -42 1 -4 0 0 0 -5 1 -37 0 -180 0 219 
1 -4 0 -18 1 -2 0 -3 0 2 1 2 0 23 1 10 
0 88 1 75 0 260 0 -342 1 -21 0 -87 1 -185 0 208 
0 -8 1 -7 0 -17 1 -2 0 -4 1 -1 0 3 1 2 
0 31 1 13 0 109 1 83 0 241 0 -559 1 148 0 15 
0 -39 1 -11 0 -25 1 -3 0 -4 1 -1 0 -11 0 2 
1 1 0 14 1 6 0 48 1 21 0 291 0 -184 1 -147 
0 110 0 -65 1 -22 0 -52 1 -7 0 -15 1 -1 0 -1 
0 1 1 2 0 12 1 6 0 42 1 46 0 187 0 -200 
1 6 0 38 0 -6 1551 1850 300 MP stroke
1 -92 0 111 0 -87 1 -15 0 -34 1 -4 0 -5 0 1 
1 1 0 15 1 7 0 244 1 -183 0 -48 1 2 0 38 
1 15 0 -125 0 208 1 -16 0 -122 1 -10 0 -15 1 -1 
0 20 1 12 0 218 0 -222 1 -12 0 -16 1 0 0 16 
1 10 0 85 1 37 0 15 0 -207 0 138 1 -13 0 -49 
1 -5 0 -2 0 49 1 182 0 -244 1 -6 0 -16 1 -1 
0 4 1 4 0 33 1 15 0 65 1 -122 0 160 0 -49 
1 -14 0 -8 0 199 1 -187 0 -81 1 -7 0 -18 1 -1 
0 -1 0 1 1 1 0 14 1 7 0 52 1 22 0 66 
0 -111 1 148 0 184 0 -262 1 -29 0 -60 1 -9 0 -18 
1 -2 0 -2 1 -5 0 9 1 4 0 35 1 14 0 98 
1 46 0 51 0 -49 1 -39 0 -104 1 -16 0 -36 1 -5 
0 -8 1 -1 0 7 1 4 0 39 1 11 0 58 0 -9 
1 -1 0 26 0 -3 1 -77 0 305 0 -239 1 -27 0 -61 
1 -8 0 -15 1 0 0 9 1 6 0 45 1 22 0 -38 
1 -1 0 42 1 19 0 92 0 -18 1 -28 0 -95 1 -14 
0 -26 1 -1 0 14 1 9 0 27 0 -18 1 -11 0 -21 
1 -1 0 18 1 10 0 109 1 28 0 17 0 -92 1 -19 
0 -39 1 -2 0 16 1 23 0 -61 1 -7 0 -14 1 -1 
0 10 1 6 0 47 1 21 0 131 1 -35 0 -81 1 1 
0 9 0 -58 1 -11 0 -34 1 -5 0 -10 1 0 0 5 
1 3 0 29 1 13 0 86 1 33 0 89 0 -34 1 -17 
0 -126 1 -18 0 -49 1 -4 0 -8 1 -1 0 -3 0 6 
1 3 0 30 1 13 0 79 1 10 0 -78 0 355 1 -172 
0 -156 1 -20 0 -49 1 -7 0 -13 1 -1 0 10 1 5 
0 38 1 10 0 -101 0 149 1 6 0 79 1 149 0 -222 
1 -26 0 -62 1 -8 0 -16 1 0 0 12 1 7 0 28 
0 -123 1 111 0 16 1 5 0 57 1 31 0 225 0 -224 
1 -28 0 -73 1 -11 0 -17 1 1 0 22 1 -12 0 11 
0 -123 0 117 1 -7 0 -9 0 1 1 3 0 54 1 20 
0 275 1 -167 0 -127 1 -12 0 -15 0 1 1 1 0 -127 
0 123 1 -9 0 -31 1 -3 0 -3 0 2 1 3 0 30 
1 14 0 172 1 170 0 -271 1 -10 0 -160 1 96 0 5 
0 -32 1 -9 0 -18 1 -2 0 -1 0 2 1 3 0 24 
1 11 0 74 1 29 0 275 0 -148 1 -68 0 -139 0 23 
1 -19 0 -46 1 -7 0 -13 1 -1 0 -5 0 3 1 2 
0 25 1 11 0 76 1 34 0 201 0 -124 1 -94 0 54 
0 -73 1 -23 0 -62 1421 1965 300 MP stroke
1 -9 0 -20 1 0 0 10 1 5 0 44 1 23 0 177 
0 -130 1 -2 0 38 1 -84 0 89 0 -56 1 -23 0 -58 
1 -8 0 -12 1 -1 0 18 1 9 0 192 0 -120 1 -31 
0 -13 0 7 1 9 0 78 1 13 0 -109 0 51 1 -20 
0 -54 1 -6 0 -6 0 4 1 5 0 183 1 -123 0 -65 
1 -3 0 -1 0 22 1 12 0 70 1 3 0 37 0 -110 
0 71 1 -22 0 -45 1 -2 0 165 1 -123 0 -79 1 -7 
0 -11 1 1 0 21 1 11 0 75 1 30 0 53 0 -141 
0 83 1 -7 0 -14 0 26 1 108 0 -214 1 -12 0 -26 
1 -3 0 -3 0 2 1 3 0 25 1 11 0 74 1 27 
0 -9 0 95 1 27 0 97 0 -235 1 -26 0 -69 1 -7 
0 -14 1 -1 0 9 1 5 0 40 1 17 0 118 1 53 
0 2 0 -36 1 -32 0 -103 1 -17 0 -42 1 -5 0 -8 
0 2 1 2 0 26 1 11 0 105 1 -7 0 -10 0 21 
1 17 0 35 0 -40 1 -24 0 -81 1 -13 0 -29 1 -2 
0 -1 0 8 1 6 0 55 1 32 0 -42 0 1 1 5 
0 59 1 23 0 29 0 -47 1 -22 0 -66 1 -9 0 -12 
0 1 1 3 0 61 1 2 0 -62 1 -3 0 -1 0 11 
1 10 0 65 1 22 0 47 0 -53 1 -20 0 -44 1 -1 
0 42 1 -31 0 -55 1 -6 0 -8 0 1 1 2 0 30 
1 13 0 87 1 28 0 23 0 -39 1 -14 0 -17 0 18 
1 -40 0 -75 1 -9 0 -19 1 -1 0 7 1 6 0 42 
1 17 0 103 1 32 0 35 0 -2 1 -52 0 -118 1 -17 
0 -40 1 -5 0 -9 0 1 1 2 0 18 1 9 0 59 
1 23 0 110 1 28 0 37 0 -138 1 -30 0 -76 1 -12 
0 -25 1 -3 0 6 1 4 0 40 1 16 0 60 1 11 
0 114 1 -50 0 -112 1 -18 0 -47 1 -5 0 -7 0 2 
1 3 0 30 1 11 0 15 0 -2 1 -1 0 29 1 16 
0 123 0 -52 1 -37 0 -84 1 -12 0 -20 1 1 0 17 
1 7 0 2 0 -22 1 -4 0 -1 0 11 1 9 0 69 
1 28 0 88 0 -77 1 -26 0 -58 1 -6 0 1 0 -7 
1 -8 0 -36 1 -5 0 -4 0 3 1 4 0 38 1 16 
0 98 1 34 0 44 0 -102 1 -15 0 -34 1 -16 0 -57 
1 -9 0 -16 1 -1 0 19 1 10 0 63 1 25 0 168 
1 -38 0 -111 1 -26 0 -71 1 -11 0 -25 1 -2 0 -2 
0 9 1 5 0 38 1 16 0 82 1 -9 0 185 0 -142 
1 -36 0 -91 1 -14 0 -33 1 -3 0 -3 0 4 1 4 
0 36 1 14 0 -4 1293 1936 300 MP stroke
0 49 1 18 0 94 1 80 0 -186 1 -21 0 -64 1 -6 
0 -5 0 2 1 3 0 29 1 1 0 -32 0 53 1 3 
0 43 1 20 0 149 0 -87 1 -45 0 -87 1 -12 0 -20 
1 1 0 6 0 -37 1 39 0 5 0 -14 1 2 0 30 
1 15 0 117 1 87 0 -170 1 -16 0 -30 1 -2 0 -50 
0 30 1 -8 0 -24 1 -1 0 11 1 8 0 58 1 22 
0 181 0 -82 1 -39 0 -72 1 -48 0 26 0 -35 1 -12 
0 -28 1 -2 0 -1 0 5 1 6 0 41 1 17 0 111 
1 50 0 91 0 -184 1 10 0 -99 1 -13 0 -30 1 -4 
0 -2 0 2 1 3 0 30 1 13 0 82 1 35 0 64 
0 -16 1 -14 0 -115 1 -19 0 -49 1 -6 0 -8 0 1 
1 3 0 40 1 15 0 94 0 -27 1 1 0 63 1 -11 
0 -83 1 -20 0 -50 1 -6 0 -6 0 1 1 4 0 33 
1 19 0 45 0 -45 1 2 0 43 1 19 0 46 0 -54 
1 -24 0 -57 1 -6 0 -5 0 5 1 7 0 56 0 -51 
1 -7 0 -10 0 1 1 4 0 44 1 20 0 77 0 -24 
1 -4 0 -66 1 -9 0 -8 0 46 1 -46 0 -46 1 -5 
0 -5 0 2 1 4 0 41 1 17 0 93 1 7 0 9 
0 -54 1 -10 0 27 0 -76 1 -17 0 -44 1 -6 0 -7 
0 1 1 2 0 43 1 16 0 102 1 32 0 31 1 -63 
0 -102 1 -16 0 -38 1 -5 0 -4 0 7 1 4 0 36 
1 14 0 93 1 35 0 44 0 -38 1 -34 0 -113 1 -13 
0 -27 1 -2 0 9 1 7 0 50 1 20 0 43 1 13 
0 57 0 -32 1 -29 0 -83 1 -13 0 -28 1 -2 0 20 
1 10 0 34 0 -6 1 -2 0 27 1 16 0 73 0 -18 
1 -23 0 -80 1 -11 0 -20 1 2 0 28 1 -9 0 -21 
1 2 0 30 1 16 0 104 1 -32 0 -70 1 -8 0 -7 
0 9 1 -3 0 -49 1 -6 0 -6 0 2 1 4 0 39 
1 16 0 94 1 32 0 -73 1 -8 0 -54 1 -16 0 -45 
1 -3 0 -1 0 6 1 6 0 46 1 19 0 112 1 38 
0 -76 1 -31 0 -78 1 -12 0 -28 1 -2 0 -1 0 10 
1 5 0 58 1 19 0 107 1 7 0 12 0 -95 1 -25 
0 -66 1 -9 0 -17 1 0 0 20 1 10 0 62 1 23 
0 -2 0 37 1 19 0 19 0 -80 1 -22 0 -64 1 -5 
0 -5 0 3 1 4 0 37 1 18 0 -11 0 8 1 8 
0 70 1 26 0 -83 1 -18 0 -39 1 -3 0 -1 0 11 
1 6 0 10 0 -26 1 -1 0 30 1 15 0 86 1 13 
0 -85 1 -12 0 -16 1165 1918 300 MP stroke
0 2 1 9 0 -48 1 -6 0 -7 0 1 1 4 0 36 
1 16 0 95 1 24 0 -70 1 -8 0 2 0 -71 1 -12 
0 -27 1 -2 0 -1 0 10 1 8 0 53 1 21 0 120 
1 -14 0 -88 1 -23 0 -61 1 -9 0 -17 1 5 0 33 
1 13 0 79 1 20 0 76 0 -54 1 -38 0 -86 1 -13 
0 -28 1 -2 0 12 1 7 0 52 1 13 0 43 1 15 
0 55 0 -85 1 -24 0 -66 1 -5 0 -5 0 4 1 5 
0 31 1 -6 0 23 1 8 0 68 1 41 0 -115 1 -13 
0 -26 1 0 0 12 1 -12 0 7 0 -7 1 0 0 41 
1 17 0 96 0 -42 1 -26 0 -50 1 -4 0 -18 0 5 
1 -7 0 -28 1 -3 0 -1 0 11 1 8 0 59 1 24 
0 83 0 -59 1 -14 0 -55 1 -15 0 -43 1 -6 0 -6 
0 2 1 4 0 37 1 16 0 109 1 55 0 -100 1 -21 
0 -68 1 -11 0 -22 1 -1 0 17 1 7 0 75 1 22 
0 73 1 -43 0 -94 1 -14 0 -33 1 -3 0 -1 0 8 
1 6 0 50 1 16 0 38 1 12 0 36 0 -66 1 -21 
0 -52 1 -7 0 -8 0 4 1 6 0 32 1 4 0 13 
1 10 0 75 1 -34 0 -70 1 -9 0 -14 0 1 1 3 
0 10 0 -3 1 -4 0 -6 0 2 1 5 0 65 1 23 
0 31 0 -65 1 -12 0 -20 1 -1 0 -29 1 -8 0 -9 
1 3 0 34 1 15 0 102 1 -24 0 -46 1 -8 0 -55 
1 -11 0 -23 1 1 0 25 1 11 0 78 1 31 0 44 
0 -54 1 -22 0 -73 1 -12 0 -27 1 -1 0 20 1 9 
0 60 1 24 0 58 0 -21 1 -29 0 -84 1 -11 0 -21 
1 0 0 17 1 9 0 75 1 -3 0 29 1 -2 0 -70 
1 -12 0 -30 1 -2 0 11 1 9 0 38 0 -13 1 2 
0 43 1 12 0 4 0 -46 1 -13 0 -30 1 -2 0 28 
1 -1 0 -26 1 2 0 32 1 14 0 43 0 -11 1 -11 
0 -39 1 -2 0 14 0 -38 1 -9 0 -11 1 3 0 30 
1 13 0 70 1 -7 0 -25 1 4 0 -74 1 -9 0 -17 
1 1 0 21 1 10 0 64 1 21 0 50 0 -59 1 -23 
0 -61 1 -8 0 -15 1 6 0 18 1 10 0 69 1 36 
0 82 0 -160 0 28 1 -6 0 -51 1 -9 0 -18 1 0 
0 29 1 14 0 104 0 -53 1 9 0 18 0 -78 0 34 
1 -3 0 -45 1 -7 0 -12 1 2 0 41 1 67 0 -72 
0 9 1 10 0 40 0 -68 1 38 0 -34 1 -9 0 -12 
0 6 1 17 0 64 0 -86 1 0 0 22 1 11 0 37 
0 -50 1 47 0 -34 1034 1905 300 MP stroke
1 -7 0 71 0 -72 0 5 1 -20 0 -23 1 0 0 20 
1 9 0 52 1 -40 0 54 0 -10 1 50 0 -128 1 -7 
0 -10 1 1 0 25 1 11 0 47 1 -27 0 159 0 -119 
1 -24 0 -54 1 -7 0 -11 0 6 1 3 0 31 1 14 
0 160 1 -103 0 -69 1 -11 0 -25 1 -2 0 11 1 7 
0 19 0 -45 1 74 0 137 1 -107 0 -61 1 -8 0 -16 
1 1 0 22 0 -4 1 -60 0 81 1 9 0 128 0 -98 
1 -22 0 -37 1 -5 0 -3 0 3 1 -6 0 7 0 -65 
0 63 1 -1 0 15 1 9 0 116 0 -49 1 -27 0 -44 
1 -5 0 -69 0 57 1 -7 0 -9 0 1 1 3 0 31 
1 14 0 108 0 -62 1 -14 0 -101 0 45 1 -1 0 -30 
1 -4 0 -1 0 5 1 5 0 40 1 13 0 147 0 -135 
1 23 0 -74 1 -8 0 -15 1 5 0 18 1 10 0 64 
1 19 0 6 0 -62 1 -13 0 -35 1 -4 0 -4 0 2 
1 4 0 28 1 11 0 57 1 -20 0 -50 1 -8 0 -15 
1 1 0 33 1 -5 0 -12 0 15 1 8 0 41 0 -12 
1 -12 0 -39 1 -5 0 -5 0 6 1 7 0 -10 1 1 
0 29 1 -1 0 111 0 -151 0 56 1 -13 0 -26 1 12 
0 5 0 -30 1 -3 0 -1 0 8 1 6 0 26 1 -37 
0 159 0 -93 1 0 0 -61 1 -7 0 -11 1 1 0 31 
1 12 0 75 1 -6 0 -72 1 -12 0 -25 1 -2 0 18 
1 7 0 66 1 83 0 -151 0 30 1 -13 0 -30 1 -4 
0 -3 0 6 1 5 0 138 1 -77 0 -82 0 78 1 -2 
0 -43 1 -6 0 -9 0 1 1 2 0 115 0 -89 1 -14 
0 24 1 -3 0 27 0 -93 0 77 1 -13 0 -29 1 -2 
0 107 0 -102 1 -1 0 17 1 8 0 18 0 -62 1 60 
0 -29 1 -3 0 102 0 -110 1 -6 0 -2 0 3 1 4 
0 31 1 8 0 -47 0 61 1 7 0 75 0 -134 1 -6 
0 -10 1 3 0 24 1 10 0 30 0 -47 1 150 0 -139 
1 -9 0 -19 1 -1 0 14 1 7 0 26 0 -2 1 -55 
0 187 0 -137 1 -12 0 -25 1 0 0 13 1 6 0 2 
0 -94 0 93 1 29 0 145 0 -142 1 -16 0 -25 1 -2 
0 5 0 -1 1 -15 0 -87 0 113 1 3 0 164 1 -106 
0 -65 1 -4 0 -110 1 91 0 22 1 2 0 59 1 113 
0 -164 1 -4 0 -113 0 86 1 15 0 -5 1 1 0 22 
1 15 0 150 0 -143 1 -31 0 -94 0 91 1 -6 0 -13 
1 2 0 23 1 12 0 137 0 -188 1 55 0 3 0 -26 
1 -7 0 -10 0 4 912 1937 300 MP stroke
1 2 0 24 1 9 0 47 0 -24 1 -18 0 -34 1 -4 
0 -3 0 1 1 3 0 16 0 -15 1 12 0 70 0 -27 
1 -18 0 -30 1 -3 0 -1 0 4 1 -2 0 -13 0 21 
1 2 0 62 1 -25 0 -41 1 -4 0 -20 1 6 0 20 
1 4 0 61 1 -33 0 -31 1 -4 0 -17 0 13 1 -2 
0 -2 0 3 1 4 0 43 1 30 0 -81 1 14 0 -16 
1 -3 0 -2 0 4 1 4 0 52 1 23 0 -55 1 -8 
0 -18 1 0 0 10 1 5 0 49 1 -30 0 -17 1 -5 
0 -11 1 1 0 20 1 20 0 13 0 -35 1 -6 0 18 
0 -15 1 -5 0 -4 0 4 1 9 0 25 0 -26 1 -2 
0 -9 1 19 0 3 0 -17 1 -4 0 -2 0 29 1 6 
0 -28 0 2 1 3 0 10 0 -20 1 6 0 12 1 18 
0 -38 1 0 0 12 1 5 0 4 0 -15 0 7 1 5 
0 29 0 -32 1 -11 0 -11 1 1 0 15 1 6 0 41 
1 -15 0 -39 1 -4 0 -4 0 6 1 4 0 132 1 -210 
0 89 0 -7 1 -4 0 -9 1 0 0 38 1 116 0 -262 
1 122 0 16 0 -15 1 -4 0 -6 0 5 1 26 0 116 
0 -139 1 0 0 -128 0 145 1 -7 0 -20 1 4 0 142 
0 -136 1 -3 0 20 1 -11 0 -134 0 129 1 0 0 138 
0 -116 1 -26 0 -6 0 5 1 5 0 14 0 -15 1 -121 
0 262 0 -116 1 -28 0 -10 1 1 0 12 1 4 0 -86 
0 209 1 -92 0 -43 1 -2 0 -2 0 3 1 2 0 9 
0 -11 1 -80 0 213 0 -125 1 -4 0 -4 1 1 0 2 
0 -120 1 112 0 163 0 -112 1 -26 0 -13 1 -1 0 1 
0 -119 1 111 0 15 0 -8 1 15 0 138 0 -152 1 -2 
0 2 0 -15 1 -107 0 122 0 -2 1 2 0 152 0 -138 
1 -14 0 7 0 -127 1 103 0 16 0 -1 1 1 0 39 
1 112 0 -274 1 102 0 17 0 1 1 -3 0 4 1 4 
0 125 0 -213 1 80 0 11 0 -9 1 -2 0 -1 0 5 
1 4 0 8 0 -3 1 -4 0 -6 1 -1 0 -4 1 -4 
0 31 0 -36 0 21 1 9 0 1 0 -10 1 -3 0 -4 
1 -1 0 18 0 -6 1 1 0 2 0 -13 1 -1 0 -1 
0 3 1 3 0 -7 0 1 1 1 0 13 0 -1 1 -2 
0 7 0 -18 1 0 0 4 1 3 0 10 0 -1 1 -9 
0 15 0 -35 0 5 1 4 0 3 1 1 0 7 1 4 
0 3 0 -12 1 -3 0 -2 1 -1 0 22 1 97 0 -219 
0 109 1 -1 0 -5 1 -2 0 -4 0 143 1 -118 0 -147 
0 147 1 -4 0 -18 796 1932 300 MP stroke
1 -1 0 143 0 -123 1 10 0 -164 0 135 1 3 0 -4 
0 19 1 119 0 -140 0 3 1 -2 0 -134 0 165 1 -11 
0 123 0 -129 0 6 1 -19 0 12 1 6 0 4 0 -146 
0 108 1 39 0 117 0 -143 0 1 1 3 0 7 1 1 
0 -109 0 219 1 -96 0 -22 1 1 0 -6 1 -19 0 152 
0 -242 0 123 1 -5 0 5 1 1 0 -158 1 119 0 196 
0 -154 1 -7 0 1 0 -4 1 -25 0 -119 0 196 1 128 
0 -189 0 8 1 4 0 -152 0 117 1 22 0 -2 0 20 
1 171 0 -202 1 -121 0 147 1 -1 0 161 1 -148 0 -166 
0 150 1 6 0 1 0 -4 1 -2 0 125 0 -242 1 90 
0 24 1 1 0 -6 1 -7 0 31 0 -45 0 29 1 0 
0 7 1 1 0 -42 0 12 1 23 0 30 0 -33 1 2 
0 1 0 -27 1 7 0 60 0 -35 1 -10 0 7 0 -4 
1 -23 0 -4 0 19 1 1 0 47 0 -35 1 -8 0 -23 
0 28 1 0 0 -4 0 11 1 23 0 -66 0 30 1 11 
0 1 0 -4 1 -2 0 -2 0 17 1 -45 0 24 1 -4 
0 14 1 -40 0 36 1 2 0 24 1 6 0 -84 0 21 
1 15 0 22 1 16 0 6 0 -53 1 -20 0 46 1 9 
0 18 0 -35 1 -2 0 -37 0 35 1 14 0 25 0 -29 
1 -4 0 -48 1 33 0 51 0 -20 1 -6 0 -9 1 -6 
0 13 0 -39 0 34 1 -7 0 -6 1 -2 0 117 0 -242 
1 107 0 36 0 -1 1 2 0 153 0 -170 1 -179 0 186 
1 3 0 153 0 -164 1 -34 0 49 0 -178 0 176 1 1 
0 150 0 -155 1 0 0 4 0 -178 0 130 1 34 0 165 
0 -153 1 -4 0 -186 1 179 0 170 0 -155 1 1 0 -35 
1 -107 0 241 0 -116 1 1 0 -131 1 254 0 -111 0 3 
1 1 0 -144 0 142 1 128 0 -144 0 7 1 4 0 -137 
0 127 1 5 0 146 0 -143 1 -14 0 -121 0 154 1 124 
0 -278 1 120 0 16 0 -11 1 19 0 125 0 -270 0 119 
1 22 0 3 0 -4 1 17 0 95 0 -254 0 118 1 8 
0 2 0 -26 1 -15 0 60 0 -6 1 1 0 -125 1 232 
0 -117 0 1 1 -2 0 20 0 -28 1 -3 0 14 1 -4 
0 -9 0 10 1 11 0 9 0 -20 0 0 1 -1 0 118 
0 -232 0 111 1 -13 0 27 1 -1 0 7 0 -60 0 14 
1 14 0 6 0 -24 0 23 1 11 0 7 0 -8 1 14 
0 130 0 -289 0 116 1 19 0 158 0 -115 1 -26 0 -175 
0 171 1 128 0 -297 1 174 0 140 0 -156 1 -3 0 -136 
0 289 1 -129 0 -15 691 1947 300 MP stroke
0 7 1 -5 0 -33 0 21 1 0 0 -7 0 4 1 10 
0 9 0 -124 1 250 0 -154 1 -117 0 300 0 -187 1 -10 
0 -120 0 144 1 176 0 -303 0 128 1 -10 0 152 0 -250 
0 104 1 19 0 -21 1 3 0 4 0 -19 1 10 0 21 
0 -37 1 31 0 -29 1 19 0 32 0 -50 1 6 0 48 
0 -35 1 -21 0 28 1 -31 0 37 0 -20 1 -10 0 16 
0 -10 1 -10 0 40 0 -47 0 29 1 -50 0 62 0 -8 
1 -40 0 78 1 -37 0 4 0 -41 0 26 1 -21 0 42 
0 -68 0 57 1 -18 0 1 0 -24 1 -4 0 133 0 -256 
1 143 0 117 0 -247 0 153 1 21 0 140 0 -317 0 244 
1 -95 0 94 0 -257 0 148 1 -22 0 19 0 -30 1 -1 
0 138 0 -234 0 15 1 237 0 -251 1 128 0 100 0 -232 
0 99 1 26 0 -47 0 41 1 4 0 3 0 -23 0 0 
1 -9 0 22 0 -45 0 9 1 7 0 -17 0 7 656 2035 112 MP stroke
gr

c8
0 sg
%%IncludeResource: font Helvetica
/Helvetica /WindowsLatin1Encoding 120 FMSR

 639 3409 mt 
( ) s
4550  326 mt 
( ) s
1 sg
0 188 773 0 0 -188 3734 532 4 MP
PP
-773 0 0 188 773 0 0 -188 3734 532 5 MP stroke
4 w
DO
SO
6 w
0 sg
3734  344 mt 4507  344 L
3734  532 mt 4507  532 L
4507  532 mt 4507  344 L
3734  532 mt 3734  344 L
3734  532 mt 4507  532 L
3734  532 mt 3734  344 L
3734  344 mt 4507  344 L
3734  532 mt 4507  532 L
4507  532 mt 4507  344 L
3734  532 mt 3734  344 L
4202  481 mt 
(Error) s
gs 3734 344 774 189 rc
c8
360 0 3805 438 2 MP stroke
gr

c8

end %%Color Dict

eplot
%%EndObject

epage
end

showpage

%%Trailer
%%EOF
