%!PS-Adobe-3.0 EPSF-3.0
%%Creator: MATLAB, The MathWorks, Inc. Version 8.1.0.604 (R2013a). Operating System: Microsoft Windows 7.
%%Title: C:\USER\SKOLE\TMA4220\tma4220-element-methods-project\report\images\problem2d-diskmesh100.eps
%%CreationDate: 11/20/2013  18:25:11
%%DocumentNeededFonts: Helvetica
%%DocumentProcessColors: Cyan Magenta Yellow Black
%%LanguageLevel: 2
%%Pages: 1
%%BoundingBox:    87   262   507   578
%%EndComments

%%BeginProlog
% MathWorks dictionary
/MathWorks 160 dict begin
% definition operators
/bdef {bind def} bind def
/ldef {load def} bind def
/xdef {exch def} bdef
/xstore {exch store} bdef
% operator abbreviations
/c  /clip ldef
/cc /concat ldef
/cp /closepath ldef
/gr /grestore ldef
/gs /gsave ldef
/mt /moveto ldef
/np /newpath ldef
/cm /currentmatrix ldef
/sm /setmatrix ldef
/rm /rmoveto ldef
/rl /rlineto ldef
/s {show newpath} bdef
/sc {setcmykcolor} bdef
/sr /setrgbcolor ldef
/sg /setgray ldef
/w /setlinewidth ldef
/j /setlinejoin ldef
/cap /setlinecap ldef
/rc {rectclip} bdef
/rf {rectfill} bdef
% page state control
/pgsv () def
/bpage {/pgsv save def} bdef
/epage {pgsv restore} bdef
/bplot /gsave ldef
/eplot {stroke grestore} bdef
% orientation switch
/portraitMode 0 def /landscapeMode 1 def /rotateMode 2 def
% coordinate system mappings
/dpi2point 0 def
% font control
/FontSize 0 def
/FMS {/FontSize xstore findfont [FontSize 0 0 FontSize neg 0 0]
  makefont setfont} bdef
/ISOLatin1Encoding where {pop /WindowsLatin1Encoding 256 array bdef
ISOLatin1Encoding WindowsLatin1Encoding copy pop
/.notdef/.notdef/quotesinglbase/florin/quotedblbase/ellipsis/dagger
/daggerdbl/circumflex/perthousand/Scaron/guilsinglleft/OE/.notdef/.notdef
/.notdef/.notdef/quoteleft/quoteright/quotedblleft/quotedblright/bullet
/endash/emdash/tilde/trademark/scaron/guilsinglright/oe/.notdef/.notdef
/Ydieresis WindowsLatin1Encoding 128 32 getinterval astore pop}
{/WindowsLatin1Encoding StandardEncoding bdef} ifelse
/reencode {exch dup where {pop load} {pop StandardEncoding} ifelse
  exch dup 3 1 roll findfont dup length dict begin
  { 1 index /FID ne {def}{pop pop} ifelse } forall
  /Encoding exch def currentdict end definefont pop} bdef
/isroman {findfont /CharStrings get /Agrave known} bdef
/FMSR {3 1 roll 1 index dup isroman {reencode} {pop pop} ifelse
  exch FMS} bdef
/csm {1 dpi2point div -1 dpi2point div scale neg translate
 dup landscapeMode eq {pop -90 rotate}
  {rotateMode eq {90 rotate} if} ifelse} bdef
% line types: solid, dotted, dashed, dotdash
/SO { [] 0 setdash } bdef
/DO { [.5 dpi2point mul 4 dpi2point mul] 0 setdash } bdef
/DA { [6 dpi2point mul] 0 setdash } bdef
/DD { [.5 dpi2point mul 4 dpi2point mul 6 dpi2point mul 4
  dpi2point mul] 0 setdash } bdef
% macros for lines and objects
/L {lineto stroke} bdef
/MP {3 1 roll moveto 1 sub {rlineto} repeat} bdef
/AP {{rlineto} repeat} bdef
/PDlw -1 def
/W {/PDlw currentlinewidth def setlinewidth} def
/PP {closepath eofill} bdef
/DP {closepath stroke} bdef
/MR {4 -2 roll moveto dup  0 exch rlineto exch 0 rlineto
  neg 0 exch rlineto closepath} bdef
/FR {MR stroke} bdef
/PR {MR fill} bdef
/L1i {{currentfile picstr readhexstring pop} image} bdef
/tMatrix matrix def
/MakeOval {newpath tMatrix currentmatrix pop translate scale
0 0 1 0 360 arc tMatrix setmatrix} bdef
/FO {MakeOval stroke} bdef
/PO {MakeOval fill} bdef
/PD {currentlinewidth 2 div 0 360 arc fill
   PDlw -1 eq not {PDlw w /PDlw -1 def} if} def
/FA {newpath tMatrix currentmatrix pop translate scale
  0 0 1 5 -2 roll arc tMatrix setmatrix stroke} bdef
/PA {newpath tMatrix currentmatrix pop	translate 0 0 moveto scale
  0 0 1 5 -2 roll arc closepath tMatrix setmatrix fill} bdef
/FAn {newpath tMatrix currentmatrix pop translate scale
  0 0 1 5 -2 roll arcn tMatrix setmatrix stroke} bdef
/PAn {newpath tMatrix currentmatrix pop translate 0 0 moveto scale
  0 0 1 5 -2 roll arcn closepath tMatrix setmatrix fill} bdef
/vradius 0 def /hradius 0 def /lry 0 def
/lrx 0 def /uly 0 def /ulx 0 def /rad 0 def
/MRR {/vradius xdef /hradius xdef /lry xdef /lrx xdef /uly xdef
  /ulx xdef newpath tMatrix currentmatrix pop ulx hradius add uly
  vradius add translate hradius vradius scale 0 0 1 180 270 arc 
  tMatrix setmatrix lrx hradius sub uly vradius add translate
  hradius vradius scale 0 0 1 270 360 arc tMatrix setmatrix
  lrx hradius sub lry vradius sub translate hradius vradius scale
  0 0 1 0 90 arc tMatrix setmatrix ulx hradius add lry vradius sub
  translate hradius vradius scale 0 0 1 90 180 arc tMatrix setmatrix
  closepath} bdef
/FRR {MRR stroke } bdef
/PRR {MRR fill } bdef
/MlrRR {/lry xdef /lrx xdef /uly xdef /ulx xdef /rad lry uly sub 2 div def
  newpath tMatrix currentmatrix pop ulx rad add uly rad add translate
  rad rad scale 0 0 1 90 270 arc tMatrix setmatrix lrx rad sub lry rad
  sub translate rad rad scale 0 0 1 270 90 arc tMatrix setmatrix
  closepath} bdef
/FlrRR {MlrRR stroke } bdef
/PlrRR {MlrRR fill } bdef
/MtbRR {/lry xdef /lrx xdef /uly xdef /ulx xdef /rad lrx ulx sub 2 div def
  newpath tMatrix currentmatrix pop ulx rad add uly rad add translate
  rad rad scale 0 0 1 180 360 arc tMatrix setmatrix lrx rad sub lry rad
  sub translate rad rad scale 0 0 1 0 180 arc tMatrix setmatrix
  closepath} bdef
/FtbRR {MtbRR stroke } bdef
/PtbRR {MtbRR fill } bdef
/stri 6 array def /dtri 6 array def
/smat 6 array def /dmat 6 array def
/tmat1 6 array def /tmat2 6 array def /dif 3 array def
/asub {/ind2 exch def /ind1 exch def dup dup
  ind1 get exch ind2 get sub exch } bdef
/tri_to_matrix {
  2 0 asub 3 1 asub 4 0 asub 5 1 asub
  dup 0 get exch 1 get 7 -1 roll astore } bdef
/compute_transform {
  dmat dtri tri_to_matrix tmat1 invertmatrix 
  smat stri tri_to_matrix tmat2 concatmatrix } bdef
/ds {stri astore pop} bdef
/dt {dtri astore pop} bdef
/db {2 copy /cols xdef /rows xdef mul dup 3 mul string
  currentfile 
  3 index 0 eq {/ASCIIHexDecode filter}
  {/ASCII85Decode filter 3 index 2 eq {/RunLengthDecode filter} if }
  ifelse exch readstring pop
  dup 0 3 index getinterval /rbmap xdef
  dup 2 index dup getinterval /gbmap xdef
  1 index dup 2 mul exch getinterval /bbmap xdef pop pop}bdef
/it {gs np dtri aload pop moveto lineto lineto cp c
  cols rows 8 compute_transform 
  rbmap gbmap bbmap true 3 colorimage gr}bdef
/il {newpath moveto lineto stroke}bdef
currentdict end def
%%EndProlog

%%BeginSetup
MathWorks begin

0 cap

end
%%EndSetup

%%Page: 1 1
%%BeginPageSetup
%%PageBoundingBox:    87   262   507   578
MathWorks begin
bpage
%%EndPageSetup

%%BeginObject: obj1
bplot

/dpi2point 12 def
portraitMode 1044 6936 csm

    0     0  5045  3782 rc
85 dict begin %Colortable dictionary
/c0 { 0.000000 0.000000 0.000000 sr} bdef
/c1 { 1.000000 1.000000 1.000000 sr} bdef
/c2 { 0.900000 0.000000 0.000000 sr} bdef
/c3 { 0.000000 0.820000 0.000000 sr} bdef
/c4 { 0.000000 0.000000 0.800000 sr} bdef
/c5 { 0.910000 0.820000 0.320000 sr} bdef
/c6 { 1.000000 0.260000 0.820000 sr} bdef
/c7 { 0.000000 0.820000 0.820000 sr} bdef
c0
1 j
1 sg
   0    0 5046 3783 rf
6 w
0 3082 3910 0 0 -3082 656 3366 4 MP
PP
-3910 0 0 3082 3910 0 0 -3082 656 3366 5 MP stroke
4 w
DO
SO
6 w
0 sg
 656  284 mt 4566  284 L
 656 3366 mt 4566 3366 L
4566 3366 mt 4566  284 L
 656 3366 mt  656  284 L
 656 3366 mt 4566 3366 L
 656 3366 mt  656  284 L
 656 3366 mt  656 3326 L
 656  284 mt  656  323 L
%%IncludeResource: font Helvetica
/Helvetica /WindowsLatin1Encoding 120 FMSR

 553 3511 mt 
(-1) s
1633 3366 mt 1633 3326 L
1633  284 mt 1633  323 L
1480 3511 mt 
(-0.5) s
2611 3366 mt 2611 3326 L
2611  284 mt 2611  323 L
2578 3511 mt 
(0) s
3588 3366 mt 3588 3326 L
3588  284 mt 3588  323 L
3505 3511 mt 
(0.5) s
4566 3366 mt 4566 3326 L
4566  284 mt 4566  323 L
4533 3511 mt 
(1) s
 656 3366 mt  695 3366 L
4566 3366 mt 4526 3366 L
 485 3410 mt 
(-1) s
 656 3057 mt  695 3057 L
4566 3057 mt 4526 3057 L
 385 3101 mt 
(-0.8) s
 656 2749 mt  695 2749 L
4566 2749 mt 4526 2749 L
 385 2793 mt 
(-0.6) s
 656 2441 mt  695 2441 L
4566 2441 mt 4526 2441 L
 385 2485 mt 
(-0.4) s
 656 2133 mt  695 2133 L
4566 2133 mt 4526 2133 L
 385 2177 mt 
(-0.2) s
 656 1825 mt  695 1825 L
4566 1825 mt 4526 1825 L
 555 1869 mt 
(0) s
 656 1516 mt  695 1516 L
4566 1516 mt 4526 1516 L
 455 1560 mt 
(0.2) s
 656 1208 mt  695 1208 L
4566 1208 mt 4526 1208 L
 455 1252 mt 
(0.4) s
 656  900 mt  695  900 L
4566  900 mt 4526  900 L
 455  944 mt 
(0.6) s
 656  592 mt  695  592 L
4566  592 mt 4526  592 L
 455  636 mt 
(0.8) s
 656  284 mt  695  284 L
4566  284 mt 4526  284 L
 555  328 mt 
(1) s
 656  284 mt 4566  284 L
 656 3366 mt 4566 3366 L
4566 3366 mt 4566  284 L
 656 3366 mt  656  284 L
gs 656 284 3911 3083 rc
/c8 { 0.000000 0.000000 1.000000 sr} bdef
c8
52 379 -391 -225 339 -154 2272 1670 4 MP stroke
/c9 { 0.000000 0.500000 0.000000 sr} bdef
c9
338 154 -391 225 53 -379 2949 1670 4 MP stroke
/c10 { 1.000000 0.000000 0.000000 sr} bdef
c10
441 75 -344 224 -97 -299 1156 2278 4 MP stroke
/c11 { 0.000000 0.750000 0.750000 sr} bdef
c11
302 -197 85 332 -387 -135 3751 2668 4 MP stroke
/c12 { 0.750000 0.000000 0.750000 sr} bdef
c12
-339 154 53 -379 286 225 1933 2133 4 MP stroke
/c13 { 0.750000 0.750000 0.000000 sr} bdef
c13
-60 373 -238 -173 298 -200 3751 981 4 MP stroke
0.25 sg
478 148 -338 154 -140 -302 3766 1664 4 MP stroke
c8
344 224 -441 75 97 -299 1059 1670 4 MP stroke
c9
303 -362 99 306 -402 56 3012 2693 4 MP stroke
c10
496 1 -298 200 -198 -201 4247 982 4 MP stroke
c11
-439 -9 250 -262 189 271 1156 2278 4 MP stroke
c12
-374 161 -104 -309 478 148 1455 1985 4 MP stroke
c13
-182 389 -189 -271 371 -118 974 2667 4 MP stroke
0.25 sg
0 321 -374 -160 374 -161 1455 1985 4 MP stroke
c8
286 -225 53 379 -339 -154 3288 2133 4 MP stroke
c9
-359 -146 499 -156 -140 302 3766 1985 4 MP stroke
c10
397 -27 -53 251 -344 -224 1059 1670 4 MP stroke
c11
-397 -282 397 27 0 255 662 1697 4 MP stroke
c12
331 -166 -66 406 -265 -240 1945 709 4 MP stroke
c13
-336 -166 441 -75 -105 241 820 1205 4 MP stroke
0.25 sg
352 160 -437 172 85 -332 3364 1116 4 MP stroke
c8
-447 183 92 -315 355 132 3094 652 4 MP stroke
c9
478 -148 -140 302 -338 -154 1933 1516 4 MP stroke
c10
336 166 -154 223 -182 -389 1156 1371 4 MP stroke
c11
374 160 -478 148 104 -308 1829 1824 4 MP stroke
c12
442 94 -238 173 -204 -267 1614 875 4 MP stroke
c13
262 246 -387 135 125 -381 3626 1362 4 MP stroke
0.25 sg
-53 379 -338 -154 391 -225 2219 2358 4 MP stroke
c8
0 -308 391 225 -391 83 2611 1208 4 MP stroke
c9
-11 -335 363 175 -352 160 2209 956 4 MP stroke
c10
269 -225 173 319 -442 -94 1614 875 4 MP stroke
c11
189 -271 182 389 -371 -118 1345 1100 4 MP stroke
c12
140 302 -499 -156 359 -146 3766 1664 4 MP stroke
c13
-276 313 -105 -241 381 -72 4125 1518 4 MP stroke
0.25 sg
144 287 -420 26 276 -313 4125 1518 4 MP stroke
c8
-512 16 243 -241 269 225 1345 2549 4 MP stroke
c9
76 400 -338 -154 262 -246 3364 2533 4 MP stroke
c10
-108 -342 372 95 -264 247 2209 2693 4 MP stroke
c11
-1 308 -401 -252 402 -56 2610 2749 4 MP stroke
c12
392 20 -293 286 -99 -306 2709 3055 4 MP stroke
c13
401 252 -391 83 -10 -335 3012 2693 4 MP stroke
0.25 sg
238 173 -442 94 204 -267 1410 3041 4 MP stroke
c8
151 285 -447 -183 296 -102 3245 3282 4 MP stroke
c9
387 135 -262 246 -125 -381 3751 2668 4 MP stroke
c10
10 -335 352 160 -362 175 2219 2358 4 MP stroke
c11
-401 -56 293 -286 108 342 2209 2693 4 MP stroke
c12
-173 319 -269 -225 442 -94 1172 2868 4 MP stroke
c13
-204 267 -66 -406 270 139 1410 3041 4 MP stroke
0.25 sg
-392 -83 402 -252 -10 335 2219 2358 4 MP stroke
c8
-303 362 -82 -304 385 -58 2709 3055 4 MP stroke
c9
223 289 -385 58 162 -347 2932 3344 4 MP stroke
c10
31 342 -372 -95 341 -247 1976 3282 4 MP stroke
c11
-28 309 -293 -331 321 22 2289 3344 4 MP stroke
c12
66 406 -331 -166 265 -240 1680 3180 4 MP stroke
c13
-265 240 -31 -342 296 102 1680 3180 4 MP stroke
0.25 sg
313 62 -341 247 28 -309 2289 3344 4 MP stroke
c8
-338 154 76 -400 262 246 1595 2287 4 MP stroke
c9
-243 241 -88 -407 331 166 1614 2774 4 MP stroke
c10
1 -308 401 56 -402 252 2611 2441 4 MP stroke
c11
-352 -160 264 -247 88 407 1857 2533 4 MP stroke
c12
-1 -308 392 83 -391 225 2610 2133 4 MP stroke
c13
-286 -225 362 -175 -76 400 1933 2133 4 MP stroke
0.25 sg
-339 -154 443 -154 -104 308 1933 1516 4 MP stroke
c8
1 308 -392 -225 391 -83 2611 2441 4 MP stroke
c9
-396 6 396 -315 0 309 1059 1670 4 MP stroke
c10
140 302 -478 -148 338 -154 1595 2287 4 MP stroke
c11
-299 293 -140 -302 439 9 1156 2278 4 MP stroke
c12
-250 262 -262 -246 512 -16 1345 2549 4 MP stroke
c13
198 201 -371 118 173 -319 1172 2868 4 MP stroke
0.25 sg
105 241 -441 -75 336 -166 820 2444 4 MP stroke
c8
-396 -6 299 -293 97 299 1059 1979 4 MP stroke
c9
-336 166 182 -389 154 223 820 2444 4 MP stroke
c10
0 -321 396 6 -396 315 1455 1664 4 MP stroke
c11
-397 -27 344 -224 53 251 662 1952 4 MP stroke
c12
397 282 -397 27 0 -309 1059 1979 4 MP stroke
c13
299 293 -439 9 140 -302 1455 1664 4 MP stroke
0.25 sg
396 -6 -97 299 -299 -293 1455 1664 4 MP stroke
c8
439 -9 -189 271 -250 -262 1595 1362 4 MP stroke
c9
302 197 -362 176 60 -373 3751 981 4 MP stroke
c10
66 -406 204 267 -270 139 1680 469 4 MP stroke
c11
512 16 -269 225 -243 -241 1857 1116 4 MP stroke
c12
-173 -319 371 118 -198 201 1172 781 4 MP stroke
c13
250 262 -512 -16 262 -246 1595 1362 4 MP stroke
0.25 sg
243 241 -331 166 88 -407 1857 1116 4 MP stroke
c8
341 247 -313 62 -28 -309 2317 614 4 MP stroke
c9
264 247 -372 95 108 -342 2209 956 4 MP stroke
c10
372 -95 -31 342 -341 -247 2317 614 4 MP stroke
c11
294 -330 28 309 -322 21 2611 284 4 MP stroke
c12
31 -342 265 240 -296 102 1976 367 4 MP stroke
c13
0 308 -401 -56 401 -252 2611 1208 4 MP stroke
0.25 sg
294 286 -392 20 98 -306 2611 900 4 MP stroke
c8
443 155 -443 154 0 -309 2272 1979 4 MP stroke
c9
287 -225 76 400 -363 -175 2220 1291 4 MP stroke
c10
338 154 -262 246 -76 -400 1933 1516 4 MP stroke
c11
352 -160 -88 407 -264 -247 2209 956 4 MP stroke
c12
104 309 -443 -155 339 -154 1933 2133 4 MP stroke
c13
0 308 -391 -83 391 -225 2611 1516 4 MP stroke
0.25 sg
-287 225 -52 -379 339 154 1933 1516 4 MP stroke
c8
-339 154 1 -308 338 154 2272 1979 4 MP stroke
c9
0 309 -339 -155 339 -154 2272 1979 4 MP stroke
c10
-76 -400 362 175 -286 225 3288 2133 4 MP stroke
c11
339 155 -339 154 0 -309 2611 1825 4 MP stroke
c12
0 309 -338 -154 338 -155 2611 1825 4 MP stroke
c13
286 225 -362 175 76 -400 3288 1516 4 MP stroke
0.25 sg
-402 -252 391 -83 11 335 2209 956 4 MP stroke
c8
-1 308 -338 -154 339 -154 2610 2133 4 MP stroke
c9
339 -154 -53 379 -286 -225 3288 1516 4 MP stroke
c10
-355 -132 437 -172 -82 304 3094 652 4 MP stroke
c11
-401 252 10 -335 391 83 2611 1208 4 MP stroke
c12
-108 342 -294 -286 402 -56 2209 956 4 MP stroke
c13
-402 56 0 -308 402 252 2209 956 4 MP stroke
0.25 sg
392 -20 -294 330 -98 -310 2709 594 4 MP stroke
c8
151 -285 162 347 -313 -62 3245 367 4 MP stroke
c9
401 56 -98 306 -303 -362 3012 956 4 MP stroke
c10
223 -289 98 310 -321 -21 2932 305 4 MP stroke
c11
-223 289 -162 -347 385 58 2709 594 4 MP stroke
c12
-385 -58 82 -304 303 362 2709 594 4 MP stroke
c13
-10 335 -352 -160 362 -175 3002 1291 4 MP stroke
0.25 sg
-125 381 -230 -250 355 -131 3626 1362 4 MP stroke
c8
447 -183 -151 285 -296 -102 3541 469 4 MP stroke
c9
362 -176 -92 315 -270 -139 3811 608 4 MP stroke
c10
-85 332 -302 -197 387 -135 3364 1116 4 MP stroke
c11
230 250 -496 -1 266 -249 3981 1231 4 MP stroke
c12
-409 -161 409 -160 0 321 3766 1664 4 MP stroke
c13
420 -26 -266 249 -154 -223 4401 1205 4 MP stroke
0.25 sg
105 309 -478 -148 373 -161 3393 1825 4 MP stroke
c8
338 -154 -76 400 -262 -246 3626 1362 4 MP stroke
c9
-339 154 -105 -309 444 155 2949 1670 4 MP stroke
c10
409 161 -359 146 -50 -307 4175 1825 4 MP stroke
c11
-355 131 -144 -287 499 156 3626 1362 4 MP stroke
c12
50 307 -434 -179 384 -128 4175 1825 4 MP stroke
c13
434 -179 -50 306 -384 -127 4559 1952 4 MP stroke
0.25 sg
381 72 -434 179 53 -251 4506 2203 4 MP stroke
c8
447 183 -355 132 -92 -315 3541 3180 4 MP stroke
c9
0 -255 384 127 -384 128 4559 1697 4 MP stroke
c10
-53 -251 434 179 -381 72 4506 1446 4 MP stroke
c11
0 309 -444 -155 444 -154 2949 1979 4 MP stroke
c12
-105 308 -373 -160 478 -148 3288 2133 4 MP stroke
c13
-338 155 0 -309 338 154 2611 1825 4 MP stroke
0.25 sg
-339 154 -53 -379 392 225 2610 2133 4 MP stroke
c8
140 -302 338 154 -478 148 3766 1985 4 MP stroke
c9
105 -308 339 154 -444 154 3393 1825 4 MP stroke
c10
50 -306 359 146 -409 160 4175 1825 4 MP stroke
c11
0 -321 373 160 -373 161 3766 1664 4 MP stroke
c12
-276 -313 420 26 -144 287 4125 2131 4 MP stroke
c13
144 -287 355 131 -499 156 4125 2131 4 MP stroke
0.25 sg
313 -62 -162 347 -151 -285 3245 3282 4 MP stroke
c8
437 172 -352 160 -85 -332 3449 2865 4 MP stroke
c9
355 -132 82 304 -437 -172 3449 2865 4 MP stroke
c10
352 -160 10 335 -362 -175 3364 2533 4 MP stroke
c11
293 331 -392 -20 99 -311 2610 3366 4 MP stroke
c12
-99 311 -223 -289 322 -22 2610 3366 4 MP stroke
c13
92 315 -362 -176 270 -139 3541 3180 4 MP stroke
0.25 sg
125 381 -355 -131 230 -250 3751 2668 4 MP stroke
c8
298 200 -496 1 198 -201 4049 2868 4 MP stroke
c9
362 176 -302 197 -60 -373 3811 3041 4 MP stroke
c10
60 373 -298 -200 238 -173 3811 3041 4 MP stroke
c11
105 -241 276 313 -381 -72 4506 2203 4 MP stroke
c12
496 -1 -230 250 -266 -249 4247 2667 4 MP stroke
c13
154 -223 266 249 -420 -26 4401 2444 4 MP stroke
gr

c13

end %%Color Dict

eplot
%%EndObject

epage
end

showpage

%%Trailer
%%EOF
