%!PS-Adobe-3.0 EPSF-3.0
%%Creator: MATLAB, The MathWorks, Inc. Version 8.1.0.604 (R2013a). Operating System: Microsoft Windows 7.
%%Title: C:\USER\SKOLE\TMA4220\tma4220-element-methods-project\report\images\problem2d-diskmesh1000.eps
%%CreationDate: 11/20/2013  18:25:00
%%DocumentNeededFonts: Helvetica
%%DocumentProcessColors: Cyan Magenta Yellow Black
%%LanguageLevel: 2
%%Pages: 1
%%BoundingBox:    87   262   507   578
%%EndComments

%%BeginProlog
% MathWorks dictionary
/MathWorks 160 dict begin
% definition operators
/bdef {bind def} bind def
/ldef {load def} bind def
/xdef {exch def} bdef
/xstore {exch store} bdef
% operator abbreviations
/c  /clip ldef
/cc /concat ldef
/cp /closepath ldef
/gr /grestore ldef
/gs /gsave ldef
/mt /moveto ldef
/np /newpath ldef
/cm /currentmatrix ldef
/sm /setmatrix ldef
/rm /rmoveto ldef
/rl /rlineto ldef
/s {show newpath} bdef
/sc {setcmykcolor} bdef
/sr /setrgbcolor ldef
/sg /setgray ldef
/w /setlinewidth ldef
/j /setlinejoin ldef
/cap /setlinecap ldef
/rc {rectclip} bdef
/rf {rectfill} bdef
% page state control
/pgsv () def
/bpage {/pgsv save def} bdef
/epage {pgsv restore} bdef
/bplot /gsave ldef
/eplot {stroke grestore} bdef
% orientation switch
/portraitMode 0 def /landscapeMode 1 def /rotateMode 2 def
% coordinate system mappings
/dpi2point 0 def
% font control
/FontSize 0 def
/FMS {/FontSize xstore findfont [FontSize 0 0 FontSize neg 0 0]
  makefont setfont} bdef
/ISOLatin1Encoding where {pop /WindowsLatin1Encoding 256 array bdef
ISOLatin1Encoding WindowsLatin1Encoding copy pop
/.notdef/.notdef/quotesinglbase/florin/quotedblbase/ellipsis/dagger
/daggerdbl/circumflex/perthousand/Scaron/guilsinglleft/OE/.notdef/.notdef
/.notdef/.notdef/quoteleft/quoteright/quotedblleft/quotedblright/bullet
/endash/emdash/tilde/trademark/scaron/guilsinglright/oe/.notdef/.notdef
/Ydieresis WindowsLatin1Encoding 128 32 getinterval astore pop}
{/WindowsLatin1Encoding StandardEncoding bdef} ifelse
/reencode {exch dup where {pop load} {pop StandardEncoding} ifelse
  exch dup 3 1 roll findfont dup length dict begin
  { 1 index /FID ne {def}{pop pop} ifelse } forall
  /Encoding exch def currentdict end definefont pop} bdef
/isroman {findfont /CharStrings get /Agrave known} bdef
/FMSR {3 1 roll 1 index dup isroman {reencode} {pop pop} ifelse
  exch FMS} bdef
/csm {1 dpi2point div -1 dpi2point div scale neg translate
 dup landscapeMode eq {pop -90 rotate}
  {rotateMode eq {90 rotate} if} ifelse} bdef
% line types: solid, dotted, dashed, dotdash
/SO { [] 0 setdash } bdef
/DO { [.5 dpi2point mul 4 dpi2point mul] 0 setdash } bdef
/DA { [6 dpi2point mul] 0 setdash } bdef
/DD { [.5 dpi2point mul 4 dpi2point mul 6 dpi2point mul 4
  dpi2point mul] 0 setdash } bdef
% macros for lines and objects
/L {lineto stroke} bdef
/MP {3 1 roll moveto 1 sub {rlineto} repeat} bdef
/AP {{rlineto} repeat} bdef
/PDlw -1 def
/W {/PDlw currentlinewidth def setlinewidth} def
/PP {closepath eofill} bdef
/DP {closepath stroke} bdef
/MR {4 -2 roll moveto dup  0 exch rlineto exch 0 rlineto
  neg 0 exch rlineto closepath} bdef
/FR {MR stroke} bdef
/PR {MR fill} bdef
/L1i {{currentfile picstr readhexstring pop} image} bdef
/tMatrix matrix def
/MakeOval {newpath tMatrix currentmatrix pop translate scale
0 0 1 0 360 arc tMatrix setmatrix} bdef
/FO {MakeOval stroke} bdef
/PO {MakeOval fill} bdef
/PD {currentlinewidth 2 div 0 360 arc fill
   PDlw -1 eq not {PDlw w /PDlw -1 def} if} def
/FA {newpath tMatrix currentmatrix pop translate scale
  0 0 1 5 -2 roll arc tMatrix setmatrix stroke} bdef
/PA {newpath tMatrix currentmatrix pop	translate 0 0 moveto scale
  0 0 1 5 -2 roll arc closepath tMatrix setmatrix fill} bdef
/FAn {newpath tMatrix currentmatrix pop translate scale
  0 0 1 5 -2 roll arcn tMatrix setmatrix stroke} bdef
/PAn {newpath tMatrix currentmatrix pop translate 0 0 moveto scale
  0 0 1 5 -2 roll arcn closepath tMatrix setmatrix fill} bdef
/vradius 0 def /hradius 0 def /lry 0 def
/lrx 0 def /uly 0 def /ulx 0 def /rad 0 def
/MRR {/vradius xdef /hradius xdef /lry xdef /lrx xdef /uly xdef
  /ulx xdef newpath tMatrix currentmatrix pop ulx hradius add uly
  vradius add translate hradius vradius scale 0 0 1 180 270 arc 
  tMatrix setmatrix lrx hradius sub uly vradius add translate
  hradius vradius scale 0 0 1 270 360 arc tMatrix setmatrix
  lrx hradius sub lry vradius sub translate hradius vradius scale
  0 0 1 0 90 arc tMatrix setmatrix ulx hradius add lry vradius sub
  translate hradius vradius scale 0 0 1 90 180 arc tMatrix setmatrix
  closepath} bdef
/FRR {MRR stroke } bdef
/PRR {MRR fill } bdef
/MlrRR {/lry xdef /lrx xdef /uly xdef /ulx xdef /rad lry uly sub 2 div def
  newpath tMatrix currentmatrix pop ulx rad add uly rad add translate
  rad rad scale 0 0 1 90 270 arc tMatrix setmatrix lrx rad sub lry rad
  sub translate rad rad scale 0 0 1 270 90 arc tMatrix setmatrix
  closepath} bdef
/FlrRR {MlrRR stroke } bdef
/PlrRR {MlrRR fill } bdef
/MtbRR {/lry xdef /lrx xdef /uly xdef /ulx xdef /rad lrx ulx sub 2 div def
  newpath tMatrix currentmatrix pop ulx rad add uly rad add translate
  rad rad scale 0 0 1 180 360 arc tMatrix setmatrix lrx rad sub lry rad
  sub translate rad rad scale 0 0 1 0 180 arc tMatrix setmatrix
  closepath} bdef
/FtbRR {MtbRR stroke } bdef
/PtbRR {MtbRR fill } bdef
/stri 6 array def /dtri 6 array def
/smat 6 array def /dmat 6 array def
/tmat1 6 array def /tmat2 6 array def /dif 3 array def
/asub {/ind2 exch def /ind1 exch def dup dup
  ind1 get exch ind2 get sub exch } bdef
/tri_to_matrix {
  2 0 asub 3 1 asub 4 0 asub 5 1 asub
  dup 0 get exch 1 get 7 -1 roll astore } bdef
/compute_transform {
  dmat dtri tri_to_matrix tmat1 invertmatrix 
  smat stri tri_to_matrix tmat2 concatmatrix } bdef
/ds {stri astore pop} bdef
/dt {dtri astore pop} bdef
/db {2 copy /cols xdef /rows xdef mul dup 3 mul string
  currentfile 
  3 index 0 eq {/ASCIIHexDecode filter}
  {/ASCII85Decode filter 3 index 2 eq {/RunLengthDecode filter} if }
  ifelse exch readstring pop
  dup 0 3 index getinterval /rbmap xdef
  dup 2 index dup getinterval /gbmap xdef
  1 index dup 2 mul exch getinterval /bbmap xdef pop pop}bdef
/it {gs np dtri aload pop moveto lineto lineto cp c
  cols rows 8 compute_transform 
  rbmap gbmap bbmap true 3 colorimage gr}bdef
/il {newpath moveto lineto stroke}bdef
currentdict end def
%%EndProlog

%%BeginSetup
MathWorks begin

0 cap

end
%%EndSetup

%%Page: 1 1
%%BeginPageSetup
%%PageBoundingBox:    87   262   507   578
MathWorks begin
bpage
%%EndPageSetup

%%BeginObject: obj1
bplot

/dpi2point 12 def
portraitMode 1044 6936 csm

    0     0  5045  3782 rc
85 dict begin %Colortable dictionary
/c0 { 0.000000 0.000000 0.000000 sr} bdef
/c1 { 1.000000 1.000000 1.000000 sr} bdef
/c2 { 0.900000 0.000000 0.000000 sr} bdef
/c3 { 0.000000 0.820000 0.000000 sr} bdef
/c4 { 0.000000 0.000000 0.800000 sr} bdef
/c5 { 0.910000 0.820000 0.320000 sr} bdef
/c6 { 1.000000 0.260000 0.820000 sr} bdef
/c7 { 0.000000 0.820000 0.820000 sr} bdef
c0
1 j
1 sg
   0    0 5046 3783 rf
6 w
0 3082 3910 0 0 -3082 656 3366 4 MP
PP
-3910 0 0 3082 3910 0 0 -3082 656 3366 5 MP stroke
4 w
DO
SO
6 w
0 sg
 656  284 mt 4566  284 L
 656 3366 mt 4566 3366 L
4566 3366 mt 4566  284 L
 656 3366 mt  656  284 L
 656 3366 mt 4566 3366 L
 656 3366 mt  656  284 L
 656 3366 mt  656 3326 L
 656  284 mt  656  323 L
%%IncludeResource: font Helvetica
/Helvetica /WindowsLatin1Encoding 120 FMSR

 553 3511 mt 
(-1) s
1633 3366 mt 1633 3326 L
1633  284 mt 1633  323 L
1480 3511 mt 
(-0.5) s
2611 3366 mt 2611 3326 L
2611  284 mt 2611  323 L
2578 3511 mt 
(0) s
3588 3366 mt 3588 3326 L
3588  284 mt 3588  323 L
3505 3511 mt 
(0.5) s
4566 3366 mt 4566 3326 L
4566  284 mt 4566  323 L
4533 3511 mt 
(1) s
 656 3366 mt  695 3366 L
4566 3366 mt 4526 3366 L
 485 3410 mt 
(-1) s
 656 3057 mt  695 3057 L
4566 3057 mt 4526 3057 L
 385 3101 mt 
(-0.8) s
 656 2749 mt  695 2749 L
4566 2749 mt 4526 2749 L
 385 2793 mt 
(-0.6) s
 656 2441 mt  695 2441 L
4566 2441 mt 4526 2441 L
 385 2485 mt 
(-0.4) s
 656 2133 mt  695 2133 L
4566 2133 mt 4526 2133 L
 385 2177 mt 
(-0.2) s
 656 1825 mt  695 1825 L
4566 1825 mt 4526 1825 L
 555 1869 mt 
(0) s
 656 1516 mt  695 1516 L
4566 1516 mt 4526 1516 L
 455 1560 mt 
(0.2) s
 656 1208 mt  695 1208 L
4566 1208 mt 4526 1208 L
 455 1252 mt 
(0.4) s
 656  900 mt  695  900 L
4566  900 mt 4526  900 L
 455  944 mt 
(0.6) s
 656  592 mt  695  592 L
4566  592 mt 4526  592 L
 455  636 mt 
(0.8) s
 656  284 mt  695  284 L
4566  284 mt 4526  284 L
 555  328 mt 
(1) s
 656  284 mt 4566  284 L
 656 3366 mt 4566 3366 L
4566 3366 mt 4566  284 L
 656 3366 mt  656  284 L
gs 656 284 3911 3083 rc
/c8 { 0.000000 0.000000 1.000000 sr} bdef
c8
0 -91 115 89 -115 2 2697 2819 4 MP stroke
/c9 { 0.000000 0.500000 0.000000 sr} bdef
c9
-111 -27 80 -76 31 103 2211 2675 4 MP stroke
/c10 { 1.000000 0.000000 0.000000 sr} bdef
c10
71 72 -100 46 29 -118 1465 2582 4 MP stroke
/c11 { 0.000000 0.750000 0.750000 sr} bdef
c11
-91 -56 128 -37 -37 93 1438 2942 4 MP stroke
/c12 { 0.750000 0.000000 0.750000 sr} bdef
c12
-75 79 -62 -78 137 -1 1530 2343 4 MP stroke
/c13 { 0.750000 0.750000 0.000000 sr} bdef
c13
36 -121 64 76 -100 45 1530 2343 4 MP stroke
0.25 sg
-78 -68 102 -47 -24 115 1293 2702 4 MP stroke
c8
-101 -44 109 -58 -8 102 2118 2437 4 MP stroke
c9
109 -56 -11 105 -98 -49 2415 2153 4 MP stroke
c10
113 21 -114 71 1 -92 2352 2893 4 MP stroke
c11
88 59 -160 12 72 -71 1835 2612 4 MP stroke
c12
-39 87 -100 -46 139 -41 1943 1687 4 MP stroke
c13
-116 91 0 -91 116 0 886 1870 4 MP stroke
0.25 sg
-26 -88 114 -15 -88 103 2928 3069 4 MP stroke
c8
115 -77 -1 91 -114 -14 2955 400 4 MP stroke
c9
-118 87 0 -91 118 4 2522 2455 4 MP stroke
c10
-46 -51 130 -12 -84 63 4183 909 4 MP stroke
c11
73 71 -101 47 28 -118 3455 1352 4 MP stroke
c12
110 -29 2 94 -112 -65 3149 2924 4 MP stroke
c13
-105 39 -5 -100 110 61 3145 2827 4 MP stroke
0.25 sg
100 46 -68 74 -32 -120 3792 2546 4 MP stroke
c8
-1 -92 115 77 -114 15 2954 3157 4 MP stroke
c9
100 -45 -38 123 -62 -78 3616 1385 4 MP stroke
c10
111 -60 -6 101 -105 -41 2411 2250 4 MP stroke
c11
-22 114 -80 -65 102 -49 1645 2602 4 MP stroke
c12
144 -3 -73 76 -71 -73 1738 2415 4 MP stroke
c13
-1 92 -114 -14 115 -78 2352 2893 4 MP stroke
0.25 sg
114 -10 -88 98 -26 -88 2811 2809 4 MP stroke
c8
28 89 -115 9 87 -98 2726 3181 4 MP stroke
c9
-29 -110 104 38 -75 72 1908 2966 4 MP stroke
c10
-95 52 -11 -105 106 53 3350 2743 4 MP stroke
c11
156 -9 -71 73 -85 -64 2096 2312 4 MP stroke
c12
33 -103 78 78 -111 25 3179 3204 4 MP stroke
c13
1 -91 115 10 -116 81 2553 2548 4 MP stroke
0.25 sg
101 -47 -28 118 -73 -71 1839 2368 4 MP stroke
c8
108 35 -111 60 3 -95 2408 2345 4 MP stroke
c9
118 -42 -24 96 -94 -54 3197 1266 4 MP stroke
c10
16 110 -101 -47 85 -63 2962 2183 4 MP stroke
c11
102 -42 7 100 -109 -58 2023 840 4 MP stroke
c12
-18 90 -107 -45 125 -45 785 1643 4 MP stroke
c13
-95 -51 106 -54 -11 105 1718 2770 4 MP stroke
0.25 sg
118 46 -114 45 -4 -91 1120 1916 4 MP stroke
c8
112 -23 28 59 -140 -36 900 2358 4 MP stroke
c9
72 71 -100 46 28 -117 1566 2535 4 MP stroke
c10
26 89 -118 -2 92 -87 1392 2094 4 MP stroke
c11
-121 20 18 -90 103 70 682 1573 4 MP stroke
c12
103 -70 12 62 -115 8 785 2006 4 MP stroke
c13
102 46 -140 40 38 -86 963 1422 4 MP stroke
0.25 sg
101 45 -146 39 45 -84 1001 1336 4 MP stroke
c8
-157 -34 100 -46 57 80 1982 2049 4 MP stroke
c9
0 -91 115 67 -115 24 2611 1643 4 MP stroke
c10
70 86 -129 -7 59 -79 998 1126 4 MP stroke
c11
121 -20 -15 63 -106 -43 803 1553 4 MP stroke
c12
-77 -79 129 -2 -52 81 1098 1171 4 MP stroke
c13
-101 47 33 -121 68 74 2946 1576 4 MP stroke
0.25 sg
126 48 -70 32 -56 -80 1724 554 4 MP stroke
c8
129 7 -42 53 -87 -60 1057 1047 4 MP stroke
c9
-154 -9 83 -64 71 73 1371 879 4 MP stroke
c10
75 -70 27 118 -102 -48 2214 1496 4 MP stroke
c11
115 79 -115 12 0 -91 2466 743 4 MP stroke
c12
-88 -92 117 1 -29 91 2610 465 4 MP stroke
c13
100 88 -80 2 -20 -90 2610 374 4 MP stroke
0.25 sg
15 -109 56 80 -71 29 1739 445 4 MP stroke
c8
-28 88 -103 -45 131 -43 1261 1598 4 MP stroke
c9
139 41 -104 46 -35 -87 2082 2003 4 MP stroke
c10
-5 97 -104 -39 109 -58 3002 1168 4 MP stroke
c11
-11 -105 105 51 -94 54 1707 774 4 MP stroke
c12
-148 -38 102 -46 46 84 3113 1605 4 MP stroke
c13
-100 46 32 -119 68 73 3592 1195 4 MP stroke
0.25 sg
115 -11 1 92 -116 -81 2553 1101 4 MP stroke
c8
138 -67 -26 88 -112 -21 3066 513 4 MP stroke
c9
80 67 -112 39 32 -106 3483 1234 4 MP stroke
c10
103 43 -110 58 7 -101 3358 804 4 MP stroke
c11
27 -117 74 70 -101 47 3819 986 4 MP stroke
c12
-27 100 -88 -59 115 -41 3653 857 4 MP stroke
c13
-23 92 -102 -44 125 -48 3365 703 4 MP stroke
0.25 sg
-124 53 21 -95 103 42 3394 512 4 MP stroke
c8
-109 57 7 -101 102 44 3388 611 4 MP stroke
c9
-9 104 -96 -51 105 -53 3587 704 4 MP stroke
c10
132 -56 -24 89 -108 -33 3284 573 4 MP stroke
c11
36 -109 73 70 -109 39 3928 947 4 MP stroke
c12
-118 44 27 -100 91 56 3562 801 4 MP stroke
c13
82 63 -102 49 20 -112 3850 879 4 MP stroke
0.25 sg
-130 32 43 -92 87 60 3783 707 4 MP stroke
c8
-102 47 24 -115 78 68 3850 879 4 MP stroke
c9
51 82 -151 -37 100 -45 3871 1382 4 MP stroke
c10
101 -45 48 84 -149 -39 3362 1598 4 MP stroke
c11
107 -38 -36 109 -71 -71 3999 1018 4 MP stroke
c12
86 62 -115 41 29 -103 3739 919 4 MP stroke
c13
-35 -57 112 -27 -77 84 4352 1123 4 MP stroke
0.25 sg
59 78 -99 46 40 -124 3919 1255 4 MP stroke
c8
-52 -81 103 -40 -51 121 4123 1171 4 MP stroke
c9
-101 45 -39 -85 140 40 4220 1336 4 MP stroke
c10
135 46 -104 41 -31 -87 3843 1599 4 MP stroke
c11
-29 -89 132 44 -103 45 4154 1463 4 MP stroke
c12
-104 -38 129 -51 -25 89 2753 1480 4 MP stroke
c13
18 -91 106 46 -124 45 3755 1916 4 MP stroke
0.25 sg
-102 46 -30 -90 132 44 3159 1689 4 MP stroke
c8
107 -46 21 90 -128 -44 3971 1643 4 MP stroke
c9
-102 45 -33 -87 135 42 3812 1512 4 MP stroke
c10
-45 117 -59 -78 104 -39 4019 1210 4 MP stroke
c11
106 52 -93 54 -13 -106 3562 2848 4 MP stroke
c12
-127 -47 110 -44 17 91 3396 1687 4 MP stroke
c13
26 -89 104 46 -130 43 4077 2052 4 MP stroke
0.25 sg
-81 67 -22 -115 103 48 3066 2233 4 MP stroke
c8
-62 77 -38 -123 100 46 3355 2251 4 MP stroke
c9
-140 46 36 -86 104 40 3362 2051 4 MP stroke
c10
-52 81 -100 -45 152 -36 4123 2478 4 MP stroke
c11
8 -91 111 45 -119 46 4335 1870 4 MP stroke
c12
-52 82 -101 -45 153 -37 3919 2394 4 MP stroke
c13
-106 43 -21 -90 127 47 3737 1642 4 MP stroke
0.25 sg
38 123 -99 -45 61 -78 3455 2297 4 MP stroke
c8
59 -89 48 51 -107 38 1122 2677 4 MP stroke
c9
115 -74 -2 93 -113 -19 2351 2985 4 MP stroke
c10
-129 -2 77 -79 52 81 1046 2397 4 MP stroke
c11
-160 12 72 -71 88 59 1453 2833 4 MP stroke
c12
-101 45 -48 -83 149 38 1126 2315 4 MP stroke
c13
29 -118 71 72 -100 46 1222 2631 4 MP stroke
0.25 sg
72 -74 71 71 -143 3 1365 2628 4 MP stroke
c8
56 80 -155 -35 99 -45 1331 2433 4 MP stroke
c9
149 -5 -72 74 -77 -69 1442 2697 4 MP stroke
c10
156 34 -100 46 -56 -80 1331 2433 4 MP stroke
c11
23 -115 78 68 -101 47 1566 2535 4 MP stroke
c12
-154 9 72 -72 82 63 1371 2770 4 MP stroke
c13
-104 -40 110 -59 -6 99 1914 2867 4 MP stroke
0.25 sg
91 57 -103 50 12 -107 2012 2490 4 MP stroke
c8
-106 -35 111 -63 -5 98 2023 2809 4 MP stroke
c9
-83 80 -31 -94 114 14 2353 2801 4 MP stroke
c10
12 -113 60 42 -72 71 1351 2882 4 MP stroke
c11
20 -112 82 65 -102 47 1371 2770 4 MP stroke
c12
37 -93 62 40 -99 53 1438 2942 4 MP stroke
c13
-115 -3 100 -88 15 91 2495 3272 4 MP stroke
0.25 sg
16 -110 86 61 -102 49 1747 2553 4 MP stroke
c8
-90 -58 105 -51 -15 109 1628 2712 4 MP stroke
c9
15 -94 73 27 -88 67 1827 3137 4 MP stroke
c10
-100 88 20 -90 80 2 2510 3363 4 MP stroke
c11
78 -73 29 110 -107 -37 2015 3003 4 MP stroke
c12
-29 -91 115 3 -86 88 2581 3093 4 MP stroke
c13
116 -69 -5 94 -111 -25 2153 3229 4 MP stroke
0.25 sg
-114 -15 115 -77 -1 92 2267 3157 4 MP stroke
c8
-115 -3 115 -88 0 91 2495 3181 4 MP stroke
c9
30 -89 79 10 -109 79 2380 3263 4 MP stroke
c10
-50 -96 80 7 -30 89 2380 3263 4 MP stroke
c11
-105 -84 80 -6 25 90 2726 3272 4 MP stroke
c12
116 6 -116 85 0 -91 2582 3003 4 MP stroke
c13
116 -85 -1 91 -115 -6 2582 2821 4 MP stroke
0.25 sg
-113 -21 115 -73 -2 94 2324 2608 4 MP stroke
c8
-28 -89 115 -2 -87 91 2669 2730 4 MP stroke
c9
2 -94 111 27 -113 67 2324 2608 4 MP stroke
c10
-30 -91 115 6 -85 85 2552 2730 4 MP stroke
c11
115 -2 0 91 -115 -89 2697 2910 4 MP stroke
c12
-116 9 88 -98 28 89 2669 2730 4 MP stroke
c13
-104 -38 110 -61 -6 99 2029 2710 4 MP stroke
0.25 sg
-3 94 -111 -23 114 -71 2239 2872 4 MP stroke
c8
-75 72 -29 -110 104 38 2029 2710 4 MP stroke
c9
-80 76 -31 -99 111 23 2242 2778 4 MP stroke
c10
-4 96 -109 -30 113 -66 2129 2844 4 MP stroke
c11
1 -92 113 19 -114 73 2352 2893 4 MP stroke
c12
73 70 -144 3 71 -73 1667 2488 4 MP stroke
c13
-157 -35 100 -46 57 81 1882 2094 4 MP stroke
0.25 sg
-14 108 -91 -57 105 -51 1907 2541 4 MP stroke
c8
74 70 -145 3 71 -73 1940 2321 4 MP stroke
c9
-72 71 -22 -125 94 54 2024 2383 4 MP stroke
c10
66 -76 33 121 -99 -45 3113 2044 4 MP stroke
c11
-107 -33 112 -64 -5 97 2219 2481 4 MP stroke
c12
-112 64 2 -94 110 30 2214 2578 4 MP stroke
c13
107 -51 -22 118 -85 -67 2496 1982 4 MP stroke
0.25 sg
-31 -99 112 23 -81 76 2407 2438 4 MP stroke
c8
-31 -93 115 11 -84 82 2522 2455 4 MP stroke
c9
0 -91 116 9 -116 82 2552 2639 4 MP stroke
c10
-127 -3 78 -80 49 83 1755 2091 4 MP stroke
c11
-101 47 16 -111 85 64 2011 2248 4 MP stroke
c12
102 -48 -27 118 -75 -70 2214 2153 4 MP stroke
c13
-100 46 28 -119 72 73 1939 2175 4 MP stroke
0.25 sg
107 -46 12 91 -119 -45 2154 1870 4 MP stroke
c8
141 41 -103 46 -38 -87 1654 2137 4 MP stroke
c9
-46 -83 147 38 -101 45 1428 2180 4 MP stroke
c10
-71 -72 143 -3 -72 75 1294 2556 4 MP stroke
c11
46 83 -126 -2 80 -81 1474 2263 4 MP stroke
c12
-38 123 -61 -78 99 -45 1667 2342 4 MP stroke
c13
9 104 -109 -56 100 -48 2200 1387 4 MP stroke
0.25 sg
108 -91 7 90 -115 1 1806 1824 4 MP stroke
c8
-23 -89 129 44 -106 45 1133 2007 4 MP stroke
c9
-38 86 -84 -83 122 -3 963 1422 4 MP stroke
c10
135 42 -104 46 -31 -88 1187 2184 4 MP stroke
c11
20 90 -125 -44 105 -46 1261 2051 4 MP stroke
c12
119 45 -114 45 -5 -90 1351 1915 4 MP stroke
c13
114 -45 0 91 -114 -46 1116 1825 4 MP stroke
0.25 sg
-129 -44 104 -45 25 89 803 2096 4 MP stroke
c8
33 88 -135 -42 102 -46 1085 2230 4 MP stroke
c9
-147 -38 99 -45 48 83 1227 2270 4 MP stroke
c10
94 -55 34 57 -128 -2 946 2442 4 MP stroke
c11
29 -118 71 72 -100 46 1394 2510 4 MP stroke
c12
38 86 -122 -3 84 -83 1001 2313 4 MP stroke
c13
82 -82 30 59 -112 23 900 2358 4 MP stroke
0.25 sg
87 -60 42 53 -129 7 1057 2602 4 MP stroke
c8
42 -113 45 53 -87 60 1057 2602 4 MP stroke
c9
36 57 -146 -26 110 -31 888 2554 4 MP stroke
c10
125 2 -84 83 -41 -85 1126 2315 4 MP stroke
c11
-33 -88 125 12 -92 76 828 2185 4 MP stroke
c12
-46 -84 128 2 -82 82 900 2358 4 MP stroke
c13
89 -85 31 87 -120 -2 1052 2142 4 MP stroke
0.25 sg
18 61 -131 -46 113 -15 715 2200 4 MP stroke
c8
-114 -64 115 0 -1 64 657 1761 4 MP stroke
c9
-18 -90 121 20 -103 70 785 2006 4 MP stroke
c10
1 63 -115 0 114 -63 657 1888 4 MP stroke
c11
112 46 -120 45 8 -91 886 1779 4 MP stroke
c12
115 45 -115 46 0 -91 886 1870 4 MP stroke
c13
-118 -46 110 -46 8 92 1002 1870 4 MP stroke
0.25 sg
0 -91 116 45 -116 46 1232 1779 4 MP stroke
c8
95 88 -120 2 25 -90 1027 1597 4 MP stroke
c9
-116 -80 115 -12 1 92 2350 572 4 MP stroke
c10
108 -46 13 91 -121 -45 1698 1915 4 MP stroke
c11
-123 45 13 -91 110 46 1010 1687 4 MP stroke
c12
-139 41 36 -86 103 45 1289 1510 4 MP stroke
c13
-110 90 -5 -91 115 1 1351 1915 4 MP stroke
0.25 sg
106 45 -129 44 23 -89 1133 1642 4 MP stroke
c8
103 49 -88 60 -15 -109 1628 937 4 MP stroke
c9
24 115 -102 -47 78 -68 1293 947 4 MP stroke
c10
140 -36 -28 59 -112 -23 900 1291 4 MP stroke
c11
-113 -15 131 -46 -18 61 715 1449 4 MP stroke
c12
-101 -45 140 -40 -39 85 900 1291 4 MP stroke
c13
39 -85 101 49 -140 36 900 1291 4 MP stroke
0.25 sg
-109 -45 120 -45 -11 90 785 1643 4 MP stroke
c8
-112 -46 116 -46 -4 92 1120 1733 4 MP stroke
c9
100 46 -156 34 56 -80 1275 1296 4 MP stroke
c10
-10 -103 105 52 -95 51 1813 828 4 MP stroke
c11
29 118 -100 -46 71 -72 1394 1139 4 MP stroke
c12
-99 46 -7 -101 106 55 1625 600 4 MP stroke
c13
-71 -73 149 5 -78 68 1371 879 4 MP stroke
0.25 sg
160 12 -88 59 -72 -71 1907 1108 4 MP stroke
c8
130 17 -50 49 -80 -66 1193 900 4 MP stroke
c9
-42 -113 87 60 -45 53 1015 934 4 MP stroke
c10
94 60 -67 34 -27 -94 1625 600 4 MP stroke
c11
-24 -115 100 47 -76 68 1269 832 4 MP stroke
c12
18 111 -103 -49 85 -62 1543 999 4 MP stroke
c13
-29 -118 100 46 -71 72 1465 1067 4 MP stroke
0.25 sg
-82 65 -20 -112 102 47 1269 832 4 MP stroke
c8
-72 -71 160 12 -88 59 1541 757 4 MP stroke
c9
21 -124 72 71 -93 53 1634 704 4 MP stroke
c10
102 48 -85 62 -17 -110 1645 1047 4 MP stroke
c11
92 -55 13 107 -105 -52 1823 931 4 MP stroke
c12
10 103 -108 -54 98 -49 1823 931 4 MP stroke
c13
79 -67 23 115 -102 -48 1645 1047 4 MP stroke
0.25 sg
100 45 -156 35 56 -80 1474 1386 4 MP stroke
c8
-90 58 -13 -107 103 49 1628 937 4 MP stroke
c9
109 -28 4 97 -113 -69 2524 1468 4 MP stroke
c10
-71 -71 151 6 -80 65 1747 1096 4 MP stroke
c11
156 -35 -56 80 -100 -45 1530 1306 4 MP stroke
c12
-86 61 -16 -110 102 49 1645 1047 4 MP stroke
c13
106 54 -99 49 -7 -103 1813 828 4 MP stroke
0.25 sg
22 -123 72 71 -94 52 1929 985 4 MP stroke
c8
-12 -106 104 51 -92 55 1823 931 4 MP stroke
c9
-12 -107 103 50 -91 57 2012 1159 4 MP stroke
c10
-113 19 -1 -92 114 73 2238 683 4 MP stroke
c11
112 64 -109 31 -3 -95 2045 540 4 MP stroke
c12
106 -36 15 94 -121 -58 1933 476 4 MP stroke
c13
12 106 -106 -54 94 -52 1835 1037 4 MP stroke
0.25 sg
-112 -67 110 -28 2 95 2127 710 4 MP stroke
c8
-7 -100 108 54 -101 46 1914 782 4 MP stroke
c9
116 69 -77 17 -39 -86 2153 420 4 MP stroke
c10
116 80 -115 11 -1 -91 2466 652 4 MP stroke
c11
113 -20 -39 101 -74 -81 2266 400 4 MP stroke
c12
3 97 -113 -67 110 -30 2214 1071 4 MP stroke
c13
-115 -14 115 -77 0 91 2813 566 4 MP stroke
0.25 sg
29 -91 86 88 -115 3 2610 465 4 MP stroke
c8
115 -6 1 91 -116 -85 2582 828 4 MP stroke
c9
29 -110 75 72 -104 38 1937 573 4 MP stroke
c10
29 -110 75 72 -104 38 2133 901 4 MP stroke
c11
-112 23 31 -99 81 76 2326 1135 4 MP stroke
c12
-84 -62 112 -39 -28 101 3431 1066 4 MP stroke
c13
10 -104 98 49 -108 55 3219 1055 4 MP stroke
0.25 sg
115 -89 0 91 -115 -2 2697 739 4 MP stroke
c8
112 -23 3 95 -115 -72 2523 1376 4 MP stroke
c9
57 -80 100 45 -157 35 2039 1520 4 MP stroke
c10
22 -115 81 67 -103 48 3169 1368 4 MP stroke
c11
108 -35 4 98 -112 -63 2408 1304 4 MP stroke
c12
-117 -87 117 -4 0 91 2523 1285 4 MP stroke
c13
151 5 -79 66 -72 -71 2389 1616 4 MP stroke
0.25 sg
12 107 -106 -53 94 -54 2024 1266 4 MP stroke
c8
-56 80 -99 -45 155 -35 1275 1296 4 MP stroke
c9
8 102 -109 -58 101 -44 2118 1212 4 MP stroke
c10
108 57 -102 42 -6 -99 2029 939 4 MP stroke
c11
-28 -119 100 46 -72 73 2011 1401 4 MP stroke
c12
-84 -82 115 -17 -31 99 2438 1112 4 MP stroke
c13
80 81 -131 1 51 -82 1554 1467 4 MP stroke
0.25 sg
13 -91 111 46 -124 45 1590 1688 4 MP stroke
c8
51 -82 100 45 -151 37 1705 1430 4 MP stroke
c9
117 -46 -8 92 -109 -46 1923 1778 4 MP stroke
c10
-42 87 -100 -45 142 -42 1840 1642 4 MP stroke
c11
-110 -48 110 -47 0 95 2271 1777 4 MP stroke
c12
85 -64 71 73 -156 -9 2096 1337 4 MP stroke
c13
117 -93 0 91 -117 2 2271 1777 4 MP stroke
0.25 sg
0 -91 115 72 -115 19 2523 1285 4 MP stroke
c8
-6 -101 106 53 -100 48 2300 1339 4 MP stroke
c9
87 85 -115 5 28 -90 2611 1553 4 MP stroke
c10
1 -91 116 87 -117 4 2640 1372 4 MP stroke
c11
-37 113 -68 -74 105 -39 2909 1689 4 MP stroke
c12
114 17 -116 77 2 -94 2753 1480 4 MP stroke
c13
-2 98 -104 -47 106 -51 2726 1667 4 MP stroke
0.25 sg
19 -112 84 62 -103 50 3300 1216 4 MP stroke
c8
140 -43 -31 90 -109 -47 2950 1872 4 MP stroke
c9
66 -76 34 122 -100 -46 3213 2090 4 MP stroke
c10
-114 40 37 -113 77 73 2832 1616 4 MP stroke
c11
-35 122 -64 -77 99 -45 3213 1559 4 MP stroke
c12
61 78 -99 45 38 -123 3516 1430 4 MP stroke
c13
27 -117 74 70 -101 47 3382 1281 4 MP stroke
0.25 sg
6 -99 104 39 -110 60 3117 1011 4 MP stroke
c8
-1 93 -112 -27 113 -66 2755 1386 4 MP stroke
c9
79 69 -112 40 33 -109 3248 1437 4 MP stroke
c10
82 65 -103 49 21 -114 3382 1281 4 MP stroke
c11
-13 106 -91 -56 104 -50 3549 907 4 MP stroke
c12
121 -45 -24 94 -97 -49 3340 1010 4 MP stroke
c13
-114 71 2 -94 112 23 2783 1112 4 MP stroke
0.25 sg
111 -62 -2 94 -109 -32 2864 1418 4 MP stroke
c8
-112 -23 138 -66 -26 89 2783 1112 4 MP stroke
c9
35 -122 66 76 -101 46 3248 1437 4 MP stroke
c10
28 -102 90 60 -118 42 3197 1266 4 MP stroke
c11
-138 66 25 -89 113 23 2757 1201 4 MP stroke
c12
114 -71 -1 92 -113 -21 2897 1041 4 MP stroke
c13
114 -19 -31 99 -83 -80 2436 928 4 MP stroke
0.25 sg
24 -94 102 44 -126 50 3243 961 4 MP stroke
c8
5 -97 107 33 -112 64 3007 1071 4 MP stroke
c9
113 18 -115 75 2 -93 2924 858 4 MP stroke
c10
25 -89 88 107 -113 -18 2924 858 4 MP stroke
c11
115 9 -105 84 -10 -93 2841 386 4 MP stroke
c12
61 -90 20 90 -81 0 2671 284 4 MP stroke
c13
-55 -93 116 3 -61 90 2671 284 4 MP stroke
0.25 sg
85 85 -115 6 30 -91 2552 919 4 MP stroke
c8
-2 94 -110 -29 112 -65 3037 790 4 MP stroke
c9
115 2 -116 89 1 -91 2697 648 4 MP stroke
c10
-78 78 -33 -103 111 25 3068 420 4 MP stroke
c11
-43 84 -76 -21 119 -63 3179 445 4 MP stroke
c12
-85 71 -21 -107 106 36 3288 476 4 MP stroke
c13
-91 64 -8 -110 99 46 3497 554 4 MP stroke
0.25 sg
108 33 -112 64 4 -97 3284 573 4 MP stroke
c8
26 -88 88 103 -114 -15 2954 492 4 MP stroke
c9
-111 62 5 -98 106 36 3149 725 4 MP stroke
c10
100 46 -125 48 25 -94 3465 749 4 MP stroke
c11
-7 101 -100 -46 107 -55 3358 804 4 MP stroke
c12
-106 52 13 -106 93 54 3456 853 4 MP stroke
c13
-28 118 -71 -73 99 -45 3455 1352 4 MP stroke
0.25 sg
103 -45 36 86 -139 -41 3605 1599 4 MP stroke
c8
-102 49 20 -113 82 64 3534 1016 4 MP stroke
c9
32 -120 68 74 -100 46 3792 1103 4 MP stroke
c10
-32 106 -77 -67 109 -39 3483 1234 4 MP stroke
c11
-32 121 -67 -75 99 -46 3860 1177 4 MP stroke
c12
-25 94 -97 -49 122 -45 3465 749 4 MP stroke
c13
-103 50 15 -109 88 59 3680 757 4 MP stroke
0.25 sg
-7 101 -99 -46 106 -55 3490 655 4 MP stroke
c8
-106 55 9 -104 97 49 3490 655 4 MP stroke
c9
-128 42 32 -93 96 51 3596 600 4 MP stroke
c10
-87 -60 102 -49 -15 109 3783 707 4 MP stroke
c11
-97 56 6 -112 91 56 3692 651 4 MP stroke
c12
100 -45 -41 124 -59 -79 4223 1126 4 MP stroke
c13
-106 42 35 -114 71 72 4028 900 4 MP stroke
0.25 sg
-127 -6 88 -79 39 85 4321 1291 4 MP stroke
c8
-130 12 65 -87 65 75 4099 972 4 MP stroke
c9
-127 -51 109 -39 18 90 4418 1553 4 MP stroke
c10
-65 -75 105 -38 -40 113 3999 1018 4 MP stroke
c11
32 -121 68 74 -100 47 3892 1056 4 MP stroke
c12
-129 3 77 -84 52 81 4223 1126 4 MP stroke
c13
-144 -31 98 -53 46 84 4275 1207 4 MP stroke
0.25 sg
128 46 -106 43 -22 -89 4311 1598 4 MP stroke
c8
135 46 -104 41 -31 -87 4289 1509 4 MP stroke
c9
98 -74 25 89 -123 -15 4516 1479 4 MP stroke
c10
107 -44 21 90 -128 -46 4311 1598 4 MP stroke
c11
-16 -62 114 -12 -98 74 4516 1479 4 MP stroke
c12
114 -46 5 92 -119 -46 4335 1779 4 MP stroke
c13
-53 121 -51 -81 104 -40 3667 1467 4 MP stroke
0.25 sg
-104 39 51 -121 53 82 4019 1210 4 MP stroke
c8
41 86 -145 -45 104 -41 3708 1553 4 MP stroke
c9
31 87 -135 -42 104 -45 3843 1599 4 MP stroke
c10
106 -43 29 89 -135 -46 4289 1509 4 MP stroke
c11
146 39 -101 45 -45 -84 4117 1376 4 MP stroke
c12
21 90 -129 -44 108 -46 3523 1734 4 MP stroke
c13
112 46 -117 45 5 -91 3986 1916 4 MP stroke
0.25 sg
124 -45 -13 91 -111 -46 3755 1916 4 MP stroke
c8
-104 45 -24 -89 128 44 3843 1599 4 MP stroke
c9
-127 -47 109 -44 18 91 3737 1642 4 MP stroke
c10
-15 90 -109 -45 124 -45 3971 2006 4 MP stroke
c11
109 -46 18 91 -127 -45 4204 1642 4 MP stroke
c12
106 -45 26 89 -132 -44 4183 1552 4 MP stroke
c13
-8 -91 119 46 -111 45 4327 1688 4 MP stroke
0.25 sg
112 -46 10 90 -122 -44 3986 1733 4 MP stroke
c8
-114 12 -13 -63 127 51 4418 1553 4 MP stroke
c9
118 -60 -4 91 -114 -31 4565 1856 4 MP stroke
c10
32 119 -100 -45 68 -74 3692 2500 4 MP stroke
c11
7 -63 108 66 -115 -3 4562 1919 4 MP stroke
c12
107 44 -123 46 16 -90 4311 2051 4 MP stroke
c13
144 -31 -46 84 -98 -53 4419 2411 4 MP stroke
0.25 sg
120 -45 -8 91 -112 -46 4447 1916 4 MP stroke
c8
-108 -66 119 -24 -11 90 4447 1916 4 MP stroke
c9
-51 82 -53 -121 104 39 3616 2264 4 MP stroke
c10
-99 -45 59 -78 40 123 3820 2349 4 MP stroke
c11
-151 36 51 -82 100 46 3720 2303 4 MP stroke
c12
-44 84 -102 -45 146 -39 3971 2312 4 MP stroke
c13
-136 42 22 -61 114 19 4360 2273 4 MP stroke
0.25 sg
45 -84 103 40 -148 44 4220 2313 4 MP stroke
c8
0 -91 113 45 -113 46 3644 1779 4 MP stroke
c9
145 -45 -41 86 -104 -41 3812 2137 4 MP stroke
c10
5 92 -118 -46 113 -46 3991 1825 4 MP stroke
c11
124 45 -106 46 -18 -91 4095 1688 4 MP stroke
c12
-109 -44 127 -47 -18 91 3755 1916 4 MP stroke
c13
-143 40 43 -85 100 45 3771 2222 4 MP stroke
0.25 sg
-15 90 -112 -45 127 -45 3056 1915 4 MP stroke
c8
112 -46 15 91 -127 -45 3183 1779 4 MP stroke
c9
113 -46 6 92 -119 -46 3874 1779 4 MP stroke
c10
-113 -45 121 -45 -8 90 3531 1825 4 MP stroke
c11
135 -46 -29 89 -106 -43 3843 2050 4 MP stroke
c12
-100 -45 151 -37 -51 82 3567 2137 4 MP stroke
c13
3 -98 104 47 -107 51 2496 1982 4 MP stroke
0.25 sg
89 -100 28 89 -117 11 2757 2448 4 MP stroke
c8
-31 -91 131 46 -100 45 2810 1734 4 MP stroke
c9
117 -11 0 91 -117 -80 2757 2448 4 MP stroke
c10
-49 83 -101 -46 150 -37 3417 2174 4 MP stroke
c11
108 46 -121 45 13 -91 3631 1961 4 MP stroke
c12
113 66 -109 32 -4 -98 2868 2329 4 MP stroke
c13
0 -91 115 19 -115 72 2523 2273 4 MP stroke
0.25 sg
12 107 -103 -50 91 -57 3209 2490 4 MP stroke
c8
105 52 -89 58 -16 -110 2962 2183 4 MP stroke
c9
19 113 -100 -46 81 -67 3066 2233 4 MP stroke
c10
122 -45 -10 91 -112 -46 3413 1871 4 MP stroke
c11
35 122 -99 -45 64 -77 3248 2212 4 MP stroke
c12
-64 77 -43 -116 107 39 3248 2212 4 MP stroke
c13
-26 -98 121 45 -95 53 3314 2541 4 MP stroke
0.25 sg
38 112 -106 -39 68 -73 3592 2454 4 MP stroke
c8
41 -85 104 40 -145 45 3812 2137 4 MP stroke
c9
-21 90 -108 -46 129 -44 3502 2005 4 MP stroke
c10
116 91 -115 0 -1 -91 2669 2639 4 MP stroke
c11
106 -36 4 97 -110 -61 3255 2888 4 MP stroke
c12
-24 -94 126 50 -102 44 3219 2594 4 MP stroke
c13
115 75 -114 17 -1 -92 2927 2976 4 MP stroke
0.25 sg
-105 -51 95 -53 10 104 3209 2490 4 MP stroke
c8
-107 -55 100 -45 7 100 3243 2688 4 MP stroke
c9
-110 27 -3 -95 113 68 2924 2791 4 MP stroke
c10
-118 -42 94 -54 24 96 3079 2341 4 MP stroke
c11
25 89 -132 -56 107 -33 2895 2514 4 MP stroke
c12
5 97 -109 -58 104 -39 3007 2578 4 MP stroke
c13
-1 -92 116 81 -115 11 2783 2537 4 MP stroke
0.25 sg
8 102 -106 -53 98 -49 3111 2539 4 MP stroke
c8
-116 -82 115 -9 1 91 2697 3001 4 MP stroke
c9
-115 -82 115 -9 0 91 2726 3181 4 MP stroke
c10
1 91 -115 -77 114 -14 2841 3263 4 MP stroke
c11
-113 -68 111 -25 2 93 3066 3136 4 MP stroke
c12
-114 9 -1 -91 115 82 2726 3181 4 MP stroke
c13
-45 98 -34 -87 79 -11 2910 3347 4 MP stroke
0.25 sg
113 74 -113 20 0 -94 3068 3323 4 MP stroke
c8
3 95 -111 -63 108 -32 3037 2859 4 MP stroke
c9
-106 -53 98 -49 8 102 3350 2743 4 MP stroke
c10
-4 -97 112 64 -108 33 3284 3076 4 MP stroke
c11
105 -40 5 98 -110 -58 3365 2946 4 MP stroke
c12
78 -68 31 107 -109 -39 3928 2702 4 MP stroke
c13
-104 38 -6 -99 110 61 3284 3076 4 MP stroke
0.25 sg
65 -75 35 121 -100 -46 4164 2602 4 MP stroke
c8
77 -67 32 106 -109 -39 3592 2454 4 MP stroke
c9
-10 -104 107 55 -97 49 3340 2639 4 MP stroke
c10
-98 49 -9 -104 107 55 3358 2845 4 MP stroke
c11
72 -28 52 81 -124 -53 3518 3190 4 MP stroke
c12
28 101 -112 -39 84 -62 3431 2583 4 MP stroke
c13
-100 -46 60 -77 40 123 3720 2303 4 MP stroke
0.25 sg
-89 59 -28 -101 117 42 3314 2541 4 MP stroke
c8
-84 62 -19 -112 103 50 3431 2583 4 MP stroke
c9
-100 -46 76 -69 24 115 3592 2454 4 MP stroke
c10
-104 -51 93 -54 11 105 3445 2691 4 MP stroke
c11
-82 64 -20 -113 102 49 3534 2633 4 MP stroke
c12
7 101 -106 -55 99 -46 3497 3095 4 MP stroke
c13
20 113 -102 -47 82 -66 3636 2682 4 MP stroke
0.25 sg
-36 -109 109 39 -73 70 3892 2593 4 MP stroke
c8
-103 -40 52 -81 51 121 4072 2357 4 MP stroke
c9
97 -52 9 104 -106 -52 3562 2848 4 MP stroke
c10
-29 -103 115 41 -86 62 3739 2730 4 MP stroke
c11
21 -107 85 71 -106 36 3394 3137 4 MP stroke
c12
69 -33 -8 110 -61 -77 3657 3126 4 MP stroke
c13
-82 63 -20 -112 102 49 3768 2833 4 MP stroke
0.25 sg
100 46 -59 78 -41 -124 4164 2602 4 MP stroke
c8
45 117 -104 -39 59 -78 4064 2556 4 MP stroke
c9
-130 27 72 -71 58 44 1221 2909 4 MP stroke
c10
64 -75 64 38 -128 37 1529 2998 4 MP stroke
c11
94 -60 2 111 -96 -51 1625 3049 4 MP stroke
c12
-99 -46 126 -48 -27 94 1625 3049 4 MP stroke
c13
-94 60 27 -94 67 34 1531 3109 4 MP stroke
0.25 sg
9 -104 96 51 -105 53 1634 2945 4 MP stroke
c8
15 -109 87 60 -102 49 1453 2833 4 MP stroke
c9
24 -115 76 68 -100 47 1293 2702 4 MP stroke
c10
-103 46 48 -92 55 46 1166 2863 4 MP stroke
c11
-82 -63 102 -49 -20 112 1371 2770 4 MP stroke
c12
-82 -65 130 -27 -48 92 1269 2817 4 MP stroke
c13
12 -106 91 56 -103 50 1541 2892 4 MP stroke
0.25 sg
-87 -60 99 -53 -12 113 1351 2882 4 MP stroke
c8
-76 -68 103 -46 -27 114 1193 2749 4 MP stroke
c9
-110 31 70 -86 40 55 888 2554 4 MP stroke
c10
-65 -75 107 -38 -42 113 1057 2602 4 MP stroke
c11
50 49 -130 17 80 -66 1113 2815 4 MP stroke
c12
65 75 -137 0 72 -75 1222 2631 4 MP stroke
c13
100 -46 -41 124 -59 -78 1157 2556 4 MP stroke
0.25 sg
-52 -81 146 26 -94 55 946 2442 4 MP stroke
c8
100 -46 -35 121 -65 -75 1222 2631 4 MP stroke
c9
-59 -79 129 -7 -70 86 998 2523 4 MP stroke
c10
65 75 -100 46 35 -121 1122 2677 4 MP stroke
c11
56 80 -156 -34 100 -46 1231 2479 4 MP stroke
c12
100 -46 -29 118 -71 -72 1465 2582 4 MP stroke
c13
155 35 -99 45 -56 -80 1430 2388 4 MP stroke
0.25 sg
77 69 -100 46 23 -115 1442 2697 4 MP stroke
c8
-23 115 -79 -67 102 -48 1543 2650 4 MP stroke
c9
-59 89 -71 -72 130 -17 1063 2766 4 MP stroke
c10
-80 66 27 -114 53 48 1113 2815 4 MP stroke
c11
71 -73 78 68 -149 5 1442 2697 4 MP stroke
c12
-71 -71 100 -47 -29 118 1222 2631 4 MP stroke
c13
154 -9 -71 73 -83 -64 1525 2761 4 MP stroke
0.25 sg
83 64 -101 47 18 -111 1525 2761 4 MP stroke
c8
-21 -124 93 53 -72 71 1613 2821 4 MP stroke
c9
-88 -59 103 -50 -15 109 1453 2833 4 MP stroke
c10
11 -105 94 54 -105 51 1718 2770 4 MP stroke
c11
-88 -60 160 -12 -72 72 1525 2761 4 MP stroke
c12
-23 115 -78 -68 101 -47 1442 2697 4 MP stroke
c13
-92 -55 105 -52 -13 107 1731 2663 4 MP stroke
0.25 sg
22 -114 79 67 -101 47 1667 2488 4 MP stroke
c8
-72 -71 101 -47 -29 118 1494 2464 4 MP stroke
c9
-18 111 -85 -62 103 -49 1525 2761 4 MP stroke
c10
-103 49 15 -109 88 60 1525 2761 4 MP stroke
c11
85 62 -102 48 17 -110 1628 2712 4 MP stroke
c12
-104 51 12 -106 92 55 1731 2663 4 MP stroke
c13
71 -71 80 65 -151 6 1818 2482 4 MP stroke
0.25 sg
-73 -70 101 -47 -28 117 1594 2418 4 MP stroke
c8
-16 110 -88 -59 104 -51 1731 2663 4 MP stroke
c9
-156 9 72 -71 84 62 1940 2321 4 MP stroke
c10
-17 110 -86 -61 103 -49 1628 2712 4 MP stroke
c11
-103 49 13 -107 90 58 1628 2712 4 MP stroke
c12
-105 52 10 -103 95 51 1718 2770 4 MP stroke
c13
-99 -49 75 -70 24 119 1707 2875 4 MP stroke
0.25 sg
106 -54 -12 106 -94 -52 1929 2664 4 MP stroke
c8
-10 104 -98 -49 108 -55 2002 2594 4 MP stroke
c9
-94 -54 73 -70 21 124 1613 2821 4 MP stroke
c10
-15 -109 71 29 -56 80 1724 3095 4 MP stroke
c11
-106 54 7 -103 99 49 1707 2875 4 MP stroke
c12
-75 70 -27 -114 102 44 1731 2994 4 MP stroke
c13
-106 55 7 -101 99 46 1625 3049 4 MP stroke
0.25 sg
-110 61 4 -97 106 36 1827 3137 4 MP stroke
c8
-97 -49 106 -55 -9 104 1634 2945 4 MP stroke
c9
-2 -111 66 36 -64 75 1529 2998 4 MP stroke
c10
-24 -119 97 49 -73 70 1707 2875 4 MP stroke
c11
-93 -53 105 -53 -12 106 1541 2892 4 MP stroke
c12
-102 -44 109 -57 -7 101 1731 2994 4 MP stroke
c13
-126 48 56 -80 70 32 1598 3143 4 MP stroke
0.25 sg
-103 -42 88 -67 15 109 1724 3095 4 MP stroke
c8
-28 -105 75 22 -47 83 1933 3173 4 MP stroke
c9
5 -94 76 20 -81 74 2042 3204 4 MP stroke
c10
-109 57 6 -99 103 42 1724 3095 4 MP stroke
c11
-121 58 47 -83 74 25 1812 3231 4 MP stroke
c12
79 -75 30 106 -109 -31 2124 3034 4 MP stroke
c13
1 -92 113 20 -114 72 2267 3157 4 MP stroke
0.25 sg
-5 -93 79 12 -74 81 2266 3249 4 MP stroke
c8
81 -74 28 105 -109 -31 2042 3204 4 MP stroke
c9
-106 -36 121 -58 -15 94 1827 3137 4 MP stroke
c10
112 -64 -4 97 -108 -33 2045 3109 4 MP stroke
c11
-104 -38 110 -61 -6 99 1833 3038 4 MP stroke
c12
112 -64 -3 96 -109 -32 2127 2939 4 MP stroke
c13
102 42 -108 57 6 -99 1908 2966 4 MP stroke
0.25 sg
2 -93 112 25 -114 68 2238 2966 4 MP stroke
c8
-30 -106 108 33 -78 73 2015 3003 4 MP stroke
c9
110 27 -79 75 -31 -102 2155 3136 4 MP stroke
c10
109 32 -111 63 2 -95 2127 2939 4 MP stroke
c11
-31 -98 112 21 -81 77 2236 3059 4 MP stroke
c12
39 -86 77 17 -116 69 2153 3229 4 MP stroke
c13
-110 -27 113 -68 -3 95 2045 3109 4 MP stroke
0.25 sg
3 -95 109 31 -112 64 2045 3109 4 MP stroke
c8
-113 68 2 -93 111 25 2042 3204 4 MP stroke
c9
-39 86 -39 -101 78 15 2114 3315 4 MP stroke
c10
1 -91 114 14 -115 77 2381 3172 4 MP stroke
c11
-113 -20 74 -81 39 101 2153 3229 4 MP stroke
c12
-115 -9 65 -87 50 96 2380 3263 4 MP stroke
c13
-65 87 -15 -91 80 4 2430 3359 4 MP stroke
0.25 sg
0 -91 115 9 -115 82 2495 3181 4 MP stroke
c8
-114 -14 109 -79 5 93 2266 3249 4 MP stroke
c9
86 -88 30 93 -116 -5 2581 3093 4 MP stroke
c10
-114 -9 115 -82 -1 91 2381 3172 4 MP stroke
c11
-30 -93 114 9 -84 84 2465 3088 4 MP stroke
c12
83 -80 31 98 -114 -18 2350 3077 4 MP stroke
c13
1 -90 116 5 -117 85 2582 3003 4 MP stroke
0.25 sg
-115 -11 84 -84 31 95 2350 3077 4 MP stroke
c8
1 -91 114 13 -115 78 2467 2815 4 MP stroke
c9
-116 80 1 -91 115 11 2350 3077 4 MP stroke
c10
1 -92 114 18 -115 74 2351 2985 4 MP stroke
c11
-112 -25 81 -77 31 102 2124 3034 4 MP stroke
c12
-31 -95 114 15 -83 80 2350 3077 4 MP stroke
c13
-112 -21 114 -72 -2 93 2155 3136 4 MP stroke
0.25 sg
116 -80 -1 92 -115 -12 2466 2997 4 MP stroke
c8
-116 85 0 -91 116 6 2466 2906 4 MP stroke
c9
29 110 -107 -37 78 -73 2133 2748 4 MP stroke
c10
-78 73 -31 -103 109 30 2133 2748 4 MP stroke
c11
-113 66 3 -94 110 28 2129 2844 4 MP stroke
c12
-110 -28 112 -67 -2 95 2129 2844 4 MP stroke
c13
-1 94 -113 -21 114 -73 2238 2966 4 MP stroke
0.25 sg
-115 79 0 -91 115 12 2351 2985 4 MP stroke
c8
-115 73 1 -92 114 19 2322 2702 4 MP stroke
c9
-114 -19 83 -80 31 99 2322 2702 4 MP stroke
c10
-1 92 -114 -13 115 -79 2351 2985 4 MP stroke
c11
0 91 -116 -6 116 -85 2466 2997 4 MP stroke
c12
116 -9 0 91 -116 -82 2785 2721 4 MP stroke
c13
-116 -9 85 -85 31 94 2436 2721 4 MP stroke
0.25 sg
1 -91 115 17 -116 74 2523 2364 4 MP stroke
c8
-112 -23 114 -71 -2 94 2326 2514 4 MP stroke
c9
-116 -91 117 0 -1 91 2553 2548 4 MP stroke
c10
-115 -10 116 -82 -1 92 2437 2629 4 MP stroke
c11
-28 -89 115 0 -87 89 2640 2459 4 MP stroke
c12
-115 -11 116 -81 -1 92 2438 2537 4 MP stroke
c13
-30 -106 107 33 -77 73 2296 2408 4 MP stroke
0.25 sg
-110 60 3 -97 107 37 2104 2638 4 MP stroke
c8
-28 -115 101 44 -73 71 2191 2366 4 MP stroke
c9
8 -102 98 49 -106 53 2118 2437 4 MP stroke
c10
1 -92 113 21 -114 71 2438 2537 4 MP stroke
c11
-110 -30 113 -67 -3 97 2214 2578 4 MP stroke
c12
-103 49 14 -108 89 59 1818 2482 4 MP stroke
c13
-109 58 5 -97 104 39 2110 2539 4 MP stroke
0.25 sg
-27 -116 100 46 -73 70 2002 2594 4 MP stroke
c8
7 -100 101 46 -108 54 1921 2767 4 MP stroke
c9
-105 51 10 -104 95 53 1907 2541 4 MP stroke
c10
-6 99 -104 -39 110 -60 2104 2638 4 MP stroke
c11
109 31 -112 64 3 -95 2124 3034 4 MP stroke
c12
106 35 -110 61 4 -96 2129 2844 4 MP stroke
c13
-100 -46 108 -57 -8 103 1929 2664 4 MP stroke
0.25 sg
-102 -42 109 -58 -7 100 1921 2767 4 MP stroke
c8
114 -68 -3 95 -111 -27 2238 2966 4 MP stroke
c9
111 27 -112 67 1 -94 2238 2966 4 MP stroke
c10
3 -96 107 37 -110 59 2018 2907 4 MP stroke
c11
-102 -42 75 -72 27 114 1806 2924 4 MP stroke
c12
5 -98 104 40 -109 58 2023 2809 4 MP stroke
c13
-101 -46 108 -57 -7 103 1813 2821 4 MP stroke
0.25 sg
6 -99 102 42 -108 57 2029 2710 4 MP stroke
c8
-98 -49 108 -54 -10 103 1823 2718 4 MP stroke
c9
-71 71 -89 -59 160 -12 1747 2553 4 MP stroke
c10
-72 71 -22 -123 94 52 1835 2612 4 MP stroke
c11
98 49 -106 54 8 -103 1921 2767 4 MP stroke
c12
27 116 -102 -44 75 -72 2029 2710 4 MP stroke
c13
6 -99 102 44 -108 55 2110 2539 4 MP stroke
0.25 sg
-95 -53 73 -70 22 123 1907 2541 4 MP stroke
c8
151 -6 -71 73 -80 -67 1818 2482 4 MP stroke
c9
-21 114 -82 -65 103 -49 1818 2482 4 MP stroke
c10
71 73 -99 45 28 -118 1738 2415 4 MP stroke
c11
62 77 -135 -1 73 -76 1866 2251 4 MP stroke
c12
-49 -83 150 37 -101 46 1755 2091 4 MP stroke
c13
-62 -77 100 -46 -38 123 1804 2174 4 MP stroke
0.25 sg
-100 45 -51 -82 151 37 1554 2182 4 MP stroke
c8
-151 -37 100 -45 51 82 1554 2182 4 MP stroke
c9
51 82 -150 -37 99 -45 1705 2219 4 MP stroke
c10
-99 45 38 -123 61 78 1705 2219 4 MP stroke
c11
-27 117 -74 -70 101 -47 1839 2368 4 MP stroke
c12
145 -3 -73 76 -72 -73 2011 2248 4 MP stroke
c13
-100 46 27 -117 73 71 1766 2297 4 MP stroke
0.25 sg
-19 112 -84 -62 103 -50 1921 2433 4 MP stroke
c8
-28 119 -73 -72 101 -47 2011 2248 4 MP stroke
c9
-104 50 9 -104 95 54 2096 2312 4 MP stroke
c10
80 67 -101 47 21 -114 1818 2482 4 MP stroke
c11
82 65 -101 47 19 -112 1921 2433 4 MP stroke
c12
77 -73 28 115 -105 -42 2296 2408 4 MP stroke
c13
-94 -54 106 -53 -12 107 2024 2383 4 MP stroke
0.25 sg
109 -56 -9 104 -100 -48 2300 2310 4 MP stroke
c8
-95 -54 73 -71 22 125 2096 2312 4 MP stroke
c9
-16 111 -88 -61 104 -50 2096 2312 4 MP stroke
c10
-109 56 4 -98 105 42 2191 2366 4 MP stroke
c11
112 -63 -4 98 -108 -35 2408 2345 4 MP stroke
c12
-3 95 -112 -23 115 -72 2408 2345 4 MP stroke
c13
-112 63 1 -93 111 30 2296 2408 4 MP stroke
0.25 sg
-111 -30 81 -76 30 106 2296 2408 4 MP stroke
c8
31 99 -115 -17 84 -82 2438 2537 4 MP stroke
c9
31 93 -118 -4 87 -89 2553 2548 4 MP stroke
c10
89 -106 29 90 -118 16 2728 2080 4 MP stroke
c11
-115 -19 116 -74 -1 93 2408 2345 4 MP stroke
c12
117 -87 0 91 -117 -4 2640 2277 4 MP stroke
c13
-151 5 72 -71 79 66 2238 2038 4 MP stroke
0.25 sg
113 -69 -4 97 -109 -28 2524 2181 4 MP stroke
c8
106 -53 -14 109 -92 -56 2306 2209 4 MP stroke
c9
112 23 -113 69 1 -92 2523 2273 4 MP stroke
c10
77 73 -99 45 22 -118 2389 2033 4 MP stroke
c11
117 4 -116 87 -1 -91 2640 2277 4 MP stroke
c12
78 -73 26 120 -104 -47 2493 2080 4 MP stroke
c13
88 61 -102 48 14 -109 2200 2262 4 MP stroke
0.25 sg
57 80 -156 -35 99 -45 2139 2083 4 MP stroke
c8
100 48 -106 53 6 -101 2300 2310 4 MP stroke
c9
105 41 -109 56 4 -97 2411 2250 4 MP stroke
c10
92 56 -103 49 11 -105 2306 2209 4 MP stroke
c11
98 49 -72 71 -26 -120 2415 2153 4 MP stroke
c12
157 34 -100 46 -57 -80 2139 2083 4 MP stroke
c13
109 -46 8 93 -117 -47 1923 1871 4 MP stroke
0.25 sg
73 72 -100 46 27 -118 2112 2201 4 MP stroke
c8
-24 115 -79 -66 103 -49 2214 2153 4 MP stroke
c9
-117 -2 88 -86 29 88 2154 1870 4 MP stroke
c10
-99 45 24 -115 75 70 2139 2083 4 MP stroke
c11
109 28 -78 73 -31 -101 2524 2181 4 MP stroke
c12
-100 45 0 -91 100 46 2511 1779 4 MP stroke
c13
86 -85 31 101 -117 -16 2610 2096 4 MP stroke
0.25 sg
109 -48 31 91 -140 -43 2950 1777 4 MP stroke
c8
-130 -45 100 -45 30 90 2381 1825 4 MP stroke
c9
-118 74 1 -90 117 16 2493 2080 4 MP stroke
c10
102 48 -88 61 -14 -109 2214 1496 4 MP stroke
c11
-100 45 15 -112 85 67 2411 1915 4 MP stroke
c12
-110 47 -30 -90 140 43 2271 1872 4 MP stroke
c13
-77 -73 151 -5 -74 78 2312 1960 4 MP stroke
0.25 sg
-100 -45 130 -46 -30 91 2411 1734 4 MP stroke
c8
118 -74 -3 98 -115 -24 2611 2006 4 MP stroke
c9
136 42 -107 46 -29 -88 2183 1958 4 MP stroke
c10
30 -91 110 48 -140 43 2411 1734 4 MP stroke
c11
156 35 -101 45 -55 -80 2238 2038 4 MP stroke
c12
55 80 -129 -2 74 -78 2238 2038 4 MP stroke
c13
-140 -43 99 -45 41 88 2271 1872 4 MP stroke
0.25 sg
-41 -88 129 2 -88 86 2271 1872 4 MP stroke
c8
20 91 -124 -45 104 -46 1943 1962 4 MP stroke
c9
-129 45 20 -91 109 46 1814 1732 4 MP stroke
c10
124 45 -112 46 -12 -91 2047 1916 4 MP stroke
c11
-117 93 0 -95 117 2 2154 1870 4 MP stroke
c12
-109 46 -20 -91 129 45 1814 1917 4 MP stroke
c13
35 87 -136 -42 101 -45 2082 2003 4 MP stroke
0.25 sg
-26 -90 121 2 -95 88 1814 1917 4 MP stroke
c8
-78 80 -57 -81 135 1 1804 2174 4 MP stroke
c9
26 90 -129 -45 103 -45 1840 2007 4 MP stroke
c10
39 87 -139 -41 100 -46 1982 2049 4 MP stroke
c11
-103 45 -39 -87 142 42 1840 2007 4 MP stroke
c12
-100 45 -57 -80 157 35 1882 2094 4 MP stroke
c13
-36 -86 139 41 -103 45 1719 2005 4 MP stroke
0.25 sg
-132 -43 103 -46 29 89 1484 2007 4 MP stroke
c8
-42 -87 127 3 -85 84 1840 2007 4 MP stroke
c9
-139 -41 101 -46 38 87 1616 2050 4 MP stroke
c10
100 -45 42 87 -142 -42 1982 2049 4 MP stroke
c11
95 -88 21 90 -116 -2 1814 1917 4 MP stroke
c12
8 -92 108 90 -116 2 1814 1732 4 MP stroke
c13
114 -45 0 91 -114 -46 1346 1825 4 MP stroke
0.25 sg
-8 -93 116 2 -108 91 1806 1824 4 MP stroke
c8
-7 -90 121 45 -114 45 1691 1825 4 MP stroke
c9
85 -84 36 86 -121 -2 1840 2007 4 MP stroke
c10
-21 -90 129 44 -108 46 1698 1915 4 MP stroke
c11
124 45 -111 46 -13 -91 1590 1961 4 MP stroke
c12
110 91 -115 1 5 -92 1461 1825 4 MP stroke
c13
18 91 -124 -45 106 -46 1484 2007 4 MP stroke
0.25 sg
115 -1 -15 90 -100 -89 1466 1733 4 MP stroke
c8
111 -46 5 91 -116 -45 1577 1870 4 MP stroke
c9
119 -45 -9 91 -110 -46 1351 1734 4 MP stroke
c10
9 91 -119 -45 110 -46 1241 1961 4 MP stroke
c11
15 90 -115 -1 100 -89 1366 2005 4 MP stroke
c12
5 90 -115 0 110 -90 1351 1915 4 MP stroke
c13
-108 -90 115 -1 -7 91 1698 1734 4 MP stroke
0.25 sg
-116 -45 112 -46 4 91 1116 1825 4 MP stroke
c8
-100 89 -18 -91 118 2 1366 2005 4 MP stroke
c9
-108 46 -20 -90 128 44 1133 2007 4 MP stroke
c10
-36 -86 139 41 -103 45 1392 2094 4 MP stroke
c11
-110 46 -15 -90 125 44 1241 1961 4 MP stroke
c12
-141 -41 100 -45 41 86 1513 2096 4 MP stroke
c13
-105 46 -26 -89 131 43 1261 2051 4 MP stroke
0.25 sg
102 -45 31 88 -133 -43 1289 2139 4 MP stroke
c8
-92 87 -29 -89 121 2 1392 2094 4 MP stroke
c9
-121 -2 85 -84 36 86 1392 2094 4 MP stroke
c10
132 43 -106 46 -26 -89 1616 2050 4 MP stroke
c11
26 89 -129 -44 103 -45 1616 2050 4 MP stroke
c12
-41 -86 126 2 -85 84 1513 2096 4 MP stroke
c13
133 43 -105 45 -28 -88 1289 2139 4 MP stroke
0.25 sg
56 80 -156 -35 100 -45 1430 2388 4 MP stroke
c8
131 1 -80 81 -51 -82 1605 2264 4 MP stroke
c9
56 80 -131 -1 75 -79 1530 2343 4 MP stroke
c10
62 78 -100 45 38 -123 1667 2342 4 MP stroke
c11
100 -46 -37 123 -63 -77 1394 2510 4 MP stroke
c12
-36 122 -64 -76 100 -46 1394 2510 4 MP stroke
c13
63 77 -99 45 36 -122 1394 2510 4 MP stroke
0.25 sg
-36 121 -64 -75 100 -46 1494 2464 4 MP stroke
c8
73 -76 64 75 -137 1 1667 2342 4 MP stroke
c9
-56 -80 156 35 -100 45 1474 2263 4 MP stroke
c10
-133 -1 74 -77 59 78 1098 2478 4 MP stroke
c11
-100 46 37 -123 63 77 1231 2479 4 MP stroke
c12
101 -45 38 86 -139 -41 1428 2180 4 MP stroke
c13
-142 -40 101 -45 41 85 1085 2230 4 MP stroke
0.25 sg
-77 79 -56 -80 133 1 1098 2478 4 MP stroke
c8
-74 77 -63 -77 137 0 1157 2556 4 MP stroke
c9
142 40 -102 46 -40 -86 1227 2270 4 MP stroke
c10
-147 -38 100 -45 47 83 1327 2225 4 MP stroke
c11
40 86 -140 -41 100 -45 1227 2270 4 MP stroke
c12
103 -45 28 88 -131 -43 1392 2094 4 MP stroke
c13
-102 45 -38 -86 140 41 1187 2184 4 MP stroke
0.25 sg
-100 45 -47 -83 147 38 1227 2270 4 MP stroke
c8
135 42 -104 45 -31 -87 963 2227 4 MP stroke
c9
-128 -44 105 -45 23 89 1133 2007 4 MP stroke
c10
39 85 -140 -40 101 -45 900 2358 4 MP stroke
c11
122 3 -89 85 -33 -88 1085 2230 4 MP stroke
c12
-102 46 -38 -86 140 40 861 2273 4 MP stroke
c13
-80 82 -49 -84 129 2 1046 2397 4 MP stroke
0.25 sg
-101 45 -45 -84 146 39 900 2358 4 MP stroke
c8
-152 -36 100 -45 52 81 946 2442 4 MP stroke
c9
-100 45 -52 -81 152 36 946 2442 4 MP stroke
c10
-100 45 41 -124 59 79 998 2523 4 MP stroke
c11
45 84 -125 -2 80 -82 1046 2397 4 MP stroke
c12
49 84 -149 -38 100 -46 1175 2399 4 MP stroke
c13
92 -76 21 61 -113 15 828 2185 4 MP stroke
0.25 sg
-125 -12 101 -49 24 61 736 2261 4 MP stroke
c8
100 -45 46 84 -146 -39 1046 2397 4 MP stroke
c9
-39 -85 140 36 -101 49 861 2273 4 MP stroke
c10
15 63 -121 -20 106 -43 697 2139 4 MP stroke
c11
-108 91 -8 -92 116 1 894 1961 4 MP stroke
c12
102 -46 33 88 -135 -42 963 2227 4 MP stroke
c13
-25 -89 131 46 -106 43 803 2096 4 MP stroke
0.25 sg
-11 -90 123 55 -112 35 774 1916 4 MP stroke
c8
129 44 -107 45 -22 -89 932 2140 4 MP stroke
c9
112 -35 5 63 -117 -28 774 1916 4 MP stroke
c10
18 90 -125 -45 107 -45 803 2096 4 MP stroke
c11
-95 88 -25 -90 120 2 932 2140 4 MP stroke
c12
-116 0 108 -91 8 91 886 1870 4 MP stroke
c13
-129 -44 104 -46 25 90 1027 2052 4 MP stroke
0.25 sg
-100 89 -17 -90 117 1 910 2051 4 MP stroke
c8
-117 -1 95 -88 22 89 910 2051 4 MP stroke
c9
-9 -91 121 45 -112 46 1232 1870 4 MP stroke
c10
-123 -45 106 -45 17 90 1010 1962 4 MP stroke
c11
3 91 -115 -45 112 -46 774 1916 4 MP stroke
c12
-116 -1 100 -89 16 90 894 1961 4 MP stroke
c13
-112 46 -8 -91 120 45 774 1916 4 MP stroke
0.25 sg
-109 45 -16 -90 125 45 785 2006 4 MP stroke
c8
123 45 -110 46 -13 -91 1133 2007 4 MP stroke
c9
13 91 -121 -45 108 -46 1133 2007 4 MP stroke
c10
-123 -55 115 -8 8 63 662 1951 4 MP stroke
c11
109 -45 11 90 -120 -45 894 1961 4 MP stroke
c12
-3 -91 117 28 -114 63 771 1825 4 MP stroke
c13
-112 -35 117 -28 -5 63 662 1698 4 MP stroke
0.25 sg
114 64 -117 28 3 -92 771 1825 4 MP stroke
c8
-3 92 -112 -46 115 -46 771 1825 4 MP stroke
c9
11 -90 112 35 -123 55 785 1643 4 MP stroke
c10
123 -55 -8 63 -115 -8 785 1643 4 MP stroke
c11
16 -90 109 45 -125 45 910 1598 4 MP stroke
c12
-103 -70 115 8 -12 62 682 1573 4 MP stroke
c13
100 89 -117 1 17 -90 1010 1687 4 MP stroke
0.25 sg
120 -2 -31 87 -89 -85 1052 1507 4 MP stroke
c8
-16 90 -100 -89 116 -1 894 1688 4 MP stroke
c9
-92 -87 118 -2 -26 89 1392 1555 4 MP stroke
c10
-8 91 -108 -91 116 0 886 1779 4 MP stroke
c11
-116 0 116 -91 0 91 886 1779 4 MP stroke
c12
108 91 -116 1 8 -92 1002 1779 4 MP stroke
c13
-118 46 4 -92 114 46 1002 1779 4 MP stroke
0.25 sg
114 46 -119 45 5 -91 1346 1825 4 MP stroke
c8
-110 -46 118 -46 -8 92 1010 1687 4 MP stroke
c9
-105 -46 125 -44 -20 90 1261 1598 4 MP stroke
c10
-121 45 9 -91 112 46 1120 1733 4 MP stroke
c11
115 0 -5 91 -110 -91 1461 1825 4 MP stroke
c12
15 -90 110 46 -125 44 1366 1644 4 MP stroke
c13
116 45 -116 46 0 -91 1577 1870 4 MP stroke
0.25 sg
-121 45 7 -91 114 46 1577 1779 4 MP stroke
c8
-5 92 -111 -46 116 -46 1461 1825 4 MP stroke
c9
0 91 -114 -46 114 -45 1577 1870 4 MP stroke
c10
139 -41 -38 87 -101 -46 1755 1558 4 MP stroke
c11
-106 -46 124 -45 -18 91 1484 1642 4 MP stroke
c12
-95 -88 116 -2 -21 90 1719 1644 4 MP stroke
c13
-108 -46 121 -45 -13 91 1590 1688 4 MP stroke
0.25 sg
100 89 -118 2 18 -91 1466 1733 4 MP stroke
c8
-129 44 21 -90 108 46 1590 1688 4 MP stroke
c9
106 46 -132 43 26 -89 1590 1688 4 MP stroke
c10
150 -37 -51 82 -99 -45 1804 1475 4 MP stroke
c11
42 -87 85 84 -127 3 1882 1555 4 MP stroke
c12
-103 -45 129 -44 -26 89 1616 1599 4 MP stroke
c13
-17 90 -106 -45 123 -45 1010 1687 4 MP stroke
0.25 sg
-13 91 -108 -46 121 -45 1120 1733 4 MP stroke
c8
-133 43 28 -88 105 45 1156 1553 4 MP stroke
c9
-128 44 20 -90 108 46 1133 1642 4 MP stroke
c10
105 46 -131 43 26 -89 1366 1644 4 MP stroke
c11
-29 89 -103 -46 132 -43 1484 1642 4 MP stroke
c12
-100 -45 140 -41 -40 86 1227 1379 4 MP stroke
c13
38 -86 102 45 -140 41 1327 1424 4 MP stroke
0.25 sg
121 -2 -36 86 -85 -84 1513 1553 4 MP stroke
c8
49 -83 101 46 -150 37 1804 1475 4 MP stroke
c9
92 87 -121 2 29 -89 1484 1642 4 MP stroke
c10
74 -70 27 117 -101 -47 1940 1328 4 MP stroke
c11
85 84 -126 2 41 -86 1513 1553 4 MP stroke
c12
-141 41 38 -87 103 46 1513 1553 4 MP stroke
c13
-41 86 -100 -45 141 -41 1513 1553 4 MP stroke
0.25 sg
-139 41 36 -86 103 45 1616 1599 4 MP stroke
c8
-21 -114 101 47 -80 67 1818 1167 4 MP stroke
c9
100 46 -72 71 -28 -117 1594 1231 4 MP stroke
c10
62 -78 75 79 -137 -1 1667 1307 4 MP stroke
c11
137 1 -64 75 -73 -76 1667 1307 4 MP stroke
c12
-56 80 -75 -79 131 -1 1474 1386 4 MP stroke
c13
-51 82 -100 -45 151 -37 1554 1467 4 MP stroke
0.25 sg
100 45 -62 78 -38 -123 1705 1430 4 MP stroke
c8
73 -70 28 117 -101 -47 1667 1161 4 MP stroke
c9
135 -42 -33 88 -102 -46 1187 1465 4 MP stroke
c10
-38 86 -101 -45 139 -41 1289 1510 4 MP stroke
c11
-149 38 48 -83 101 45 1126 1334 4 MP stroke
c12
-147 38 46 -83 101 45 1327 1424 4 MP stroke
c13
-47 83 -100 -45 147 -38 1327 1424 4 MP stroke
0.25 sg
-46 83 -80 -81 126 -2 1428 1469 4 MP stroke
c8
104 46 -135 42 31 -88 1156 1553 4 MP stroke
c9
-155 35 56 -80 99 45 1275 1296 4 MP stroke
c10
-129 2 49 -84 80 82 1046 1252 4 MP stroke
c11
-125 2 41 -85 84 83 1001 1336 4 MP stroke
c12
47 -83 100 45 -147 38 1374 1341 4 MP stroke
c13
-101 -45 142 -40 -41 85 1126 1334 4 MP stroke
0.25 sg
-33 88 -102 -46 135 -42 828 1464 4 MP stroke
c8
89 85 -122 3 33 -88 1052 1507 4 MP stroke
c9
-25 90 -104 -46 129 -44 1027 1597 4 MP stroke
c10
-23 89 -105 -45 128 -44 1133 1642 4 MP stroke
c11
133 -43 -31 88 -102 -45 1289 1510 4 MP stroke
c12
40 -86 102 46 -142 40 1227 1379 4 MP stroke
c13
129 -44 -25 89 -104 -45 932 1509 4 MP stroke
0.25 sg
25 -89 106 43 -131 46 828 1464 4 MP stroke
c8
107 45 -129 44 22 -89 910 1598 4 MP stroke
c9
33 -88 92 76 -125 12 861 1376 4 MP stroke
c10
117 -1 -22 89 -95 -88 1027 1597 4 MP stroke
c11
31 -87 104 45 -135 42 963 1422 4 MP stroke
c12
-92 -76 113 15 -21 61 736 1388 4 MP stroke
c13
-101 -49 125 -12 -24 61 760 1327 4 MP stroke
0.25 sg
-94 -55 128 -2 -34 57 852 1152 4 MP stroke
c8
146 -39 -46 84 -100 -45 1046 1252 4 MP stroke
c9
-82 -82 112 23 -30 59 818 1209 4 MP stroke
c10
-100 -45 152 -36 -52 81 998 1126 4 MP stroke
c11
-128 2 46 -84 82 82 818 1209 4 MP stroke
c12
125 -2 -45 84 -80 -82 1126 1334 4 MP stroke
c13
77 79 -133 1 56 -80 1175 1250 4 MP stroke
0.25 sg
-49 84 -100 -46 149 -38 1126 1334 4 MP stroke
c8
-48 83 -99 -45 147 -38 1227 1379 4 MP stroke
c9
100 45 -152 36 52 -81 1046 1252 4 MP stroke
c10
133 -1 -59 78 -74 -77 1231 1170 4 MP stroke
c11
63 -77 74 77 -137 0 1294 1093 4 MP stroke
c12
65 -75 42 113 -107 -38 1122 972 4 MP stroke
c13
100 46 -63 77 -37 -123 1331 1216 4 MP stroke
0.25 sg
100 46 -77 69 -23 -115 1465 1067 4 MP stroke
c8
52 -81 94 55 -146 26 998 1126 4 MP stroke
c9
-70 -86 110 31 -40 55 928 1040 4 MP stroke
c10
-36 57 -110 -31 146 -26 852 1152 4 MP stroke
c11
41 124 -100 -46 59 -78 1098 1171 4 MP stroke
c12
100 45 -59 79 -41 -124 1098 1171 4 MP stroke
c13
59 89 -130 -17 71 -72 1122 972 4 MP stroke
0.25 sg
100 46 -65 75 -35 -121 1157 1093 4 MP stroke
c8
-65 75 -72 -75 137 0 1157 1093 4 MP stroke
c9
-59 -89 107 38 -48 51 1063 883 4 MP stroke
c10
80 66 -53 48 -27 -114 1193 900 4 MP stroke
c11
82 -65 48 92 -130 -27 1351 767 4 MP stroke
c12
87 -60 12 113 -99 -53 1438 707 4 MP stroke
c13
-48 -92 103 46 -55 46 1221 740 4 MP stroke
0.25 sg
130 27 -58 44 -72 -71 1351 767 4 MP stroke
c8
100 46 -71 72 -29 -118 1222 1018 4 MP stroke
c9
76 -68 27 114 -103 -46 1269 832 4 MP stroke
c10
35 121 -100 -46 65 -75 1157 1093 4 MP stroke
c11
72 74 -149 -5 77 -69 1365 1021 4 MP stroke
c12
29 118 -100 -47 71 -71 1222 1018 4 MP stroke
c13
-143 -3 71 -72 72 75 1222 1018 4 MP stroke
0.25 sg
-37 -93 99 53 -62 40 1401 614 4 MP stroke
c8
72 72 -160 -12 88 -60 1525 888 4 MP stroke
c9
-12 -113 72 71 -60 42 1339 654 4 MP stroke
c10
15 109 -103 -50 88 -59 1453 816 4 MP stroke
c11
91 -56 37 93 -128 -37 1529 651 4 MP stroke
c12
-64 -75 128 37 -64 38 1465 576 4 MP stroke
c13
2 -111 64 75 -66 36 1531 540 4 MP stroke
0.25 sg
96 -51 -2 111 -94 -60 1625 600 4 MP stroke
c8
102 -44 7 101 -109 -57 1833 611 4 MP stroke
c9
103 -42 -15 109 -88 -67 1827 512 4 MP stroke
c10
-15 -94 88 67 -73 27 1812 418 4 MP stroke
c11
-91 56 -12 -106 103 50 1438 707 4 MP stroke
c12
-15 -109 102 49 -87 60 1438 707 4 MP stroke
c13
105 53 -96 51 -9 -104 1634 704 4 MP stroke
0.25 sg
99 -46 27 94 -126 -48 1724 554 4 MP stroke
c8
-106 -55 97 -49 9 104 1625 600 4 MP stroke
c9
-105 -53 93 -53 12 106 1529 651 4 MP stroke
c10
-105 -51 90 -58 15 109 1613 828 4 MP stroke
c11
-18 -111 101 47 -83 64 1525 888 4 MP stroke
c12
101 47 -79 67 -22 -114 1667 1161 4 MP stroke
c13
86 -61 17 110 -103 -49 1731 986 4 MP stroke
0.25 sg
-97 49 24 -119 73 70 1634 704 4 MP stroke
c8
-73 -70 94 -54 -21 124 1634 704 4 MP stroke
c9
-71 71 -72 -74 143 3 1222 1018 4 MP stroke
c10
-71 72 -29 -118 100 46 1294 1093 4 MP stroke
c11
20 112 -102 -49 82 -63 1371 879 4 MP stroke
c12
-82 63 -72 -72 154 9 1371 879 4 MP stroke
c13
23 115 -101 -47 78 -68 1465 1067 4 MP stroke
0.25 sg
-78 68 -23 -115 101 47 1465 1067 4 MP stroke
c8
-56 80 -100 -46 156 -34 1175 1250 4 MP stroke
c9
29 118 -101 -47 72 -71 1494 1185 4 MP stroke
c10
37 123 -100 -46 63 -77 1331 1216 4 MP stroke
c11
-63 77 -36 -122 99 45 1331 1216 4 MP stroke
c12
36 122 -100 -46 64 -76 1430 1261 4 MP stroke
c13
-64 76 -36 -121 100 45 1430 1261 4 MP stroke
0.25 sg
36 121 -100 -46 64 -75 1530 1306 4 MP stroke
c8
71 73 -151 -6 80 -67 1738 1234 4 MP stroke
c9
73 76 -144 -3 71 -73 1667 1307 4 MP stroke
c10
71 71 -160 -12 89 -59 1818 1167 4 MP stroke
c11
-73 70 -71 -73 144 3 1594 1231 4 MP stroke
c12
-99 -45 61 -78 38 123 1667 1307 4 MP stroke
c13
11 105 -106 -54 95 -51 1718 879 4 MP stroke
0.25 sg
-104 40 -5 -98 109 58 1914 782 4 MP stroke
c8
102 -44 -27 116 -75 -72 2104 1011 4 MP stroke
c9
-8 -103 106 54 -98 49 1921 882 4 MP stroke
c10
-4 -96 110 61 -106 35 2129 805 4 MP stroke
c11
-108 -57 100 -46 8 103 1921 882 4 MP stroke
c12
73 70 -100 46 27 -116 2002 1055 4 MP stroke
c13
-31 103 -80 -76 111 -27 2211 974 4 MP stroke
0.25 sg
113 66 -110 28 -3 -94 2242 871 4 MP stroke
c8
-110 -61 104 -38 6 99 2023 840 4 MP stroke
c9
106 -35 5 98 -111 -63 2129 805 4 MP stroke
c10
102 -42 -27 114 -75 -72 1908 683 4 MP stroke
c11
112 -25 -31 102 -81 -77 2236 590 4 MP stroke
c12
108 -33 4 97 -112 -64 2045 540 4 MP stroke
c13
80 76 -111 23 31 -99 2322 947 4 MP stroke
0.25 sg
-2 -95 111 63 -109 32 2127 710 4 MP stroke
c8
101 -46 7 103 -108 -57 1914 782 4 MP stroke
c9
-75 -70 99 -49 -24 119 1731 655 4 MP stroke
c10
107 -37 -29 110 -78 -73 2015 646 4 MP stroke
c11
27 -114 75 70 -102 44 1833 611 4 MP stroke
c12
-110 -59 104 -40 6 99 1908 683 4 MP stroke
c13
-6 -99 108 57 -102 42 1908 683 4 MP stroke
0.25 sg
110 61 -106 36 -4 -97 1937 573 4 MP stroke
c8
-6 -99 109 57 -103 42 1827 512 4 MP stroke
c9
6 99 -110 -61 104 -38 1833 611 4 MP stroke
c10
109 -31 -28 105 -81 -74 2042 445 4 MP stroke
c11
110 59 -107 37 -3 -96 2018 742 4 MP stroke
c12
78 73 -108 33 30 -106 2015 646 4 MP stroke
c13
-47 -83 121 58 -74 25 1886 393 4 MP stroke
0.25 sg
28 -105 47 83 -75 22 1961 371 4 MP stroke
c8
-5 -94 81 74 -76 20 2037 351 4 MP stroke
c9
111 -25 5 94 -116 -69 2153 420 4 MP stroke
c10
39 -101 39 86 -78 15 2192 319 4 MP stroke
c11
3 95 -113 -68 110 -27 2045 540 4 MP stroke
c12
-5 93 -109 -79 114 -14 2266 400 4 MP stroke
c13
109 -32 3 96 -112 -64 2127 710 4 MP stroke
0.25 sg
-115 -74 113 -19 2 93 2236 590 4 MP stroke
c8
112 64 -109 31 -3 -95 2127 710 4 MP stroke
c9
113 68 -111 25 -2 -93 2155 513 4 MP stroke
c10
-30 106 -79 -75 109 -31 2015 646 4 MP stroke
c11
3 95 -114 -68 111 -27 2127 710 4 MP stroke
c12
79 75 -110 27 31 -102 2124 615 4 MP stroke
c13
112 -21 2 93 -114 -72 2267 492 4 MP stroke
0.25 sg
114 72 -113 20 -1 -92 2267 492 4 MP stroke
c8
-114 9 30 -93 84 84 2381 477 4 MP stroke
c9
-65 -87 115 -9 -50 96 2430 290 4 MP stroke
c10
-115 -77 114 -15 1 92 2266 400 4 MP stroke
c11
5 -93 74 81 -79 12 2271 307 4 MP stroke
c12
-30 -89 109 79 -79 10 2350 297 4 MP stroke
c13
50 -96 30 89 -80 7 2430 290 4 MP stroke
0.25 sg
15 -91 65 87 -80 4 2510 286 4 MP stroke
c8
-100 -88 115 -3 -15 91 2510 286 4 MP stroke
c9
-115 -82 114 -9 1 91 2380 386 4 MP stroke
c10
-114 14 -1 -91 115 77 2266 400 4 MP stroke
c11
-83 -80 114 -18 -31 98 2267 492 4 MP stroke
c12
-31 95 -84 -84 115 -11 2350 572 4 MP stroke
c13
1 91 -117 -85 116 -6 2466 652 4 MP stroke
0.25 sg
-115 9 0 -91 115 82 2380 386 4 MP stroke
c8
-30 93 -86 -88 116 -5 2465 561 4 MP stroke
c9
-115 -79 114 -13 1 92 2351 664 4 MP stroke
c10
109 -30 4 96 -113 -66 2242 871 4 MP stroke
c11
-115 -78 114 -14 1 92 2352 756 4 MP stroke
c12
-1 -92 114 71 -113 21 2352 756 4 MP stroke
c13
-88 -98 116 9 -28 89 2697 830 4 MP stroke
0.25 sg
-1 -91 115 78 -114 13 2466 743 4 MP stroke
c8
-112 21 31 -98 81 77 2155 513 4 MP stroke
c9
-112 25 -2 -93 114 68 2124 615 4 MP stroke
c10
-114 -73 113 -21 1 94 2238 683 4 MP stroke
c11
-1 -94 112 67 -111 27 2238 683 4 MP stroke
c12
-114 15 31 -95 83 80 2267 492 4 MP stroke
c13
-114 18 -1 -92 115 74 2236 590 4 MP stroke
0.25 sg
-29 110 -78 -73 107 -37 2104 1011 4 MP stroke
c8
105 51 -95 53 -10 -104 2012 1159 4 MP stroke
c9
78 73 -109 30 31 -103 2211 974 4 MP stroke
c10
111 -23 3 94 -114 -71 2353 848 4 MP stroke
c11
115 -10 1 92 -116 -82 2552 1010 4 MP stroke
c12
31 -94 83 80 -114 14 2467 834 4 MP stroke
c13
116 81 -115 10 -1 -91 2553 1101 4 MP stroke
0.25 sg
-1 -92 115 73 -114 19 2436 928 4 MP stroke
c8
0 -91 117 91 -117 0 2669 919 4 MP stroke
c9
-85 -85 116 -9 -31 94 2467 834 4 MP stroke
c10
116 -91 1 91 -117 0 2669 1010 4 MP stroke
c11
0 -91 116 82 -116 9 2552 919 4 MP stroke
c12
107 -33 5 97 -112 -64 2326 1135 4 MP stroke
c13
0 -91 117 87 -117 4 2640 1281 4 MP stroke
0.25 sg
-113 -23 114 -69 -1 92 2757 1201 4 MP stroke
c8
115 0 -116 91 1 -91 2668 1101 4 MP stroke
c9
-1 -92 114 71 -113 21 2437 1020 4 MP stroke
c10
1 93 -116 -74 115 -19 2408 1304 4 MP stroke
c11
-111 30 -1 -93 112 63 2296 1241 4 MP stroke
c12
-108 35 -3 -95 111 60 2300 1339 4 MP stroke
c13
-115 11 31 -93 84 82 2438 1112 4 MP stroke
0.25 sg
-115 17 -1 -91 116 74 2407 1211 4 MP stroke
c8
-16 -111 101 47 -85 64 2096 1337 4 MP stroke
c9
136 -42 -35 87 -101 -45 2183 1691 4 MP stroke
c10
30 -106 77 73 -107 33 2326 1135 4 MP stroke
c11
-30 106 -81 -76 111 -30 2296 1241 4 MP stroke
c12
-28 115 -77 -73 105 -42 2191 1283 4 MP stroke
c13
-105 42 -4 -98 109 56 2191 1283 4 MP stroke
0.25 sg
-107 37 -3 -97 110 60 2104 1011 4 MP stroke
c8
-6 -99 108 55 -102 44 2104 1011 4 MP stroke
c9
-115 -73 113 -21 2 94 2322 947 4 MP stroke
c10
-2 -94 113 67 -111 27 2322 947 4 MP stroke
c11
-114 -71 112 -23 2 94 2324 1041 4 MP stroke
c12
-2 -94 112 64 -110 30 2324 1041 4 MP stroke
c13
28 -115 73 71 -101 44 2219 1168 4 MP stroke
0.25 sg
-19 -112 101 47 -82 65 1921 1216 4 MP stroke
c8
-5 -97 109 58 -104 39 2214 1071 4 MP stroke
c9
104 -39 6 99 -110 -60 2214 1071 4 MP stroke
c10
-98 49 -8 -102 106 53 2012 1159 4 MP stroke
c11
-94 54 22 -125 72 71 2024 1266 4 MP stroke
c12
-104 -51 88 -59 16 110 1731 986 4 MP stroke
c13
-102 -49 80 -65 22 114 1645 1047 4 MP stroke
0.25 sg
103 49 -89 59 -14 -108 1921 1216 4 MP stroke
c8
95 -53 -22 123 -73 -70 2002 1055 4 MP stroke
c9
-108 -55 98 -49 10 104 2002 1055 4 MP stroke
c10
-105 -51 91 -57 14 108 1907 1108 4 MP stroke
c11
99 45 -61 78 -38 -123 1804 1475 4 MP stroke
c12
-28 -118 99 45 -71 73 1738 1234 4 MP stroke
c13
-103 -49 82 -65 21 114 1818 1167 4 MP stroke
0.25 sg
-101 -47 73 -71 28 118 1738 1234 4 MP stroke
c8
145 3 -74 70 -71 -73 2011 1401 4 MP stroke
c9
-27 -117 100 46 -73 71 1839 1281 4 MP stroke
c10
73 76 -145 -3 72 -73 1939 1474 4 MP stroke
c11
84 -62 19 112 -103 -50 2024 1266 4 MP stroke
c12
73 -72 28 119 -101 -47 2112 1448 4 MP stroke
c13
104 50 -95 54 -9 -104 2200 1387 4 MP stroke
0.25 sg
-73 -71 95 -54 -22 125 2118 1212 4 MP stroke
c8
-72 -71 156 9 -84 62 2024 1266 4 MP stroke
c9
-157 34 57 -80 100 46 1982 1600 4 MP stroke
c10
129 -45 -26 90 -103 -45 1943 1687 4 MP stroke
c11
-57 80 -100 -46 157 -34 1982 1600 4 MP stroke
c12
88 -61 16 111 -104 -50 2200 1387 4 MP stroke
c13
92 -56 14 109 -106 -53 2306 1440 4 MP stroke
0.25 sg
-27 -118 100 46 -73 72 2112 1448 4 MP stroke
c8
121 -2 -36 86 -85 -84 1840 1642 4 MP stroke
c9
78 80 -135 1 57 -81 1882 1555 4 MP stroke
c10
127 -3 -49 83 -78 -80 1882 1555 4 MP stroke
c11
62 -77 38 123 -100 -46 1866 1398 4 MP stroke
c12
-62 77 -73 -76 135 -1 1804 1475 4 MP stroke
c13
-57 81 -100 -46 157 -35 1882 1555 4 MP stroke
0.25 sg
117 47 -117 46 0 -93 1923 1871 4 MP stroke
c8
26 -90 95 88 -121 2 1840 1642 4 MP stroke
c9
112 -46 0 93 -112 -47 2035 1825 4 MP stroke
c10
104 46 -139 41 35 -87 2047 1733 4 MP stroke
c11
112 47 -124 45 12 -92 2035 1825 4 MP stroke
c12
39 -87 103 45 -142 42 1982 1600 4 MP stroke
c13
-20 91 -104 -46 124 -45 1923 1778 4 MP stroke
0.25 sg
-119 46 0 -91 119 45 2035 1825 4 MP stroke
c8
-136 42 29 -88 107 46 2047 1733 4 MP stroke
c9
-107 -46 119 -46 -12 92 2047 1733 4 MP stroke
c10
41 -88 88 86 -129 2 2312 1689 4 MP stroke
c11
55 -80 101 45 -156 35 2238 1611 4 MP stroke
c12
98 -49 11 105 -109 -56 2415 1496 4 MP stroke
c13
-99 -45 156 -35 -57 80 2139 1566 4 MP stroke
0.25 sg
140 -43 -41 88 -99 -45 2411 1734 4 MP stroke
c8
-88 -86 117 -2 -29 88 2183 1691 4 MP stroke
c9
-3 -98 107 51 -104 47 2493 1569 4 MP stroke
c10
-74 -78 129 -2 -55 80 2238 1611 4 MP stroke
c11
99 45 -75 70 -24 -115 2238 1611 4 MP stroke
c12
-118 -74 115 -24 3 98 2493 1569 4 MP stroke
c13
24 115 -103 -49 79 -66 2238 1611 4 MP stroke
0.25 sg
105 -41 6 101 -111 -60 2411 1399 4 MP stroke
c8
-92 56 -11 -105 103 49 2214 1496 4 MP stroke
c9
-151 -5 77 -73 74 78 2238 1611 4 MP stroke
c10
31 -101 78 73 -109 28 2524 1468 4 MP stroke
c11
-4 -97 109 56 -105 41 2411 1399 4 MP stroke
c12
-87 -85 118 -16 -31 101 2524 1468 4 MP stroke
c13
26 -120 72 71 -98 49 2415 1496 4 MP stroke
0.25 sg
-116 -87 115 -5 1 92 2523 1376 4 MP stroke
c8
-1 -92 113 69 -112 23 2523 1376 4 MP stroke
c9
99 45 -77 73 -22 -118 2411 1734 4 MP stroke
c10
104 -47 -26 120 -78 -73 2493 1569 4 MP stroke
c11
130 45 -130 46 0 -91 2511 1870 4 MP stroke
c12
85 -67 22 118 -107 -51 2496 1667 4 MP stroke
c13
-85 67 -15 -112 100 45 2411 1734 4 MP stroke
0.25 sg
0 91 -100 -46 100 -45 2511 1870 4 MP stroke
c8
0 90 -99 -45 99 -45 2611 1915 4 MP stroke
c9
0 91 -131 -46 131 -45 2710 1870 4 MP stroke
c10
-100 45 0 -90 100 45 2511 1870 4 MP stroke
c11
-77 73 -37 -113 114 40 2832 2033 4 MP stroke
c12
15 112 -115 -67 100 -45 2511 1779 4 MP stroke
c13
-16 112 -84 -67 100 -45 2710 1779 4 MP stroke
0.25 sg
99 45 -115 67 16 -112 2710 1779 4 MP stroke
c8
117 16 -28 90 -89 -106 2728 1569 4 MP stroke
c9
118 74 -118 16 0 -90 2611 1643 4 MP stroke
c10
0 90 -117 -16 117 -74 2611 1643 4 MP stroke
c11
-117 74 2 -98 115 24 2611 1643 4 MP stroke
c12
-115 -24 115 -67 0 91 2611 1643 4 MP stroke
c13
89 106 -114 -17 25 -89 2728 1569 4 MP stroke
0.25 sg
-7 100 -98 -48 105 -52 2857 1518 4 MP stroke
c8
-129 51 25 -98 104 47 2728 1569 4 MP stroke
c9
-106 51 22 -118 84 67 2726 1667 4 MP stroke
c10
0 91 -99 -45 99 -46 2611 1825 4 MP stroke
c11
-99 46 0 -91 99 45 2611 1825 4 MP stroke
c12
100 45 -131 45 31 -90 2810 1915 4 MP stroke
c13
-106 -51 104 -47 2 98 2726 1982 4 MP stroke
0.25 sg
103 -45 42 84 -145 -39 3159 1689 4 MP stroke
c8
-77 -73 99 -45 -22 118 2832 1616 4 MP stroke
c9
-147 -45 106 -43 41 88 2909 1689 4 MP stroke
c10
-41 -88 140 43 -99 45 2909 1689 4 MP stroke
c11
-66 -76 99 -45 -33 121 3047 1529 4 MP stroke
c12
-105 39 -42 -84 147 45 2909 1689 4 MP stroke
c13
-108 -46 132 -44 -24 90 3183 1870 4 MP stroke
0.25 sg
-15 -91 121 48 -106 43 3056 1734 4 MP stroke
c8
-103 45 -24 -90 127 45 3056 1734 4 MP stroke
c9
48 -84 100 46 -148 38 3261 2006 4 MP stroke
c10
112 -47 10 92 -122 -45 3413 1778 4 MP stroke
c11
-132 -44 108 -46 24 90 3159 1689 4 MP stroke
c12
118 -46 0 93 -118 -47 3531 1825 4 MP stroke
c13
-10 -92 118 46 -108 46 3291 1733 4 MP stroke
0.25 sg
-66 -76 100 -46 -34 122 3147 1483 4 MP stroke
c8
-99 45 -46 -84 145 39 3014 1650 4 MP stroke
c9
105 -46 30 90 -135 -44 3396 1687 4 MP stroke
c10
-48 -84 148 38 -100 46 3213 1559 4 MP stroke
c11
104 -40 50 84 -154 -44 3466 1558 4 MP stroke
c12
43 -116 64 77 -107 39 3355 1398 4 MP stroke
c13
101 -47 -16 110 -85 -63 3047 1529 4 MP stroke
0.25 sg
-89 -58 114 -40 -25 98 2857 1518 4 MP stroke
c8
108 -57 -4 98 -104 -41 2972 1361 4 MP stroke
c9
-105 52 16 -110 89 58 2857 1518 4 MP stroke
c10
34 -122 66 76 -100 46 3147 1483 4 MP stroke
c11
100 -46 -19 113 -81 -67 3147 1483 4 MP stroke
c12
7 -101 104 41 -111 60 2979 1260 4 MP stroke
c13
-104 50 19 -113 85 63 2962 1466 4 MP stroke
0.25 sg
-84 -62 112 -40 -28 102 3197 1266 4 MP stroke
c8
-90 -60 103 -48 -13 108 3079 1308 4 MP stroke
c9
101 -47 -19 112 -82 -65 3382 1281 4 MP stroke
c10
124 -48 -23 92 -101 -44 3103 1212 4 MP stroke
c11
-74 -70 107 -39 -33 109 3281 1328 4 MP stroke
c12
-79 -69 101 -46 -22 115 3169 1368 4 MP stroke
c13
-89 -59 103 -49 -14 108 3314 1108 4 MP stroke
0.25 sg
-91 -57 103 -50 -12 107 3209 1159 4 MP stroke
c8
14 -108 91 57 -105 51 3314 1108 4 MP stroke
c9
8 -102 101 44 -109 58 3111 1110 4 MP stroke
c10
26 -98 95 53 -121 45 3340 1010 4 MP stroke
c11
-102 -44 108 -55 -6 99 3117 1011 4 MP stroke
c12
117 -42 -26 98 -91 -56 3431 1066 4 MP stroke
c13
-95 -53 105 -51 -10 104 3219 1055 4 MP stroke
0.25 sg
-25 89 -107 -33 132 -56 2870 1224 4 MP stroke
c8
-124 48 24 -96 100 48 2979 1260 4 MP stroke
c9
113 -67 -2 94 -111 -27 3010 974 4 MP stroke
c10
-110 -30 112 -64 -2 94 2897 1041 4 MP stroke
c11
12 -107 94 54 -106 53 3209 1159 4 MP stroke
c12
106 -53 -8 102 -98 -49 3209 1159 4 MP stroke
c13
-116 81 1 -92 115 11 2668 1101 4 MP stroke
0.25 sg
0 -91 118 87 -118 4 2640 1190 4 MP stroke
c8
23 -92 109 36 -132 56 3002 1168 4 MP stroke
c9
118 -4 -31 93 -87 -89 2640 1190 4 MP stroke
c10
110 -60 -3 97 -107 -37 3117 1011 4 MP stroke
c11
114 19 -26 88 -88 -107 2899 947 4 MP stroke
c12
104 38 -111 62 7 -100 2857 1518 4 MP stroke
c13
-10 105 -94 -55 104 -50 2962 1466 4 MP stroke
0.25 sg
98 48 -108 57 10 -105 2962 1466 4 MP stroke
c8
111 -60 -2 96 -109 -36 2979 1260 4 MP stroke
c9
13 -108 94 55 -107 53 3079 1308 4 MP stroke
c10
107 -53 -7 101 -100 -48 3079 1308 4 MP stroke
c11
1 91 -118 -87 117 -4 2523 1285 4 MP stroke
c12
-116 79 1 -93 115 14 2640 1372 4 MP stroke
c13
-1 91 -115 -14 116 -77 2639 1463 4 MP stroke
0.25 sg
109 32 -113 66 4 -98 2864 1418 4 MP stroke
c8
0 91 -116 -12 116 -79 2640 1372 4 MP stroke
c9
112 27 -114 69 2 -96 2868 1320 4 MP stroke
c10
116 12 -117 80 1 -92 2756 1293 4 MP stroke
c11
117 11 -28 89 -89 -100 2757 1201 4 MP stroke
c12
-115 -10 116 -81 -1 91 2669 1010 4 MP stroke
c13
-115 0 28 -89 87 89 2553 1101 4 MP stroke
0.25 sg
-115 -11 26 -89 89 100 2668 1101 4 MP stroke
c8
-117 -11 117 -80 0 91 2640 1190 4 MP stroke
c9
116 -82 0 91 -116 -9 2785 928 4 MP stroke
c10
-117 -91 117 0 0 91 2552 919 4 MP stroke
c11
115 10 -116 82 1 -92 2784 1020 4 MP stroke
c12
115 2 -115 89 0 -91 2697 830 4 MP stroke
c13
113 21 -115 73 2 -94 2897 1041 4 MP stroke
0.25 sg
26 -88 88 98 -114 -10 2811 840 4 MP stroke
c8
-1 92 -114 -19 115 -73 2784 1020 4 MP stroke
c9
-115 -9 115 -82 0 91 2726 377 4 MP stroke
c10
110 30 -113 67 3 -97 3007 1071 4 MP stroke
c11
-3 95 -108 -32 111 -63 3034 885 4 MP stroke
c12
115 -75 -1 92 -114 -17 2926 765 4 MP stroke
c13
0 -91 116 85 -116 6 2582 646 4 MP stroke
0.25 sg
0 91 -115 -9 115 -82 2697 830 4 MP stroke
c8
-110 -27 135 -62 -25 89 3066 513 4 MP stroke
c9
115 9 -116 82 1 -91 2812 748 4 MP stroke
c10
-115 75 1 -92 114 17 2812 748 4 MP stroke
c11
116 -82 0 91 -116 -9 2813 657 4 MP stroke
c12
-116 -85 116 -6 0 91 2466 652 4 MP stroke
c13
-116 6 0 -91 116 85 2466 743 4 MP stroke
0.25 sg
-30 91 -87 -91 117 0 2552 919 4 MP stroke
c8
87 91 -115 -2 28 -89 2669 919 4 MP stroke
c9
114 10 -115 82 1 -92 2811 840 4 MP stroke
c10
115 2 -115 89 0 -91 2697 739 4 MP stroke
c11
-1 -90 117 85 -116 5 2581 556 4 MP stroke
c12
0 91 -115 -2 115 -89 2582 737 4 MP stroke
c13
87 98 -114 -9 27 -89 2813 566 4 MP stroke
0.25 sg
1 90 -117 -1 116 -89 2582 646 4 MP stroke
c8
-116 82 0 -91 116 9 2697 648 4 MP stroke
c9
0 91 -115 -88 115 -3 2495 468 4 MP stroke
c10
-115 82 1 -91 114 9 2726 468 4 MP stroke
c11
115 9 -28 89 -87 -98 2813 566 4 MP stroke
c12
0 -91 115 88 -115 3 2610 374 4 MP stroke
c13
25 -90 55 93 -80 -3 2751 287 4 MP stroke
0.25 sg
-80 -6 105 -84 -25 90 2751 287 4 MP stroke
c8
-116 -3 116 -88 0 91 2610 374 4 MP stroke
c9
34 -87 45 98 -79 -11 2989 313 4 MP stroke
c10
-116 88 0 -91 116 3 2610 465 4 MP stroke
c11
-116 -3 28 -89 88 92 2610 465 4 MP stroke
c12
-1 91 -115 -9 116 -82 2697 648 4 MP stroke
c13
-115 77 1 -93 114 16 2813 657 4 MP stroke
0.25 sg
114 15 -115 77 1 -92 2954 492 4 MP stroke
c8
69 -84 10 93 -79 -9 2910 302 4 MP stroke
c9
-1 91 -114 -16 115 -75 2812 748 4 MP stroke
c10
-113 69 2 -94 111 25 2926 765 4 MP stroke
c11
-27 89 -88 -103 115 14 2813 566 4 MP stroke
c12
-113 67 3 -96 110 29 3039 696 4 MP stroke
c13
24 -89 111 27 -135 62 3176 540 4 MP stroke
0.25 sg
-113 -22 114 -71 -1 93 2928 580 4 MP stroke
c8
113 22 -138 67 25 -89 3041 602 4 MP stroke
c9
113 20 -113 74 0 -94 3068 420 4 MP stroke
c10
-79 -13 113 -74 -34 87 2989 313 4 MP stroke
c11
-45 -98 114 14 -69 84 2910 302 4 MP stroke
c12
-1 92 -113 -20 114 -72 2954 492 4 MP stroke
c13
33 103 -76 -19 43 -84 3179 445 4 MP stroke
0.25 sg
0 94 -78 -16 78 -78 3068 420 4 MP stroke
c8
-119 63 10 -94 109 31 3179 445 4 MP stroke
c9
24 -90 108 34 -132 56 3284 573 4 MP stroke
c10
-111 -25 113 -68 -2 93 3068 420 4 MP stroke
c11
2 -93 112 21 -114 72 3068 420 4 MP stroke
c12
-109 -31 112 -64 -3 95 3179 445 4 MP stroke
c13
3 -95 110 27 -113 68 3179 445 4 MP stroke
0.25 sg
105 40 -128 52 23 -92 3365 703 4 MP stroke
c8
110 -61 -4 97 -106 -36 3394 512 4 MP stroke
c9
-4 97 -105 -39 109 -58 3141 919 4 MP stroke
c10
-2 94 -111 -27 113 -67 3039 696 4 MP stroke
c11
110 -61 -4 97 -106 -36 3255 761 4 MP stroke
c12
111 -62 -3 96 -108 -34 3260 663 4 MP stroke
c13
-109 58 7 -100 102 42 3141 919 4 MP stroke
0.25 sg
110 -58 -5 98 -105 -40 3365 703 4 MP stroke
c8
111 27 -135 62 24 -89 3010 974 4 MP stroke
c9
110 27 -113 68 3 -95 3034 885 4 MP stroke
c10
-2 93 -111 -25 113 -68 2924 858 4 MP stroke
c11
108 32 -112 65 4 -97 3145 822 4 MP stroke
c12
-114 71 2 -94 112 23 2927 673 4 MP stroke
c13
-112 -23 113 -69 -1 92 2927 673 4 MP stroke
0.25 sg
24 -92 107 37 -131 55 3141 919 4 MP stroke
c8
131 -55 -24 89 -107 -34 3141 919 4 MP stroke
c9
-25 89 -110 -27 135 -62 2899 947 4 MP stroke
c10
107 34 -111 63 4 -97 3141 919 4 MP stroke
c11
10 -104 97 49 -107 55 3350 906 4 MP stroke
c12
-102 -42 126 -50 -24 92 3141 919 4 MP stroke
c13
8 -102 100 45 -108 57 3358 804 4 MP stroke
0.25 sg
5 -100 105 39 -110 61 3255 761 4 MP stroke
c8
89 59 -117 42 28 -101 3403 1167 4 MP stroke
c9
107 -55 -7 100 -100 -45 3350 906 4 MP stroke
c10
91 56 -105 52 14 -108 3431 1066 4 MP stroke
c11
106 -53 -8 102 -98 -49 3456 853 4 MP stroke
c12
101 -48 -19 112 -82 -64 3616 1080 4 MP stroke
c13
105 -52 -10 104 -95 -52 3445 958 4 MP stroke
0.25 sg
-21 114 -80 -67 101 -47 3382 1281 4 MP stroke
c8
-24 115 -76 -69 100 -46 3592 1195 4 MP stroke
c9
71 73 -109 39 38 -112 3554 1307 4 MP stroke
c10
-38 112 -68 -73 106 -39 3554 1307 4 MP stroke
c11
19 -112 84 62 -103 50 3534 1016 4 MP stroke
c12
-101 48 24 -115 77 67 3515 1128 4 MP stroke
c13
62 78 -106 39 44 -117 3616 1385 4 MP stroke
0.25 sg
100 -45 -32 119 -68 -74 3760 1223 4 MP stroke
c8
102 -47 -20 113 -82 -66 3718 1033 4 MP stroke
c9
103 -48 -17 110 -86 -62 3739 919 4 MP stroke
c10
76 69 -102 47 26 -116 3692 1149 4 MP stroke
c11
80 67 -111 40 31 -107 3819 986 4 MP stroke
c12
82 66 -103 48 21 -114 3718 1033 4 MP stroke
c13
111 -40 -29 103 -82 -63 3850 879 4 MP stroke
0.25 sg
15 -109 89 58 -104 51 3549 907 4 MP stroke
c8
11 -105 95 52 -106 53 3456 853 4 MP stroke
c9
-87 -60 102 -49 -15 109 3549 907 4 MP stroke
c10
-89 -58 103 -50 -14 108 3445 958 4 MP stroke
c11
-11 105 -93 -54 104 -51 3445 958 4 MP stroke
c12
87 60 -104 50 17 -110 3636 967 4 MP stroke
c13
-5 100 -103 -43 108 -57 3250 861 4 MP stroke
0.25 sg
98 49 -107 55 9 -104 3456 853 4 MP stroke
c8
-110 61 6 -99 104 38 3284 573 4 MP stroke
c9
-104 -38 128 -52 -24 90 3284 573 4 MP stroke
c10
-6 99 -103 -42 109 -57 3388 611 4 MP stroke
c11
-61 77 -67 -35 128 -42 3596 600 4 MP stroke
c12
-10 94 -75 -23 85 -71 3288 476 4 MP stroke
c13
21 107 -73 -26 52 -81 3394 512 4 MP stroke
0.25 sg
-52 81 -72 -28 124 -53 3394 512 4 MP stroke
c8
-21 95 -70 -31 91 -64 3497 554 4 MP stroke
c9
8 110 -69 -33 61 -77 3596 600 4 MP stroke
c10
-32 93 -65 -37 97 -56 3692 651 4 MP stroke
c11
-122 45 25 -97 97 52 3465 749 4 MP stroke
c12
-97 -52 106 -52 -9 104 3465 749 4 MP stroke
c13
-105 53 12 -106 93 53 3587 704 4 MP stroke
0.25 sg
-93 -53 118 -44 -25 97 3587 704 4 MP stroke
c8
-61 -41 130 -32 -69 73 3852 634 4 MP stroke
c9
-91 -56 103 -50 -12 106 3692 651 4 MP stroke
c10
-21 114 -80 -67 101 -47 3718 1033 4 MP stroke
c11
-107 38 40 -113 67 75 3892 1056 4 MP stroke
c12
29 -118 71 71 -100 47 4028 900 4 MP stroke
c13
-78 -68 109 -39 -31 107 3850 879 4 MP stroke
0.25 sg
35 -121 65 75 -100 46 4099 972 4 MP stroke
c8
100 -46 -29 118 -71 -72 4099 972 4 MP stroke
c9
-6 112 -63 -39 69 -73 3783 707 4 MP stroke
c10
-101 49 19 -114 82 65 3870 767 4 MP stroke
c11
-82 -65 102 -47 -20 112 3870 767 4 MP stroke
c12
-43 92 -58 -43 101 -49 3870 767 4 MP stroke
c13
-19 114 -57 -45 76 -69 3952 832 4 MP stroke
0.25 sg
-76 69 -54 -47 130 -22 3952 832 4 MP stroke
c8
-130 22 54 -90 76 68 3952 832 4 MP stroke
c9
-52 -48 106 -42 -54 90 4082 810 4 MP stroke
c10
-76 -68 100 -47 -24 115 3952 832 4 MP stroke
c11
-44 -53 109 -34 -65 87 4229 960 4 MP stroke
c12
-65 -75 100 -46 -35 121 4099 972 4 MP stroke
c13
-35 114 -49 -51 84 -63 4099 972 4 MP stroke
0.25 sg
-109 34 50 -113 59 79 4164 1047 4 MP stroke
c8
41 -124 59 78 -100 46 4164 1047 4 MP stroke
c9
-50 113 -41 -55 91 -58 4223 1126 4 MP stroke
c10
-91 58 -38 -55 129 -3 4223 1126 4 MP stroke
c11
-73 -70 100 -47 -27 117 3819 986 4 MP stroke
c12
-74 -70 100 -46 -26 116 3718 1033 4 MP stroke
c13
-32 120 -68 -74 100 -46 3760 1223 4 MP stroke
0.25 sg
-60 -77 100 -46 -40 123 3760 1223 4 MP stroke
c8
-52 -81 152 36 -100 45 4223 1126 4 MP stroke
c9
45 -117 60 79 -105 38 4064 1093 4 MP stroke
c10
-100 46 40 -123 60 77 3760 1223 4 MP stroke
c11
-146 -39 102 -45 44 84 3971 1337 4 MP stroke
c12
-40 124 -60 -79 100 -45 3919 1255 4 MP stroke
c13
-146 -39 101 -45 45 84 4175 1252 4 MP stroke
0.25 sg
-100 45 -53 -82 153 37 3919 1255 4 MP stroke
c8
-36 -87 137 41 -101 46 4015 1421 4 MP stroke
c9
-152 -36 100 -45 52 81 4123 1171 4 MP stroke
c10
-103 40 -45 -84 148 44 4072 1292 4 MP stroke
c11
-29 -59 127 6 -98 53 4419 1238 4 MP stroke
c12
-46 -84 146 39 -100 45 4275 1207 4 MP stroke
c13
-112 27 -32 -58 144 31 4275 1207 4 MP stroke
0.25 sg
-88 79 -26 -60 114 -19 4360 1376 4 MP stroke
c8
-114 19 -22 -61 136 42 4360 1376 4 MP stroke
c9
-25 -89 129 44 -104 45 4393 1464 4 MP stroke
c10
141 46 -103 40 -38 -86 4258 1422 4 MP stroke
c11
-136 -42 103 -46 33 88 4360 1376 4 MP stroke
c12
-33 -88 135 42 -102 46 4360 1376 4 MP stroke
c13
-103 46 -20 -61 123 15 4393 1464 4 MP stroke
0.25 sg
41 85 -143 -40 102 -45 3812 1512 4 MP stroke
c8
-141 -46 104 -41 37 87 4117 1376 4 MP stroke
c9
-26 -89 130 43 -104 46 4051 1508 4 MP stroke
c10
104 -46 33 87 -137 -41 4051 1508 4 MP stroke
c11
104 -45 31 87 -135 -42 4393 1464 4 MP stroke
c12
102 -46 38 86 -140 -40 4360 1376 4 MP stroke
c13
-153 -37 101 -45 52 82 3919 1255 4 MP stroke
0.25 sg
100 -45 51 81 -151 -36 3871 1382 4 MP stroke
c8
-100 45 -44 -84 144 39 3871 1382 4 MP stroke
c9
36 87 -139 -42 103 -45 4051 1508 4 MP stroke
c10
139 42 -102 45 -37 -87 4154 1463 4 MP stroke
c11
103 -40 45 84 -148 -44 4220 1336 4 MP stroke
c12
143 40 -100 45 -43 -85 3914 1467 4 MP stroke
c13
40 -123 60 78 -100 45 3760 1223 4 MP stroke
0.25 sg
-52 -82 151 37 -99 45 3919 1255 4 MP stroke
c8
99 -45 -40 123 -59 -78 3919 1255 4 MP stroke
c9
-100 46 -51 -82 151 36 3720 1346 4 MP stroke
c10
43 85 -144 -39 101 -46 3914 1467 4 MP stroke
c11
-27 117 -73 -71 100 -46 3355 1398 4 MP stroke
c12
-62 -77 105 -39 -43 116 3355 1398 4 MP stroke
c13
53 -121 51 82 -104 39 3720 1346 4 MP stroke
0.25 sg
38 -123 62 77 -100 46 3455 1352 4 MP stroke
c8
51 82 -151 -37 100 -45 3567 1512 4 MP stroke
c9
104 -39 -44 117 -60 -78 3720 1346 4 MP stroke
c10
154 44 -105 39 -49 -83 3466 1558 4 MP stroke
c11
-50 -84 149 39 -99 45 3312 1514 4 MP stroke
c12
140 46 -104 40 -36 -86 3502 1644 4 MP stroke
c13
99 -45 -38 123 -61 -78 3516 1430 4 MP stroke
0.25 sg
129 44 -103 45 -26 -89 3631 1688 4 MP stroke
c8
101 -46 49 83 -150 -37 3567 1512 4 MP stroke
c9
-41 -85 145 45 -104 40 3771 1427 4 MP stroke
c10
-51 -82 150 37 -99 45 3516 1430 4 MP stroke
c11
-100 45 -51 -82 151 37 3516 1430 4 MP stroke
c12
-132 -43 106 -46 26 89 3605 1599 4 MP stroke
c13
-100 45 -41 -86 141 41 3567 1512 4 MP stroke
0.25 sg
-106 46 -18 -91 124 45 3631 1688 4 MP stroke
c8
13 91 -124 -45 111 -46 3644 1779 4 MP stroke
c9
119 46 -109 44 -10 -90 3874 1779 4 MP stroke
c10
15 90 -124 -45 109 -45 3986 1733 4 MP stroke
c11
106 -46 24 89 -130 -43 4077 1597 4 MP stroke
c12
-107 46 -15 -90 122 44 3864 1689 4 MP stroke
c13
121 45 -109 46 -12 -91 4216 1733 4 MP stroke
0.25 sg
-140 -46 106 -43 34 89 3362 1598 4 MP stroke
c8
-34 -89 135 44 -101 45 3362 1598 4 MP stroke
c9
-141 -41 103 -46 38 87 3567 1512 4 MP stroke
c10
-38 -87 139 41 -101 46 3567 1512 4 MP stroke
c11
-135 -46 106 -43 29 89 3708 1553 4 MP stroke
c12
-29 -89 132 43 -103 46 3708 1553 4 MP stroke
c13
-8 -91 118 47 -110 44 3523 1734 4 MP stroke
0.25 sg
-17 -91 122 45 -105 46 3396 1687 4 MP stroke
c8
-106 43 -21 -90 127 47 3396 1687 4 MP stroke
c9
8 91 -121 -45 113 -46 3531 1825 4 MP stroke
c10
-108 46 -13 -91 121 45 3523 1734 4 MP stroke
c11
0 91 -117 -46 117 -45 3644 1870 4 MP stroke
c12
0 -91 113 45 -113 46 3874 1779 4 MP stroke
c13
-6 -92 117 46 -111 46 3755 1733 4 MP stroke
0.25 sg
0 91 -117 -46 117 -45 3874 1870 4 MP stroke
c8
-112 -46 122 -44 -10 90 3874 1870 4 MP stroke
c9
-9 -91 118 46 -109 45 4095 1688 4 MP stroke
c10
-5 -92 117 46 -112 46 3986 1733 4 MP stroke
c11
113 45 -113 46 0 -91 4104 1870 4 MP stroke
c12
112 -46 9 91 -121 -45 4216 1733 4 MP stroke
c13
112 46 -117 45 5 -91 4216 1916 4 MP stroke
0.25 sg
-5 -92 117 46 -112 46 4216 1733 4 MP stroke
c8
116 -45 0 91 -116 -46 4451 1825 4 MP stroke
c9
123 46 -107 44 -16 -90 4327 1688 4 MP stroke
c10
111 -45 12 91 -123 -46 4327 1688 4 MP stroke
c11
-21 -90 127 45 -106 45 4183 1552 4 MP stroke
c12
-18 -90 125 45 -107 45 4418 1553 4 MP stroke
c13
107 -45 22 89 -129 -44 4418 1553 4 MP stroke
0.25 sg
112 -46 8 91 -120 -45 4447 1733 4 MP stroke
c8
109 -45 16 90 -125 -45 4436 1643 4 MP stroke
c9
-119 -24 108 -66 11 90 4436 1643 4 MP stroke
c10
-11 -90 120 45 -109 45 4436 1643 4 MP stroke
c11
-109 39 -10 -63 119 24 4436 1643 4 MP stroke
c12
-108 66 -7 -63 115 -3 4447 1733 4 MP stroke
c13
-118 -60 114 -32 4 92 4447 1733 4 MP stroke
0.25 sg
-4 -92 116 46 -112 46 4447 1733 4 MP stroke
c8
-114 32 0 -63 114 31 4451 1825 4 MP stroke
c9
-115 3 -3 -63 118 60 4447 1733 4 MP stroke
c10
4 -91 112 46 -116 45 4451 1825 4 MP stroke
c11
0 -91 114 45 -114 46 4335 1779 4 MP stroke
c12
-118 60 3 -63 115 3 4447 1916 4 MP stroke
c13
-103 -45 139 -42 -36 87 4051 2141 4 MP stroke
0.25 sg
117 -45 0 91 -117 -46 4221 1825 4 MP stroke
c8
-121 45 12 -91 109 46 4095 1961 4 MP stroke
c9
119 -46 -5 91 -114 -45 4335 1870 4 MP stroke
c10
-119 24 10 -63 109 39 4436 2006 4 MP stroke
c11
-16 90 -109 -45 125 -45 4311 2051 4 MP stroke
c12
-22 89 -107 -45 129 -44 4289 2140 4 MP stroke
c13
-9 91 -112 -46 121 -45 4095 1961 4 MP stroke
0.25 sg
128 -46 -21 90 -107 -44 4311 2051 4 MP stroke
c8
123 -46 -12 91 -111 -45 4327 1961 4 MP stroke
c9
-135 46 31 -87 104 41 4154 2186 4 MP stroke
c10
107 45 -125 45 18 -90 4418 2096 4 MP stroke
c11
-106 -43 135 -46 -29 89 4183 2097 4 MP stroke
c12
-25 89 -98 -74 123 -15 4393 2185 4 MP stroke
c13
-120 45 11 -90 109 45 4327 1961 4 MP stroke
0.25 sg
-18 90 -109 -39 127 -51 4418 2096 4 MP stroke
c8
-127 51 13 -63 114 12 4418 2096 4 MP stroke
c9
-141 46 38 -86 103 40 4117 2273 4 MP stroke
c10
103 46 -123 15 20 -61 4496 2231 4 MP stroke
c11
-103 -46 136 -42 -33 88 4393 2185 4 MP stroke
c12
-114 -12 16 -62 98 74 4418 2096 4 MP stroke
c13
-144 31 32 -58 112 27 4275 2442 4 MP stroke
0.25 sg
-103 -50 91 -56 12 106 3680 2892 4 MP stroke
c8
-127 6 29 -59 98 53 4321 2358 4 MP stroke
c9
140 -40 -38 86 -102 -46 4360 2273 4 MP stroke
c10
148 -44 -45 84 -103 -40 4220 2313 4 MP stroke
c11
144 -39 -43 85 -101 -46 4015 2228 4 MP stroke
c12
100 45 -146 39 46 -84 4275 2442 4 MP stroke
c13
141 -46 -37 87 -104 -41 4258 2227 4 MP stroke
0.25 sg
26 -60 88 79 -114 -19 4474 2292 4 MP stroke
c8
-101 -45 146 -39 -45 84 4220 2313 4 MP stroke
c9
101 45 -140 40 39 -85 4321 2358 4 MP stroke
c10
106 43 -128 46 22 -89 4289 2140 4 MP stroke
c11
135 -42 -31 87 -104 -45 4393 2185 4 MP stroke
c12
104 45 -129 44 25 -89 4393 2185 4 MP stroke
c13
-135 42 33 -88 102 46 4258 2227 4 MP stroke
0.25 sg
-39 85 -88 -79 127 -6 4321 2358 4 MP stroke
c8
-104 -45 135 -42 -31 87 3843 2050 4 MP stroke
c9
-144 39 44 -84 100 45 3871 2267 4 MP stroke
c10
-151 37 52 -82 99 45 3820 2349 4 MP stroke
c11
101 45 -146 39 45 -84 4072 2357 4 MP stroke
c12
37 -87 102 45 -139 42 4154 2186 4 MP stroke
c13
-26 89 -106 -45 132 -44 4051 2141 4 MP stroke
0.25 sg
-76 69 -26 -116 102 47 3616 2569 4 MP stroke
c8
100 45 -153 37 53 -82 4019 2439 4 MP stroke
c9
-100 -45 151 -37 -51 82 3871 2267 4 MP stroke
c10
-53 82 -51 -121 104 39 4019 2439 4 MP stroke
c11
-59 78 -40 -124 99 46 3860 2472 4 MP stroke
c12
-27 -117 101 47 -74 70 3792 2546 4 MP stroke
c13
-71 73 -38 -112 109 39 3483 2415 4 MP stroke
0.25 sg
-77 67 -24 -115 101 48 3515 2521 4 MP stroke
c8
-100 -45 62 -78 38 123 3516 2219 4 MP stroke
c9
-68 73 -32 -119 100 46 3592 2454 4 MP stroke
c10
-100 -45 151 -36 -51 81 3771 2222 4 MP stroke
c11
-60 77 -40 -123 100 46 3760 2426 4 MP stroke
c12
21 114 -101 -47 80 -67 3403 2482 4 MP stroke
c13
100 45 -151 37 51 -82 3616 2264 4 MP stroke
0.25 sg
106 39 -62 78 -44 -117 3660 2381 4 MP stroke
c8
-60 78 -40 -123 100 45 3660 2381 4 MP stroke
c9
-104 -40 51 -81 53 121 3667 2182 4 MP stroke
c10
-104 -39 60 -78 44 117 3616 2264 4 MP stroke
c11
41 -86 100 45 -141 41 3708 2096 4 MP stroke
c12
-34 89 -106 -43 140 -46 3362 2051 4 MP stroke
c13
143 -40 -41 85 -102 -45 3914 2182 4 MP stroke
0.25 sg
132 -43 -26 89 -106 -46 3737 2007 4 MP stroke
c8
33 -87 102 45 -135 42 3947 2095 4 MP stroke
c9
31 -87 104 41 -135 46 3843 2050 4 MP stroke
c10
-107 -46 128 -44 -21 90 3864 1960 4 MP stroke
c11
-137 41 36 -87 101 46 3914 2182 4 MP stroke
c12
-33 87 -104 -46 137 -41 3914 2182 4 MP stroke
c13
103 45 -132 44 29 -89 4154 2186 4 MP stroke
0.25 sg
-24 89 -106 -46 130 -43 3947 2095 4 MP stroke
c8
106 45 -127 45 21 -90 4183 2097 4 MP stroke
c9
15 -90 107 46 -122 44 3986 1916 4 MP stroke
c10
119 -46 -6 91 -113 -45 3874 1870 4 MP stroke
c11
106 46 -124 45 18 -91 4077 2052 4 MP stroke
c12
118 -46 -5 91 -113 -45 4104 1870 4 MP stroke
c13
-118 46 9 -91 109 45 3986 1916 4 MP stroke
0.25 sg
-18 91 -109 -46 127 -45 4077 2052 4 MP stroke
c8
141 -41 -38 87 -103 -46 3708 2096 4 MP stroke
c9
103 46 -132 43 29 -89 3708 2096 4 MP stroke
c10
10 -90 109 44 -119 46 3874 1870 4 MP stroke
c11
6 -91 111 46 -117 45 3761 1825 4 MP stroke
c12
24 -89 104 45 -128 44 3971 2006 4 MP stroke
c13
21 -90 106 43 -127 47 3864 1960 4 MP stroke
0.25 sg
30 -90 102 46 -132 44 3291 1916 4 MP stroke
c8
112 46 -112 47 0 -93 3413 1871 4 MP stroke
c9
127 -47 -17 91 -110 -44 3523 1915 4 MP stroke
c10
110 44 -118 46 8 -90 3523 1915 4 MP stroke
c11
105 39 -154 44 49 -83 3417 2174 4 MP stroke
c12
-129 44 26 -89 103 45 3502 2005 4 MP stroke
c13
-50 84 -104 -40 154 -44 3312 2135 4 MP stroke
0.25 sg
101 46 -139 41 38 -87 3567 2137 4 MP stroke
c8
-127 47 21 -90 106 43 3396 1962 4 MP stroke
c9
-36 86 -103 -45 139 -41 3466 2091 4 MP stroke
c10
101 46 -66 76 -35 -122 3248 2212 4 MP stroke
c11
145 -39 -42 84 -103 -45 3159 1960 4 MP stroke
c12
50 -84 99 45 -149 39 3362 2051 4 MP stroke
c13
101 45 -135 44 34 -89 3362 2051 4 MP stroke
0.25 sg
149 -39 -48 84 -101 -45 3362 2051 4 MP stroke
c8
108 46 -118 45 10 -91 3291 1916 4 MP stroke
c9
-127 45 24 -90 103 45 3056 1915 4 MP stroke
c10
-46 84 -102 -46 148 -38 3113 2044 4 MP stroke
c11
-118 -46 118 -45 0 91 3183 1779 4 MP stroke
c12
0 -91 112 45 -112 46 3183 1779 4 MP stroke
c13
135 -44 -30 90 -105 -46 3396 1962 4 MP stroke
0.25 sg
105 46 -122 45 17 -91 3396 1962 4 MP stroke
c8
101 47 -68 74 -33 -121 3047 2120 4 MP stroke
c9
109 47 -109 48 0 -95 2950 1872 4 MP stroke
c10
105 39 -147 45 42 -84 3014 1999 4 MP stroke
c11
121 -47 0 95 -121 -48 3071 1825 4 MP stroke
c12
-121 47 15 -90 106 43 2950 1872 4 MP stroke
c13
-106 -43 147 -45 -41 88 2950 1872 4 MP stroke
0.25 sg
-15 112 -100 -45 115 -67 2496 1982 4 MP stroke
c8
-117 -74 118 -16 -1 90 2611 2006 4 MP stroke
c9
-22 -118 106 51 -84 67 2810 1915 4 MP stroke
c10
-16 -112 115 67 -99 45 2710 1870 4 MP stroke
c11
16 112 -100 -45 84 -67 2726 1982 4 MP stroke
c12
99 45 -140 43 41 -88 2909 1960 4 MP stroke
c13
115 5 -86 85 -29 -90 2639 2186 4 MP stroke
0.25 sg
117 74 -115 24 -2 -98 2728 2080 4 MP stroke
c8
-115 -67 115 -24 0 91 2611 1915 4 MP stroke
c9
0 -91 115 24 -115 67 2611 1915 4 MP stroke
c10
-99 -45 77 -73 22 118 2810 1915 4 MP stroke
c11
-104 47 -25 -98 129 51 2728 2080 4 MP stroke
c12
-114 -40 89 -58 25 98 2832 2033 4 MP stroke
c13
-25 -89 114 -17 -89 106 2728 2080 4 MP stroke
0.25 sg
37 113 -105 -39 68 -74 2946 2073 4 MP stroke
c8
99 45 -145 39 46 -84 3113 2044 4 MP stroke
c9
-104 38 -7 -100 111 62 2753 2169 4 MP stroke
c10
100 46 -66 76 -34 -122 3147 2166 4 MP stroke
c11
94 -55 10 105 -104 -50 3066 2233 4 MP stroke
c12
98 -48 7 100 -105 -52 2962 2183 4 MP stroke
c13
108 57 -98 48 -10 -105 2972 2288 4 MP stroke
0.25 sg
104 50 -85 63 -19 -113 3066 2233 4 MP stroke
c8
-113 -66 112 -27 1 93 2755 2263 4 MP stroke
c9
-19 -112 103 50 -84 62 3281 2321 4 MP stroke
c10
-1 92 -115 -5 116 -87 2523 2273 4 MP stroke
c11
25 89 -129 -51 104 -38 2753 2169 4 MP stroke
c12
-1 91 -117 -4 118 -87 2522 2455 4 MP stroke
c13
115 -14 1 91 -116 -77 2755 2263 4 MP stroke
0.25 sg
116 77 -114 17 -2 -94 2755 2263 4 MP stroke
c8
2 94 -111 -62 109 -32 2755 2263 4 MP stroke
c9
-116 -79 116 -12 0 91 2640 2277 4 MP stroke
c10
0 -91 117 4 -117 87 2640 2277 4 MP stroke
c11
113 -23 1 92 -114 -69 2870 2425 4 MP stroke
c12
-1 -93 116 79 -115 14 2755 2263 4 MP stroke
c13
115 -11 -89 100 -26 -89 2783 2537 4 MP stroke
0.25 sg
-1 -92 117 80 -116 12 2756 2356 4 MP stroke
c8
109 -36 2 96 -111 -60 2979 2389 4 MP stroke
c9
104 -41 4 98 -108 -57 2972 2288 4 MP stroke
c10
-23 -92 132 56 -109 36 2979 2389 4 MP stroke
c11
-2 -96 114 69 -112 27 2868 2329 4 MP stroke
c12
-5 -97 112 64 -107 33 3002 2481 4 MP stroke
c13
-25 -89 138 66 -113 23 2870 2425 4 MP stroke
0.25 sg
101 -44 23 92 -124 -48 3103 2437 4 MP stroke
c8
-7 -101 111 60 -104 41 2972 2288 4 MP stroke
c9
106 53 -94 54 -12 -107 3209 2490 4 MP stroke
c10
28 102 -112 -40 84 -62 3197 2383 4 MP stroke
c11
-14 -108 105 51 -91 57 3300 2433 4 MP stroke
c12
-8 -102 109 58 -101 44 3103 2437 4 MP stroke
c13
107 53 -94 55 -13 -108 3079 2341 4 MP stroke
0.25 sg
13 108 -103 -48 90 -60 3079 2341 4 MP stroke
c8
7 101 -107 -53 100 -48 2979 2389 4 MP stroke
c9
-100 48 -24 -96 124 48 2979 2389 4 MP stroke
c10
-101 -46 79 -69 22 115 3147 2166 4 MP stroke
c11
-90 60 -28 -102 118 42 3079 2341 4 MP stroke
c12
-79 69 -33 -109 112 40 3169 2281 4 MP stroke
c13
-61 78 -38 -123 99 45 3455 2297 4 MP stroke
0.25 sg
43 116 -105 -39 62 -77 3355 2251 4 MP stroke
c8
99 45 -150 37 51 -82 3516 2219 4 MP stroke
c9
27 117 -100 -46 73 -71 3382 2368 4 MP stroke
c10
-73 71 -28 -118 101 47 3382 2368 4 MP stroke
c11
-27 -117 101 47 -74 70 3355 2251 4 MP stroke
c12
74 -70 33 109 -107 -39 3355 2251 4 MP stroke
c13
-21 -114 103 49 -82 65 3382 2368 4 MP stroke
0.25 sg
82 -65 19 112 -101 -47 3382 2368 4 MP stroke
c8
-99 -45 71 -73 28 118 3455 2297 4 MP stroke
c9
-80 67 -32 -106 112 39 3403 2482 4 MP stroke
c10
97 -49 24 94 -121 -45 3340 2639 4 MP stroke
c11
-10 -104 108 55 -98 49 3209 2490 4 MP stroke
c12
-24 -92 131 55 -107 37 3117 2638 4 MP stroke
c13
108 -34 3 96 -111 -62 3260 2986 4 MP stroke
0.25 sg
-7 -100 109 58 -102 42 3243 2688 4 MP stroke
c8
113 -22 1 93 -114 -71 3041 3047 4 MP stroke
c9
2 94 -113 -67 111 -27 3041 3047 4 MP stroke
c10
-125 -48 102 -44 23 92 3365 2946 4 MP stroke
c11
110 58 -103 43 -7 -101 3365 2946 4 MP stroke
c12
103 -43 5 100 -108 -57 3358 2845 4 MP stroke
c13
-4 -97 111 63 -107 34 3141 2730 4 MP stroke
0.25 sg
107 -37 3 97 -110 -60 3117 2638 4 MP stroke
c8
-4 -97 112 65 -108 32 3145 2827 4 MP stroke
c9
113 -18 -88 107 -25 -89 2924 2791 4 MP stroke
c10
113 67 -110 29 -3 -96 3152 3020 4 MP stroke
c11
116 82 -115 9 -1 -91 2813 2992 4 MP stroke
c12
107 -34 24 89 -131 -55 3141 2730 4 MP stroke
c13
26 89 -138 -66 112 -23 2783 2537 4 MP stroke
0.25 sg
110 60 -104 39 -6 -99 3117 2638 4 MP stroke
c8
6 99 -108 -55 102 -44 3117 2638 4 MP stroke
c9
105 -39 4 97 -109 -58 3250 2788 4 MP stroke
c10
102 -42 24 92 -126 -50 3243 2688 4 MP stroke
c11
115 82 -114 10 -1 -92 2812 2901 4 MP stroke
c12
113 67 -110 30 -3 -97 3010 2675 4 MP stroke
c13
115 73 -113 21 -2 -94 2899 2702 4 MP stroke
0.25 sg
110 -30 2 94 -112 -64 3007 2578 4 MP stroke
c8
-24 -89 135 62 -111 27 3010 2675 4 MP stroke
c9
111 -27 2 94 -113 -67 3010 2675 4 MP stroke
c10
0 91 -117 0 117 -91 2552 2730 4 MP stroke
c11
1 92 -114 -71 113 -21 2784 2629 4 MP stroke
c12
1 91 -116 -81 115 -10 2669 2639 4 MP stroke
c13
114 71 -112 23 -2 -94 2897 2608 4 MP stroke
0.25 sg
116 82 -115 10 -1 -92 2785 2721 4 MP stroke
c8
1 92 -115 -73 114 -19 2785 2721 4 MP stroke
c9
-117 91 0 -91 117 0 2552 2730 4 MP stroke
c10
-117 0 87 -91 30 91 2552 2730 4 MP stroke
c11
-115 -82 115 -9 0 91 2697 2819 4 MP stroke
c12
-115 -89 115 -2 0 91 2582 2912 4 MP stroke
c13
115 75 -113 18 -2 -93 2926 2884 4 MP stroke
0.25 sg
88 -107 26 88 -114 19 2899 2702 4 MP stroke
c8
-135 -62 110 -27 25 89 2899 2702 4 MP stroke
c9
-115 -75 114 -17 1 92 2811 2809 4 MP stroke
c10
-2 -94 113 69 -111 25 3037 2859 4 MP stroke
c11
111 -25 2 93 -113 -68 3037 2859 4 MP stroke
c12
115 77 -114 16 -1 -93 2928 3069 4 MP stroke
c13
112 -23 1 92 -113 -69 3039 2953 4 MP stroke
0.25 sg
116 -3 -88 92 -28 -89 2726 3181 4 MP stroke
c8
116 82 -116 9 0 -91 2813 3083 4 MP stroke
c9
-27 -89 114 -9 -87 98 2813 3083 4 MP stroke
c10
-116 -88 116 -3 0 91 2610 3184 4 MP stroke
c11
115 -14 0 91 -115 -77 2928 3069 4 MP stroke
c12
114 -16 1 91 -115 -75 2927 2976 4 MP stroke
c13
88 -92 29 91 -117 1 2698 3092 4 MP stroke
0.25 sg
116 89 -115 2 -1 -91 2698 3092 4 MP stroke
c8
-1 91 -116 -6 117 -85 2465 3088 4 MP stroke
c9
-1 90 -116 -89 117 -1 2581 3093 4 MP stroke
c10
-116 -82 116 -9 0 91 2697 2910 4 MP stroke
c11
0 -91 115 89 -115 2 2697 2910 4 MP stroke
c12
-55 93 -25 -90 80 -3 2671 3365 4 MP stroke
c13
-115 88 0 -91 115 3 2495 3272 4 MP stroke
0.25 sg
-20 90 -61 -90 81 0 2590 3365 4 MP stroke
c8
-116 3 0 -91 116 88 2610 3184 4 MP stroke
c9
-116 3 55 -93 61 90 2610 3275 4 MP stroke
c10
45 -98 69 84 -114 14 2955 3249 4 MP stroke
c11
105 84 -115 9 10 -93 2831 3356 4 MP stroke
c12
-10 93 -69 -84 79 -9 2831 3356 4 MP stroke
c13
-113 -74 79 -13 34 87 2955 3249 4 MP stroke
0.25 sg
-78 -78 78 -16 0 94 3068 3229 4 MP stroke
c8
76 -19 -33 103 -43 -84 3222 3288 4 MP stroke
c9
-2 -93 114 72 -112 21 3066 3136 4 MP stroke
c10
27 89 -115 14 88 -103 2840 3172 4 MP stroke
c11
114 71 -112 23 -2 -94 3041 3047 4 MP stroke
c12
113 -20 1 92 -114 -72 3068 3229 4 MP stroke
c13
112 -21 26 88 -138 -67 3066 3136 4 MP stroke
0.25 sg
138 67 -113 22 -25 -89 3066 3136 4 MP stroke
c8
25 89 -135 -62 110 -27 3066 3136 4 MP stroke
c9
135 62 -111 27 -24 -89 3176 3109 4 MP stroke
c10
-108 34 -24 -90 132 56 3152 3020 4 MP stroke
c11
-106 36 -5 -98 111 62 3149 2924 4 MP stroke
c12
-132 -56 108 -33 24 89 3152 3020 4 MP stroke
c13
-128 -52 104 -38 24 90 3260 2986 4 MP stroke
0.25 sg
-112 -64 109 -31 3 95 3176 3109 4 MP stroke
c8
-10 -94 119 63 -109 31 3288 3173 4 MP stroke
c9
-3 -95 113 68 -110 27 3176 3109 4 MP stroke
c10
-119 -63 76 -21 43 84 3179 3204 4 MP stroke
c11
75 -23 10 94 -85 -71 3373 3244 4 MP stroke
c12
106 -36 4 97 -110 -61 3394 3137 4 MP stroke
c13
-52 -81 73 -26 -21 107 3394 3137 4 MP stroke
0.25 sg
91 64 -99 46 8 -110 3588 3159 4 MP stroke
c8
-102 44 -7 -101 109 57 3388 3038 4 MP stroke
c9
-91 56 -27 -100 118 44 3562 2848 4 MP stroke
c10
65 -37 32 93 -97 -56 3789 3054 4 MP stroke
c11
-105 -53 96 -51 9 104 3587 2945 4 MP stroke
c12
-88 59 -15 -109 103 50 3680 2892 4 MP stroke
c13
61 77 -128 -42 67 -35 3657 3126 4 MP stroke
0.25 sg
-96 51 -32 -93 128 42 3596 3049 4 MP stroke
c8
63 -39 6 112 -69 -73 3852 3015 4 MP stroke
c9
-107 -55 100 -46 7 101 3358 2845 4 MP stroke
c10
-105 40 -23 -92 128 52 3260 2986 4 MP stroke
c11
-100 46 -25 -94 125 48 3365 2946 4 MP stroke
c12
-109 -57 103 -42 6 99 3388 3038 4 MP stroke
c13
124 53 -103 42 -21 -95 3518 3190 4 MP stroke
0.25 sg
21 95 -91 -64 70 -31 3518 3190 4 MP stroke
c8
-105 -52 95 -52 10 104 3340 2639 4 MP stroke
c9
-100 45 -8 -102 108 57 3250 2788 4 MP stroke
c10
-17 -110 104 50 -87 60 3636 2682 4 MP stroke
c11
87 -60 15 109 -102 -49 3636 2682 4 MP stroke
c12
25 94 -122 -45 97 -49 3490 2994 4 MP stroke
c13
91 -56 13 106 -104 -50 3653 2792 4 MP stroke
0.25 sg
91 -56 26 98 -117 -42 3431 2583 4 MP stroke
c8
89 -59 14 108 -103 -49 3403 2482 4 MP stroke
c9
105 52 -91 56 -14 -108 3445 2691 4 MP stroke
c10
14 108 -103 -50 89 -58 3445 2691 4 MP stroke
c11
-101 -48 82 -64 19 112 3515 2521 4 MP stroke
c12
-89 58 -15 -109 104 51 3445 2691 4 MP stroke
c13
25 97 -118 -44 93 -53 3587 2945 4 MP stroke
0.25 sg
29 103 -111 -40 82 -63 3768 2833 4 MP stroke
c8
-100 -46 74 -70 26 116 3692 2500 4 MP stroke
c9
-82 66 -21 -114 103 48 3636 2682 4 MP stroke
c10
-31 -107 111 40 -80 67 3819 2663 4 MP stroke
c11
-103 -48 86 -62 17 110 3636 2682 4 MP stroke
c12
-97 52 -25 -97 122 45 3465 2900 4 MP stroke
c13
-97 49 -9 -104 106 55 3490 2994 4 MP stroke
0.25 sg
-115 -41 88 -59 27 100 3653 2792 4 MP stroke
c8
-93 53 -12 -106 105 53 3587 2945 4 MP stroke
c9
97 56 -91 56 -6 -112 3789 3054 4 MP stroke
c10
87 -60 15 109 -102 -49 3870 2882 4 MP stroke
c11
-100 -47 73 -70 27 117 3792 2546 4 MP stroke
c12
-101 -47 80 -67 21 114 3718 2616 4 MP stroke
c13
-40 -113 107 38 -67 75 3959 2518 4 MP stroke
0.25 sg
67 -75 32 121 -99 -46 3959 2518 4 MP stroke
c8
-45 -117 105 38 -60 79 4019 2439 4 MP stroke
c9
130 32 -87 60 -43 -92 3913 2974 4 MP stroke
c10
-32 -121 100 47 -68 74 3860 2472 4 MP stroke
c11
68 -74 32 120 -100 -46 3860 2472 4 MP stroke
c12
65 -75 40 113 -105 -38 4064 2556 4 MP stroke
c13
60 -79 40 124 -100 -45 4019 2439 4 MP stroke
0.25 sg
100 46 -65 75 -35 -121 4099 2677 4 MP stroke
c8
100 45 -152 36 52 -81 4223 2523 4 MP stroke
c9
-59 79 -50 -113 109 34 4164 2602 4 MP stroke
c10
129 3 -52 81 -77 -84 4352 2526 4 MP stroke
c11
-129 -3 38 -55 91 58 4223 2523 4 MP stroke
c12
-112 -27 35 -57 77 84 4275 2442 4 MP stroke
c13
-71 71 -29 -118 100 47 3928 2702 4 MP stroke
0.25 sg
-100 -47 76 -68 24 115 3928 2702 4 MP stroke
c8
-100 -45 59 -79 41 124 4123 2478 4 MP stroke
c9
-130 -12 46 -51 84 63 4099 2677 4 MP stroke
c10
-91 -58 41 -55 50 113 4223 2523 4 MP stroke
c11
-84 -63 49 -51 35 114 4099 2677 4 MP stroke
c12
-65 -87 130 12 -65 75 4164 2602 4 MP stroke
c13
-109 -34 44 -53 65 87 4164 2602 4 MP stroke
0.25 sg
-107 -38 71 -71 36 109 3892 2593 4 MP stroke
c8
-78 68 -24 -115 102 47 3850 2770 4 MP stroke
c9
54 -47 76 69 -130 -22 4082 2839 4 MP stroke
c10
-102 -47 82 -65 20 112 3850 2770 4 MP stroke
c11
-35 -114 106 42 -71 72 4099 2677 4 MP stroke
c12
71 -72 29 118 -100 -46 4099 2677 4 MP stroke
c13
61 -41 69 73 -130 -32 3913 2974 4 MP stroke
0.25 sg
58 -43 43 92 -101 -49 3971 2931 4 MP stroke
c8
-19 -114 101 49 -82 65 3952 2817 4 MP stroke
c9
-76 -69 57 -45 19 114 3952 2817 4 MP stroke
c10
-54 -90 130 22 -76 68 4028 2749 4 MP stroke
c11
-106 -42 52 -48 54 90 4028 2749 4 MP stroke
gr

c11

end %%Color Dict

eplot
%%EndObject

epage
end

showpage

%%Trailer
%%EOF
